Start Time : 2017-10-12 16:33:35.951002
Total Prediction Points:74
LINUX1_CPU_UTIL Prediction Time:52.83047437667847,Average Time:0.7139253294145739
Total Time for LINUX1_CPU_UTIL 52.834476709365845
LINUX1_DISK_IOREAD Prediction Time:94.58482074737549,Average Time:1.278173253342912
Total Time for LINUX1_DISK_IOREAD 94.58782315254211
LINUX1_DISK_IOWRITE Prediction Time:196.9693958759308,Average Time:2.6617485929179834
Total Time for LINUX1_DISK_IOWRITE 196.97339868545532
LINUX1_MEM_UTIL Prediction Time:80.80899167060852,Average Time:1.092013400954169
Total Time for LINUX1_MEM_UTIL 80.81301355361938
APACHE1_BUSY_WORKERS Prediction Time:911.8713500499725,Average Time:12.322585811486116
Total Time for APACHE1_BUSY_WORKERS 911.8753533363342
APACHE1_CPU_LOAD Prediction Time:213.36218404769897,Average Time:2.8832727574013375
Total Time for APACHE1_CPU_LOAD 213.3671875
APACHE1_IDLE_WORKERS Prediction Time:203.8420286178589,Average Time:2.7546220083494446
Total Time for APACHE1_IDLE_WORKERS 203.84603333473206
APACHE1_TOTAL_ACCESSES Prediction Time:572.8329277038574,Average Time:7.740985509511587
Total Time for APACHE1_TOTAL_ACCESSES 572.8369324207306
APACHE1_TOTAL_KBYTES_PER_REQUEST Prediction Time:37.145896673202515,Average Time:0.5019715766648989
Total Time for APACHE1_TOTAL_KBYTES_PER_REQUEST 37.14889931678772
APACHE1_TOTAL_KBYTES_SERVED Prediction Time:579.118322134018,Average Time:7.825923272081323
Total Time for APACHE1_TOTAL_KBYTES_SERVED 579.1223251819611
APACHE1_TOTAL_REQUESTS Prediction Time:97.01268768310547,Average Time:1.3109822659879118
Total Time for APACHE1_TOTAL_REQUESTS 97.0136890411377
IBM1_CONNECTIONPOOL_CLOSECOUNT Prediction Time:62.71758818626404,Average Time:0.8475349754900545
Total Time for IBM1_CONNECTIONPOOL_CLOSECOUNT 62.72059082984924
IBM1_CONNECTIONPOOL_CREATECOUNT Prediction Time:61.02228760719299,Average Time:0.8246255082053107
Total Time for IBM1_CONNECTIONPOOL_CREATECOUNT 61.025290727615356
IBM1_CONNECTIONPOOL_FREEPOOLSIZE Prediction Time:86.19923758506775,Average Time:1.164854561960375
Total Time for IBM1_CONNECTIONPOOL_FREEPOOLSIZE 86.20224022865295
IBM1_CONNECTIONPOOL_PERCENTUSED Prediction Time:107.3003089427948,Average Time:1.4500041749026324
Total Time for IBM1_CONNECTIONPOOL_PERCENTUSED 107.30431127548218
IBM1_CONNECTIONPOOL_POOLSIZE Prediction Time:58.183340549468994,Average Time:0.7862613587766081
Total Time for IBM1_CONNECTIONPOOL_POOLSIZE 58.18734312057495
IBM1_CONNECTIONPOOL_USETIME Prediction Time:84.77383232116699,Average Time:1.1455923286644187
Total Time for IBM1_CONNECTIONPOOL_USETIME 84.77783465385437
IBM1_CONNECTIONPOOL_WAITTIME Prediction Time:54.32285833358765,Average Time:0.7340926801836168
Total Time for IBM1_CONNECTIONPOOL_WAITTIME 54.32687973976135
IBM1_JVM_CPUUSAGE Prediction Time:51.90810012817383,Average Time:0.7014608125428896
Total Time for IBM1_JVM_CPUUSAGE 51.911118268966675
IBM1_JVM_HEAPSIZE Prediction Time:53.1849308013916,Average Time:0.7187152810998865
Total Time for IBM1_JVM_HEAPSIZE 53.18893361091614
IBM1_JVM_USEDMEMORY Prediction Time:49.589107513427734,Average Time:0.6701230745057802
Total Time for IBM1_JVM_USEDMEMORY 49.59311079978943
IBM1_THREADPOOL_ACTIVECOUNT Prediction Time:137.34725284576416,Average Time:1.8560439573751915
Total Time for IBM1_THREADPOOL_ACTIVECOUNT 137.35426139831543
IBM1_THREADPOOL_POOLSIZE Prediction Time:129.29321599006653,Average Time:1.7472056214873855
Total Time for IBM1_THREADPOOL_POOLSIZE 129.29721975326538
IBM1_TOTAL_SESSIONS_CREATED Prediction Time:65.5546715259552,Average Time:0.8858739395399351
Total Time for IBM1_TOTAL_SESSIONS_CREATED 65.55865526199341
IBM1_TOTAL_SESSIONS_INVALIDATED Prediction Time:65.25228691101074,Average Time:0.8817876609596046
Total Time for IBM1_TOTAL_SESSIONS_INVALIDATED 65.25727081298828
IBM1_TOTAL_SESSIONS_LIVE Prediction Time:847.129566192627,Average Time:11.447696840440905
Total Time for IBM1_TOTAL_SESSIONS_LIVE 847.132568359375
IBM1_TOTAL_TRANSACTIONS_COMMITTED Prediction Time:225.37871861457825,Average Time:3.045658359656463
Total Time for IBM1_TOTAL_TRANSACTIONS_COMMITTED 225.38272190093994
IBM1_TOTAL_TRANSACTIONS_ROLLEDBACK Prediction Time:73.03566241264343,Average Time:0.986968410981668
Total Time for IBM1_TOTAL_TRANSACTIONS_ROLLEDBACK 73.03966641426086
ORACLE1_BYTES_RECEIVED Prediction Time:338.4462788105011,Average Time:4.573598362304069
Total Time for ORACLE1_BYTES_RECEIVED 338.4502811431885
ORACLE1_BYTES_SENT Prediction Time:351.04512071609497,Average Time:4.743852982649932
Total Time for ORACLE1_BYTES_SENT 351.04910707473755
ORACLE1_CACHE_HITRATIO Prediction Time:51.5083544254303,Average Time:0.696058843586896
Total Time for ORACLE1_CACHE_HITRATIO 51.51336050033569
ORACLE1_CPU_USAGE Prediction Time:86.82317733764648,Average Time:1.173286180238466
Total Time for ORACLE1_CPU_USAGE 86.82617998123169
ORACLE1_CURRENT_LOGONS Prediction Time:60.120251417160034,Average Time:0.8124358299616221
Total Time for ORACLE1_CURRENT_LOGONS 60.12425422668457
ORACLE1_CURRENT_OPEN_CURSORS Prediction Time:292.9233441352844,Average Time:3.9584235693957353
Total Time for ORACLE1_CURRENT_OPEN_CURSORS 292.9273464679718
ORACLE1_EXECUTE_COUNT Prediction Time:394.6836643218994,Average Time:5.333563031377019
Total Time for ORACLE1_EXECUTE_COUNT 394.6876676082611
ORACLE1_HARD_PARSECOUNT Prediction Time:345.69586086273193,Average Time:4.6715656873342155
Total Time for ORACLE1_HARD_PARSECOUNT 345.69986367225647
ORACLE1_LOCKS_WAITS Prediction Time:170.5435130596161,Average Time:2.3046420683731905
Total Time for ORACLE1_LOCKS_WAITS 170.54751586914062
ORACLE1_LOGICAL_READS Prediction Time:274.81925892829895,Average Time:3.713773769301337
Total Time for ORACLE1_LOGICAL_READS 274.8232650756836
ORACLE1_NUMBEROF_SESSIONS Prediction Time:354.47806310653687,Average Time:4.790244096034282
Total Time for ORACLE1_NUMBEROF_SESSIONS 354.48206639289856
ORACLE1_PHYSICAL_READS Prediction Time:44.92525625228882,Average Time:0.6070980574633624
Total Time for ORACLE1_PHYSICAL_READS 44.929258823394775
ORACLE1_PHYSICAL_WRITES Prediction Time:228.2684199810028,Average Time:3.0847083781216598
Total Time for ORACLE1_PHYSICAL_WRITES 228.2724232673645
ORACLE1_SORTS_DISK Prediction Time:46.87645769119263,Average Time:0.6334656444755761
Total Time for ORACLE1_SORTS_DISK 46.87946081161499
ORACLE1_SORTS_ROWS Prediction Time:52.420249938964844,Average Time:0.7083817559319574
Total Time for ORACLE1_SORTS_ROWS 52.42425298690796
ORACLE1_TABLESCANS_LONG Prediction Time:43.03125619888306,Average Time:0.5815034621470684
Total Time for ORACLE1_TABLESCANS_LONG 43.0342583656311
ORACLE1_TABLESCANS_SHORT Prediction Time:681.6873922348022,Average Time:9.211991786956787
Total Time for ORACLE1_TABLESCANS_SHORT 681.6903944015503
ORACLE1_USER_CALLS Prediction Time:1319.936809539795,Average Time:17.83698391269993
Total Time for ORACLE1_USER_CALLS 1319.9408123493195
ORACLE1_USER_COMMITS Prediction Time:194.86064648628235,Average Time:2.633251979544356
Total Time for ORACLE1_USER_COMMITS 194.86564946174622
ORACLE1_USER_ROLLBACKS Prediction Time:74.20803880691528,Average Time:1.002811335228585
Total Time for ORACLE1_USER_ROLLBACKS 74.21204137802124
Total Time Taken: 10668.226250886917
End Time : 2017-10-12 19:31:24.177253
