CompId,Name,Colltab,Layer,App_Id
3,LINUX2,WebsphereMetricsCOLL,App_Layer,4
4,LINUX3,ApacheMetricsCOLL,Web_Layer,4
5,LINUX4,LinuxHostMetricsCOLL,Host,4
15,LINUX14,OracleMetricsCOLL,DB_Layer,4
15,AFI,TRANSACTIONCOLL,TXN,4
9,All_BulkUploads,TRANSACTIONCOLL,TXN,4
10,FTI,TRANSACTIONCOLL,TXN,4
11,HACCBAL,TRANSACTIONCOLL,TXN,4
12,HACLI,TRANSACTIONCOLL,TXN,4
13,HACM,TRANSACTIONCOLL,TXN,4
53,HACZDB,TRANSACTIONCOLL,TXN,4
36,HCAAC,TRANSACTIONCOLL,TXN,4
54,HCAACTD,TRANSACTIONCOLL,TXN,4
52,HCACC,TRANSACTIONCOLL,TXN,4
21,HDDBP,TRANSACTIONCOLL,TXN,4
37,HDDC,TRANSACTIONCOLL,TXN,4
41,HDDD,TRANSACTIONCOLL,TXN,4
39,HDDMI,TRANSACTIONCOLL,TXN,4
38,HDDMP,TRANSACTIONCOLL,TXN,4
24,HDDPRPT,TRANSACTIONCOLL,TXN,4
23,HDTPRPT,TRANSACTIONCOLL,TXN,4
42,HICHB,TRANSACTIONCOLL,TXN,4
45,HICTM,TRANSACTIONCOLL,TXN,4
48,HOAACCA,TRANSACTIONCOLL,TXN,4
50,HOAACOD,TRANSACTIONCOLL,TXN,4
51,HOAACSB,TRANSACTIONCOLL,TXN,4
16,HPBP,TRANSACTIONCOLL,TXN,4
18,HPORDM,TRANSACTIONCOLL,TXN,4
20,HSAC,TRANSACTIONCOLL,TXN,4
19,HUPM,TRANSACTIONCOLL,TXN,4
7,LOGIN,TRANSACTIONCOLL,TXN,4
8,LOGOUT,TRANSACTIONCOLL,TXN,4
44,OCLODGE,TRANSACTIONCOLL,TXN,4
22,PISP,TRANSACTIONCOLL,TXN,4
14,TM,TRANSACTIONCOLL,TXN,4
