Start Time : 2017-10-18 15:44:21.727810
Txn_BANKAWAY_index12_AvgRespTime Linear_Regression Prediction Total Time:1.421875,Average Time:0.009479166666666667
Time Taken For: Txn_BANKAWAY_index12_AvgRespTime is 1.640625
Txn_BANKAWAY_index12_SlowPercentage Linear_Regression Prediction Total Time:1.46875,Average Time:0.009791666666666667
Time Taken For: Txn_BANKAWAY_index12_SlowPercentage is 1.65625
Txn_BANKAWAY_index12_Total Linear_Regression Prediction Total Time:1.53125,Average Time:0.010208333333333333
Time Taken For: Txn_BANKAWAY_index12_Total is 1.71875
Txn_BANKAWAY_index14_AvgRespTime Linear_Regression Prediction Total Time:1.4375,Average Time:0.009583333333333333
Time Taken For: Txn_BANKAWAY_index14_AvgRespTime is 1.625
Txn_BANKAWAY_index14_SlowPercentage Linear_Regression Prediction Total Time:1.609375,Average Time:0.010729166666666666
Time Taken For: Txn_BANKAWAY_index14_SlowPercentage is 1.796875
Txn_BANKAWAY_index14_Total Linear_Regression Prediction Total Time:1.53125,Average Time:0.010208333333333333
Time Taken For: Txn_BANKAWAY_index14_Total is 1.71875
Txn_BANKAWAY_index15_AvgRespTime Linear_Regression Prediction Total Time:1.453125,Average Time:0.0096875
Time Taken For: Txn_BANKAWAY_index15_AvgRespTime is 1.640625
Txn_BANKAWAY_index15_SlowPercentage Linear_Regression Prediction Total Time:1.515625,Average Time:0.010104166666666666
Time Taken For: Txn_BANKAWAY_index15_SlowPercentage is 1.703125
Txn_BANKAWAY_index15_Total Linear_Regression Prediction Total Time:1.53125,Average Time:0.010208333333333333
Time Taken For: Txn_BANKAWAY_index15_Total is 1.71875
Txn_BANKAWAY_index16_AvgRespTime Linear_Regression Prediction Total Time:1.53125,Average Time:0.010208333333333333
Time Taken For: Txn_BANKAWAY_index16_AvgRespTime is 1.734375
Txn_BANKAWAY_index16_SlowPercentage Linear_Regression Prediction Total Time:1.515625,Average Time:0.010104166666666666
Time Taken For: Txn_BANKAWAY_index16_SlowPercentage is 1.671875
Txn_BANKAWAY_index16_Total Linear_Regression Prediction Total Time:1.484375,Average Time:0.009895833333333333
Time Taken For: Txn_BANKAWAY_index16_Total is 1.703125
Txn_BANKAWAY_index17_AvgRespTime Linear_Regression Prediction Total Time:1.546875,Average Time:0.0103125
Time Taken For: Txn_BANKAWAY_index17_AvgRespTime is 1.703125
Txn_BANKAWAY_index17_SlowPercentage Linear_Regression Prediction Total Time:1.46875,Average Time:0.009791666666666667
Time Taken For: Txn_BANKAWAY_index17_SlowPercentage is 1.6875
Txn_BANKAWAY_index17_Total Linear_Regression Prediction Total Time:1.484375,Average Time:0.009895833333333333
Time Taken For: Txn_BANKAWAY_index17_Total is 1.671875
Txn_BANKAWAY_index18_AvgRespTime Linear_Regression Prediction Total Time:1.46875,Average Time:0.009791666666666667
Time Taken For: Txn_BANKAWAY_index18_AvgRespTime is 1.65625
Txn_BANKAWAY_index18_SlowPercentage Linear_Regression Prediction Total Time:1.5,Average Time:0.01
Time Taken For: Txn_BANKAWAY_index18_SlowPercentage is 1.6875
Txn_BANKAWAY_index18_Total Linear_Regression Prediction Total Time:1.46875,Average Time:0.009791666666666667
Time Taken For: Txn_BANKAWAY_index18_Total is 1.65625
Txn_BANKAWAY_index19_AvgRespTime Linear_Regression Prediction Total Time:1.515625,Average Time:0.010104166666666666
Time Taken For: Txn_BANKAWAY_index19_AvgRespTime is 1.703125
Txn_BANKAWAY_index19_SlowPercentage Linear_Regression Prediction Total Time:1.5,Average Time:0.01
Time Taken For: Txn_BANKAWAY_index19_SlowPercentage is 1.6875
Txn_BANKAWAY_index19_Total Linear_Regression Prediction Total Time:1.5,Average Time:0.01
Time Taken For: Txn_BANKAWAY_index19_Total is 1.6875
Txn_BANKAWAY_index20_AvgRespTime Linear_Regression Prediction Total Time:1.5,Average Time:0.01
Time Taken For: Txn_BANKAWAY_index20_AvgRespTime is 1.6875
Txn_BANKAWAY_index20_SlowPercentage Linear_Regression Prediction Total Time:1.5,Average Time:0.01
Time Taken For: Txn_BANKAWAY_index20_SlowPercentage is 1.6875
Txn_BANKAWAY_index20_Total Linear_Regression Prediction Total Time:1.46875,Average Time:0.009791666666666667
Time Taken For: Txn_BANKAWAY_index20_Total is 1.65625
Txn_BANKAWAY_index21_AvgRespTime Linear_Regression Prediction Total Time:1.453125,Average Time:0.0096875
Time Taken For: Txn_BANKAWAY_index21_AvgRespTime is 1.609375
Txn_BANKAWAY_index21_SlowPercentage Linear_Regression Prediction Total Time:1.484375,Average Time:0.009895833333333333
Time Taken For: Txn_BANKAWAY_index21_SlowPercentage is 1.703125
Txn_BANKAWAY_index21_Total Linear_Regression Prediction Total Time:1.46875,Average Time:0.009791666666666667
Time Taken For: Txn_BANKAWAY_index21_Total is 1.65625
Txn_BANKAWAY_index22_AvgRespTime Linear_Regression Prediction Total Time:1.5,Average Time:0.01
Time Taken For: Txn_BANKAWAY_index22_AvgRespTime is 1.6875
Txn_BANKAWAY_index22_SlowPercentage Linear_Regression Prediction Total Time:1.5,Average Time:0.01
Time Taken For: Txn_BANKAWAY_index22_SlowPercentage is 1.6875
Txn_BANKAWAY_index22_Total Linear_Regression Prediction Total Time:1.5,Average Time:0.01
Time Taken For: Txn_BANKAWAY_index22_Total is 1.6875
Txn_BANKAWAY_index24_AvgRespTime Linear_Regression Prediction Total Time:1.484375,Average Time:0.009895833333333333
Time Taken For: Txn_BANKAWAY_index24_AvgRespTime is 1.65625
Txn_BANKAWAY_index24_SlowPercentage Linear_Regression Prediction Total Time:1.46875,Average Time:0.009791666666666667
Time Taken For: Txn_BANKAWAY_index24_SlowPercentage is 1.65625
Txn_BANKAWAY_index24_Total Linear_Regression Prediction Total Time:1.484375,Average Time:0.009895833333333333
Time Taken For: Txn_BANKAWAY_index24_Total is 1.6875
Txn_BANKAWAY_index25_AvgRespTime Linear_Regression Prediction Total Time:1.4375,Average Time:0.009583333333333333
Time Taken For: Txn_BANKAWAY_index25_AvgRespTime is 1.625
Txn_BANKAWAY_index25_SlowPercentage Linear_Regression Prediction Total Time:1.46875,Average Time:0.009791666666666667
Time Taken For: Txn_BANKAWAY_index25_SlowPercentage is 1.640625
Txn_BANKAWAY_index25_Total Linear_Regression Prediction Total Time:1.484375,Average Time:0.009895833333333333
Time Taken For: Txn_BANKAWAY_index25_Total is 1.671875
Txn_BANKAWAY_index27_AvgRespTime Linear_Regression Prediction Total Time:1.46875,Average Time:0.009791666666666667
Time Taken For: Txn_BANKAWAY_index27_AvgRespTime is 1.6875
Txn_BANKAWAY_index27_SlowPercentage Linear_Regression Prediction Total Time:1.46875,Average Time:0.009791666666666667
Time Taken For: Txn_BANKAWAY_index27_SlowPercentage is 1.6875
Txn_BANKAWAY_index27_Total Linear_Regression Prediction Total Time:1.5,Average Time:0.01
Time Taken For: Txn_BANKAWAY_index27_Total is 1.6875
Txn_BANKAWAY_index29_AvgRespTime Linear_Regression Prediction Total Time:1.484375,Average Time:0.009895833333333333
Time Taken For: Txn_BANKAWAY_index29_AvgRespTime is 1.671875
Txn_BANKAWAY_index29_SlowPercentage Linear_Regression Prediction Total Time:1.484375,Average Time:0.009895833333333333
Time Taken For: Txn_BANKAWAY_index29_SlowPercentage is 1.640625
Txn_BANKAWAY_index29_Total Linear_Regression Prediction Total Time:1.484375,Average Time:0.009895833333333333
Time Taken For: Txn_BANKAWAY_index29_Total is 1.671875
Txn_BANKAWAY_index30_AvgRespTime Linear_Regression Prediction Total Time:1.5,Average Time:0.01
Time Taken For: Txn_BANKAWAY_index30_AvgRespTime is 1.6875
Txn_BANKAWAY_index30_SlowPercentage Linear_Regression Prediction Total Time:1.46875,Average Time:0.009791666666666667
Time Taken For: Txn_BANKAWAY_index30_SlowPercentage is 1.65625
Txn_BANKAWAY_index30_Total Linear_Regression Prediction Total Time:1.53125,Average Time:0.010208333333333333
Time Taken For: Txn_BANKAWAY_index30_Total is 1.6875
Txn_BANKAWAY_index33_AvgRespTime Linear_Regression Prediction Total Time:1.453125,Average Time:0.0096875
Time Taken For: Txn_BANKAWAY_index33_AvgRespTime is 1.671875
Txn_BANKAWAY_index33_SlowPercentage Linear_Regression Prediction Total Time:1.46875,Average Time:0.009791666666666667
Time Taken For: Txn_BANKAWAY_index33_SlowPercentage is 1.65625
Txn_BANKAWAY_index33_Total Linear_Regression Prediction Total Time:1.515625,Average Time:0.010104166666666666
Time Taken For: Txn_BANKAWAY_index33_Total is 1.703125
Txn_BANKAWAY_index34_AvgRespTime Linear_Regression Prediction Total Time:1.484375,Average Time:0.009895833333333333
Time Taken For: Txn_BANKAWAY_index34_AvgRespTime is 1.640625
Txn_BANKAWAY_index34_SlowPercentage Linear_Regression Prediction Total Time:1.53125,Average Time:0.010208333333333333
Time Taken For: Txn_BANKAWAY_index34_SlowPercentage is 1.71875
Txn_BANKAWAY_index34_Total Linear_Regression Prediction Total Time:1.5,Average Time:0.01
Time Taken For: Txn_BANKAWAY_index34_Total is 1.6875
Txn_BANKAWAY_index36_AvgRespTime Linear_Regression Prediction Total Time:1.53125,Average Time:0.010208333333333333
Time Taken For: Txn_BANKAWAY_index36_AvgRespTime is 1.71875
Txn_BANKAWAY_index36_SlowPercentage Linear_Regression Prediction Total Time:1.4375,Average Time:0.009583333333333333
Time Taken For: Txn_BANKAWAY_index36_SlowPercentage is 1.625
Txn_BANKAWAY_index36_Total Linear_Regression Prediction Total Time:1.5,Average Time:0.01
Time Taken For: Txn_BANKAWAY_index36_Total is 1.6875
Txn_BANKAWAY_index37_AvgRespTime Linear_Regression Prediction Total Time:1.46875,Average Time:0.009791666666666667
Time Taken For: Txn_BANKAWAY_index37_AvgRespTime is 1.65625
Txn_BANKAWAY_index37_SlowPercentage Linear_Regression Prediction Total Time:1.5,Average Time:0.01
Time Taken For: Txn_BANKAWAY_index37_SlowPercentage is 1.6875
Txn_BANKAWAY_index37_Total Linear_Regression Prediction Total Time:1.5,Average Time:0.01
Time Taken For: Txn_BANKAWAY_index37_Total is 1.6875
Txn_BANKAWAY_index38_AvgRespTime Linear_Regression Prediction Total Time:1.46875,Average Time:0.009791666666666667
Time Taken For: Txn_BANKAWAY_index38_AvgRespTime is 1.625
Txn_BANKAWAY_index38_SlowPercentage Linear_Regression Prediction Total Time:1.5,Average Time:0.01
Time Taken For: Txn_BANKAWAY_index38_SlowPercentage is 1.6875
Txn_BANKAWAY_index38_Total Linear_Regression Prediction Total Time:1.484375,Average Time:0.009895833333333333
Time Taken For: Txn_BANKAWAY_index38_Total is 1.671875
Txn_BANKAWAY_index39_AvgRespTime Linear_Regression Prediction Total Time:1.5625,Average Time:0.010416666666666666
Time Taken For: Txn_BANKAWAY_index39_AvgRespTime is 1.75
Txn_BANKAWAY_index39_SlowPercentage Linear_Regression Prediction Total Time:1.46875,Average Time:0.009791666666666667
Time Taken For: Txn_BANKAWAY_index39_SlowPercentage is 1.625
Txn_BANKAWAY_index39_Total Linear_Regression Prediction Total Time:1.484375,Average Time:0.009895833333333333
Time Taken For: Txn_BANKAWAY_index39_Total is 1.671875
Txn_BANKAWAY_index3_AvgRespTime Linear_Regression Prediction Total Time:1.4375,Average Time:0.009583333333333333
Time Taken For: Txn_BANKAWAY_index3_AvgRespTime is 1.625
Txn_BANKAWAY_index3_SlowPercentage Linear_Regression Prediction Total Time:1.5,Average Time:0.01
Time Taken For: Txn_BANKAWAY_index3_SlowPercentage is 1.6875
Txn_BANKAWAY_index3_Total Linear_Regression Prediction Total Time:1.46875,Average Time:0.009791666666666667
Time Taken For: Txn_BANKAWAY_index3_Total is 1.65625
Txn_BANKAWAY_index52_AvgRespTime Linear_Regression Prediction Total Time:1.484375,Average Time:0.009895833333333333
Time Taken For: Txn_BANKAWAY_index52_AvgRespTime is 1.671875
Txn_BANKAWAY_index52_SlowPercentage Linear_Regression Prediction Total Time:1.484375,Average Time:0.009895833333333333
Time Taken For: Txn_BANKAWAY_index52_SlowPercentage is 1.703125
Txn_BANKAWAY_index52_Total Linear_Regression Prediction Total Time:1.484375,Average Time:0.009895833333333333
Time Taken For: Txn_BANKAWAY_index52_Total is 1.671875
Txn_BANKAWAY_index53_AvgRespTime Linear_Regression Prediction Total Time:1.484375,Average Time:0.009895833333333333
Time Taken For: Txn_BANKAWAY_index53_AvgRespTime is 1.671875
Txn_BANKAWAY_index53_SlowPercentage Linear_Regression Prediction Total Time:1.4375,Average Time:0.009583333333333333
Time Taken For: Txn_BANKAWAY_index53_SlowPercentage is 1.625
Txn_BANKAWAY_index53_Total Linear_Regression Prediction Total Time:1.5,Average Time:0.01
Time Taken For: Txn_BANKAWAY_index53_Total is 1.6875
Txn_BANKAWAY_index54_AvgRespTime Linear_Regression Prediction Total Time:1.453125,Average Time:0.0096875
Time Taken For: Txn_BANKAWAY_index54_AvgRespTime is 1.640625
Txn_BANKAWAY_index54_SlowPercentage Linear_Regression Prediction Total Time:1.5,Average Time:0.01
Time Taken For: Txn_BANKAWAY_index54_SlowPercentage is 1.6875
Txn_BANKAWAY_index54_Total Linear_Regression Prediction Total Time:1.5,Average Time:0.01
Time Taken For: Txn_BANKAWAY_index54_Total is 1.6875
Txn_BANKAWAY_index55_AvgRespTime Linear_Regression Prediction Total Time:1.671875,Average Time:0.011145833333333334
Time Taken For: Txn_BANKAWAY_index55_AvgRespTime is 1.828125
Txn_BANKAWAY_index55_SlowPercentage Linear_Regression Prediction Total Time:1.53125,Average Time:0.010208333333333333
Time Taken For: Txn_BANKAWAY_index55_SlowPercentage is 1.75
Txn_BANKAWAY_index55_Total Linear_Regression Prediction Total Time:1.5,Average Time:0.01
Time Taken For: Txn_BANKAWAY_index55_Total is 1.6875
Txn_BANKAWAY_index56_AvgRespTime Linear_Regression Prediction Total Time:1.46875,Average Time:0.009791666666666667
Time Taken For: Txn_BANKAWAY_index56_AvgRespTime is 1.65625
Txn_BANKAWAY_index56_SlowPercentage Linear_Regression Prediction Total Time:1.46875,Average Time:0.009791666666666667
Time Taken For: Txn_BANKAWAY_index56_SlowPercentage is 1.65625
Txn_BANKAWAY_index56_Total Linear_Regression Prediction Total Time:1.46875,Average Time:0.009791666666666667
Time Taken For: Txn_BANKAWAY_index56_Total is 1.703125
Txn_BANKAWAY_index57_AvgRespTime Linear_Regression Prediction Total Time:1.5,Average Time:0.01
Time Taken For: Txn_BANKAWAY_index57_AvgRespTime is 1.6875
Txn_BANKAWAY_index57_SlowPercentage Linear_Regression Prediction Total Time:1.515625,Average Time:0.010104166666666666
Time Taken For: Txn_BANKAWAY_index57_SlowPercentage is 1.671875
Txn_BANKAWAY_index57_Total Linear_Regression Prediction Total Time:1.46875,Average Time:0.009791666666666667
Time Taken For: Txn_BANKAWAY_index57_Total is 1.6875
Txn_BANKAWAY_index58_AvgRespTime Linear_Regression Prediction Total Time:1.5,Average Time:0.01
Time Taken For: Txn_BANKAWAY_index58_AvgRespTime is 1.6875
Txn_BANKAWAY_index58_SlowPercentage Linear_Regression Prediction Total Time:1.4375,Average Time:0.009583333333333333
Time Taken For: Txn_BANKAWAY_index58_SlowPercentage is 1.625
Txn_BANKAWAY_index58_Total Linear_Regression Prediction Total Time:1.46875,Average Time:0.009791666666666667
Time Taken For: Txn_BANKAWAY_index58_Total is 1.65625
Txn_BANKAWAY_index59_AvgRespTime Linear_Regression Prediction Total Time:1.484375,Average Time:0.009895833333333333
Time Taken For: Txn_BANKAWAY_index59_AvgRespTime is 1.671875
Txn_BANKAWAY_index59_SlowPercentage Linear_Regression Prediction Total Time:1.46875,Average Time:0.009791666666666667
Time Taken For: Txn_BANKAWAY_index59_SlowPercentage is 1.65625
Txn_BANKAWAY_index59_Total Linear_Regression Prediction Total Time:1.46875,Average Time:0.009791666666666667
Time Taken For: Txn_BANKAWAY_index59_Total is 1.65625
Txn_BANKAWAY_index5_AvgRespTime Linear_Regression Prediction Total Time:1.46875,Average Time:0.009791666666666667
Time Taken For: Txn_BANKAWAY_index5_AvgRespTime is 1.6875
Txn_BANKAWAY_index5_SlowPercentage Linear_Regression Prediction Total Time:1.5,Average Time:0.01
Time Taken For: Txn_BANKAWAY_index5_SlowPercentage is 1.6875
Txn_BANKAWAY_index5_Total Linear_Regression Prediction Total Time:1.46875,Average Time:0.009791666666666667
Time Taken For: Txn_BANKAWAY_index5_Total is 1.65625
Txn_BANKAWAY_index60_AvgRespTime Linear_Regression Prediction Total Time:1.5,Average Time:0.01
Time Taken For: Txn_BANKAWAY_index60_AvgRespTime is 1.6875
Txn_BANKAWAY_index60_SlowPercentage Linear_Regression Prediction Total Time:1.46875,Average Time:0.009791666666666667
Time Taken For: Txn_BANKAWAY_index60_SlowPercentage is 1.640625
Txn_BANKAWAY_index60_Total Linear_Regression Prediction Total Time:1.40625,Average Time:0.009375
Time Taken For: Txn_BANKAWAY_index60_Total is 1.59375
Txn_BANKAWAY_index64_AvgRespTime Linear_Regression Prediction Total Time:1.5,Average Time:0.01
Time Taken For: Txn_BANKAWAY_index64_AvgRespTime is 1.65625
Txn_BANKAWAY_index64_SlowPercentage Linear_Regression Prediction Total Time:1.5,Average Time:0.01
Time Taken For: Txn_BANKAWAY_index64_SlowPercentage is 1.6875
Txn_BANKAWAY_index64_Total Linear_Regression Prediction Total Time:1.4375,Average Time:0.009583333333333333
Time Taken For: Txn_BANKAWAY_index64_Total is 1.625
Txn_BANKAWAY_index65_AvgRespTime Linear_Regression Prediction Total Time:1.46875,Average Time:0.009791666666666667
Time Taken For: Txn_BANKAWAY_index65_AvgRespTime is 1.65625
Txn_BANKAWAY_index65_SlowPercentage Linear_Regression Prediction Total Time:1.5,Average Time:0.01
Time Taken For: Txn_BANKAWAY_index65_SlowPercentage is 1.71875
Txn_BANKAWAY_index65_Total Linear_Regression Prediction Total Time:1.46875,Average Time:0.009791666666666667
Time Taken For: Txn_BANKAWAY_index65_Total is 1.65625
Txn_BANKAWAY_index66_AvgRespTime Linear_Regression Prediction Total Time:1.5,Average Time:0.01
Time Taken For: Txn_BANKAWAY_index66_AvgRespTime is 1.65625
Txn_BANKAWAY_index66_SlowPercentage Linear_Regression Prediction Total Time:1.546875,Average Time:0.0103125
Time Taken For: Txn_BANKAWAY_index66_SlowPercentage is 1.734375
Txn_BANKAWAY_index66_Total Linear_Regression Prediction Total Time:1.46875,Average Time:0.009791666666666667
Time Taken For: Txn_BANKAWAY_index66_Total is 1.65625
Txn_BANKAWAY_index67_AvgRespTime Linear_Regression Prediction Total Time:1.40625,Average Time:0.009375
Time Taken For: Txn_BANKAWAY_index67_AvgRespTime is 1.59375
Txn_BANKAWAY_index67_SlowPercentage Linear_Regression Prediction Total Time:1.390625,Average Time:0.009270833333333334
Time Taken For: Txn_BANKAWAY_index67_SlowPercentage is 1.578125
Txn_BANKAWAY_index67_Total Linear_Regression Prediction Total Time:1.453125,Average Time:0.0096875
Time Taken For: Txn_BANKAWAY_index67_Total is 1.640625
Txn_BANKAWAY_index68_AvgRespTime Linear_Regression Prediction Total Time:1.53125,Average Time:0.010208333333333333
Time Taken For: Txn_BANKAWAY_index68_AvgRespTime is 1.71875
Txn_BANKAWAY_index68_SlowPercentage Linear_Regression Prediction Total Time:1.5,Average Time:0.01
Time Taken For: Txn_BANKAWAY_index68_SlowPercentage is 1.65625
Txn_BANKAWAY_index68_Total Linear_Regression Prediction Total Time:1.5625,Average Time:0.010416666666666666
Time Taken For: Txn_BANKAWAY_index68_Total is 1.75
Txn_BANKAWAY_index69_AvgRespTime Linear_Regression Prediction Total Time:1.40625,Average Time:0.009375
Time Taken For: Txn_BANKAWAY_index69_AvgRespTime is 1.59375
Txn_BANKAWAY_index69_SlowPercentage Linear_Regression Prediction Total Time:1.515625,Average Time:0.010104166666666666
Time Taken For: Txn_BANKAWAY_index69_SlowPercentage is 1.703125
Txn_BANKAWAY_index69_Total Linear_Regression Prediction Total Time:1.375,Average Time:0.009166666666666667
Time Taken For: Txn_BANKAWAY_index69_Total is 1.5625
Txn_BANKAWAY_index70_AvgRespTime Linear_Regression Prediction Total Time:1.453125,Average Time:0.0096875
Time Taken For: Txn_BANKAWAY_index70_AvgRespTime is 1.671875
Txn_BANKAWAY_index70_SlowPercentage Linear_Regression Prediction Total Time:1.5,Average Time:0.01
Time Taken For: Txn_BANKAWAY_index70_SlowPercentage is 1.6875
Txn_BANKAWAY_index70_Total Linear_Regression Prediction Total Time:1.5,Average Time:0.01
Time Taken For: Txn_BANKAWAY_index70_Total is 1.6875
Txn_BANKAWAY_index71_AvgRespTime Linear_Regression Prediction Total Time:1.53125,Average Time:0.010208333333333333
Time Taken For: Txn_BANKAWAY_index71_AvgRespTime is 1.71875
Txn_BANKAWAY_index71_SlowPercentage Linear_Regression Prediction Total Time:1.46875,Average Time:0.009791666666666667
Time Taken For: Txn_BANKAWAY_index71_SlowPercentage is 1.640625
Txn_BANKAWAY_index71_Total Linear_Regression Prediction Total Time:1.5,Average Time:0.01
Time Taken For: Txn_BANKAWAY_index71_Total is 1.71875
Txn_BANKAWAY_index72_AvgRespTime Linear_Regression Prediction Total Time:1.515625,Average Time:0.010104166666666666
Time Taken For: Txn_BANKAWAY_index72_AvgRespTime is 1.703125
Txn_BANKAWAY_index72_SlowPercentage Linear_Regression Prediction Total Time:1.59375,Average Time:0.010625
Time Taken For: Txn_BANKAWAY_index72_SlowPercentage is 1.796875
Txn_BANKAWAY_index72_Total Linear_Regression Prediction Total Time:1.625,Average Time:0.010833333333333334
Time Taken For: Txn_BANKAWAY_index72_Total is 1.8125
Txn_BANKAWAY_index73_AvgRespTime Linear_Regression Prediction Total Time:1.484375,Average Time:0.009895833333333333
Time Taken For: Txn_BANKAWAY_index73_AvgRespTime is 1.6875
Txn_BANKAWAY_index73_SlowPercentage Linear_Regression Prediction Total Time:1.65625,Average Time:0.011041666666666667
Time Taken For: Txn_BANKAWAY_index73_SlowPercentage is 1.859375
Txn_BANKAWAY_index73_Total Linear_Regression Prediction Total Time:1.53125,Average Time:0.010208333333333333
Time Taken For: Txn_BANKAWAY_index73_Total is 1.71875
Txn_BANKAWAY_index74_AvgRespTime Linear_Regression Prediction Total Time:1.5625,Average Time:0.010416666666666666
Time Taken For: Txn_BANKAWAY_index74_AvgRespTime is 1.75
Txn_BANKAWAY_index74_SlowPercentage Linear_Regression Prediction Total Time:1.46875,Average Time:0.009791666666666667
Time Taken For: Txn_BANKAWAY_index74_SlowPercentage is 1.65625
Txn_BANKAWAY_index74_Total Linear_Regression Prediction Total Time:1.546875,Average Time:0.0103125
Time Taken For: Txn_BANKAWAY_index74_Total is 1.75
Txn_BANKAWAY_index7_AvgRespTime Linear_Regression Prediction Total Time:1.53125,Average Time:0.010208333333333333
Time Taken For: Txn_BANKAWAY_index7_AvgRespTime is 1.71875
Txn_BANKAWAY_index7_SlowPercentage Linear_Regression Prediction Total Time:1.71875,Average Time:0.011458333333333333
Time Taken For: Txn_BANKAWAY_index7_SlowPercentage is 1.921875
Txn_BANKAWAY_index7_Total Linear_Regression Prediction Total Time:1.46875,Average Time:0.009791666666666667
Time Taken For: Txn_BANKAWAY_index7_Total is 1.65625
Txn_BANKAWAY_index8_AvgRespTime Linear_Regression Prediction Total Time:1.4375,Average Time:0.009583333333333333
Time Taken For: Txn_BANKAWAY_index8_AvgRespTime is 1.625
Txn_BANKAWAY_index8_SlowPercentage Linear_Regression Prediction Total Time:1.5,Average Time:0.01
Time Taken For: Txn_BANKAWAY_index8_SlowPercentage is 1.6875
Txn_BANKAWAY_index8_Total Linear_Regression Prediction Total Time:1.515625,Average Time:0.010104166666666666
Time Taken For: Txn_BANKAWAY_index8_Total is 1.703125
Total Time Taken: 226.984375
Linear Regression Output DataFrame Dimension : (149, 135)
End Time : 2017-10-18 15:46:15.972210
