Time,Actual,Forecasts,Upper Interval,Lower Interval,Is Anomalies
25-1-2017 19:00,0.0,-163.2,25152.99,-25479.39,0
25-1-2017 20:00,0.0,246.16,25541.01,-25048.69,0
25-1-2017 21:00,0.0,-258.57,25015.07,-25532.2,0
25-1-2017 22:00,0.0,217.15,25469.7,-25035.4,0
25-1-2017 23:00,0.0,-168.65,25062.78,-25400.08,0
26-1-2017 0:00,0.0,111.14,25321.43,-25099.14,0
26-1-2017 1:00,0.0,-55.11,25134.15,-25244.38,0
26-1-2017 2:00,0.0,6.89,25175.19,-25161.42,0
26-1-2017 3:00,0.0,21.58,25169.05,-25125.88,0
26-1-2017 4:00,0.0,-46.29,25080.24,-25172.82,0
26-1-2017 5:00,0.0,52.24,25157.96,-25053.48,0
26-1-2017 6:00,0.0,-48.27,25036.7,-25133.23,0
26-1-2017 7:00,0.0,38.34,25102.6,-25025.92,0
26-1-2017 8:00,0.0,-26.29,25017.38,-25069.97,0
26-1-2017 9:00,0.0,14.96,25038.04,-25008.11,0
26-1-2017 10:00,0.0,-5.17,24997.35,-25007.69,0
26-1-2017 11:00,0.0,-3.84,24978.1,-24985.79,0
26-1-2017 12:00,0.0,6.88,24968.44,-24954.69,0
26-1-2017 13:00,0.0,-10.4,24930.69,-24951.49,0
26-1-2017 14:00,0.0,10.08,24930.82,-24910.67,0
26-1-2017 15:00,0.0,-8.59,24891.85,-24909.03,0
26-1-2017 16:00,0.0,6.22,24886.41,-24873.96,0
26-1-2017 17:00,0.0,-3.71,24856.35,-24863.76,0
26-1-2017 18:00,0.0,1.3,24841.13,-24838.52,0
26-1-2017 19:00,0.0,0.32,24820.04,-24819.4,0
26-1-2017 20:00,0.0,-1.05,24798.69,-24800.79,0
26-1-2017 21:00,0.0,2.04,24781.69,-24777.62,0
26-1-2017 22:00,0.0,-2.08,24757.62,-24761.78,0
26-1-2017 23:00,0.0,1.83,24741.62,-24737.95,0
27-1-2017 0:00,0.0,-1.37,24718.56,-24721.29,0
27-1-2017 1:00,0.0,0.91,24701.02,-24699.2,0
27-1-2017 2:00,0.0,-0.39,24679.95,-24680.73,0
27-1-2017 3:00,0.0,0.02,24660.64,-24660.6,0
27-1-2017 4:00,0.0,0.14,24641.16,-24640.87,0
27-1-2017 5:00,0.0,-0.39,24620.93,-24621.71,0
27-1-2017 6:00,0.0,0.38,24602.23,-24601.46,0
27-1-2017 7:00,0.0,-0.35,24581.93,-24582.62,0
27-1-2017 8:00,0.0,0.31,24563.03,-24562.42,0
27-1-2017 9:00,0.0,-0.22,24543.06,-24543.49,0
27-1-2017 10:00,0.0,0.1,24524.02,-24523.82,0
27-1-2017 11:00,0.0,-0.03,24504.51,-24504.57,0
27-1-2017 12:00,0.0,-0.03,24485.2,-24485.27,0
27-1-2017 13:00,0.0,0.07,24466.05,-24465.9,0
27-1-2017 14:00,0.0,-0.09,24446.68,-24446.85,0
27-1-2017 15:00,0.0,0.08,24427.68,-24427.51,0
27-1-2017 16:00,0.0,-0.06,24408.51,-24408.63,0
27-1-2017 17:00,0.0,0.05,24389.45,-24389.35,0
27-1-2017 18:00,0.0,-0.03,24370.34,-24370.4,0
27-1-2017 19:00,0.0,0.01,24351.39,-24351.37,0
27-1-2017 20:00,0.0,0.0,24332.44,-24332.43,0
27-1-2017 21:00,0.0,-0.01,24313.61,-24313.63,0
27-1-2017 22:00,0.0,0.02,24294.7,-24294.67,0
27-1-2017 23:00,0.0,-0.02,24275.85,-24275.89,0
28-1-2017 0:00,0.0,0.01,24257.12,-24257.09,0
28-1-2017 1:00,0.0,-0.01,24238.37,-24238.39,0
28-1-2017 2:00,0.0,0.01,24219.71,-24219.69,0
28-1-2017 3:00,0.0,-0.0,24201.14,-24201.14,0
28-1-2017 4:00,0.0,0.0,24182.47,-24182.47,0
28-1-2017 5:00,0.0,0.0,24163.92,-24163.91,0
28-1-2017 6:00,0.0,-0.0,24145.4,-24145.41,0
28-1-2017 7:00,0.0,0.0,24127.02,-24127.01,0
28-1-2017 8:00,0.0,-0.0,24108.58,-24108.58,0
28-1-2017 9:00,0.0,0.0,24090.2,-24090.2,0
28-1-2017 10:00,0.0,-0.0,24071.79,-24071.79,0
28-1-2017 11:00,0.0,0.0,24053.49,-24053.49,0
28-1-2017 12:00,0.0,-0.0,24035.23,-24035.23,0
28-1-2017 13:00,0.0,-0.0,24017.05,-24017.05,0
28-1-2017 14:00,0.0,0.0,23998.85,-23998.84,0
28-1-2017 15:00,0.0,-0.0,23980.71,-23980.71,0
28-1-2017 16:00,0.0,0.0,23962.7,-23962.7,0
28-1-2017 17:00,0.0,-0.0,23944.6,-23944.6,0
28-1-2017 18:00,0.0,0.0,23926.56,-23926.56,0
28-1-2017 19:00,0.0,-0.0,23908.59,-23908.59,0
28-1-2017 20:00,0.0,0.0,23890.66,-23890.66,0
28-1-2017 21:00,0.0,0.0,23872.77,-23872.77,0
28-1-2017 22:00,0.0,-0.0,23854.92,-23854.92,0
28-1-2017 23:00,0.0,0.0,23837.11,-23837.11,0
29-1-2017 0:00,0.0,-0.0,23819.41,-23819.41,0
29-1-2017 1:00,0.0,0.0,23801.61,-23801.61,0
29-1-2017 2:00,0.0,-0.0,23783.92,-23783.92,0
29-1-2017 3:00,0.0,0.0,23766.27,-23766.27,0
29-1-2017 4:00,0.0,-0.0,23748.66,-23748.66,0
29-1-2017 5:00,0.0,0.0,23731.09,-23731.09,0
29-1-2017 6:00,0.0,0.0,23713.56,-23713.56,0
29-1-2017 7:00,0.0,-0.0,23696.06,-23696.06,0
29-1-2017 8:00,0.0,0.0,23678.7,-23678.7,0
29-1-2017 9:00,0.0,-0.0,23661.19,-23661.19,0
29-1-2017 10:00,0.0,0.0,23643.81,-23643.81,0
29-1-2017 11:00,0.0,-0.0,23626.56,-23626.56,0
29-1-2017 12:00,0.0,0.0,23609.17,-23609.17,0
29-1-2017 13:00,0.0,-0.0,23591.98,-23591.98,0
29-1-2017 14:00,0.0,-0.0,23574.73,-23574.73,0
29-1-2017 15:00,0.0,0.0,23557.49,-23557.49,0
29-1-2017 16:00,0.0,-0.0,23540.34,-23540.34,0
29-1-2017 17:00,0.0,0.0,23523.22,-23523.22,0
29-1-2017 18:00,0.0,-0.0,23506.15,-23506.15,0
29-1-2017 19:00,0.0,0.0,23489.1,-23489.1,0
29-1-2017 20:00,0.0,-0.0,23472.1,-23472.1,0
29-1-2017 21:00,0.0,0.0,23455.14,-23455.14,0
29-1-2017 22:00,0.0,0.0,23438.21,-23438.21,0
29-1-2017 23:00,0.0,-0.0,23421.31,-23421.31,0
30-1-2017 0:00,0.0,0.0,23404.46,-23404.46,0
30-1-2017 1:00,0.0,-0.0,23387.64,-23387.64,0
30-1-2017 2:00,0.0,0.0,23370.86,-23370.86,0
30-1-2017 3:00,0.0,-0.0,23354.11,-23354.11,0
30-1-2017 4:00,0.0,0.0,23337.4,-23337.4,0
30-1-2017 5:00,0.0,-0.0,23320.76,-23320.76,0
30-1-2017 6:00,0.0,-0.0,23304.08,-23304.08,0
30-1-2017 7:00,0.0,0.0,23287.48,-23287.48,0
30-1-2017 8:00,0.0,-0.0,23270.91,-23270.91,0
30-1-2017 9:00,0.0,0.0,23254.37,-23254.37,0
30-1-2017 10:00,758.12,-0.0,23237.96,-23237.96,0
30-1-2017 11:00,1828.83,1259.06,24480.56,-21962.44,0
30-1-2017 12:00,465.6,2318.93,25524.14,-20886.27,0
30-1-2017 13:00,373.38,-532.77,22656.39,-23721.93,0
30-1-2017 14:00,0.0,813.22,23986.06,-22359.62,0
30-1-2017 15:00,0.0,-706.47,22450.18,-23863.13,0
30-1-2017 16:00,0.0,505.99,23646.41,-22634.43,0
30-1-2017 17:00,0.0,-401.26,22722.93,-23525.44,0
30-1-2017 18:00,0.0,274.63,23382.56,-22833.3,0
30-1-2017 19:00,0.0,-152.74,22939.11,-23244.59,0
30-1-2017 20:00,0.0,41.05,23116.66,-23034.56,0
30-1-2017 21:00,0.0,41.14,23100.69,-23018.4,0
30-1-2017 22:00,0.0,-87.06,22956.38,-23130.49,0
30-1-2017 23:00,0.0,106.48,23133.84,-22920.87,0
31-1-2017 0:00,0.0,-103.6,22907.73,-23114.93,0
31-1-2017 1:00,0.0,86.56,23081.9,-22908.79,0
31-1-2017 2:00,0.0,-62.23,22917.16,-23041.62,0
31-1-2017 3:00,0.0,35.81,22999.29,-22927.67,0
31-1-2017 4:00,0.0,-13.77,22933.82,-22961.36,0
31-1-2017 5:00,0.0,-3.4,22928.32,-22935.13,0
31-1-2017 6:00,0.0,15.15,22931.07,-22900.76,0
31-1-2017 7:00,173.8,-20.52,22879.6,-22920.65,0
31-1-2017 8:00,1923.97,310.21,23194.58,-22574.16,0
31-1-2017 9:00,6487.28,3012.29,25881.24,-19856.66,0
31-1-2017 10:00,13843.5,9070.35,31925.26,-13784.57,0
31-1-2017 11:00,22998.98,17828.26,40669.88,-5013.35,0
31-1-2017 12:00,32150.98,27814.67,50643.75,4985.59,0
31-1-2017 13:00,40844.9,36803.15,59618.76,13987.53,0
31-1-2017 14:00,49068.68,45357.54,68159.47,22555.6,0
31-1-2017 15:00,57442.25,53241.23,76029.19,30453.26,0
31-1-2017 16:00,65483.05,61867.25,84641.71,39092.78,0
31-1-2017 17:00,73533.13,69530.66,92291.19,46770.12,0
31-1-2017 18:00,81380.77,77822.66,100575.14,55070.19,0
31-1-2017 19:00,89137.33,85333.09,108066.04,62600.14,0
31-1-2017 20:00,96665.15,93230.89,115950.05,70511.73,0
31-1-2017 21:00,103747.53,100501.83,123206.98,77796.67,0
31-1-2017 22:00,110233.82,107409.87,130100.91,84718.82,0
31-1-2017 23:00,115632.62,113559.12,136235.76,90882.48,0
