Time,Actual,Forecasts,Upper Interval,Lower Interval,Is Anomalies
25-1-2017 19:00,12.6,12.43,26.15,-1.29,0
25-1-2017 20:00,11.6,11.89,25.59,-1.82,0
25-1-2017 21:00,10.92,11.37,25.06,-2.32,0
25-1-2017 22:00,10.15,10.99,24.67,-2.7,0
25-1-2017 23:00,8.93,10.51,24.18,-3.16,0
26-1-2017 0:00,8.4,9.73,23.39,-3.93,0
26-1-2017 1:00,6.52,9.61,23.26,-4.04,0
26-1-2017 2:00,6.45,8.08,21.72,-5.56,0
26-1-2017 3:00,5.88,8.75,22.38,-4.88,0
26-1-2017 4:00,5.57,7.73,21.35,-5.89,0
26-1-2017 5:00,5.45,8.14,21.75,-5.46,0
26-1-2017 6:00,5.62,7.63,21.23,-5.97,0
26-1-2017 7:00,6.23,8.14,21.72,-5.45,0
26-1-2017 8:00,7.38,8.24,21.82,-5.34,0
26-1-2017 9:00,8.18,9.22,22.79,-4.35,0
26-1-2017 10:00,9.57,9.37,22.93,-4.19,0
26-1-2017 11:00,11.08,10.56,24.1,-2.99,0
26-1-2017 12:00,11.12,11.16,24.7,-2.37,0
26-1-2017 13:00,10.3,11.11,24.63,-2.41,0
26-1-2017 14:00,9.57,10.51,24.03,-3.0,0
26-1-2017 15:00,9.18,10.2,23.7,-3.31,0
26-1-2017 16:00,8.9,9.95,23.44,-3.54,0
26-1-2017 17:00,8.68,9.82,23.3,-3.66,0
26-1-2017 18:00,9.25,9.67,23.14,-3.8,0
26-1-2017 19:00,10.13,10.18,23.64,-3.28,0
26-1-2017 20:00,10.18,10.62,24.06,-2.83,0
26-1-2017 21:00,9.67,10.54,23.98,-2.9,0
26-1-2017 22:00,8.97,10.21,23.64,-3.22,0
26-1-2017 23:00,8.2,9.78,23.2,-3.63,0
27-1-2017 0:00,7.4,9.33,22.74,-4.08,0
27-1-2017 1:00,6.0,8.85,22.25,-4.54,0
27-1-2017 2:00,5.82,7.91,21.3,-5.48,0
27-1-2017 3:00,5.77,8.14,21.52,-5.24,0
27-1-2017 4:00,5.68,7.86,21.23,-5.51,0
27-1-2017 5:00,5.73,7.99,21.35,-5.36,0
27-1-2017 6:00,5.95,7.89,21.24,-5.46,0
27-1-2017 7:00,6.8,8.15,21.49,-5.19,0
27-1-2017 8:00,8.42,8.67,22.0,-4.66,0
27-1-2017 9:00,12.52,9.76,23.08,-3.56,0
27-1-2017 10:00,17.2,12.56,25.87,-0.76,0
27-1-2017 11:00,19.7,15.11,28.42,1.81,0
27-1-2017 12:00,19.77,16.3,29.6,3.0,0
27-1-2017 13:00,16.7,16.09,29.38,2.79,0
27-1-2017 14:00,17.92,13.86,27.15,0.58,0
27-1-2017 15:00,17.35,15.8,29.08,2.53,0
27-1-2017 16:00,17.02,14.13,27.39,0.86,0
27-1-2017 17:00,15.62,15.07,28.33,1.82,0
27-1-2017 18:00,14.43,13.13,26.37,-0.12,0
27-1-2017 19:00,13.38,13.38,26.61,0.14,0
27-1-2017 20:00,16.83,12.02,25.25,-1.2,0
27-1-2017 21:00,12.07,15.57,28.79,2.35,0
27-1-2017 22:00,9.85,9.88,23.1,-3.33,0
27-1-2017 23:00,8.33,11.4,24.6,-1.8,0
28-1-2017 0:00,6.88,8.37,21.57,-4.82,0
28-1-2017 1:00,5.9,9.24,22.43,-3.94,0
28-1-2017 2:00,5.67,7.37,20.55,-5.81,0
28-1-2017 3:00,5.2,8.42,21.59,-4.75,0
28-1-2017 4:00,5.08,7.13,20.29,-6.03,0
28-1-2017 5:00,5.1,7.93,21.08,-5.22,0
28-1-2017 6:00,5.2,7.26,20.4,-5.88,0
28-1-2017 7:00,5.78,7.87,21.01,-5.26,0
28-1-2017 8:00,7.03,7.86,20.98,-5.27,0
28-1-2017 9:00,8.63,9.02,22.13,-4.1,0
28-1-2017 10:00,10.62,9.69,22.8,-3.41,0
28-1-2017 11:00,11.95,11.16,24.26,-1.93,0
28-1-2017 12:00,10.82,11.58,24.67,-1.5,0
28-1-2017 13:00,9.98,10.71,23.78,-2.37,0
28-1-2017 14:00,9.83,10.43,23.5,-2.63,0
28-1-2017 15:00,9.1,10.31,23.36,-2.75,0
28-1-2017 16:00,8.88,9.79,22.83,-3.26,0
28-1-2017 17:00,9.02,9.83,22.87,-3.21,0
28-1-2017 18:00,8.87,9.84,22.87,-3.18,0
28-1-2017 19:00,9.02,9.75,22.77,-3.27,0
28-1-2017 20:00,8.95,9.9,22.91,-3.11,0
28-1-2017 21:00,7.85,9.76,22.76,-3.24,0
28-1-2017 22:00,7.38,8.98,21.97,-4.01,0
28-1-2017 23:00,6.87,8.93,21.91,-4.05,0
29-1-2017 0:00,36.65,8.43,21.4,-4.54,1
29-1-2017 1:00,6.03,32.31,45.44,19.17,1
29-1-2017 2:00,5.92,-2.35,10.92,-15.62,0
29-1-2017 3:00,5.85,16.27,29.55,3.0,0
29-1-2017 4:00,5.45,1.67,14.96,-11.62,0
29-1-2017 5:00,5.3,12.78,26.06,-0.51,0
29-1-2017 6:00,5.5,3.88,17.16,-9.41,0
29-1-2017 7:00,5.97,10.87,24.15,-2.4,0
29-1-2017 8:00,6.18,5.84,19.11,-7.43,0
29-1-2017 9:00,7.15,10.02,23.28,-3.24,0
29-1-2017 10:00,7.92,7.56,20.82,-5.69,0
29-1-2017 11:00,9.02,10.3,23.54,-2.94,0
29-1-2017 12:00,8.7,9.2,22.44,-4.03,0
29-1-2017 13:00,8.18,10.13,23.35,-3.1,0
29-1-2017 14:00,7.88,8.93,22.14,-4.29,0
29-1-2017 15:00,7.65,9.48,22.69,-3.72,0
29-1-2017 16:00,7.53,8.78,21.98,-4.42,0
29-1-2017 17:00,7.6,9.17,22.36,-4.02,0
29-1-2017 18:00,7.7,8.88,22.06,-4.3,0
29-1-2017 19:00,8.35,9.2,22.37,-3.97,0
29-1-2017 20:00,8.47,9.46,22.62,-3.7,0
29-1-2017 21:00,7.85,9.52,22.68,-3.63,0
29-1-2017 22:00,7.27,9.04,22.18,-4.11,0
29-1-2017 23:00,6.83,8.8,21.94,-4.33,0
30-1-2017 0:00,5.9,8.49,21.61,-4.64,0
30-1-2017 1:00,5.62,7.9,21.02,-5.21,0
30-1-2017 2:00,5.37,7.88,20.99,-5.23,0
30-1-2017 3:00,5.37,7.62,20.72,-5.48,0
30-1-2017 4:00,5.3,7.74,20.84,-5.35,0
30-1-2017 5:00,5.32,7.59,20.67,-5.5,0
30-1-2017 6:00,5.48,7.7,20.77,-5.38,0
30-1-2017 7:00,5.98,7.73,20.79,-5.34,0
30-1-2017 8:00,7.25,8.12,21.18,-4.94,0
30-1-2017 9:00,10.12,8.91,21.96,-4.14,0
30-1-2017 10:00,26.67,10.82,23.87,-2.22,1
30-1-2017 11:00,135.5,22.69,35.78,9.61,1
30-1-2017 12:00,193.7,106.5,121.97,91.03,1
30-1-2017 13:00,132.13,142.76,159.14,126.37,0
30-1-2017 14:00,132.85,83.63,100.02,67.24,1
30-1-2017 15:00,22.23,115.2,131.88,98.52,1
30-1-2017 16:00,18.05,-10.16,7.7,-28.01,1
30-1-2017 17:00,17.5,35.22,53.16,17.28,0
30-1-2017 18:00,15.58,1.34,19.31,-16.63,0
30-1-2017 19:00,16.55,25.13,43.11,7.14,0
30-1-2017 20:00,15.57,7.25,25.23,-10.74,0
30-1-2017 21:00,14.13,19.86,37.84,1.88,0
30-1-2017 22:00,12.97,9.47,27.44,-8.5,0
30-1-2017 23:00,11.87,15.25,33.21,-2.71,0
31-1-2017 0:00,10.32,9.81,27.76,-8.14,0
31-1-2017 1:00,9.95,12.02,29.95,-5.92,0
31-1-2017 2:00,9.82,9.5,27.42,-8.43,0
31-1-2017 3:00,9.72,11.09,29.0,-6.83,0
31-1-2017 4:00,9.73,9.78,27.68,-8.13,0
31-1-2017 5:00,9.62,10.72,28.61,-7.17,0
31-1-2017 6:00,9.92,9.92,27.8,-7.95,0
31-1-2017 7:00,10.58,10.72,28.59,-7.14,0
31-1-2017 8:00,12.4,10.8,28.65,-7.05,0
31-1-2017 9:00,16.98,12.54,30.38,-5.3,0
31-1-2017 10:00,21.67,15.83,33.67,-2.0,0
31-1-2017 11:00,24.62,19.12,36.95,1.3,0
31-1-2017 12:00,23.78,20.98,38.8,3.17,0
31-1-2017 13:00,21.7,20.02,37.83,2.22,0
31-1-2017 14:00,24.38,18.66,36.45,0.87,0
31-1-2017 15:00,22.5,21.18,38.97,3.39,0
31-1-2017 16:00,21.35,18.74,36.51,0.96,0
31-1-2017 17:00,27.27,18.87,36.63,1.11,0
31-1-2017 18:00,19.83,23.39,41.15,5.63,0
31-1-2017 19:00,18.92,15.96,33.71,-1.8,0
31-1-2017 20:00,18.12,17.88,35.62,0.14,0
31-1-2017 21:00,16.78,15.41,33.14,-2.32,0
31-1-2017 22:00,15.73,15.82,33.53,-1.9,0
31-1-2017 23:00,15.4,14.1,31.81,-3.6,0
