Time,Actual,Forecasts,Upper Interval,Lower Interval,Is Anomalies
25-1-2017 19:00,0.0,0.0,0.0,0.0,0
25-1-2017 20:00,0.0,0.0,0.0,0.0,0
25-1-2017 21:00,0.0,0.0,0.0,0.0,0
25-1-2017 22:00,0.0,0.0,0.0,0.0,0
25-1-2017 23:00,0.0,0.0,0.0,0.0,0
26-1-2017 0:00,0.0,0.0,0.0,0.0,0
26-1-2017 1:00,0.0,0.0,0.0,0.0,0
26-1-2017 2:00,0.0,0.0,0.0,0.0,0
26-1-2017 3:00,0.0,0.0,0.0,0.0,0
26-1-2017 4:00,0.0,0.0,0.0,0.0,0
26-1-2017 5:00,0.0,0.0,0.0,0.0,0
26-1-2017 6:00,0.0,0.0,0.0,0.0,0
26-1-2017 7:00,0.0,0.0,0.0,0.0,0
26-1-2017 8:00,0.0,0.0,0.0,0.0,0
26-1-2017 9:00,0.0,0.0,0.0,0.0,0
26-1-2017 10:00,0.0,0.0,0.0,0.0,0
26-1-2017 11:00,0.0,0.0,0.0,0.0,0
26-1-2017 12:00,0.0,0.0,0.0,0.0,0
26-1-2017 13:00,0.0,0.0,0.0,0.0,0
26-1-2017 14:00,0.0,0.0,0.0,0.0,0
26-1-2017 15:00,0.0,0.0,0.0,0.0,0
26-1-2017 16:00,0.0,0.0,0.0,0.0,0
26-1-2017 17:00,0.0,0.0,0.0,0.0,0
26-1-2017 18:00,0.0,0.0,0.0,0.0,0
26-1-2017 19:00,0.0,0.0,0.0,0.0,0
26-1-2017 20:00,0.0,0.0,0.0,0.0,0
26-1-2017 21:00,0.0,0.0,0.0,0.0,0
26-1-2017 22:00,0.0,0.0,0.0,0.0,0
26-1-2017 23:00,0.0,0.0,0.0,0.0,0
27-1-2017 0:00,0.0,0.0,0.0,0.0,0
27-1-2017 1:00,0.0,0.0,0.0,0.0,0
27-1-2017 2:00,0.0,0.0,0.0,0.0,0
27-1-2017 3:00,0.0,0.0,0.0,0.0,0
27-1-2017 4:00,0.0,0.0,0.0,0.0,0
27-1-2017 5:00,0.0,0.0,0.0,0.0,0
27-1-2017 6:00,0.0,0.0,0.0,0.0,0
27-1-2017 7:00,0.0,0.0,0.0,0.0,0
27-1-2017 8:00,0.0,0.0,0.0,0.0,0
27-1-2017 9:00,0.0,0.0,0.0,0.0,0
27-1-2017 10:00,0.0,0.0,0.0,0.0,0
27-1-2017 11:00,0.0,0.0,0.0,0.0,0
27-1-2017 12:00,0.0,0.0,0.0,0.0,0
27-1-2017 13:00,0.0,0.0,0.0,0.0,0
27-1-2017 14:00,0.0,0.0,0.0,0.0,0
27-1-2017 15:00,0.0,0.0,0.0,0.0,0
27-1-2017 16:00,0.0,0.0,0.0,0.0,0
27-1-2017 17:00,0.0,0.0,0.0,0.0,0
27-1-2017 18:00,0.0,0.0,0.0,0.0,0
27-1-2017 19:00,0.0,0.0,0.0,0.0,0
27-1-2017 20:00,0.0,0.0,0.0,0.0,0
27-1-2017 21:00,0.0,0.0,0.0,0.0,0
27-1-2017 22:00,0.0,0.0,0.0,0.0,0
27-1-2017 23:00,0.0,0.0,0.0,0.0,0
28-1-2017 0:00,0.0,0.0,0.0,0.0,0
28-1-2017 1:00,0.0,0.0,0.0,0.0,0
28-1-2017 2:00,0.0,0.0,0.0,0.0,0
28-1-2017 3:00,0.0,0.0,0.0,0.0,0
28-1-2017 4:00,0.0,0.0,0.0,0.0,0
28-1-2017 5:00,0.0,0.0,0.0,0.0,0
28-1-2017 6:00,0.0,0.0,0.0,0.0,0
28-1-2017 7:00,0.0,0.0,0.0,0.0,0
28-1-2017 8:00,0.0,0.0,0.0,0.0,0
28-1-2017 9:00,0.0,0.0,0.0,0.0,0
28-1-2017 10:00,0.0,0.0,0.0,0.0,0
28-1-2017 11:00,0.0,0.0,0.0,0.0,0
28-1-2017 12:00,0.0,0.0,0.0,0.0,0
28-1-2017 13:00,0.0,0.0,0.0,0.0,0
28-1-2017 14:00,0.0,0.0,0.0,0.0,0
28-1-2017 15:00,0.0,0.0,0.0,0.0,0
28-1-2017 16:00,0.0,0.0,0.0,0.0,0
28-1-2017 17:00,0.0,0.0,0.0,0.0,0
28-1-2017 18:00,0.0,0.0,0.0,0.0,0
28-1-2017 19:00,0.0,0.0,0.0,0.0,0
28-1-2017 20:00,0.0,0.0,0.0,0.0,0
28-1-2017 21:00,0.0,0.0,0.0,0.0,0
28-1-2017 22:00,0.0,0.0,0.0,0.0,0
28-1-2017 23:00,0.0,0.0,0.0,0.0,0
29-1-2017 0:00,0.0,0.0,0.0,0.0,0
29-1-2017 1:00,0.0,0.0,0.0,0.0,0
29-1-2017 2:00,0.0,0.0,0.0,0.0,0
29-1-2017 3:00,0.0,0.0,0.0,0.0,0
29-1-2017 4:00,0.0,0.0,0.0,0.0,0
29-1-2017 5:00,0.0,0.0,0.0,0.0,0
29-1-2017 6:00,0.0,0.0,0.0,0.0,0
29-1-2017 7:00,0.0,0.0,0.0,0.0,0
29-1-2017 8:00,0.0,0.0,0.0,0.0,0
29-1-2017 9:00,0.0,0.0,0.0,0.0,0
29-1-2017 10:00,0.0,0.0,0.0,0.0,0
29-1-2017 11:00,0.0,0.0,0.0,0.0,0
29-1-2017 12:00,0.0,0.0,0.0,0.0,0
29-1-2017 13:00,0.0,0.0,0.0,0.0,0
29-1-2017 14:00,0.0,0.0,0.0,0.0,0
29-1-2017 15:00,0.0,0.0,0.0,0.0,0
29-1-2017 16:00,0.0,0.0,0.0,0.0,0
29-1-2017 17:00,0.0,0.0,0.0,0.0,0
29-1-2017 18:00,0.0,0.0,0.0,0.0,0
29-1-2017 19:00,0.0,0.0,0.0,0.0,0
29-1-2017 20:00,0.0,0.0,0.0,0.0,0
29-1-2017 21:00,0.0,0.0,0.0,0.0,0
29-1-2017 22:00,0.0,0.0,0.0,0.0,0
29-1-2017 23:00,0.0,0.0,0.0,0.0,0
30-1-2017 0:00,0.0,0.0,0.0,0.0,0
30-1-2017 1:00,0.0,0.0,0.0,0.0,0
30-1-2017 2:00,0.0,0.0,0.0,0.0,0
30-1-2017 3:00,0.0,0.0,0.0,0.0,0
30-1-2017 4:00,0.0,0.0,0.0,0.0,0
30-1-2017 5:00,0.0,0.0,0.0,0.0,0
30-1-2017 6:00,0.0,0.0,0.0,0.0,0
30-1-2017 7:00,0.0,0.0,0.0,0.0,0
30-1-2017 8:00,0.0,0.0,0.0,0.0,0
30-1-2017 9:00,0.0,0.0,0.0,0.0,0
30-1-2017 10:00,0.0,0.0,0.0,0.0,0
30-1-2017 11:00,0.0,0.0,0.0,0.0,0
30-1-2017 12:00,0.0,0.0,0.0,0.0,0
30-1-2017 13:00,0.0,0.0,0.0,0.0,0
30-1-2017 14:00,0.0,0.0,0.0,0.0,0
30-1-2017 15:00,0.0,0.0,0.0,0.0,0
30-1-2017 16:00,0.0,0.0,0.0,0.0,0
30-1-2017 17:00,0.0,0.0,0.0,0.0,0
30-1-2017 18:00,0.0,0.0,0.0,0.0,0
30-1-2017 19:00,0.0,0.0,0.0,0.0,0
30-1-2017 20:00,0.0,0.0,0.0,0.0,0
30-1-2017 21:00,0.0,0.0,0.0,0.0,0
30-1-2017 22:00,0.0,0.0,0.0,0.0,0
30-1-2017 23:00,0.0,0.0,0.0,0.0,0
31-1-2017 0:00,0.0,0.0,0.0,0.0,0
31-1-2017 1:00,0.0,0.0,0.0,0.0,0
31-1-2017 2:00,0.0,0.0,0.0,0.0,0
31-1-2017 3:00,0.0,0.0,0.0,0.0,0
31-1-2017 4:00,0.0,0.0,0.0,0.0,0
31-1-2017 5:00,0.0,0.0,0.0,0.0,0
31-1-2017 6:00,0.0,0.0,0.0,0.0,0
31-1-2017 7:00,0.0,0.0,0.0,0.0,0
31-1-2017 8:00,0.0,0.0,0.0,0.0,0
31-1-2017 9:00,0.0,0.0,0.0,0.0,0
31-1-2017 10:00,0.0,0.0,0.0,0.0,0
31-1-2017 11:00,0.0,0.0,0.0,0.0,0
31-1-2017 12:00,0.0,0.0,0.0,0.0,0
31-1-2017 13:00,0.0,0.0,0.0,0.0,0
31-1-2017 14:00,0.0,0.0,0.0,0.0,0
31-1-2017 15:00,0.0,0.0,0.0,0.0,0
31-1-2017 16:00,0.0,0.0,0.0,0.0,0
31-1-2017 17:00,0.0,0.0,0.0,0.0,0
31-1-2017 18:00,0.0,0.0,0.0,0.0,0
31-1-2017 19:00,0.0,0.0,0.0,0.0,0
31-1-2017 20:00,0.0,0.0,0.0,0.0,0
31-1-2017 21:00,0.0,0.0,0.0,0.0,0
31-1-2017 22:00,0.0,0.0,0.0,0.0,0
31-1-2017 23:00,0.0,0.0,0.0,0.0,0
