Time,Actual,Forecasts,Upper Interval,Lower Interval,Is Anomalies
25-1-2017 19:00,0.0,0.04,0.5,-0.43,0
25-1-2017 20:00,0.0,-0.0,0.46,-0.47,0
25-1-2017 21:00,0.0,0.02,0.49,-0.44,0
25-1-2017 22:00,0.0,0.0,0.47,-0.46,0
25-1-2017 23:00,0.0,0.02,0.49,-0.45,0
26-1-2017 0:00,0.0,0.01,0.47,-0.46,0
26-1-2017 1:00,0.0,0.02,0.48,-0.45,0
26-1-2017 2:00,0.0,0.01,0.48,-0.46,0
26-1-2017 3:00,0.0,0.01,0.48,-0.45,0
26-1-2017 4:00,0.0,0.01,0.48,-0.45,0
26-1-2017 5:00,0.0,0.01,0.48,-0.45,0
26-1-2017 6:00,0.0,0.01,0.48,-0.45,0
26-1-2017 7:00,0.0,0.01,0.48,-0.45,0
26-1-2017 8:00,0.0,0.01,0.48,-0.45,0
26-1-2017 9:00,0.0,0.01,0.48,-0.45,0
26-1-2017 10:00,0.03,0.01,0.47,-0.45,0
26-1-2017 11:00,0.0,0.03,0.5,-0.43,0
26-1-2017 12:00,0.0,-0.0,0.46,-0.47,0
26-1-2017 13:00,0.03,0.02,0.48,-0.44,0
26-1-2017 14:00,0.02,0.03,0.49,-0.44,0
26-1-2017 15:00,0.02,0.02,0.48,-0.44,0
26-1-2017 16:00,0.0,0.02,0.48,-0.44,0
26-1-2017 17:00,0.0,0.0,0.46,-0.46,0
26-1-2017 18:00,0.02,0.02,0.48,-0.44,0
26-1-2017 19:00,0.0,0.02,0.48,-0.44,0
26-1-2017 20:00,0.0,0.0,0.46,-0.45,0
26-1-2017 21:00,0.0,0.02,0.48,-0.44,0
26-1-2017 22:00,0.0,0.01,0.47,-0.45,0
26-1-2017 23:00,0.0,0.01,0.47,-0.44,0
27-1-2017 0:00,0.0,0.01,0.47,-0.45,0
27-1-2017 1:00,0.0,0.01,0.47,-0.44,0
27-1-2017 2:00,0.0,0.01,0.47,-0.45,0
27-1-2017 3:00,0.0,0.01,0.47,-0.44,0
27-1-2017 4:00,0.0,0.01,0.47,-0.44,0
27-1-2017 5:00,0.0,0.01,0.47,-0.44,0
27-1-2017 6:00,0.0,0.01,0.47,-0.44,0
27-1-2017 7:00,0.0,0.01,0.47,-0.44,0
27-1-2017 8:00,0.0,0.01,0.47,-0.44,0
27-1-2017 9:00,0.0,0.01,0.47,-0.44,0
27-1-2017 10:00,0.0,0.01,0.47,-0.44,0
27-1-2017 11:00,0.0,0.01,0.47,-0.44,0
27-1-2017 12:00,0.0,0.01,0.46,-0.44,0
27-1-2017 13:00,0.0,0.01,0.46,-0.44,0
27-1-2017 14:00,0.0,0.01,0.46,-0.44,0
27-1-2017 15:00,0.02,0.01,0.46,-0.44,0
27-1-2017 16:00,0.03,0.03,0.48,-0.43,0
27-1-2017 17:00,0.0,0.02,0.47,-0.43,0
27-1-2017 18:00,0.0,0.0,0.45,-0.45,0
27-1-2017 19:00,0.0,0.02,0.47,-0.43,0
27-1-2017 20:00,0.02,0.01,0.46,-0.44,0
27-1-2017 21:00,0.0,0.03,0.48,-0.42,0
27-1-2017 22:00,0.0,-0.0,0.45,-0.45,0
27-1-2017 23:00,0.0,0.02,0.47,-0.43,0
28-1-2017 0:00,0.0,0.01,0.45,-0.44,0
28-1-2017 1:00,0.0,0.02,0.46,-0.43,0
28-1-2017 2:00,0.0,0.01,0.46,-0.44,0
28-1-2017 3:00,0.0,0.01,0.46,-0.43,0
28-1-2017 4:00,0.0,0.01,0.46,-0.44,0
28-1-2017 5:00,0.0,0.01,0.46,-0.43,0
28-1-2017 6:00,0.0,0.01,0.46,-0.44,0
28-1-2017 7:00,0.0,0.01,0.46,-0.43,0
28-1-2017 8:00,0.0,0.01,0.46,-0.44,0
28-1-2017 9:00,0.0,0.01,0.46,-0.43,0
28-1-2017 10:00,0.0,0.01,0.46,-0.43,0
28-1-2017 11:00,0.0,0.01,0.46,-0.43,0
28-1-2017 12:00,0.0,0.01,0.46,-0.43,0
28-1-2017 13:00,0.0,0.01,0.46,-0.43,0
28-1-2017 14:00,0.0,0.01,0.46,-0.43,0
28-1-2017 15:00,0.0,0.01,0.45,-0.43,0
28-1-2017 16:00,0.0,0.01,0.45,-0.43,0
28-1-2017 17:00,0.0,0.01,0.45,-0.43,0
28-1-2017 18:00,0.0,0.01,0.45,-0.43,0
28-1-2017 19:00,0.0,0.01,0.45,-0.43,0
28-1-2017 20:00,0.0,0.01,0.45,-0.43,0
28-1-2017 21:00,0.0,0.01,0.45,-0.43,0
28-1-2017 22:00,0.0,0.01,0.45,-0.43,0
28-1-2017 23:00,0.0,0.01,0.45,-0.43,0
29-1-2017 0:00,0.0,0.01,0.45,-0.43,0
29-1-2017 1:00,0.0,0.01,0.45,-0.43,0
29-1-2017 2:00,0.0,0.01,0.45,-0.43,0
29-1-2017 3:00,0.0,0.01,0.45,-0.43,0
29-1-2017 4:00,0.0,0.01,0.45,-0.43,0
29-1-2017 5:00,0.0,0.01,0.45,-0.43,0
29-1-2017 6:00,0.0,0.01,0.45,-0.43,0
29-1-2017 7:00,0.0,0.01,0.45,-0.43,0
29-1-2017 8:00,0.0,0.01,0.45,-0.43,0
29-1-2017 9:00,0.0,0.01,0.45,-0.43,0
29-1-2017 10:00,0.0,0.01,0.45,-0.43,0
29-1-2017 11:00,0.0,0.01,0.45,-0.43,0
29-1-2017 12:00,0.0,0.01,0.45,-0.43,0
29-1-2017 13:00,0.0,0.01,0.45,-0.43,0
29-1-2017 14:00,0.0,0.01,0.45,-0.43,0
29-1-2017 15:00,0.0,0.01,0.45,-0.43,0
29-1-2017 16:00,0.0,0.01,0.45,-0.43,0
29-1-2017 17:00,0.0,0.01,0.45,-0.42,0
29-1-2017 18:00,0.0,0.01,0.45,-0.42,0
29-1-2017 19:00,0.0,0.01,0.45,-0.42,0
29-1-2017 20:00,0.0,0.01,0.45,-0.42,0
29-1-2017 21:00,0.0,0.01,0.44,-0.42,0
29-1-2017 22:00,0.0,0.01,0.44,-0.42,0
29-1-2017 23:00,0.0,0.01,0.44,-0.42,0
30-1-2017 0:00,0.0,0.01,0.44,-0.42,0
30-1-2017 1:00,0.0,0.01,0.44,-0.42,0
30-1-2017 2:00,0.0,0.01,0.44,-0.42,0
30-1-2017 3:00,0.0,0.01,0.44,-0.42,0
30-1-2017 4:00,0.0,0.01,0.44,-0.42,0
30-1-2017 5:00,0.0,0.01,0.44,-0.42,0
30-1-2017 6:00,0.0,0.01,0.44,-0.42,0
30-1-2017 7:00,0.0,0.01,0.44,-0.42,0
30-1-2017 8:00,0.0,0.01,0.44,-0.42,0
30-1-2017 9:00,0.02,0.01,0.44,-0.42,0
30-1-2017 10:00,0.0,0.02,0.45,-0.41,0
30-1-2017 11:00,0.02,0.0,0.43,-0.43,0
30-1-2017 12:00,0.03,0.03,0.46,-0.4,0
30-1-2017 13:00,0.0,0.02,0.45,-0.41,0
30-1-2017 14:00,0.02,0.01,0.44,-0.42,0
30-1-2017 15:00,0.03,0.03,0.46,-0.4,0
30-1-2017 16:00,0.0,0.02,0.45,-0.41,0
30-1-2017 17:00,0.0,0.0,0.43,-0.42,0
30-1-2017 18:00,0.0,0.01,0.44,-0.41,0
30-1-2017 19:00,0.0,0.01,0.43,-0.42,0
30-1-2017 20:00,0.0,0.01,0.44,-0.41,0
30-1-2017 21:00,0.0,0.01,0.44,-0.42,0
30-1-2017 22:00,0.0,0.01,0.44,-0.42,0
30-1-2017 23:00,0.0,0.01,0.44,-0.42,0
31-1-2017 0:00,0.0,0.01,0.44,-0.42,0
31-1-2017 1:00,0.0,0.01,0.44,-0.42,0
31-1-2017 2:00,0.0,0.01,0.44,-0.41,0
31-1-2017 3:00,0.0,0.01,0.44,-0.42,0
31-1-2017 4:00,0.0,0.01,0.44,-0.41,0
31-1-2017 5:00,0.0,0.01,0.43,-0.41,0
31-1-2017 6:00,0.0,0.01,0.43,-0.41,0
31-1-2017 7:00,0.0,0.01,0.43,-0.41,0
31-1-2017 8:00,0.0,0.01,0.43,-0.41,0
31-1-2017 9:00,0.03,0.01,0.43,-0.41,0
31-1-2017 10:00,0.0,0.03,0.45,-0.39,0
31-1-2017 11:00,0.0,-0.01,0.42,-0.43,0
31-1-2017 12:00,0.02,0.02,0.44,-0.4,0
31-1-2017 13:00,0.03,0.02,0.44,-0.41,0
31-1-2017 14:00,0.0,0.03,0.45,-0.4,0
31-1-2017 15:00,0.0,-0.0,0.42,-0.42,0
31-1-2017 16:00,0.0,0.02,0.44,-0.4,0
31-1-2017 17:00,0.0,0.0,0.43,-0.42,0
31-1-2017 18:00,0.0,0.01,0.44,-0.41,0
31-1-2017 19:00,0.0,0.01,0.43,-0.41,0
31-1-2017 20:00,0.0,0.01,0.43,-0.41,0
31-1-2017 21:00,0.0,0.01,0.43,-0.41,0
31-1-2017 22:00,0.0,0.01,0.43,-0.41,0
31-1-2017 23:00,0.0,0.01,0.43,-0.41,0
