Time,Actual,Forecasts,Upper Interval,Lower Interval,Is Anomalies
25-1-2017 19:00,26389.5,26829.76,41638.91,12020.6,0
25-1-2017 20:00,21028.47,24092.71,38889.48,9295.94,0
25-1-2017 21:00,17472.85,19399.87,34186.28,4613.46,0
25-1-2017 22:00,16415.45,17439.96,32214.8,2665.11,0
25-1-2017 23:00,13916.05,16813.76,31576.49,2051.03,0
26-1-2017 0:00,9260.13,13986.57,28738.82,-765.67,0
26-1-2017 1:00,6616.18,9906.51,24651.29,-4838.27,0
26-1-2017 2:00,5025.03,8742.01,23476.87,-5992.84,0
26-1-2017 3:00,5730.07,7044.64,21770.23,-7680.95,0
26-1-2017 4:00,5166.83,8847.7,23561.45,-5866.06,0
26-1-2017 5:00,5820.45,6885.91,21590.39,-7818.58,0
26-1-2017 6:00,6448.02,9093.32,23785.91,-5599.27,0
26-1-2017 7:00,8311.63,8258.72,22940.69,-6423.25,0
26-1-2017 8:00,10906.22,11355.11,26025.0,-3314.78,0
26-1-2017 9:00,13578.63,12534.5,27192.39,-2123.39,0
26-1-2017 10:00,18570.75,15519.6,30165.71,873.5,0
26-1-2017 11:00,18662.95,19932.95,34569.06,5296.84,0
26-1-2017 12:00,19343.3,17788.08,32412.58,3163.59,0
26-1-2017 13:00,19718.13,20350.95,34964.03,5737.87,0
26-1-2017 14:00,17279.25,18942.23,33543.49,4340.97,0
26-1-2017 15:00,16394.0,17168.49,31758.47,2578.52,0
26-1-2017 16:00,14495.5,16881.26,31459.52,2303.01,0
26-1-2017 17:00,14146.93,14558.83,29126.47,-8.82,0
26-1-2017 18:00,16791.18,15500.21,30056.1,944.32,0
26-1-2017 19:00,16171.22,17902.25,32446.73,3357.76,0
26-1-2017 20:00,17228.55,15893.96,30427.35,1360.57,0
26-1-2017 21:00,14163.28,18630.6,33152.67,4108.54,0
26-1-2017 22:00,13057.22,12961.74,27476.37,-1552.89,0
26-1-2017 23:00,10232.7,15343.17,29846.15,840.2,0
27-1-2017 0:00,7724.9,9706.6,24203.49,-4790.29,0
27-1-2017 1:00,6220.92,10398.73,24884.83,-4087.37,0
27-1-2017 2:00,6520.6,7362.92,21841.12,-7115.29,0
27-1-2017 3:00,6685.05,9753.87,24220.67,-4712.93,0
27-1-2017 4:00,6384.37,8119.91,22577.17,-6337.35,0
27-1-2017 5:00,6238.9,9080.66,23527.04,-5365.72,0
27-1-2017 6:00,6047.37,8051.28,22487.88,-6385.33,0
27-1-2017 7:00,8153.3,8586.57,23012.56,-5839.42,0
27-1-2017 8:00,12583.07,10686.1,25100.71,-3728.51,0
27-1-2017 9:00,21031.15,14978.31,29382.29,574.32,0
27-1-2017 10:00,31354.12,23047.16,37447.48,8646.85,0
27-1-2017 11:00,38071.68,31448.58,45851.97,17045.2,0
27-1-2017 12:00,37503.15,35628.85,50030.1,21227.6,0
27-1-2017 13:00,32536.63,33299.52,47690.18,18908.86,0
27-1-2017 14:00,33963.62,28918.81,43298.29,14539.34,0
27-1-2017 15:00,34433.42,32921.32,47294.86,18547.77,0
27-1-2017 16:00,31706.63,30696.41,45059.16,16333.66,0
27-1-2017 17:00,29905.78,29245.82,43597.57,14894.07,0
27-1-2017 18:00,26595.1,27501.05,41841.76,13160.35,0
27-1-2017 19:00,22532.9,24362.08,38691.78,10032.37,0
27-1-2017 20:00,21995.53,21029.52,35348.8,6710.24,0
27-1-2017 21:00,13883.12,21998.52,36306.89,7690.16,0
27-1-2017 22:00,14587.0,11120.46,25431.44,-3190.51,0
27-1-2017 23:00,12764.07,18585.31,32887.72,4282.89,0
28-1-2017 0:00,4134.78,10605.2,24903.6,-3693.2,0
28-1-2017 1:00,6636.92,5872.38,20168.34,-8423.58,0
28-1-2017 2:00,6061.02,10515.81,24800.89,-3769.27,0
28-1-2017 3:00,7705.58,6742.91,21021.07,-7535.26,0
28-1-2017 4:00,6973.1,11603.64,25871.04,-2663.77,0
28-1-2017 5:00,6433.95,7246.53,21507.4,-7014.34,0
28-1-2017 6:00,6719.47,9853.0,24103.09,-4397.09,0
28-1-2017 7:00,8086.13,7982.22,22223.44,-6259.0,0
28-1-2017 8:00,9662.12,11214.3,25444.66,-3016.07,0
28-1-2017 9:00,13745.43,10921.74,25141.77,-3298.28,0
28-1-2017 10:00,19203.27,16569.52,30780.38,2358.66,0
28-1-2017 11:00,22174.87,19823.65,34025.15,5622.16,0
28-1-2017 12:00,20738.08,22277.64,36469.5,8085.77,0
28-1-2017 13:00,18310.8,19318.41,33500.03,5136.8,0
28-1-2017 14:00,17221.98,18311.83,32482.93,4140.74,0
28-1-2017 15:00,16478.07,17147.94,31308.59,2987.29,0
28-1-2017 16:00,15936.03,16893.86,31043.95,2743.77,0
28-1-2017 17:00,15769.88,16248.66,30388.29,2109.03,0
28-1-2017 18:00,14490.92,16418.27,30547.32,2289.21,0
28-1-2017 19:00,13329.93,14667.55,28786.77,548.33,0
28-1-2017 20:00,13312.78,14305.26,28414.27,196.26,0
28-1-2017 21:00,10656.6,14274.14,28372.8,175.48,0
28-1-2017 22:00,9740.53,11025.65,25116.43,-3065.13,0
28-1-2017 23:00,8502.32,11802.05,25882.66,-2278.55,0
29-1-2017 0:00,2702.08,9422.13,23494.46,-4650.19,0
29-1-2017 1:00,2492.13,3852.58,17923.56,-10218.39,0
29-1-2017 2:00,2205.32,6531.79,20592.69,-7529.1,0
29-1-2017 3:00,2301.78,3976.65,18030.89,-10077.58,0
29-1-2017 4:00,2383.18,6036.88,20081.27,-8007.5,0
29-1-2017 5:00,1934.17,4505.91,18542.59,-9530.78,0
29-1-2017 6:00,1751.6,5174.04,19201.69,-8853.6,0
29-1-2017 7:00,2854.67,4283.97,18303.62,-9735.68,0
29-1-2017 8:00,4877.77,6288.29,20298.03,-7721.44,0
29-1-2017 9:00,6723.23,7457.87,21457.71,-6541.97,0
29-1-2017 10:00,8529.62,9312.96,23302.64,-4676.71,0
29-1-2017 11:00,10150.73,10531.21,24510.76,-3448.34,0
29-1-2017 12:00,10031.53,12019.42,25988.78,-1949.93,0
29-1-2017 13:00,9120.77,11101.08,25061.02,-2858.86,0
29-1-2017 14:00,8142.88,10673.09,24623.63,-3277.45,0
29-1-2017 15:00,7707.17,9566.81,23508.47,-4374.85,0
29-1-2017 16:00,7808.4,9650.45,23582.65,-4281.76,0
29-1-2017 17:00,8202.3,9588.76,23511.53,-4334.0,0
29-1-2017 18:00,8502.07,10142.66,24055.71,-3770.39,0
29-1-2017 19:00,9484.98,10166.61,24070.12,-3736.9,0
29-1-2017 20:00,9088.82,11431.25,25324.8,-2462.3,0
29-1-2017 21:00,7628.45,10184.84,24069.45,-3699.77,0
29-1-2017 22:00,6554.7,9266.47,23142.36,-4609.43,0
29-1-2017 23:00,5384.77,8286.5,22153.86,-5580.85,0
30-1-2017 0:00,3363.85,7335.05,21194.1,-6524.0,0
30-1-2017 1:00,2120.62,5282.22,19134.44,-8570.0,0
30-1-2017 2:00,1957.73,4841.79,18686.05,-9002.46,0
30-1-2017 3:00,1597.83,4651.96,18487.94,-9184.02,0
30-1-2017 4:00,1508.38,4299.46,18127.38,-9528.46,0
30-1-2017 5:00,1848.53,4358.8,18178.38,-9460.77,0
30-1-2017 6:00,2291.58,4692.2,18503.16,-9118.76,0
30-1-2017 7:00,4309.93,5047.71,18849.97,-8754.55,0
30-1-2017 8:00,7597.3,7363.32,21155.87,-6429.24,0
30-1-2017 9:00,16805.37,10103.87,23886.65,-3678.91,0
30-1-2017 10:00,20715.32,20159.1,33941.0,6377.2,0
30-1-2017 11:00,41017.0,19390.72,33162.91,5618.52,1
30-1-2017 12:00,35389.17,46097.4,59951.62,32243.17,0
30-1-2017 13:00,36360.7,23305.16,37171.88,9438.43,0
30-1-2017 14:00,39092.45,40906.14,54795.87,27016.41,0
30-1-2017 15:00,32688.88,30734.06,44614.65,16853.46,0
30-1-2017 16:00,27115.68,31675.97,45547.57,17804.38,0
30-1-2017 17:00,24926.5,22438.19,36304.09,8572.29,0
30-1-2017 18:00,20990.7,25486.27,39343.7,11628.84,0
30-1-2017 19:00,18325.65,17725.47,31577.12,3873.81,0
30-1-2017 20:00,15601.45,19508.37,33350.43,5666.31,0
30-1-2017 21:00,12973.77,14105.11,27940.49,269.73,0
30-1-2017 22:00,11061.0,14395.73,28221.71,569.75,0
30-1-2017 23:00,8308.28,11137.52,24956.04,-2680.99,0
31-1-2017 0:00,5126.02,9817.74,23628.16,-3992.67,0
31-1-2017 1:00,2834.35,6224.73,20029.8,-7580.34,0
31-1-2017 2:00,2306.22,5385.31,19183.0,-8412.38,0
31-1-2017 3:00,2822.87,4777.53,18567.48,-9012.42,0
31-1-2017 4:00,2746.6,5729.14,19510.3,-8052.02,0
31-1-2017 5:00,2507.9,5012.5,18785.84,-8760.84,0
31-1-2017 6:00,3725.07,5247.87,19012.92,-8517.17,0
31-1-2017 7:00,7135.25,6479.57,20235.57,-7276.43,0
31-1-2017 8:00,11636.85,10008.29,23754.93,-3738.34,0
31-1-2017 9:00,22873.47,13654.15,27391.88,-83.58,0
31-1-2017 10:00,32466.27,25759.75,39504.29,12015.2,0
31-1-2017 11:00,39043.95,30998.61,44742.31,17254.92,0
31-1-2017 12:00,40242.93,37492.46,51239.12,23745.8,0
31-1-2017 13:00,34760.33,35616.44,49355.12,21877.75,0
31-1-2017 14:00,37266.62,30683.34,44412.78,16953.91,0
31-1-2017 15:00,34872.98,36207.12,49935.44,22478.8,0
31-1-2017 16:00,34172.8,29616.42,43335.72,15897.12,0
31-1-2017 17:00,34651.55,33300.41,47014.36,19586.46,0
31-1-2017 18:00,29559.22,30834.13,44539.09,17129.18,0
31-1-2017 19:00,26297.18,26651.16,40347.15,12955.17,0
31-1-2017 20:00,23596.53,24578.72,38265.51,10891.93,0
31-1-2017 21:00,19660.92,22024.78,35702.51,8347.04,0
31-1-2017 22:00,17273.15,18481.82,32151.4,4812.25,0
31-1-2017 23:00,12810.13,17287.57,30948.21,3626.93,0
