Time,Actual,Forecasts,Upper Interval,Lower Interval,Is Anomalies
25-1-2017 19:00,40063.63,10188.22,14161.38,6215.05,1
25-1-2017 20:00,8605.85,50791.73,55430.6,46152.87,1
25-1-2017 21:00,7197.2,14368.33,19835.85,8900.81,1
25-1-2017 22:00,6156.45,4386.11,9865.17,-1092.95,0
25-1-2017 23:00,4867.92,2347.79,7823.23,-3127.65,0
26-1-2017 0:00,2640.6,6336.27,11809.23,863.32,0
26-1-2017 1:00,1887.28,2437.24,7911.99,-3037.51,0
26-1-2017 2:00,1353.48,1621.07,7091.44,-3849.3,0
26-1-2017 3:00,4579.75,1227.16,6693.02,-4238.71,0
26-1-2017 4:00,5270.97,4683.94,10151.81,-783.94,0
26-1-2017 5:00,4142.15,5636.68,11100.23,173.13,0
26-1-2017 6:00,3667.67,4277.69,9738.02,-1182.64,0
26-1-2017 7:00,4773.93,3460.95,8916.98,-1995.09,0
26-1-2017 8:00,5667.68,4715.0,10167.54,-737.54,0
26-1-2017 9:00,6787.45,5831.01,11279.59,382.43,0
26-1-2017 10:00,6876.57,6962.97,12407.61,1518.34,0
26-1-2017 11:00,8177.23,6987.3,12427.48,1547.13,0
26-1-2017 12:00,8062.2,8239.74,13676.28,2803.2,0
26-1-2017 13:00,7113.27,8162.15,13594.27,2730.04,0
26-1-2017 14:00,6495.92,7100.14,12528.45,1671.82,0
26-1-2017 15:00,6106.37,6336.96,11761.07,912.86,0
26-1-2017 16:00,5670.18,6006.49,11426.21,586.77,0
26-1-2017 17:00,5272.78,5624.26,11039.65,208.87,0
26-1-2017 18:00,6017.13,5220.35,10631.42,-190.71,0
26-1-2017 19:00,6751.55,6002.94,11409.99,595.89,0
26-1-2017 20:00,6818.28,6855.89,12258.89,1452.88,0
26-1-2017 21:00,6020.22,6927.07,12325.72,1528.43,0
26-1-2017 22:00,5376.23,5996.65,11391.42,601.88,0
26-1-2017 23:00,3966.62,5252.35,10643.0,-138.31,0
27-1-2017 0:00,2305.42,3825.25,9212.52,-1562.02,0
27-1-2017 1:00,1388.93,2104.35,7488.63,-3279.92,0
27-1-2017 2:00,3382.12,1164.2,6544.46,-4216.05,0
27-1-2017 3:00,7042.07,3359.51,8738.27,-2019.25,0
27-1-2017 4:00,6754.78,7412.69,12794.87,2030.51,0
27-1-2017 5:00,6294.57,7190.09,12568.23,1811.95,0
27-1-2017 6:00,1481.38,6281.9,11656.22,907.59,0
27-1-2017 7:00,2312.17,1124.82,6507.89,-4258.25,0
27-1-2017 8:00,4736.88,1859.09,7238.68,-3520.51,0
27-1-2017 9:00,9069.58,4824.19,10204.18,-555.81,0
27-1-2017 10:00,13512.63,9648.23,15034.07,4262.39,0
27-1-2017 11:00,15527.08,14161.44,19551.34,8771.55,0
27-1-2017 12:00,15135.73,16065.27,21451.95,10678.58,0
27-1-2017 13:00,13017.15,15245.95,20628.88,9863.02,0
27-1-2017 14:00,13808.95,12747.5,18128.97,7366.04,0
27-1-2017 15:00,13561.88,13555.29,18933.17,8177.42,0
27-1-2017 16:00,12869.18,13611.11,18984.78,8237.45,0
27-1-2017 17:00,12080.98,12900.48,18270.25,7530.71,0
27-1-2017 18:00,10326.3,11943.79,17309.75,6577.84,0
27-1-2017 19:00,9422.38,10164.16,15527.4,4800.93,0
27-1-2017 20:00,8654.55,9216.46,14575.83,3857.09,0
27-1-2017 21:00,6674.57,8528.13,13883.51,3172.75,0
27-1-2017 22:00,6565.0,6551.49,11904.63,1198.36,0
27-1-2017 23:00,5765.78,6379.44,11728.43,1030.44,0
28-1-2017 0:00,2306.72,5711.67,11056.73,366.6,0
28-1-2017 1:00,2319.63,2129.57,7476.93,-3217.79,0
28-1-2017 2:00,1766.42,1960.49,7303.76,-3382.77,0
28-1-2017 3:00,10243.58,1707.77,7046.94,-3631.4,1
28-1-2017 4:00,12665.58,10706.73,16081.84,5331.62,0
28-1-2017 5:00,12080.4,13639.0,19012.06,8265.95,0
28-1-2017 6:00,12580.65,12412.82,17783.07,7042.57,0
28-1-2017 7:00,10428.27,12263.69,17629.85,6897.53,0
28-1-2017 8:00,3749.73,10267.99,15631.86,4904.11,1
28-1-2017 9:00,5900.1,3220.63,8603.52,-2162.26,0
28-1-2017 10:00,8572.3,5301.48,10684.13,-81.17,0
28-1-2017 11:00,10550.38,8922.15,14306.45,3537.84,0
28-1-2017 12:00,8916.47,11213.38,16595.01,5831.74,0
28-1-2017 13:00,8121.53,8953.36,14333.74,3572.97,0
28-1-2017 14:00,7790.0,7837.44,13214.12,2460.75,0
28-1-2017 15:00,7173.68,7606.7,12979.32,2234.07,0
28-1-2017 16:00,6997.27,7171.67,12540.34,1803.0,0
28-1-2017 17:00,6743.62,6960.82,12325.46,1596.18,0
28-1-2017 18:00,6510.03,6722.86,12083.49,1362.23,0
28-1-2017 19:00,6140.75,6498.21,11854.84,1141.58,0
28-1-2017 20:00,5941.55,6105.39,11458.08,752.71,0
28-1-2017 21:00,4859.05,5905.57,11254.26,556.88,0
28-1-2017 22:00,4333.52,4791.84,10137.12,-553.44,0
28-1-2017 23:00,3109.65,4219.6,9561.0,-1121.8,0
29-1-2017 0:00,778.6,2997.37,8335.45,-2340.71,0
29-1-2017 1:00,1405.25,583.33,5920.07,-4753.41,0
29-1-2017 2:00,1818.43,1231.51,6564.64,-4101.63,0
29-1-2017 3:00,4492.08,1927.8,7257.16,-3401.56,0
29-1-2017 4:00,5011.13,4769.23,10098.15,-559.69,0
29-1-2017 5:00,3786.63,5264.26,10589.26,-60.75,0
29-1-2017 6:00,743.77,3773.3,9095.54,-1548.93,0
29-1-2017 7:00,1441.73,362.66,5685.84,-4960.53,0
29-1-2017 8:00,2772.23,1170.33,6490.22,-4149.55,0
29-1-2017 9:00,4024.4,2938.9,8256.23,-2378.43,0
29-1-2017 10:00,5402.87,4339.08,9653.13,-974.97,0
29-1-2017 11:00,6500.63,5567.53,10878.28,256.78,0
29-1-2017 12:00,6229.07,6636.23,11943.56,1328.91,0
29-1-2017 13:00,5637.4,6269.82,11573.34,966.29,0
29-1-2017 14:00,4873.12,5528.9,10828.77,229.04,0
29-1-2017 15:00,4642.23,4731.19,10027.42,-565.04,0
29-1-2017 16:00,4449.38,4568.72,9861.1,-723.65,0
29-1-2017 17:00,4699.92,4439.27,9727.81,-849.27,0
29-1-2017 18:00,4871.88,4726.58,10011.31,-558.15,0
29-1-2017 19:00,5452.43,4912.74,10193.65,-368.17,0
29-1-2017 20:00,5070.55,5508.28,10785.52,231.03,0
29-1-2017 21:00,5028.03,5093.62,10367.15,-179.91,0
29-1-2017 22:00,3980.52,4986.25,10255.98,-283.48,0
29-1-2017 23:00,3328.13,3894.88,9161.34,-1371.58,0
30-1-2017 0:00,1721.65,3213.33,8476.16,-2049.51,0
30-1-2017 1:00,1016.13,1573.0,6833.23,-3687.22,0
30-1-2017 2:00,722.73,871.68,6128.29,-4384.93,0
30-1-2017 3:00,658.6,662.23,5915.09,-4590.62,0
30-1-2017 4:00,580.2,692.37,5941.47,-4556.73,0
30-1-2017 5:00,592.98,598.33,5843.68,-4647.02,0
30-1-2017 6:00,1034.27,598.46,5840.07,-4643.15,0
30-1-2017 7:00,2220.9,1061.46,6299.43,-4176.52,0
30-1-2017 8:00,4436.78,2328.61,7563.56,-2906.34,0
30-1-2017 9:00,8497.75,4667.7,9901.24,-565.85,0
30-1-2017 10:00,11734.05,8917.29,14154.75,3679.83,0
30-1-2017 11:00,18396.35,12264.48,17502.33,7026.63,1
30-1-2017 12:00,17084.58,19060.93,24314.44,13807.42,0
30-1-2017 13:00,17959.25,17505.35,22757.14,12253.56,0
30-1-2017 14:00,17096.38,17787.86,23036.05,12539.67,0
30-1-2017 15:00,15506.93,16845.65,22090.39,11600.92,0
30-1-2017 16:00,13594.92,15390.55,20632.51,10148.59,0
30-1-2017 17:00,12830.57,13282.3,18522.24,8042.37,0
30-1-2017 18:00,10931.57,12625.51,17861.87,7389.14,0
30-1-2017 19:00,9508.25,10799.71,16033.88,5565.54,0
30-1-2017 20:00,8645.95,9311.05,14542.42,4079.69,0
30-1-2017 21:00,7350.62,8473.12,13701.06,3245.19,0
30-1-2017 22:00,6367.3,7257.44,12482.37,2032.51,0
30-1-2017 23:00,4675.85,6232.42,11454.12,1010.73,0
31-1-2017 0:00,2440.98,4501.22,9720.52,-718.09,0
31-1-2017 1:00,1391.43,2179.9,7397.74,-3037.95,0
31-1-2017 2:00,1013.65,1129.63,6344.17,-4084.92,0
31-1-2017 3:00,3032.68,937.83,6148.76,-4273.11,0
31-1-2017 4:00,5616.0,3206.53,8416.1,-2003.03,0
31-1-2017 5:00,4361.83,6023.79,11232.71,814.87,0
31-1-2017 6:00,5813.35,4570.01,9776.74,-636.72,0
31-1-2017 7:00,7017.47,5708.66,10912.59,504.74,0
31-1-2017 8:00,9569.78,7118.86,12320.07,1917.65,0
31-1-2017 9:00,13790.85,9911.64,15112.32,4710.96,0
31-1-2017 10:00,16420.0,14269.15,19473.86,9064.43,0
31-1-2017 11:00,18173.33,16994.35,22197.82,11790.87,0
31-1-2017 12:00,18162.97,18489.58,23690.2,13288.97,0
31-1-2017 13:00,15517.88,18187.95,23385.06,12990.84,0
31-1-2017 14:00,17269.65,15237.75,20434.9,10040.6,0
31-1-2017 15:00,16564.7,17039.58,22235.26,11843.9,0
31-1-2017 16:00,16453.48,16678.37,21870.62,11486.11,0
31-1-2017 17:00,16743.62,16500.79,21689.54,11312.03,0
31-1-2017 18:00,14757.03,16670.53,21855.79,11485.26,0
31-1-2017 19:00,14327.03,14686.87,19870.46,9503.29,0
31-1-2017 20:00,12619.4,14102.76,19282.9,8922.62,0
31-1-2017 21:00,11258.73,12434.81,17612.55,7257.07,0
31-1-2017 22:00,9898.4,11076.46,16251.39,5901.52,0
31-1-2017 23:00,7097.58,9672.19,14844.33,4500.05,0
