Time,Actual,Forecasts,Upper Interval,Lower Interval,Is Anomalies
25-1-2017 19:00,19347.03,37631.82,66166.96,9096.68,0
25-1-2017 20:00,15060.62,24801.87,53350.48,-3746.74,0
25-1-2017 21:00,13317.25,21028.76,49564.0,-7506.49,0
25-1-2017 22:00,11967.13,17607.6,46125.68,-10910.49,0
25-1-2017 23:00,8972.08,15159.97,43657.81,-13337.87,0
26-1-2017 0:00,5265.62,12202.06,40680.45,-16276.34,0
26-1-2017 1:00,3495.87,8868.14,37328.24,-19591.96,0
26-1-2017 2:00,2639.63,6482.89,34922.58,-21956.8,0
26-1-2017 3:00,7182.1,4812.57,33230.31,-23605.17,0
26-1-2017 4:00,7601.88,6509.98,34904.76,-21884.8,0
26-1-2017 5:00,6529.02,6904.66,35276.06,-21466.74,0
26-1-2017 6:00,4986.18,6590.55,34938.5,-21757.41,0
26-1-2017 7:00,7390.5,5720.72,34045.57,-22604.12,0
26-1-2017 8:00,10556.0,6812.9,35114.71,-21488.91,0
26-1-2017 9:00,11534.0,8767.93,37048.02,-19512.16,0
26-1-2017 10:00,71963.3,9977.57,38235.29,-18280.15,1
26-1-2017 11:00,14069.43,44782.68,73442.58,16122.77,1
26-1-2017 12:00,14428.9,22046.46,50782.59,-6689.68,0
26-1-2017 13:00,72009.77,20444.61,49163.29,-8274.07,1
26-1-2017 14:00,40535.8,49584.55,78568.63,20600.47,0
26-1-2017 15:00,41579.73,39902.49,68871.46,10933.51,0
26-1-2017 16:00,9902.98,41623.26,70568.99,12677.54,1
26-1-2017 17:00,9965.12,24092.62,53122.88,-4937.65,0
26-1-2017 18:00,41426.5,19235.59,48263.62,-9792.43,0
26-1-2017 19:00,11697.17,32808.83,61865.55,3752.12,0
26-1-2017 20:00,12593.77,19210.08,48290.64,-9870.47,0
26-1-2017 21:00,10318.03,17522.21,46583.96,-11539.55,0
26-1-2017 22:00,9417.82,14179.83,43223.74,-14864.09,0
26-1-2017 23:00,8231.42,12226.82,41249.82,-16796.18,0
27-1-2017 0:00,4790.82,10469.84,39471.26,-18531.58,0
27-1-2017 1:00,2994.35,7719.49,36701.11,-21262.14,0
27-1-2017 2:00,5559.62,5642.29,34603.12,-23318.53,0
27-1-2017 3:00,11257.97,6023.24,34960.93,-22914.44,0
27-1-2017 4:00,11369.3,8898.45,37815.93,-20019.03,0
27-1-2017 5:00,10506.72,9776.56,38671.65,-19118.53,0
27-1-2017 6:00,2576.55,9951.95,38824.12,-18920.22,0
27-1-2017 7:00,4519.17,5848.01,34702.99,-23006.98,0
27-1-2017 8:00,8663.45,5791.34,34623.64,-23040.95,0
27-1-2017 9:00,15830.62,7485.06,36295.4,-21325.28,0
27-1-2017 10:00,23499.47,11793.41,40588.32,-17001.5,0
27-1-2017 11:00,26690.77,17449.21,46235.84,-11337.43,0
27-1-2017 12:00,25635.33,21458.28,50231.26,-7314.69,0
27-1-2017 13:00,22245.58,22915.19,51667.39,-5837.02,0
27-1-2017 14:00,22388.88,22165.81,50895.48,-6563.86,0
27-1-2017 15:00,22422.87,22349.52,51056.67,-6357.64,0
27-1-2017 16:00,21994.6,22369.46,51054.15,-6315.22,0
27-1-2017 17:00,20039.7,22156.8,50819.08,-6505.47,0
27-1-2017 18:00,19123.18,21028.02,49668.4,-7612.36,0
27-1-2017 19:00,15481.93,20175.11,48793.56,-8443.33,0
27-1-2017 20:00,47546.23,17770.71,46369.19,-10827.78,1
27-1-2017 21:00,11804.83,34530.93,63199.52,5862.35,0
27-1-2017 22:00,11809.0,19492.75,48192.26,-9206.76,0
27-1-2017 23:00,10002.85,17312.17,45995.5,-11371.16,0
28-1-2017 0:00,4392.8,14008.5,42675.22,-14658.22,0
28-1-2017 1:00,4711.68,9408.48,38062.68,-19245.71,0
28-1-2017 2:00,5463.38,7695.29,36329.7,-20939.13,0
28-1-2017 3:00,15718.33,6890.92,35503.83,-21721.98,0
28-1-2017 4:00,19590.53,11914.63,40513.54,-16684.28,0
28-1-2017 5:00,17450.37,15316.28,43899.31,-13266.75,0
28-1-2017 6:00,17707.95,15790.6,44352.21,-12771.0,0
28-1-2017 7:00,17528.18,16646.31,45186.46,-11893.84,0
28-1-2017 8:00,8162.92,16955.54,45473.98,-11562.89,0
28-1-2017 9:00,11567.53,12071.16,40575.78,-16433.45,0
28-1-2017 10:00,16374.18,12591.03,41073.96,-15891.91,0
28-1-2017 11:00,19821.07,14704.01,43166.76,-13758.74,0
28-1-2017 12:00,17154.27,17157.41,45601.23,-11286.42,0
28-1-2017 13:00,16415.87,16691.19,45113.46,-11731.08,0
28-1-2017 14:00,14333.2,16540.98,44941.75,-11859.78,0
28-1-2017 15:00,14199.83,15359.42,43739.23,-13020.38,0
28-1-2017 16:00,12367.22,14926.29,43284.82,-13432.25,0
28-1-2017 17:00,12194.77,13633.08,41970.91,-14704.76,0
28-1-2017 18:00,12753.87,13079.44,41396.18,-15237.29,0
28-1-2017 19:00,12488.88,13032.15,41327.63,-15263.33,0
28-1-2017 20:00,11947.85,12764.79,41039.09,-15509.5,0
28-1-2017 21:00,8911.77,12367.64,40620.83,-15885.55,0
28-1-2017 22:00,8799.03,10552.95,38786.23,-17680.33,0
28-1-2017 23:00,6069.73,9907.97,38120.49,-18304.55,0
29-1-2017 0:00,1327.57,7968.62,36161.61,-20224.37,0
29-1-2017 1:00,2633.33,4684.14,32860.63,-23492.35,0
29-1-2017 2:00,2514.22,4163.52,32319.5,-23992.47,0
29-1-2017 3:00,7510.63,3446.4,31581.77,-24688.97,0
29-1-2017 4:00,7310.72,5819.4,33935.59,-22296.78,0
29-1-2017 5:00,6921.12,6266.59,34362.19,-21829.01,0
29-1-2017 6:00,1705.15,6489.28,34564.17,-21585.61,0
29-1-2017 7:00,2867.93,3813.33,31869.82,-24243.15,0
29-1-2017 8:00,5427.38,3730.62,31766.53,-24305.28,0
29-1-2017 9:00,8095.08,4744.6,32760.17,-23270.98,0
29-1-2017 10:00,10783.4,6423.04,34419.16,-21573.09,0
29-1-2017 11:00,12114.6,8503.77,36481.28,-19473.74,0
29-1-2017 12:00,11605.08,10083.27,38041.61,-17875.06,0
29-1-2017 13:00,10137.65,10588.03,38526.16,-17350.1,0
29-1-2017 14:00,9351.75,10203.15,38120.9,-17714.6,0
29-1-2017 15:00,9829.28,9778.13,37675.6,-18119.33,0
29-1-2017 16:00,8524.85,9883.56,37760.71,-17993.6,0
29-1-2017 17:00,8768.37,9135.42,36992.49,-18721.65,0
29-1-2017 18:00,9610.43,9058.18,36895.05,-18778.68,0
29-1-2017 19:00,10405.52,9393.77,37210.48,-18422.95,0
29-1-2017 20:00,9738.22,9897.15,37693.83,-17899.53,0
29-1-2017 21:00,10585.62,9718.12,37494.71,-18058.47,0
29-1-2017 22:00,8272.42,10207.27,37963.89,-17549.35,0
29-1-2017 23:00,6782.48,9069.63,36806.62,-18667.36,0
30-1-2017 0:00,3761.73,7994.16,35711.71,-19723.38,0
30-1-2017 1:00,2472.93,5885.95,33585.36,-21813.47,0
30-1-2017 2:00,1797.08,4402.6,32083.3,-23278.1,0
30-1-2017 3:00,1497.95,3286.18,30947.73,-24375.37,0
30-1-2017 4:00,1348.72,2543.62,30185.7,-25098.46,0
30-1-2017 5:00,1390.43,2051.67,29674.14,-25570.8,0
30-1-2017 6:00,2332.42,1798.09,29400.9,-25804.71,0
30-1-2017 7:00,5178.17,2150.73,29733.9,-25432.43,0
30-1-2017 8:00,8429.43,3759.77,31324.21,-23804.68,0
30-1-2017 9:00,46261.58,6041.5,33588.53,-21505.52,1
30-1-2017 10:00,19613.55,27697.46,55384.61,10.3,0
30-1-2017 11:00,102298.35,19607.48,47281.29,-8066.32,1
30-1-2017 12:00,77588.75,65357.09,93667.66,37046.52,0
30-1-2017 13:00,31318.23,66829.79,95134.24,38525.35,1
30-1-2017 14:00,32459.82,45575.77,73973.91,17177.63,0
30-1-2017 15:00,30145.2,41293.74,69687.76,12899.71,0
30-1-2017 16:00,26234.98,36343.01,64728.9,7957.11,0
30-1-2017 17:00,24045.23,31799.22,60174.92,3423.51,0
30-1-2017 18:00,19972.6,28442.73,56804.27,81.18,0
30-1-2017 19:00,18169.37,24464.24,52812.76,-3884.28,0
30-1-2017 20:00,18297.65,21745.23,50077.71,-6587.25,0
30-1-2017 21:00,14449.93,20402.61,48716.44,-7911.22,0
30-1-2017 22:00,13077.28,17418.88,45716.34,-10878.58,0
30-1-2017 23:00,10325.25,15548.09,43827.64,-12731.45,0
31-1-2017 0:00,5472.25,13045.03,41307.5,-15217.44,0
31-1-2017 1:00,3269.75,9317.18,37565.46,-18931.1,0
31-1-2017 2:00,2724.18,6635.74,34867.89,-21596.42,0
31-1-2017 3:00,4937.97,4999.72,33213.78,-23214.33,0
31-1-2017 4:00,8892.8,5308.44,33502.98,-22886.1,0
31-1-2017 5:00,7344.77,7297.66,35473.92,-20878.6,0
31-1-2017 6:00,8973.2,7008.44,35165.26,-21148.38,0
31-1-2017 7:00,10964.48,8090.87,36228.65,-20046.92,0
31-1-2017 8:00,15833.5,9507.18,37626.39,-18612.02,0
31-1-2017 9:00,26243.52,12753.99,40857.64,-15349.65,0
31-1-2017 10:00,30785.43,19669.45,47770.9,-8432.0,0
31-1-2017 11:00,33370.33,24659.29,52753.1,-3434.52,0
31-1-2017 12:00,34779.02,28540.79,56622.51,459.07,0
31-1-2017 13:00,58114.78,31264.47,59330.67,3198.27,0
31-1-2017 14:00,33618.23,45735.26,73849.56,17620.95,0
31-1-2017 15:00,30218.45,36713.45,64822.08,8604.83,0
31-1-2017 16:00,30808.53,34115.45,62208.8,6022.11,0
31-1-2017 17:00,31389.45,32832.52,60907.78,4757.25,0
31-1-2017 18:00,28317.57,32315.75,60372.15,4259.34,0
31-1-2017 19:00,27028.2,30218.78,58257.66,2179.9,0
31-1-2017 20:00,22363.18,28789.98,56810.83,769.13,0
31-1-2017 21:00,21284.97,25491.61,53497.36,-2514.15,0
31-1-2017 22:00,18000.52,23703.64,51692.13,-4284.86,0
31-1-2017 23:00,14619.82,20890.11,48862.77,-7082.54,0
