Time,Actual,Forecasts,Upper Interval,Lower Interval,Is Anomalies
25-1-2017 19:00,949.8,930.36,1219.57,641.16,0
25-1-2017 20:00,802.23,852.32,1141.28,563.35,0
25-1-2017 21:00,701.45,758.94,1047.69,470.19,0
25-1-2017 22:00,613.5,654.03,942.57,365.48,0
25-1-2017 23:00,445.42,567.39,855.71,279.07,0
26-1-2017 0:00,283.92,381.78,670.02,93.53,0
26-1-2017 1:00,184.43,216.1,504.21,-72.01,0
26-1-2017 2:00,138.08,187.77,475.66,-100.11,0
26-1-2017 3:00,118.18,178.13,465.8,-109.54,0
26-1-2017 4:00,99.78,147.56,435.03,-139.91,0
26-1-2017 5:00,90.97,130.81,418.07,-156.45,0
26-1-2017 6:00,112.43,136.93,423.97,-150.11,0
26-1-2017 7:00,200.25,171.93,458.74,-114.88,0
26-1-2017 8:00,324.4,295.92,582.5,9.34,0
26-1-2017 9:00,479.97,431.47,717.83,145.12,0
26-1-2017 10:00,624.5,584.52,870.67,298.38,0
26-1-2017 11:00,748.73,707.94,993.86,422.01,0
26-1-2017 12:00,784.57,813.14,1098.85,527.43,0
26-1-2017 13:00,674.55,786.64,1072.13,501.15,0
26-1-2017 14:00,595.87,592.61,878.01,307.22,0
26-1-2017 15:00,565.87,560.24,845.4,275.08,0
26-1-2017 16:00,532.2,594.26,879.19,309.33,0
26-1-2017 17:00,539.35,532.14,816.88,247.4,0
26-1-2017 18:00,602.1,545.92,830.43,261.41,0
26-1-2017 19:00,660.52,670.87,955.19,386.56,0
26-1-2017 20:00,667.63,706.19,990.28,422.1,0
26-1-2017 21:00,594.73,654.44,938.31,370.56,0
26-1-2017 22:00,504.88,552.12,835.81,268.44,0
26-1-2017 23:00,369.52,475.28,758.76,191.79,0
27-1-2017 0:00,236.52,318.7,602.08,35.32,0
27-1-2017 1:00,138.77,195.64,478.86,-87.58,0
27-1-2017 2:00,104.93,135.93,418.96,-147.1,0
27-1-2017 3:00,94.97,148.85,431.67,-133.96,0
27-1-2017 4:00,83.2,135.45,418.07,-147.17,0
27-1-2017 5:00,76.48,117.68,400.1,-164.75,0
27-1-2017 6:00,120.28,116.13,398.34,-166.09,0
27-1-2017 7:00,244.62,197.1,479.09,-84.89,0
27-1-2017 8:00,496.98,360.79,642.59,79.0,0
27-1-2017 9:00,1001.27,673.26,955.03,391.49,1
27-1-2017 10:00,1498.17,1301.77,1584.46,1019.07,0
27-1-2017 11:00,1669.57,1736.18,2019.06,1453.3,0
27-1-2017 12:00,1651.2,1621.86,1904.57,1339.16,0
27-1-2017 13:00,1472.97,1509.29,1791.78,1226.8,0
27-1-2017 14:00,1589.58,1340.09,1622.38,1057.81,0
27-1-2017 15:00,1555.93,1650.36,1933.09,1367.64,0
27-1-2017 16:00,1492.52,1490.2,1772.8,1207.6,0
27-1-2017 17:00,1346.28,1369.91,1652.28,1087.53,0
27-1-2017 18:00,1011.97,1209.74,1491.9,927.58,0
27-1-2017 19:00,753.28,825.6,1107.96,543.25,0
27-1-2017 20:00,669.43,579.12,861.31,296.93,0
27-1-2017 21:00,584.32,698.03,980.09,415.97,0
27-1-2017 22:00,479.2,576.27,858.24,294.29,0
27-1-2017 23:00,358.33,398.63,680.49,116.77,0
28-1-2017 0:00,217.58,317.77,599.43,36.12,0
28-1-2017 1:00,131.65,201.71,483.26,-79.83,0
28-1-2017 2:00,99.5,116.89,398.27,-164.49,0
28-1-2017 3:00,87.27,140.62,421.78,-140.55,0
28-1-2017 4:00,77.08,138.13,419.11,-142.84,0
28-1-2017 5:00,67.53,106.32,387.12,-174.49,0
28-1-2017 6:00,93.85,104.72,385.32,-175.89,0
28-1-2017 7:00,184.37,163.13,443.52,-117.26,0
28-1-2017 8:00,318.95,281.99,562.17,1.81,0
28-1-2017 9:00,583.3,428.76,708.74,148.77,0
28-1-2017 10:00,822.12,756.54,1036.56,476.52,0
28-1-2017 11:00,938.48,954.59,1234.44,674.74,0
28-1-2017 12:00,912.97,954.9,1234.54,675.26,0
28-1-2017 13:00,762.27,848.21,1127.65,568.76,0
28-1-2017 14:00,689.57,671.17,950.48,391.85,0
28-1-2017 15:00,649.58,664.25,943.36,385.15,0
28-1-2017 16:00,631.02,657.96,936.86,379.07,0
28-1-2017 17:00,587.27,630.25,908.94,351.56,0
28-1-2017 18:00,535.03,561.1,839.6,282.6,0
28-1-2017 19:00,515.58,526.2,804.5,247.9,0
28-1-2017 20:00,456.82,526.54,804.63,248.45,0
28-1-2017 21:00,393.88,443.44,721.38,165.5,0
28-1-2017 22:00,344.07,372.79,650.54,95.03,0
28-1-2017 23:00,229.17,350.45,628.0,72.89,0
29-1-2017 0:00,84.2,198.25,475.75,-79.25,0
29-1-2017 1:00,103.57,28.73,306.15,-248.7,0
29-1-2017 2:00,74.68,185.68,462.96,-91.59,0
29-1-2017 3:00,70.9,126.41,403.6,-150.79,0
29-1-2017 4:00,80.03,85.17,362.2,-191.85,0
29-1-2017 5:00,62.83,127.14,403.95,-149.68,0
29-1-2017 6:00,84.43,119.22,395.87,-157.44,0
29-1-2017 7:00,156.95,121.18,397.64,-155.29,0
29-1-2017 8:00,263.53,249.75,526.03,-26.52,0
29-1-2017 9:00,412.8,367.91,643.98,91.83,0
29-1-2017 10:00,531.92,513.05,788.95,237.16,0
29-1-2017 11:00,642.0,604.78,880.48,329.09,0
29-1-2017 12:00,656.35,705.52,981.03,430.01,0
29-1-2017 13:00,559.33,652.76,928.09,377.43,0
29-1-2017 14:00,481.72,494.07,769.28,218.85,0
29-1-2017 15:00,454.3,452.8,727.82,177.78,0
29-1-2017 16:00,453.1,486.78,761.6,211.96,0
29-1-2017 17:00,450.07,475.58,750.21,200.95,0
29-1-2017 18:00,498.18,456.66,731.1,182.22,0
29-1-2017 19:00,548.43,551.62,825.88,277.36,0
29-1-2017 20:00,531.55,598.69,872.75,324.63,0
29-1-2017 21:00,480.43,516.93,790.84,243.03,0
29-1-2017 22:00,418.35,452.45,726.17,178.73,0
29-1-2017 23:00,338.85,415.04,688.57,141.5,0
30-1-2017 0:00,208.75,321.47,594.87,48.07,0
30-1-2017 1:00,123.43,156.09,429.42,-117.24,0
30-1-2017 2:00,92.95,121.91,395.06,-151.23,0
30-1-2017 3:00,87.5,140.13,413.09,-132.82,0
30-1-2017 4:00,77.15,130.61,403.4,-142.18,0
30-1-2017 5:00,76.47,102.08,374.7,-170.54,0
30-1-2017 6:00,119.1,122.42,394.85,-150.02,0
30-1-2017 7:00,249.0,191.32,463.56,-80.92,0
30-1-2017 8:00,516.3,365.67,637.75,93.59,0
30-1-2017 9:00,1070.83,700.93,973.05,428.82,1
30-1-2017 10:00,1677.87,1405.18,1678.46,1131.9,0
30-1-2017 11:00,2140.93,1976.75,2250.56,1702.94,0
30-1-2017 12:00,2055.58,2257.27,2531.15,1983.39,0
30-1-2017 13:00,2085.7,1805.87,2079.95,1531.78,1
30-1-2017 14:00,2108.55,2008.43,2283.08,1733.77,0
30-1-2017 15:00,1856.93,2108.03,2382.59,1833.47,0
30-1-2017 16:00,1758.13,1606.16,1881.14,1331.18,0
30-1-2017 17:00,1601.6,1577.21,1852.22,1302.2,0
30-1-2017 18:00,1323.32,1551.94,1826.76,1277.12,0
30-1-2017 19:00,1144.22,1108.94,1384.07,833.81,0
30-1-2017 20:00,858.6,979.33,1254.29,704.38,0
30-1-2017 21:00,732.98,743.9,1018.8,469.0,0
30-1-2017 22:00,629.83,680.01,954.72,405.3,0
30-1-2017 23:00,436.2,578.94,853.48,304.39,0
31-1-2017 0:00,250.2,355.39,629.94,80.84,0
31-1-2017 1:00,150.03,152.79,427.26,-121.67,0
31-1-2017 2:00,109.28,164.98,439.27,-109.31,0
31-1-2017 3:00,97.8,150.91,425.03,-123.21,0
31-1-2017 4:00,83.22,125.62,399.58,-148.33,0
31-1-2017 5:00,85.72,110.54,384.33,-163.24,0
31-1-2017 6:00,153.8,139.14,412.74,-134.47,0
31-1-2017 7:00,324.52,235.85,509.26,-37.57,0
31-1-2017 8:00,577.5,464.73,738.03,191.42,0
31-1-2017 9:00,1108.97,743.91,1017.15,470.67,1
31-1-2017 10:00,1551.75,1418.56,1692.89,1144.23,0
31-1-2017 11:00,1844.4,1751.04,2025.35,1476.74,0
31-1-2017 12:00,2011.98,1877.11,2151.31,1602.91,0
31-1-2017 13:00,1967.3,1981.6,2255.78,1707.41,0
31-1-2017 14:00,2074.23,1867.52,2141.52,1593.52,0
31-1-2017 15:00,2098.73,2050.14,2324.36,1775.93,0
31-1-2017 16:00,2082.08,2047.62,2321.69,1773.56,0
31-1-2017 17:00,2011.07,1977.45,2251.32,1703.58,0
31-1-2017 18:00,1771.93,1867.12,2140.82,1593.43,0
31-1-2017 19:00,1598.38,1579.18,1852.77,1305.58,0
31-1-2017 20:00,1411.0,1441.45,1714.87,1168.04,0
31-1-2017 21:00,1284.18,1290.74,1563.98,1017.5,0
31-1-2017 22:00,1148.72,1197.08,1470.14,924.02,0
31-1-2017 23:00,804.27,1042.94,1315.84,770.05,0
