Time,Actual,Forecasts,Upper Interval,Lower Interval,Is Anomalies
25-1-2017 19:00,115.32,143.61,225.66,61.56,0
25-1-2017 20:00,96.1,104.09,186.11,22.08,0
25-1-2017 21:00,82.58,96.59,178.54,14.65,0
25-1-2017 22:00,70.15,81.25,163.13,-0.64,0
25-1-2017 23:00,52.95,71.32,153.14,-10.5,0
26-1-2017 0:00,28.52,51.97,133.74,-29.79,0
26-1-2017 1:00,15.5,27.09,108.81,-54.63,0
26-1-2017 2:00,11.63,21.04,102.69,-60.62,0
26-1-2017 3:00,8.6,18.54,100.14,-63.05,0
26-1-2017 4:00,7.2,15.47,97.0,-66.06,0
26-1-2017 5:00,8.33,14.98,96.45,-66.48,0
26-1-2017 6:00,11.88,16.79,98.18,-64.61,0
26-1-2017 7:00,21.87,20.87,102.2,-60.46,0
26-1-2017 8:00,40.1,32.92,114.18,-48.35,0
26-1-2017 9:00,59.78,52.65,133.85,-28.55,0
26-1-2017 10:00,78.83,70.62,151.75,-10.52,0
26-1-2017 11:00,93.33,88.57,169.64,7.5,0
26-1-2017 12:00,96.98,100.11,181.12,19.1,0
26-1-2017 13:00,84.97,99.53,180.47,18.58,0
26-1-2017 14:00,69.33,82.86,163.75,1.98,0
26-1-2017 15:00,68.35,69.05,149.88,-11.77,0
26-1-2017 16:00,64.13,74.51,155.27,-6.25,0
26-1-2017 17:00,66.17,65.83,146.53,-14.86,0
26-1-2017 18:00,70.57,73.01,153.64,-7.63,0
26-1-2017 19:00,73.73,75.64,156.21,-4.92,0
26-1-2017 20:00,73.47,78.78,159.28,-1.72,0
26-1-2017 21:00,66.65,76.84,157.28,-3.59,0
26-1-2017 22:00,63.42,68.17,148.55,-12.21,0
26-1-2017 23:00,46.23,67.9,148.22,-12.41,0
27-1-2017 0:00,29.72,43.75,124.02,-36.52,0
27-1-2017 1:00,14.9,32.4,112.62,-47.81,0
27-1-2017 2:00,10.03,17.08,97.23,-63.08,0
27-1-2017 3:00,8.1,17.77,97.87,-62.32,0
27-1-2017 4:00,6.27,14.67,94.7,-65.37,0
27-1-2017 5:00,9.37,13.59,93.57,-66.38,0
27-1-2017 6:00,16.93,18.47,98.39,-61.44,0
27-1-2017 7:00,39.08,26.7,106.55,-53.14,0
27-1-2017 8:00,94.85,53.89,133.68,-25.9,0
27-1-2017 9:00,196.03,119.16,198.95,39.37,0
27-1-2017 10:00,283.53,229.67,309.63,149.72,0
27-1-2017 11:00,308.5,298.37,378.37,218.37,0
27-1-2017 12:00,310.2,299.48,379.41,219.54,0
27-1-2017 13:00,280.17,301.38,381.26,221.5,0
27-1-2017 14:00,307.2,257.94,337.78,178.11,0
27-1-2017 15:00,300.85,317.9,397.76,238.04,0
27-1-2017 16:00,283.45,279.08,358.9,199.27,0
27-1-2017 17:00,252.68,273.82,353.57,194.06,0
27-1-2017 18:00,167.02,232.95,312.66,153.24,0
27-1-2017 19:00,96.68,132.17,211.98,52.37,0
27-1-2017 20:00,78.17,82.97,162.76,3.18,0
27-1-2017 21:00,66.93,81.36,161.09,1.63,0
27-1-2017 22:00,56.62,66.25,145.93,-13.42,0
27-1-2017 23:00,39.8,59.2,138.82,-20.42,0
28-1-2017 0:00,23.28,38.9,118.47,-40.67,0
28-1-2017 1:00,12.68,25.64,105.16,-53.88,0
28-1-2017 2:00,9.77,17.23,96.7,-62.23,0
28-1-2017 3:00,6.95,17.28,96.69,-62.12,0
28-1-2017 4:00,5.93,13.23,92.58,-66.11,0
28-1-2017 5:00,6.05,13.78,93.07,-65.51,0
28-1-2017 6:00,11.5,13.65,92.87,-65.58,0
28-1-2017 7:00,21.83,21.4,100.57,-57.76,0
28-1-2017 8:00,44.52,32.13,111.24,-46.98,0
28-1-2017 9:00,81.87,58.89,137.94,-20.17,0
28-1-2017 10:00,121.22,98.39,177.41,19.38,0
28-1-2017 11:00,128.15,134.34,213.32,55.37,0
28-1-2017 12:00,124.38,126.17,205.08,47.25,0
28-1-2017 13:00,103.83,124.92,203.77,46.06,0
28-1-2017 14:00,91.88,96.45,175.26,17.64,0
28-1-2017 15:00,86.15,93.77,172.52,15.02,0
28-1-2017 16:00,78.2,86.99,165.68,8.29,0
28-1-2017 17:00,73.2,79.12,157.75,0.48,0
28-1-2017 18:00,61.57,75.96,154.55,-2.62,0
28-1-2017 19:00,54.47,61.06,139.59,-17.47,0
28-1-2017 20:00,49.22,58.45,136.92,-20.03,0
28-1-2017 21:00,43.0,52.3,130.72,-26.11,0
28-1-2017 22:00,37.8,46.55,124.91,-31.81,0
28-1-2017 23:00,25.77,42.04,120.35,-36.26,0
29-1-2017 0:00,9.1,27.23,105.49,-51.03,0
29-1-2017 1:00,9.22,10.99,89.2,-67.22,0
29-1-2017 2:00,4.67,19.26,97.41,-58.9,0
29-1-2017 3:00,4.6,8.64,86.74,-69.46,0
29-1-2017 4:00,4.88,13.82,91.87,-64.22,0
29-1-2017 5:00,5.47,11.6,89.59,-66.39,0
29-1-2017 6:00,7.93,13.52,91.45,-64.42,0
29-1-2017 7:00,14.08,16.01,93.89,-61.86,0
29-1-2017 8:00,28.67,23.46,101.28,-54.36,0
29-1-2017 9:00,47.07,40.4,118.16,-37.36,0
29-1-2017 10:00,63.82,57.99,135.7,-19.72,0
29-1-2017 11:00,73.5,72.92,150.58,-4.73,0
29-1-2017 12:00,74.42,79.16,156.76,1.57,0
29-1-2017 13:00,64.53,77.34,154.88,-0.2,0
29-1-2017 14:00,54.15,64.22,141.71,-13.27,0
29-1-2017 15:00,50.15,56.06,133.5,-21.38,0
29-1-2017 16:00,48.52,54.46,131.84,-22.92,0
29-1-2017 17:00,51.55,52.93,130.26,-24.39,0
29-1-2017 18:00,55.8,57.98,135.25,-19.29,0
29-1-2017 19:00,59.33,61.47,138.68,-15.75,0
29-1-2017 20:00,60.58,64.71,141.87,-12.45,0
29-1-2017 21:00,57.62,64.85,141.96,-12.25,0
29-1-2017 22:00,53.85,60.57,137.63,-16.48,0
29-1-2017 23:00,42.88,57.36,134.35,-19.64,0
30-1-2017 0:00,26.65,43.4,120.35,-33.55,0
30-1-2017 1:00,13.37,27.34,104.25,-49.56,0
30-1-2017 2:00,8.65,16.51,93.37,-60.34,0
30-1-2017 3:00,7.88,15.21,92.01,-61.59,0
30-1-2017 4:00,6.82,14.74,91.49,-62.01,0
30-1-2017 5:00,9.88,13.45,90.14,-63.25,0
30-1-2017 6:00,19.6,18.41,95.06,-58.23,0
30-1-2017 7:00,46.45,29.7,106.29,-46.89,0
30-1-2017 8:00,113.18,62.13,138.68,-14.41,0
30-1-2017 9:00,251.28,140.55,217.14,63.97,1
30-1-2017 10:00,170.92,297.31,374.27,220.35,1
30-1-2017 11:00,383.45,105.21,182.67,27.74,1
30-1-2017 12:00,256.02,493.74,573.78,413.69,1
30-1-2017 13:00,343.53,146.65,228.43,64.87,1
30-1-2017 14:00,356.12,401.94,484.86,319.03,0
30-1-2017 15:00,396.73,320.14,403.06,237.21,0
30-1-2017 16:00,361.62,405.41,488.46,322.35,0
30-1-2017 17:00,309.58,326.05,409.11,242.99,0
30-1-2017 18:00,207.07,288.88,371.89,205.87,0
30-1-2017 19:00,151.25,168.98,252.15,85.82,0
30-1-2017 20:00,104.98,143.11,226.23,59.99,0
30-1-2017 21:00,91.4,92.64,175.75,9.53,0
30-1-2017 22:00,80.55,94.78,177.83,11.73,0
30-1-2017 23:00,57.57,79.7,162.7,-3.3,0
31-1-2017 0:00,34.7,55.5,138.46,-27.45,0
31-1-2017 1:00,18.98,35.05,117.96,-47.87,0
31-1-2017 2:00,11.87,22.48,105.35,-60.38,0
31-1-2017 3:00,9.83,18.09,100.9,-64.72,0
31-1-2017 4:00,8.8,17.13,99.88,-65.63,0
31-1-2017 5:00,11.4,16.13,98.83,-66.57,0
31-1-2017 6:00,22.17,19.91,102.56,-62.73,0
31-1-2017 7:00,59.9,32.54,115.13,-50.05,0
31-1-2017 8:00,132.98,77.07,159.62,-5.49,0
31-1-2017 9:00,291.88,155.38,237.98,72.78,1
31-1-2017 10:00,431.08,333.2,416.33,250.07,1
31-1-2017 11:00,508.93,445.9,529.27,362.52,0
31-1-2017 12:00,526.4,504.09,587.53,420.65,0
31-1-2017 13:00,503.27,504.15,587.55,420.76,0
31-1-2017 14:00,537.52,473.64,556.98,390.3,0
31-1-2017 15:00,525.37,531.84,615.25,448.43,0
31-1-2017 16:00,518.42,492.53,575.88,409.18,0
31-1-2017 17:00,493.18,499.36,582.68,416.04,0
31-1-2017 18:00,340.47,463.29,546.55,380.02,1
31-1-2017 19:00,254.22,274.96,358.63,191.28,0
31-1-2017 20:00,226.4,236.59,320.22,152.96,0
31-1-2017 21:00,205.57,215.26,298.84,131.69,0
31-1-2017 22:00,190.5,196.34,279.86,112.82,0
31-1-2017 23:00,134.63,184.07,267.54,100.6,0
