Time,Actual,Forecasts,Upper Interval,Lower Interval,Is Anomalies
25-1-2017 19:00,451.21,462.65,2967.91,-2042.62,0
25-1-2017 20:00,443.28,415.51,2918.67,-2087.65,0
25-1-2017 21:00,431.7,417.24,2918.29,-2083.82,0
25-1-2017 22:00,429.46,422.25,2921.21,-2076.71,0
25-1-2017 23:00,734.74,421.77,2918.64,-2075.09,0
26-1-2017 0:00,697.06,860.7,3355.6,-1634.2,0
26-1-2017 1:00,432.74,859.38,3352.23,-1633.48,0
26-1-2017 2:00,480.33,300.56,2791.57,-2190.45,0
26-1-2017 3:00,458.97,346.05,2835.03,-2142.92,0
26-1-2017 4:00,350.59,477.81,2964.74,-2009.11,0
26-1-2017 5:00,407.97,292.95,2777.83,-2191.93,0
26-1-2017 6:00,368.78,368.7,2851.54,-2114.14,0
26-1-2017 7:00,355.88,385.9,2866.68,-2094.89,0
26-1-2017 8:00,386.34,327.65,2806.39,-2151.09,0
26-1-2017 9:00,394.11,391.52,2868.22,-2085.19,0
26-1-2017 10:00,391.26,415.11,2889.78,-2059.56,0
26-1-2017 11:00,417.21,394.6,2867.24,-2078.03,0
26-1-2017 12:00,436.62,426.37,2896.97,-2044.24,0
26-1-2017 13:00,427.63,459.84,2928.43,-2008.74,0
26-1-2017 14:00,411.88,435.2,2901.77,-2031.37,0
26-1-2017 15:00,410.18,400.07,2864.63,-2064.48,0
26-1-2017 16:00,417.21,400.29,2862.84,-2062.26,0
26-1-2017 17:00,397.2,419.15,2879.7,-2041.4,0
26-1-2017 18:00,415.93,392.96,2851.51,-2065.59,0
26-1-2017 19:00,414.2,412.07,2868.63,-2044.48,0
26-1-2017 20:00,452.81,424.4,2878.97,-2030.17,0
26-1-2017 21:00,418.53,467.9,2920.48,-1984.69,0
26-1-2017 22:00,423.84,426.75,2877.36,-2023.86,0
26-1-2017 23:00,391.74,406.07,2854.7,-2042.57,0
27-1-2017 0:00,370.28,381.45,2828.12,-2065.21,0
27-1-2017 1:00,401.43,342.62,2787.32,-2102.09,0
27-1-2017 2:00,425.05,401.9,2844.65,-2040.84,0
27-1-2017 3:00,315.89,453.06,2893.85,-1987.73,0
27-1-2017 4:00,303.86,284.15,2723.02,-2154.71,0
27-1-2017 5:00,403.32,235.19,2672.12,-2201.73,0
27-1-2017 6:00,379.64,437.77,2872.79,-1997.24,0
27-1-2017 7:00,395.67,427.76,2860.85,-2005.32,0
27-1-2017 8:00,440.04,388.55,2819.7,-2042.61,0
27-1-2017 9:00,492.62,467.89,2897.11,-1961.34,0
27-1-2017 10:00,545.9,540.41,2967.72,-1886.89,0
27-1-2017 11:00,590.11,598.77,3024.16,-1826.62,0
27-1-2017 12:00,599.87,639.61,3063.08,-1783.87,0
27-1-2017 13:00,549.34,629.72,3051.29,-1791.85,0
27-1-2017 14:00,559.35,533.96,2953.64,-1885.71,0
27-1-2017 15:00,565.7,534.06,2951.83,-1883.71,0
27-1-2017 16:00,580.88,574.18,2990.06,-1841.69,0
27-1-2017 17:00,544.5,590.91,3004.9,-1823.08,0
27-1-2017 18:00,492.13,538.18,2950.29,-1873.92,0
27-1-2017 19:00,490.56,449.08,2859.31,-1961.14,0
27-1-2017 20:00,470.64,459.37,2867.72,-1948.98,0
27-1-2017 21:00,433.99,461.42,2867.9,-1945.06,0
27-1-2017 22:00,390.22,407.1,2811.7,-1997.51,0
27-1-2017 23:00,463.83,350.6,2753.34,-2052.14,0
28-1-2017 0:00,355.7,468.99,2869.89,-1931.9,0
28-1-2017 1:00,773.23,353.55,2752.6,-2045.51,0
28-1-2017 2:00,360.74,884.21,3281.63,-1513.21,0
28-1-2017 3:00,389.98,432.45,2828.36,-1963.47,0
28-1-2017 4:00,316.46,161.54,2555.62,-2232.53,0
28-1-2017 5:00,338.93,302.88,2695.14,-2089.38,0
28-1-2017 6:00,361.19,305.41,2695.84,-2085.02,0
28-1-2017 7:00,370.94,383.57,2772.17,-2005.03,0
28-1-2017 8:00,392.45,387.99,2774.76,-1998.79,0
28-1-2017 9:00,383.36,407.1,2792.05,-1977.85,0
28-1-2017 10:00,402.57,392.12,2775.25,-1991.02,0
28-1-2017 11:00,422.21,405.27,2786.59,-1976.05,0
28-1-2017 12:00,419.27,441.6,2821.11,-1937.91,0
28-1-2017 13:00,411.33,429.5,2807.21,-1948.2,0
28-1-2017 14:00,385.65,406.31,2782.21,-1969.6,0
28-1-2017 15:00,380.1,370.32,2744.42,-2003.79,0
28-1-2017 16:00,395.3,362.81,2735.12,-2009.5,0
28-1-2017 17:00,397.23,398.4,2768.92,-1972.13,0
28-1-2017 18:00,387.75,406.9,2775.64,-1961.84,0
28-1-2017 19:00,400.13,384.93,2751.88,-1982.03,0
28-1-2017 20:00,394.87,399.76,2764.94,-1965.42,0
28-1-2017 21:00,389.89,399.9,2763.31,-1963.51,0
28-1-2017 22:00,379.19,384.75,2746.38,-1976.89,0
28-1-2017 23:00,327.89,371.83,2731.7,-1988.04,0
29-1-2017 0:00,496.81,300.27,2658.38,-2057.84,0
29-1-2017 1:00,457.21,537.27,2893.67,-1819.13,0
29-1-2017 2:00,597.44,539.25,2893.9,-1815.41,0
29-1-2017 3:00,463.32,632.77,2985.68,-1720.14,0
29-1-2017 4:00,408.3,489.25,2840.44,-1861.95,0
29-1-2017 5:00,365.49,307.14,2656.6,-2042.33,0
29-1-2017 6:00,390.18,315.56,2663.29,-2032.17,0
29-1-2017 7:00,355.08,375.49,2721.49,-1970.51,0
29-1-2017 8:00,338.53,354.86,2699.13,-1989.41,0
29-1-2017 9:00,345.95,311.16,2653.7,-2031.38,0
29-1-2017 10:00,385.29,339.39,2680.21,-2001.44,0
29-1-2017 11:00,371.29,406.01,2745.11,-1933.1,0
29-1-2017 12:00,363.24,388.41,2725.8,-1948.99,0
29-1-2017 13:00,335.04,351.72,2687.4,-1983.96,0
29-1-2017 14:00,374.71,318.59,2652.57,-2015.38,0
29-1-2017 15:00,379.46,374.79,2707.06,-1957.48,0
29-1-2017 16:00,367.98,404.58,2735.15,-1925.99,0
29-1-2017 17:00,376.16,365.97,2694.84,-1962.91,0
29-1-2017 18:00,375.65,372.87,2700.05,-1954.31,0
29-1-2017 19:00,362.92,380.21,2705.7,-1945.28,0
29-1-2017 20:00,398.45,357.32,2681.13,-1966.49,0
29-1-2017 21:00,377.96,405.83,2727.96,-1916.3,0
29-1-2017 22:00,419.26,390.15,2710.6,-1930.3,0
29-1-2017 23:00,366.82,424.51,2743.29,-1894.26,0
30-1-2017 0:00,338.33,369.07,2686.18,-1948.04,0
30-1-2017 1:00,331.46,295.87,2611.31,-2019.58,0
30-1-2017 2:00,376.58,311.98,2625.76,-2001.8,0
30-1-2017 3:00,335.16,391.37,2703.5,-1920.76,0
30-1-2017 4:00,357.0,344.23,2654.7,-1966.25,0
30-1-2017 5:00,336.46,341.94,2650.75,-1966.88,0
30-1-2017 6:00,396.91,340.64,2647.81,-1966.53,0
30-1-2017 7:00,390.46,410.11,2715.64,-1895.42,0
30-1-2017 8:00,391.91,423.04,2726.92,-1880.85,0
30-1-2017 9:00,448.36,388.75,2691.0,-1913.5,0
30-1-2017 10:00,1183.25,472.72,2773.34,-1827.89,0
30-1-2017 11:00,4803.77,1522.37,3821.95,-777.22,1
30-1-2017 12:00,8283.05,6745.3,9055.97,4434.64,0
30-1-2017 13:00,4334.67,11844.09,14155.89,9532.28,1
30-1-2017 14:00,5035.54,4680.21,7055.68,2304.74,0
30-1-2017 15:00,633.92,3040.72,5414.65,666.79,1
30-1-2017 16:00,513.72,-772.7,1606.05,-3151.44,0
30-1-2017 17:00,499.02,-2137.23,241.68,-4516.13,1
30-1-2017 18:00,431.69,422.7,2807.74,-1962.34,0
30-1-2017 19:00,471.37,395.1,2778.47,-1988.27,0
30-1-2017 20:00,412.34,448.55,2830.25,-1933.15,0
30-1-2017 21:00,428.24,410.96,2791.0,-1969.07,0
30-1-2017 22:00,394.38,400.37,2778.75,-1978.0,0
30-1-2017 23:00,383.31,389.58,2766.3,-1987.13,0
31-1-2017 0:00,343.87,358.93,2733.99,-2016.13,0
31-1-2017 1:00,348.58,321.0,2694.41,-2052.41,0
31-1-2017 2:00,367.92,327.5,2699.26,-2044.26,0
31-1-2017 3:00,357.95,378.71,2748.83,-1991.4,0
31-1-2017 4:00,392.61,365.1,2733.58,-2003.38,0
31-1-2017 5:00,386.62,401.2,2768.04,-1965.64,0
31-1-2017 6:00,432.95,404.37,2769.58,-1960.83,0
31-1-2017 7:00,389.21,448.72,2812.29,-1914.85,0
31-1-2017 8:00,435.96,398.08,2760.03,-1963.87,0
31-1-2017 9:00,514.45,429.85,2790.18,-1930.47,0
31-1-2017 10:00,589.72,574.4,2933.11,-1784.31,0
31-1-2017 11:00,626.61,666.87,3023.96,-1690.22,0
31-1-2017 12:00,617.57,685.92,3041.4,-1669.56,0
31-1-2017 13:00,558.31,635.36,2989.23,-1718.52,0
31-1-2017 14:00,577.18,528.38,2880.65,-1823.89,0
31-1-2017 15:00,577.0,550.41,2901.08,-1800.25,0
31-1-2017 16:00,561.62,587.95,2937.02,-1761.12,0
31-1-2017 17:00,573.64,555.12,2902.59,-1792.35,0
31-1-2017 18:00,569.54,569.66,2915.53,-1776.22,0
31-1-2017 19:00,520.28,574.86,2919.14,-1769.43,0
31-1-2017 20:00,513.09,497.4,2840.1,-1845.3,0
31-1-2017 21:00,479.04,481.33,2822.44,-1859.79,0
31-1-2017 22:00,463.56,460.68,2800.21,-1878.85,0
31-1-2017 23:00,537.8,437.23,2775.18,-1900.72,0
