Time,Actual,Forecasts,Upper Interval,Lower Interval,Is Anomalies
25-1-2017 19:00,594.03,685.45,3828.57,-2457.67,0
25-1-2017 20:00,578.83,525.39,3665.87,-2615.09,0
25-1-2017 21:00,593.98,560.85,3698.69,-2576.99,0
25-1-2017 22:00,575.64,545.39,3680.6,-2589.82,0
25-1-2017 23:00,571.7,561.1,3693.68,-2571.49,0
26-1-2017 0:00,580.49,576.07,3706.03,-2553.9,0
26-1-2017 1:00,584.98,575.23,3702.57,-2552.12,0
26-1-2017 2:00,614.46,585.66,3710.4,-2539.08,0
26-1-2017 3:00,611.76,632.19,3754.33,-2489.95,0
26-1-2017 4:00,573.86,614.74,3734.28,-2504.81,0
26-1-2017 5:00,554.03,571.11,3688.07,-2545.85,0
26-1-2017 6:00,533.48,541.3,3655.69,-2573.08,0
26-1-2017 7:00,532.93,504.54,3616.35,-2607.26,0
26-1-2017 8:00,551.3,521.65,3630.89,-2587.59,0
26-1-2017 9:00,557.87,549.46,3656.14,-2557.21,0
26-1-2017 10:00,555.46,561.78,3665.9,-2542.34,0
26-1-2017 11:00,574.69,563.76,3665.33,-2537.81,0
26-1-2017 12:00,579.66,586.3,3685.33,-2512.73,0
26-1-2017 13:00,567.89,582.01,3678.5,-2514.48,0
26-1-2017 14:00,554.46,572.33,3666.29,-2521.63,0
26-1-2017 15:00,557.26,550.09,3641.53,-2541.35,0
26-1-2017 16:00,550.73,551.88,3640.79,-2537.04,0
26-1-2017 17:00,552.32,541.48,3627.88,-2544.93,0
26-1-2017 18:00,563.59,553.95,3637.85,-2529.95,0
26-1-2017 19:00,574.61,565.55,3646.95,-2515.85,0
26-1-2017 20:00,581.77,581.06,3659.97,-2497.84,0
26-1-2017 21:00,574.01,591.19,3667.61,-2485.23,0
26-1-2017 22:00,565.49,576.39,3650.33,-2497.54,0
26-1-2017 23:00,562.32,564.65,3636.11,-2506.81,0
27-1-2017 0:00,574.28,556.56,3625.54,-2512.43,0
27-1-2017 1:00,578.6,575.26,3641.78,-2491.27,0
27-1-2017 2:00,594.92,579.8,3643.86,-2484.27,0
27-1-2017 3:00,705.55,608.31,3669.92,-2453.31,0
27-1-2017 4:00,599.5,758.09,3817.27,-2301.08,0
27-1-2017 5:00,577.22,567.64,3624.4,-2489.13,0
27-1-2017 6:00,584.36,613.9,3668.23,-2440.43,0
27-1-2017 7:00,586.66,534.46,3586.36,-2517.44,0
27-1-2017 8:00,596.79,577.33,3626.81,-2472.15,0
27-1-2017 9:00,652.34,604.94,3652.0,-2442.13,0
27-1-2017 10:00,710.17,678.92,3723.57,-2365.74,0
27-1-2017 11:00,794.59,744.65,3786.9,-2297.6,0
27-1-2017 12:00,792.98,863.17,3903.02,-2176.68,0
27-1-2017 13:00,717.76,826.1,3863.57,-2211.36,0
27-1-2017 14:00,765.99,725.16,3760.25,-2309.92,0
27-1-2017 15:00,743.12,781.62,3814.32,-2251.08,0
27-1-2017 16:00,721.27,699.61,3729.93,-2330.72,0
27-1-2017 17:00,714.5,733.43,3761.39,-2294.52,0
27-1-2017 18:00,671.73,698.88,3724.47,-2326.71,0
27-1-2017 19:00,654.51,641.57,3664.8,-2381.66,0
27-1-2017 20:00,803.71,640.64,3661.51,-2380.23,0
27-1-2017 21:00,710.67,848.28,3866.83,-2170.27,0
27-1-2017 22:00,602.64,670.91,3687.14,-2345.31,0
27-1-2017 23:00,631.06,620.73,3634.62,-2393.16,0
28-1-2017 0:00,660.1,591.17,3602.72,-2420.39,0
28-1-2017 1:00,677.36,622.43,3631.67,-2386.8,0
28-1-2017 2:00,705.8,700.85,3707.76,-2306.07,0
28-1-2017 3:00,652.22,733.77,3738.37,-2270.82,0
28-1-2017 4:00,685.38,638.65,3640.94,-2363.64,0
28-1-2017 5:00,602.4,710.37,3710.35,-2289.61,0
28-1-2017 6:00,595.66,541.59,3539.28,-2456.11,0
28-1-2017 7:00,589.76,603.16,3598.56,-2392.24,0
28-1-2017 8:00,591.41,546.31,3539.42,-2446.8,0
28-1-2017 9:00,600.32,588.47,3579.29,-2402.36,0
28-1-2017 10:00,614.4,601.54,3590.08,-2387.01,0
28-1-2017 11:00,697.46,622.08,3608.36,-2364.19,0
28-1-2017 12:00,667.03,739.78,3723.79,-2244.22,0
28-1-2017 13:00,666.52,665.94,3647.68,-2315.81,0
28-1-2017 14:00,718.95,704.63,3684.12,-2274.86,0
28-1-2017 15:00,611.79,727.49,3704.73,-2249.74,0
28-1-2017 16:00,602.41,567.31,3542.31,-2407.68,0
28-1-2017 17:00,598.9,616.47,3589.22,-2356.28,0
28-1-2017 18:00,594.26,544.58,3515.09,-2425.93,0
28-1-2017 19:00,595.26,587.39,3555.67,-2380.89,0
28-1-2017 20:00,603.4,593.68,3559.74,-2372.37,0
28-1-2017 21:00,588.4,604.84,3568.67,-2358.99,0
28-1-2017 22:00,609.15,582.75,3544.36,-2378.86,0
28-1-2017 23:00,617.05,621.35,3580.74,-2338.05,0
29-1-2017 0:00,1277.54,614.68,3571.87,-2342.5,0
29-1-2017 1:00,868.0,1582.66,4538.07,-1372.75,0
29-1-2017 2:00,808.2,734.18,3687.88,-2219.52,0
29-1-2017 3:00,766.78,1075.03,4026.54,-1876.48,0
29-1-2017 4:00,729.65,545.09,3494.5,-2404.33,0
29-1-2017 5:00,615.91,681.2,3628.46,-2266.06,0
29-1-2017 6:00,587.95,542.55,3487.64,-2402.53,0
29-1-2017 7:00,595.15,549.69,3492.6,-2393.22,0
29-1-2017 8:00,591.36,541.14,3481.88,-2399.6,0
29-1-2017 9:00,591.15,576.56,3515.14,-2362.01,0
29-1-2017 10:00,591.1,594.3,3530.72,-2342.12,0
29-1-2017 11:00,591.6,589.22,3523.48,-2345.04,0
29-1-2017 12:00,594.23,591.72,3523.82,-2340.39,0
29-1-2017 13:00,597.66,595.41,3525.37,-2334.55,0
29-1-2017 14:00,608.62,599.61,3527.43,-2328.21,0
29-1-2017 15:00,561.05,615.02,3540.7,-2310.66,0
29-1-2017 16:00,578.09,542.27,3465.82,-2381.28,0
29-1-2017 17:00,561.2,587.77,3509.2,-2333.65,0
29-1-2017 18:00,560.52,531.7,3451.0,-2387.6,0
29-1-2017 19:00,609.63,567.35,3484.53,-2349.83,0
29-1-2017 20:00,588.89,623.25,3538.32,-2291.81,0
29-1-2017 21:00,569.73,582.66,3495.62,-2330.3,0
29-1-2017 22:00,564.84,583.66,3494.52,-2327.19,0
29-1-2017 23:00,583.99,551.27,3460.02,-2357.48,0
30-1-2017 0:00,599.9,582.87,3489.53,-2323.78,0
30-1-2017 1:00,626.73,605.92,3510.48,-2298.65,0
30-1-2017 2:00,670.27,649.08,3551.56,-2253.4,0
30-1-2017 3:00,647.67,699.24,3599.63,-2201.16,0
30-1-2017 4:00,656.03,653.61,3551.93,-2244.71,0
30-1-2017 5:00,602.12,679.39,3575.64,-2216.85,0
30-1-2017 6:00,583.42,567.68,3461.86,-2326.51,0
30-1-2017 7:00,586.21,575.48,3467.6,-2316.63,0
30-1-2017 8:00,614.95,559.96,3450.02,-2330.09,0
30-1-2017 9:00,716.63,618.85,3506.85,-2269.15,0
30-1-2017 10:00,3745.41,765.25,3651.21,-2120.71,1
30-1-2017 11:00,6084.66,5116.27,8008.56,2223.98,0
30-1-2017 12:00,12997.04,7383.45,10274.58,4492.33,1
30-1-2017 13:00,6507.91,17715.99,20634.47,14797.5,1
30-1-2017 14:00,8075.7,5518.1,8548.0,2488.2,0
30-1-2017 15:00,1056.44,11383.79,14416.95,8350.63,1
30-1-2017 16:00,927.29,-4302.29,-1184.13,-7420.45,1
30-1-2017 17:00,1134.58,210.21,3348.94,-2928.52,0
30-1-2017 18:00,758.85,-1800.9,1336.34,-4938.13,0
30-1-2017 19:00,777.63,597.19,3737.76,-2543.38,0
30-1-2017 20:00,781.69,800.13,3938.53,-2338.26,0
30-1-2017 21:00,729.32,629.75,3765.95,-2506.46,0
30-1-2017 22:00,650.75,717.44,3851.46,-2416.58,0
30-1-2017 23:00,611.42,611.72,3743.55,-2520.12,0
31-1-2017 0:00,608.72,559.17,3688.82,-2570.49,0
31-1-2017 1:00,622.43,567.32,3694.8,-2560.16,0
31-1-2017 2:00,631.54,610.84,3736.15,-2514.47,0
31-1-2017 3:00,652.21,636.59,3759.73,-2486.55,0
31-1-2017 4:00,647.97,667.77,3788.75,-2453.21,0
31-1-2017 5:00,611.22,654.05,3772.87,-2464.77,0
31-1-2017 6:00,621.03,604.67,3721.34,-2512.0,0
31-1-2017 7:00,608.58,616.1,3730.62,-2498.42,0
31-1-2017 8:00,681.15,590.21,3702.58,-2522.16,0
31-1-2017 9:00,960.02,711.29,3821.53,-2398.95,0
31-1-2017 10:00,940.61,1077.8,4185.96,-2030.35,0
31-1-2017 11:00,1041.25,1016.45,4122.48,-2089.59,0
31-1-2017 12:00,1042.08,1193.56,4297.47,-1910.35,0
31-1-2017 13:00,1084.85,1053.45,4155.25,-2048.35,0
31-1-2017 14:00,1113.94,1143.83,4243.52,-1955.85,0
31-1-2017 15:00,1181.4,1133.82,4231.39,-1963.75,0
31-1-2017 16:00,983.62,1231.23,4326.69,-1864.23,0
31-1-2017 17:00,1088.5,931.2,4024.61,-2162.2,0
31-1-2017 18:00,965.11,1120.1,4211.43,-1971.22,0
31-1-2017 19:00,991.34,854.08,3943.33,-2235.16,0
31-1-2017 20:00,869.0,1021.96,4109.13,-2065.21,0
31-1-2017 21:00,814.3,774.52,3859.62,-2310.58,0
31-1-2017 22:00,732.59,780.56,3863.57,-2302.46,0
31-1-2017 23:00,897.52,639.04,3719.97,-2441.9,0
