Time,Actual,Forecasts,Upper Interval,Lower Interval,Is Anomalies
25-1-2017 19:00,1802.8,1624.85,3948.92,-699.22,0
25-1-2017 20:00,1516.76,1648.82,3970.99,-673.34,0
25-1-2017 21:00,1442.47,1631.05,3951.28,-689.19,0
25-1-2017 22:00,1276.13,1605.65,3923.99,-712.7,0
25-1-2017 23:00,1154.52,1561.2,3877.76,-755.36,0
26-1-2017 0:00,1591.64,1506.13,3820.98,-808.73,0
26-1-2017 1:00,1588.05,1517.75,3830.68,-795.19,0
26-1-2017 2:00,2403.31,1527.27,3838.29,-783.75,0
26-1-2017 3:00,1930.11,1645.24,3955.38,-664.91,0
26-1-2017 4:00,1573.01,1683.57,3991.91,-624.78,0
26-1-2017 5:00,1536.67,1668.67,3975.12,-637.78,0
26-1-2017 6:00,1430.1,1650.92,3955.49,-653.64,0
26-1-2017 7:00,1410.6,1621.27,3924.0,-681.46,0
26-1-2017 8:00,1599.41,1592.98,3893.88,-707.91,0
26-1-2017 9:00,1327.12,1593.85,3892.85,-705.15,0
26-1-2017 10:00,1381.38,1558.02,3855.23,-739.19,0
26-1-2017 11:00,1612.26,1534.26,3829.63,-761.11,0
26-1-2017 12:00,1468.14,1544.76,3838.26,-748.74,0
26-1-2017 13:00,1714.41,1534.46,3826.09,-757.17,0
26-1-2017 14:00,1630.77,1558.65,3848.46,-731.16,0
26-1-2017 15:00,1646.32,1568.33,3856.28,-719.61,0
26-1-2017 16:00,1583.6,1578.8,3864.9,-707.29,0
26-1-2017 17:00,1395.45,1579.45,3863.68,-704.79,0
26-1-2017 18:00,1616.12,1554.76,3837.19,-727.68,0
26-1-2017 19:00,1521.67,1562.99,3843.58,-717.6,0
26-1-2017 20:00,1378.15,1557.45,3836.2,-721.3,0
26-1-2017 21:00,1438.51,1533.39,3810.34,-743.57,0
26-1-2017 22:00,1407.36,1520.65,3795.78,-754.48,0
26-1-2017 23:00,2430.98,1505.43,3778.75,-767.89,0
27-1-2017 0:00,1829.47,1629.45,3902.11,-643.2,0
27-1-2017 1:00,1654.32,1656.3,3927.19,-614.59,0
27-1-2017 2:00,1481.73,1656.03,3925.1,-613.04,0
27-1-2017 3:00,1828.56,1632.64,3899.94,-634.65,0
27-1-2017 4:00,1325.38,1658.89,3924.43,-606.65,0
27-1-2017 5:00,1460.66,1614.22,3878.11,-649.66,0
27-1-2017 6:00,1361.71,1593.69,3855.8,-668.43,0
27-1-2017 7:00,1218.27,1562.67,3823.06,-697.72,0
27-1-2017 8:00,1492.09,1516.56,3775.32,-742.2,0
27-1-2017 9:00,1580.62,1513.29,3770.26,-743.69,0
27-1-2017 10:00,1501.11,1522.31,3777.51,-732.88,0
27-1-2017 11:00,1889.02,1519.48,3772.89,-733.94,0
27-1-2017 12:00,1859.94,1568.9,3820.73,-682.92,0
27-1-2017 13:00,1730.63,1607.79,3857.96,-642.37,0
27-1-2017 14:00,1884.23,1624.22,3872.64,-624.2,0
27-1-2017 15:00,1792.8,1659.04,3905.79,-587.71,0
27-1-2017 16:00,1845.04,1676.98,3922.0,-568.03,0
27-1-2017 17:00,1478.22,1699.56,3942.86,-543.74,0
27-1-2017 18:00,1864.23,1669.83,3911.45,-571.78,0
27-1-2017 19:00,1693.98,1695.88,3935.8,-544.04,0
27-1-2017 20:00,1742.72,1695.62,3933.8,-542.55,0
27-1-2017 21:00,2320.67,1701.93,3938.37,-534.51,0
27-1-2017 22:00,1591.95,1785.05,4020.27,-450.17,0
27-1-2017 23:00,1518.16,1759.01,3992.54,-474.53,0
28-1-2017 0:00,2168.51,1726.68,3958.57,-505.2,0
28-1-2017 1:00,7067.95,1785.9,4016.32,-444.52,1
28-1-2017 2:00,4216.23,2517.27,4782.75,251.8,0
28-1-2017 3:00,2597.26,2818.04,5085.52,550.56,0
28-1-2017 4:00,1258.46,2777.61,5043.4,511.83,0
28-1-2017 5:00,2469.4,2529.2,4796.07,262.33,0
28-1-2017 6:00,1465.27,2520.36,4785.49,255.22,0
28-1-2017 7:00,1356.54,2370.13,4634.93,105.33,0
28-1-2017 8:00,1540.9,2232.28,4496.66,-32.11,0
28-1-2017 9:00,1404.96,2139.74,4403.01,-123.53,0
28-1-2017 10:00,1363.46,2041.22,4303.47,-221.03,0
28-1-2017 11:00,1588.0,1949.28,4210.41,-311.85,0
28-1-2017 12:00,1473.32,1899.59,4159.19,-360.0,0
28-1-2017 13:00,1450.09,1840.43,4098.55,-417.69,0
28-1-2017 14:00,1486.67,1785.7,4042.31,-470.92,0
28-1-2017 15:00,1226.55,1743.44,3998.47,-511.6,0
28-1-2017 16:00,1412.93,1669.77,3923.46,-583.91,0
28-1-2017 17:00,1442.0,1632.8,3884.88,-619.28,0
28-1-2017 18:00,1460.9,1605.31,3855.75,-645.13,0
28-1-2017 19:00,1495.29,1584.53,3833.31,-664.24,0
28-1-2017 20:00,1450.81,1571.74,3818.84,-675.37,0
28-1-2017 21:00,1909.98,1554.44,3799.88,-691.0,0
28-1-2017 22:00,1393.54,1604.98,3848.9,-638.94,0
28-1-2017 23:00,1611.12,1575.18,3817.48,-667.12,0
29-1-2017 0:00,721.06,1580.26,3820.89,-660.37,0
29-1-2017 1:00,2482.87,1458.71,3698.63,-781.2,0
29-1-2017 2:00,2609.73,1603.53,3843.09,-636.03,0
29-1-2017 3:00,4386.54,1743.11,3982.29,-496.08,1
29-1-2017 4:00,1415.29,2115.28,4361.69,-131.13,0
29-1-2017 5:00,2443.25,2012.08,4257.42,-233.25,0
29-1-2017 6:00,2208.35,2073.63,4317.55,-170.29,0
29-1-2017 7:00,3967.93,2092.96,4335.26,-149.33,0
29-1-2017 8:00,1257.62,2368.47,4613.57,123.37,0
29-1-2017 9:00,1351.41,2201.04,4445.97,-43.89,0
29-1-2017 10:00,1519.56,2081.26,4325.43,-162.91,0
29-1-2017 11:00,1696.56,2004.01,4246.93,-238.9,0
29-1-2017 12:00,1466.7,1961.98,4203.36,-279.41,0
29-1-2017 13:00,1217.01,1894.26,4134.32,-345.8,0
29-1-2017 14:00,1531.95,1801.18,4040.18,-437.82,0
29-1-2017 15:00,1333.17,1763.83,4001.29,-473.63,0
29-1-2017 16:00,1409.25,1703.72,3939.8,-532.35,0
29-1-2017 17:00,1492.2,1662.29,3896.85,-572.27,0
29-1-2017 18:00,1662.19,1638.28,3871.25,-594.7,0
29-1-2017 19:00,1358.14,1641.66,3873.01,-589.7,0
29-1-2017 20:00,1778.86,1601.75,3831.6,-628.09,0
29-1-2017 21:00,1748.26,1626.69,3854.96,-601.58,0
29-1-2017 22:00,1246.87,1643.68,3870.36,-582.99,0
29-1-2017 23:00,1461.97,1588.28,3813.55,-636.99,0
30-1-2017 0:00,1614.58,1570.57,3794.26,-653.12,0
30-1-2017 1:00,1541.85,1576.75,3798.84,-645.35,0
30-1-2017 2:00,1861.0,1571.87,3792.37,-648.63,0
30-1-2017 3:00,1433.34,1612.2,3831.22,-606.81,0
30-1-2017 4:00,2338.75,1587.32,3804.78,-630.15,0
30-1-2017 5:00,1655.05,1691.64,3908.22,-524.94,0
30-1-2017 6:00,1652.84,1686.57,3901.56,-528.43,0
30-1-2017 7:00,1361.32,1681.89,3895.31,-531.53,0
30-1-2017 8:00,1399.18,1637.48,3849.45,-574.49,0
30-1-2017 9:00,1532.8,1604.46,3814.93,-606.01,0
30-1-2017 10:00,1695.05,1594.52,3803.43,-614.38,0
30-1-2017 11:00,4721.8,1608.47,3815.82,-598.89,1
30-1-2017 12:00,5838.55,2037.4,4255.09,-180.29,1
30-1-2017 13:00,3718.61,2638.19,4871.89,404.49,0
30-1-2017 14:00,6276.2,2848.06,5081.61,614.51,1
30-1-2017 15:00,1672.32,3583.18,5828.96,1337.39,0
30-1-2017 16:00,1620.73,3154.6,5402.75,906.46,0
30-1-2017 17:00,1553.31,2876.0,5125.23,626.77,0
30-1-2017 18:00,1692.93,2662.68,4912.36,413.0,0
30-1-2017 19:00,1506.31,2515.22,4764.43,266.02,0
30-1-2017 20:00,1697.45,2364.85,4613.69,116.01,0
30-1-2017 21:00,1602.42,2265.14,4512.94,17.33,0
30-1-2017 22:00,1572.79,2164.88,4411.65,-81.89,0
30-1-2017 23:00,1432.49,2073.76,4319.39,-171.87,0
31-1-2017 0:00,1165.27,1973.18,4217.75,-271.4,0
31-1-2017 1:00,1216.11,1843.26,4087.07,-400.54,0
31-1-2017 2:00,1630.08,1739.58,3982.31,-503.15,0
31-1-2017 3:00,1425.15,1721.34,3962.53,-519.86,0
31-1-2017 4:00,1721.97,1672.33,3912.09,-567.42,0
31-1-2017 5:00,2019.29,1680.52,3918.73,-557.69,0
31-1-2017 6:00,1536.72,1735.34,3972.13,-501.46,0
31-1-2017 7:00,1987.92,1703.6,3938.9,-531.7,0
31-1-2017 8:00,1363.88,1748.9,3982.75,-484.96,0
31-1-2017 9:00,1717.97,1687.86,3920.36,-544.64,0
31-1-2017 10:00,1659.5,1692.65,3923.62,-538.32,0
31-1-2017 11:00,1921.1,1687.4,3916.84,-542.04,0
31-1-2017 12:00,2078.08,1724.37,3952.35,-503.61,0
31-1-2017 13:00,1799.43,1780.09,4006.69,-446.51,0
31-1-2017 14:00,1748.47,1783.14,4008.22,-441.95,0
31-1-2017 15:00,1824.1,1777.68,4001.25,-445.89,0
31-1-2017 16:00,1842.99,1784.98,4007.04,-437.07,0
31-1-2017 17:00,1799.33,1794.11,4014.66,-426.44,0
31-1-2017 18:00,1857.08,1794.93,4013.97,-424.11,0
31-1-2017 19:00,1805.86,1804.71,4022.25,-412.84,0
31-1-2017 20:00,1658.5,1804.89,4020.93,-411.16,0
31-1-2017 21:00,1530.98,1781.86,3996.43,-432.71,0
31-1-2017 22:00,1476.26,1742.4,3955.55,-470.75,0
31-1-2017 23:00,1477.59,1700.49,3912.23,-511.25,0
