Time,Actual,Forecasts,Upper Interval,Lower Interval,Is Anomalies
1-1-2017 0:00,-54979.98510853344,0.0,0.0,0.0,0
1-1-2017 1:00,-36682.031712907105,0.0,0.0,0.0,0
1-1-2017 2:00,-21225.031660728622,0.0,0.0,0.0,0
1-1-2017 3:00,-6335.440225501865,0.0,0.0,0.0,0
1-1-2017 4:00,8711.326502162294,0.0,0.0,0.0,0
1-1-2017 5:00,150598.96158472344,0.0,0.0,0.0,0
1-1-2017 6:00,40557.87418650696,0.0,0.0,0.0,0
1-1-2017 7:00,54303.31266356463,0.0,0.0,0.0,0
1-1-2017 8:00,65047.77167319166,0.0,0.0,0.0,0
1-1-2017 9:00,67625.01517258017,0.0,0.0,0.0,0
1-1-2017 10:00,-11230.839383310085,0.0,0.0,0.0,0
1-1-2017 11:00,7340.918817782498,0.0,0.0,0.0,0
1-1-2017 12:00,150166.87057012622,0.0,0.0,0.0,0
1-1-2017 13:00,115326.08557227819,0.0,0.0,0.0,0
1-1-2017 14:00,123257.73697479296,0.0,0.0,0.0,0
1-1-2017 15:00,136009.57683323114,0.0,0.0,0.0,0
1-1-2017 16:00,334099.3338104582,0.0,0.0,0.0,0
1-1-2017 17:00,160738.61800573167,0.0,0.0,0.0,0
1-1-2017 18:00,177216.35992743607,0.0,0.0,0.0,0
1-1-2017 19:00,-1704589.507766484,0.0,0.0,0.0,0
1-1-2017 20:00,-1784131.713905006,0.0,0.0,0.0,0
1-1-2017 21:00,196254.0330737551,0.0,0.0,0.0,0
1-1-2017 22:00,194497.34637737795,0.0,0.0,0.0,0
1-1-2017 23:00,-516190.4184179534,0.0,0.0,0.0,0
2-1-2017 0:00,206518.26367349795,0.0,0.0,0.0,0
2-1-2017 1:00,196506.73411683808,0.0,0.0,0.0,0
2-1-2017 2:00,186294.59237832506,0.0,0.0,0.0,0
2-1-2017 3:00,176159.87944389784,0.0,0.0,0.0,0
2-1-2017 4:00,166023.98095462593,0.0,0.0,0.0,0
2-1-2017 5:00,268175.069833971,0.0,0.0,0.0,0
2-1-2017 6:00,158296.56713766552,0.0,0.0,0.0,0
2-1-2017 7:00,155522.38524267566,0.0,0.0,0.0,0
2-1-2017 8:00,155774.1600333854,0.0,0.0,0.0,0
2-1-2017 9:00,171435.9710856225,0.0,0.0,0.0,0
2-1-2017 10:00,101625.37962417473,0.0,0.0,0.0,0
2-1-2017 11:00,101741.755155136,0.0,0.0,0.0,0
2-1-2017 12:00,242645.82143631403,0.0,0.0,0.0,0
2-1-2017 13:00,198308.81008986355,0.0,0.0,0.0,0
2-1-2017 14:00,199130.16129880445,0.0,0.0,0.0,0
2-1-2017 15:00,199092.131413689,0.0,0.0,0.0,0
2-1-2017 16:00,355410.2896660835,0.0,0.0,0.0,0
2-1-2017 17:00,193419.79009702252,0.0,0.0,0.0,0
2-1-2017 18:00,186737.84672909882,0.0,0.0,0.0,0
2-1-2017 19:00,-1575004.325973757,0.0,0.0,0.0,0
2-1-2017 20:00,-1683918.171444583,0.0,0.0,0.0,0
2-1-2017 21:00,180061.61299800873,0.0,0.0,0.0,0
2-1-2017 22:00,178551.1069597631,0.0,0.0,0.0,0
2-1-2017 23:00,-536088.3566804056,0.0,0.0,0.0,0
3-1-2017 0:00,184545.36697743347,0.0,0.0,0.0,0
3-1-2017 1:00,157349.11130260257,0.0,0.0,0.0,0
3-1-2017 2:00,131398.13460751335,0.0,0.0,0.0,0
3-1-2017 3:00,106032.96413754731,0.0,0.0,0.0,0
3-1-2017 4:00,80870.38303291303,0.0,0.0,0.0,0
3-1-2017 5:00,109577.12846219863,0.0,0.0,0.0,0
3-1-2017 6:00,-34572.3567790392,0.0,0.0,0.0,0
3-1-2017 7:00,-91163.20542896257,0.0,0.0,0.0,0
3-1-2017 8:00,-146744.7512400562,0.0,0.0,0.0,0
3-1-2017 9:00,-188523.3320006627,0.0,0.0,0.0,0
3-1-2017 10:00,-318850.4295511666,0.0,0.0,0.0,0
3-1-2017 11:00,-360807.7958738351,0.0,0.0,0.0,0
3-1-2017 12:00,-283713.5542473213,0.0,0.0,0.0,0
3-1-2017 13:00,-342647.68574726925,0.0,0.0,0.0,0
3-1-2017 14:00,-355178.798536797,0.0,0.0,0.0,0
3-1-2017 15:00,-368927.461970361,0.0,0.0,0.0,0
3-1-2017 16:00,-253997.82999643154,0.0,0.0,0.0,0
3-1-2017 17:00,-388788.014680617,0.0,0.0,0.0,0
3-1-2017 18:00,-392409.48468895897,0.0,0.0,0.0,0
3-1-2017 19:00,1.0593794779283756E7,0.0,0.0,0.0,0
3-1-2017 20:00,-2145724.6338348635,0.0,0.0,0.0,0
3-1-2017 21:00,-389589.21245449426,0.0,0.0,0.0,0
3-1-2017 22:00,-383409.9499829748,0.0,0.0,0.0,0
3-1-2017 23:00,-1089507.264616347,0.0,0.0,0.0,0
4-1-2017 0:00,-362311.5815404869,0.0,0.0,0.0,0
4-1-2017 1:00,-336447.6036283121,0.0,0.0,0.0,0
4-1-2017 2:00,-309605.5055748008,0.0,0.0,0.0,0
4-1-2017 3:00,-282835.8638751289,0.0,0.0,0.0,0
4-1-2017 4:00,-256136.9208129759,0.0,0.0,0.0,0
4-1-2017 5:00,-133302.80621292896,0.0,0.0,0.0,0
4-1-2017 6:00,-145188.06137827825,0.0,0.0,0.0,0
4-1-2017 7:00,-89350.43202203335,0.0,0.0,0.0,0
4-1-2017 8:00,-33469.74367382849,0.0,0.0,0.0,0
4-1-2017 9:00,11331.074058322847,0.0,0.0,0.0,0
4-1-2017 10:00,-36680.75310713367,0.0,0.0,0.0,0
4-1-2017 11:00,9402.48519067149,0.0,0.0,0.0,0
4-1-2017 12:00,174850.98863662445,0.0,0.0,0.0,0
4-1-2017 13:00,146922.44456209373,0.0,0.0,0.0,0
4-1-2017 14:00,156869.46535301174,0.0,0.0,0.0,0
4-1-2017 15:00,165122.6059499138,0.0,0.0,0.0,0
4-1-2017 16:00,277947.7093694714,0.0,0.0,0.0,0
4-1-2017 17:00,171579.23823878623,0.0,0.0,0.0,0
4-1-2017 18:00,170010.41025865084,0.0,0.0,0.0,0
4-1-2017 19:00,-1317432.5977653502,0.0,0.0,0.0,0
4-1-2017 20:00,-1462615.777204058,0.0,0.0,0.0,0
4-1-2017 21:00,168715.88017385843,0.0,0.0,0.0,0
4-1-2017 22:00,167138.0759342633,0.0,0.0,0.0,0
4-1-2017 23:00,-546395.2149131924,0.0,0.0,0.0,0
5-1-2017 0:00,172397.20235980928,0.0,0.0,0.0,0
5-1-2017 1:00,153756.01019032754,0.0,0.0,0.0,0
5-1-2017 2:00,135595.84932377696,0.0,0.0,0.0,0
5-1-2017 3:00,117780.40952442447,0.0,0.0,0.0,0
5-1-2017 4:00,99807.36119905056,0.0,0.0,0.0,0
5-1-2017 5:00,82651.2217515046,0.0,0.0,0.0,0
5-1-2017 6:00,-30607.2265563104,0.0,0.0,0.0,0
5-1-2017 7:00,-95289.17732821821,0.0,0.0,0.0,0
5-1-2017 8:00,-159477.40295503588,0.0,0.0,0.0,0
5-1-2017 9:00,-223368.10504361283,0.0,0.0,0.0,0
5-1-2017 10:00,-384069.7119775764,0.0,0.0,0.0,0
5-1-2017 11:00,-446781.999212852,0.0,0.0,0.0,0
5-1-2017 12:00,-394415.4641010143,0.0,0.0,0.0,0
5-1-2017 13:00,-453795.50322318927,0.0,0.0,0.0,0
5-1-2017 14:00,-478673.341324887,0.0,0.0,0.0,0
5-1-2017 15:00,-506926.43917058036,0.0,0.0,0.0,0
5-1-2017 16:00,-456840.99265837367,0.0,0.0,0.0,0
5-1-2017 17:00,-542067.5688042637,0.0,0.0,0.0,0
5-1-2017 18:00,-547817.3133248977,0.0,0.0,0.0,0
5-1-2017 19:00,-1902493.272275018,0.0,0.0,0.0,0
5-1-2017 20:00,1.3716109343036788E7,0.0,0.0,0.0,0
5-1-2017 21:00,-555295.3137364095,0.0,0.0,0.0,0
5-1-2017 22:00,-551305.6924274925,0.0,0.0,0.0,0
5-1-2017 23:00,-1259105.1872294047,0.0,0.0,0.0,0
6-1-2017 0:00,-534804.5167688658,0.0,0.0,0.0,0
6-1-2017 1:00,-508188.59591202193,0.0,0.0,0.0,0
6-1-2017 2:00,-481134.8370119018,0.0,0.0,0.0,0
6-1-2017 3:00,-454082.2284782999,0.0,0.0,0.0,0
6-1-2017 4:00,-427105.3387939811,0.0,0.0,0.0,0
6-1-2017 5:00,-336103.6676669168,0.0,0.0,0.0,0
6-1-2017 6:00,-296356.5728627205,0.0,0.0,0.0,0
6-1-2017 7:00,-230898.28029048635,0.0,0.0,0.0,0
6-1-2017 8:00,-165544.09445928538,0.0,0.0,0.0,0
6-1-2017 9:00,-101888.21818350977,0.0,0.0,0.0,0
6-1-2017 10:00,-133526.12872290396,0.0,0.0,0.0,0
6-1-2017 11:00,-66921.76012474124,0.0,0.0,0.0,0
6-1-2017 12:00,109259.88152359895,0.0,0.0,0.0,0
6-1-2017 13:00,103481.05419675195,0.0,0.0,0.0,0
6-1-2017 14:00,121032.4401921168,0.0,0.0,0.0,0
6-1-2017 15:00,138405.22877331782,0.0,0.0,0.0,0
6-1-2017 16:00,201948.05192673893,0.0,0.0,0.0,0
6-1-2017 17:00,154283.00972260855,0.0,0.0,0.0,0
6-1-2017 18:00,152578.60793559626,0.0,0.0,0.0,0
6-1-2017 19:00,-1075505.0551559122,0.0,0.0,0.0,0
6-1-2017 20:00,-1253833.4373848771,0.0,0.0,0.0,0
6-1-2017 21:00,153989.5343953651,0.0,0.0,0.0,0
6-1-2017 22:00,151858.51746531,0.0,0.0,0.0,0
6-1-2017 23:00,-562065.2543163098,0.0,0.0,0.0,0
7-1-2017 0:00,158705.21252441496,0.0,0.0,0.0,0
7-1-2017 1:00,153274.1730025541,0.0,0.0,0.0,0
7-1-2017 2:00,148744.39826431515,0.0,0.0,0.0,0
7-1-2017 3:00,144252.10172584123,0.0,0.0,0.0,0
7-1-2017 4:00,139701.40511359464,0.0,0.0,0.0,0
7-1-2017 5:00,127285.93005508109,0.0,0.0,0.0,0
7-1-2017 6:00,108736.18121110037,0.0,0.0,0.0,0
7-1-2017 7:00,93115.19011109445,0.0,0.0,0.0,0
7-1-2017 8:00,76899.97038393203,0.0,0.0,0.0,0
7-1-2017 9:00,32830.21210576111,0.0,0.0,0.0,0
7-1-2017 10:00,-106896.15417905596,0.0,0.0,0.0,0
7-1-2017 11:00,-147044.431887447,0.0,0.0,0.0,0
7-1-2017 12:00,-82219.99584259649,0.0,0.0,0.0,0
7-1-2017 13:00,-122577.45981254103,0.0,0.0,0.0,0
7-1-2017 14:00,-158533.72815853916,0.0,0.0,0.0,0
7-1-2017 15:00,-190278.51158886933,0.0,0.0,0.0,0
7-1-2017 16:00,-205982.67582221967,0.0,0.0,0.0,0
7-1-2017 17:00,-233037.9730332579,0.0,0.0,0.0,0
7-1-2017 18:00,-243221.27103531608,0.0,0.0,0.0,0
7-1-2017 19:00,-1360130.6322594066,0.0,0.0,0.0,0
7-1-2017 20:00,-1570145.056020337,0.0,0.0,0.0,0
7-1-2017 21:00,-269492.4579554213,0.0,0.0,0.0,0
7-1-2017 22:00,-270962.78154622565,0.0,0.0,0.0,0
7-1-2017 23:00,8235019.20127067,0.0,0.0,0.0,0
8-1-2017 0:00,-263327.633930197,0.0,0.0,0.0,0
8-1-2017 1:00,-261434.09832231633,0.0,0.0,0.0,0
8-1-2017 2:00,-259338.84119046846,0.0,0.0,0.0,0
8-1-2017 3:00,-257355.717292572,0.0,0.0,0.0,0
8-1-2017 4:00,-255397.56018514986,0.0,0.0,0.0,0
8-1-2017 5:00,-251609.0690488746,0.0,0.0,0.0,0
8-1-2017 6:00,-210014.22916066562,0.0,0.0,0.0,0
8-1-2017 7:00,-188853.48388243138,0.0,0.0,0.0,0
8-1-2017 8:00,-169739.99911747692,0.0,0.0,0.0,0
8-1-2017 9:00,-137740.407057315,0.0,0.0,0.0,0
8-1-2017 10:00,-203933.73050446314,0.0,0.0,0.0,0
8-1-2017 11:00,-165643.76593631622,0.0,0.0,0.0,0
8-1-2017 12:00,-22888.876911863626,0.0,0.0,0.0,0
8-1-2017 13:00,13904.043392492225,0.0,0.0,0.0,0
8-1-2017 14:00,43218.02162252909,0.0,0.0,0.0,0
8-1-2017 15:00,76540.95709806582,0.0,0.0,0.0,0
8-1-2017 16:00,95577.45107677806,0.0,0.0,0.0,0
8-1-2017 17:00,118273.47672495678,0.0,0.0,0.0,0
8-1-2017 18:00,129428.27037397752,0.0,0.0,0.0,0
8-1-2017 19:00,-844872.8075290045,0.0,0.0,0.0,0
8-1-2017 20:00,-1054520.6313682087,0.0,0.0,0.0,0
8-1-2017 21:00,142580.99194801896,0.0,0.0,0.0,0
8-1-2017 22:00,142030.06249122004,0.0,0.0,0.0,0
8-1-2017 23:00,-576753.5092986145,0.0,0.0,0.0,0
9-1-2017 0:00,144197.40425368253,0.0,0.0,0.0,0
9-1-2017 1:00,139180.24254233282,0.0,0.0,0.0,0
9-1-2017 2:00,133949.41909529569,0.0,0.0,0.0,0
9-1-2017 3:00,128638.57098059067,0.0,0.0,0.0,0
9-1-2017 4:00,123361.13479646794,0.0,0.0,0.0,0
9-1-2017 5:00,78576.5489208691,0.0,0.0,0.0,0
9-1-2017 6:00,118059.01433460508,0.0,0.0,0.0,0
9-1-2017 7:00,115707.33032972546,0.0,0.0,0.0,0
9-1-2017 8:00,115513.75392544278,0.0,0.0,0.0,0
9-1-2017 9:00,123212.58174662877,0.0,0.0,0.0,0
9-1-2017 10:00,34884.854472248924,0.0,0.0,0.0,0
9-1-2017 11:00,35642.3146520331,0.0,0.0,0.0,0
9-1-2017 12:00,126350.26999118706,0.0,0.0,0.0,0
9-1-2017 13:00,128432.96862518786,0.0,0.0,0.0,0
9-1-2017 14:00,132752.83748660414,0.0,0.0,0.0,0
9-1-2017 15:00,135307.13592335212,0.0,0.0,0.0,0
9-1-2017 16:00,88314.23747694174,0.0,0.0,0.0,0
9-1-2017 17:00,135279.16717463016,0.0,0.0,0.0,0
9-1-2017 18:00,131590.08366502245,0.0,0.0,0.0,0
9-1-2017 19:00,-731567.49998688,0.0,0.0,0.0,0
9-1-2017 20:00,-962388.7729743867,0.0,0.0,0.0,0
9-1-2017 21:00,129144.70375113064,0.0,0.0,0.0,0
9-1-2017 22:00,127872.20312628632,0.0,0.0,0.0,0
9-1-2017 23:00,-593992.2285723292,0.0,0.0,0.0,0
10-1-2017 0:00,128353.6428131808,0.0,0.0,0.0,0
10-1-2017 1:00,124960.41816669241,0.0,0.0,0.0,0
10-1-2017 2:00,121892.85131784203,0.0,0.0,0.0,0
10-1-2017 3:00,118847.97419767216,0.0,0.0,0.0,0
10-1-2017 4:00,115866.38081124809,0.0,0.0,0.0,0
10-1-2017 5:00,47388.975978770555,0.0,0.0,0.0,0
10-1-2017 6:00,113129.26464385234,0.0,0.0,0.0,0
10-1-2017 7:00,112529.60630388102,0.0,0.0,0.0,0
10-1-2017 8:00,112250.1155874817,0.0,0.0,0.0,0
10-1-2017 9:00,114319.3412739189,0.0,0.0,0.0,0
10-1-2017 10:00,17110.496146768914,0.0,0.0,0.0,0
10-1-2017 11:00,15147.979225022646,0.0,0.0,0.0,0
10-1-2017 12:00,98203.44297811089,0.0,0.0,0.0,0
10-1-2017 13:00,115559.5941072329,0.0,0.0,0.0,0
10-1-2017 14:00,120553.00829174231,0.0,0.0,0.0,0
10-1-2017 15:00,123572.11396384686,0.0,0.0,0.0,0
10-1-2017 16:00,40095.18714893234,0.0,0.0,0.0,0
10-1-2017 17:00,117949.25431945619,0.0,0.0,0.0,0
10-1-2017 18:00,109485.69261843464,0.0,0.0,0.0,0
10-1-2017 19:00,-640304.8480147227,0.0,0.0,0.0,0
10-1-2017 20:00,-896550.6767992271,0.0,0.0,0.0,0
10-1-2017 21:00,76376.23700610007,0.0,0.0,0.0,0
10-1-2017 22:00,58355.67569845724,0.0,0.0,0.0,0
10-1-2017 23:00,-688191.9698097226,0.0,0.0,0.0,0
11-1-2017 0:00,21492.78913726419,0.0,0.0,0.0,0
11-1-2017 1:00,4570.418349254207,0.0,0.0,0.0,0
11-1-2017 2:00,-12223.38510779239,0.0,0.0,0.0,0
11-1-2017 3:00,-28809.9244398101,0.0,0.0,0.0,0
11-1-2017 4:00,-45446.96058470837,0.0,0.0,0.0,0
11-1-2017 5:00,-143737.82171424304,0.0,0.0,0.0,0
11-1-2017 6:00,-58231.1771379938,0.0,0.0,0.0,0
11-1-2017 7:00,-63973.32351764836,0.0,0.0,0.0,0
11-1-2017 8:00,-70538.21225075593,0.0,0.0,0.0,0
11-1-2017 9:00,-71735.05854827739,0.0,0.0,0.0,0
11-1-2017 10:00,1798784.273764932,0.0,0.0,0.0,0
11-1-2017 11:00,1812017.1950347845,0.0,0.0,0.0,0
11-1-2017 12:00,-100286.57750506356,0.0,0.0,0.0,0
11-1-2017 13:00,-67869.67114913161,0.0,0.0,0.0,0
11-1-2017 14:00,-60497.83890984033,0.0,0.0,0.0,0
11-1-2017 15:00,-54327.69327069042,0.0,0.0,0.0,0
11-1-2017 16:00,-170683.47105207763,0.0,0.0,0.0,0
11-1-2017 17:00,-36050.70447408565,0.0,0.0,0.0,0
11-1-2017 18:00,-24607.962431888503,0.0,0.0,0.0,0
11-1-2017 19:00,-635038.3911968571,0.0,0.0,0.0,0
11-1-2017 20:00,-890075.3969289158,0.0,0.0,0.0,0
11-1-2017 21:00,16588.608616423793,0.0,0.0,0.0,0
11-1-2017 22:00,34222.19148238882,0.0,0.0,0.0,0
11-1-2017 23:00,-682235.4329789488,0.0,0.0,0.0,0
12-1-2017 0:00,70973.53838592117,0.0,0.0,0.0,0
12-1-2017 1:00,79340.96066300228,0.0,0.0,0.0,0
12-1-2017 2:00,87845.88980437216,0.0,0.0,0.0,0
12-1-2017 3:00,95978.47746711942,0.0,0.0,0.0,0
12-1-2017 4:00,104244.83166413382,0.0,0.0,0.0,0
12-1-2017 5:00,-17870.47985850443,0.0,0.0,0.0,0
12-1-2017 6:00,93241.5565328658,0.0,0.0,0.0,0
12-1-2017 7:00,87851.88997234256,0.0,0.0,0.0,0
12-1-2017 8:00,82185.8610813414,0.0,0.0,0.0,0
12-1-2017 9:00,75301.80471597484,0.0,0.0,0.0,0
12-1-2017 10:00,-29219.84222930862,0.0,0.0,0.0,0
12-1-2017 11:00,-36954.099466709056,0.0,0.0,0.0,0
12-1-2017 12:00,18843.555001654488,0.0,0.0,0.0,0
12-1-2017 13:00,58467.99292192867,0.0,0.0,0.0,0
12-1-2017 14:00,58738.11955353411,0.0,0.0,0.0,0
12-1-2017 15:00,58822.391497261546,0.0,0.0,0.0,0
12-1-2017 16:00,-100455.84691012005,0.0,0.0,0.0,0
12-1-2017 17:00,59852.359168441006,0.0,0.0,0.0,0
12-1-2017 18:00,59549.635046957876,0.0,0.0,0.0,0
12-1-2017 19:00,-442962.8350972051,0.0,0.0,0.0,0
12-1-2017 20:00,426087.7789757985,0.0,0.0,0.0,0
12-1-2017 21:00,59363.23130043768,0.0,0.0,0.0,0
12-1-2017 22:00,60212.72793641762,0.0,0.0,0.0,0
12-1-2017 23:00,-680463.5358816709,0.0,0.0,0.0,0
13-1-2017 0:00,62239.29749748933,0.0,0.0,0.0,0
13-1-2017 1:00,63423.30229310882,0.0,0.0,0.0,0
13-1-2017 2:00,64207.55348634251,0.0,0.0,0.0,0
13-1-2017 3:00,65184.31759730197,0.0,0.0,0.0,0
13-1-2017 4:00,65984.45940124398,0.0,0.0,0.0,0
13-1-2017 5:00,-71781.31529945819,0.0,0.0,0.0,0
13-1-2017 6:00,72954.21012207263,0.0,0.0,0.0,0
13-1-2017 7:00,75864.23496672716,0.0,0.0,0.0,0
13-1-2017 8:00,78629.91750387881,0.0,0.0,0.0,0
13-1-2017 9:00,79468.14059996442,0.0,0.0,0.0,0
13-1-2017 10:00,-16866.106760885763,0.0,0.0,0.0,0
13-1-2017 11:00,-18012.713662613256,0.0,0.0,0.0,0
13-1-2017 12:00,39485.93665688796,0.0,0.0,0.0,0
13-1-2017 13:00,94064.07055631706,0.0,0.0,0.0,0
13-1-2017 14:00,97218.09599504937,0.0,0.0,0.0,0
13-1-2017 15:00,91261.47865816712,0.0,0.0,0.0,0
13-1-2017 16:00,-95318.22018616636,0.0,0.0,0.0,0
13-1-2017 17:00,102706.42762545712,0.0,0.0,0.0,0
13-1-2017 18:00,102995.97957278717,0.0,0.0,0.0,0
13-1-2017 19:00,-277433.2676632625,0.0,0.0,0.0,0
13-1-2017 20:00,-581891.0194978886,0.0,0.0,0.0,0
13-1-2017 21:00,104913.43562413967,0.0,0.0,0.0,0
13-1-2017 22:00,105531.94768372971,0.0,0.0,0.0,0
13-1-2017 23:00,-640014.2838375146,0.0,0.0,0.0,0
14-1-2017 0:00,110828.81571713088,0.0,0.0,0.0,0
14-1-2017 1:00,111032.430305775,0.0,0.0,0.0,0
14-1-2017 2:00,110714.64694686476,0.0,0.0,0.0,0
14-1-2017 3:00,110209.89051023372,0.0,0.0,0.0,0
14-1-2017 4:00,109610.16393141441,0.0,0.0,0.0,0
14-1-2017 5:00,-57118.573784733686,0.0,0.0,0.0,0
14-1-2017 6:00,100527.44266605041,0.0,0.0,0.0,0
14-1-2017 7:00,94878.47281734993,0.0,0.0,0.0,0
14-1-2017 8:00,87585.54238992256,0.0,0.0,0.0,0
14-1-2017 9:00,68849.50980629968,0.0,0.0,0.0,0
14-1-2017 10:00,-45311.17962400096,0.0,0.0,0.0,0
14-1-2017 11:00,-64825.19427374542,0.0,0.0,0.0,0
14-1-2017 12:00,-46716.6437951986,0.0,0.0,0.0,0
14-1-2017 13:00,25894.416615081136,0.0,0.0,0.0,0
14-1-2017 14:00,15653.13987004268,0.0,0.0,0.0,0
14-1-2017 15:00,9310.602285164074,0.0,0.0,0.0,0
14-1-2017 16:00,-229389.04940203356,0.0,0.0,0.0,0
14-1-2017 17:00,5922.299207348216,0.0,0.0,0.0,0
14-1-2017 18:00,9331.922678138872,0.0,0.0,0.0,0
14-1-2017 19:00,-280646.00363336026,0.0,0.0,0.0,0
14-1-2017 20:00,-559816.540055415,0.0,0.0,0.0,0
14-1-2017 21:00,11049.668955732093,0.0,0.0,0.0,0
14-1-2017 22:00,11748.848278102232,0.0,0.0,0.0,0
14-1-2017 23:00,1305692.6141641974,0.0,0.0,0.0,0
15-1-2017 0:00,16891.132225789173,0.0,0.0,0.0,0
15-1-2017 1:00,18607.730698175306,0.0,0.0,0.0,0
15-1-2017 2:00,19581.946877838578,0.0,0.0,0.0,0
15-1-2017 3:00,20408.333984334502,0.0,0.0,0.0,0
15-1-2017 4:00,21121.350125296973,0.0,0.0,0.0,0
15-1-2017 5:00,-158831.39765197135,0.0,0.0,0.0,0
15-1-2017 6:00,28140.722782391706,0.0,0.0,0.0,0
15-1-2017 7:00,30275.86857224333,0.0,0.0,0.0,0
15-1-2017 8:00,30827.075512144074,0.0,0.0,0.0,0
15-1-2017 9:00,28467.89621736585,0.0,0.0,0.0,0
15-1-2017 10:00,-68502.35553045956,0.0,0.0,0.0,0
15-1-2017 11:00,-73582.35817629534,0.0,0.0,0.0,0
15-1-2017 12:00,-60095.25778677722,0.0,0.0,0.0,0
15-1-2017 13:00,50591.697655878685,0.0,0.0,0.0,0
15-1-2017 14:00,54547.287248595014,0.0,0.0,0.0,0
15-1-2017 15:00,62776.53793724554,0.0,0.0,0.0,0
15-1-2017 16:00,-199870.77429116878,0.0,0.0,0.0,0
15-1-2017 17:00,78604.03693881692,0.0,0.0,0.0,0
15-1-2017 18:00,86957.8237559138,0.0,0.0,0.0,0
15-1-2017 19:00,-109429.86443434318,0.0,0.0,0.0,0
15-1-2017 20:00,-358888.55824713473,0.0,0.0,0.0,0
15-1-2017 21:00,94976.82290827471,0.0,0.0,0.0,0
15-1-2017 22:00,96725.22249831412,0.0,0.0,0.0,0
15-1-2017 23:00,-621476.1412033624,0.0,0.0,0.0,0
16-1-2017 0:00,97421.42837006507,0.0,0.0,0.0,0
16-1-2017 1:00,96656.22436409199,0.0,0.0,0.0,0
16-1-2017 2:00,95441.60372022755,0.0,0.0,0.0,0
16-1-2017 3:00,93813.85800774918,0.0,0.0,0.0,0
16-1-2017 4:00,92130.62090626324,0.0,0.0,0.0,0
16-1-2017 5:00,-115406.37946119925,0.0,0.0,0.0,0
16-1-2017 6:00,87407.89242766882,0.0,0.0,0.0,0
16-1-2017 7:00,85118.1898237113,0.0,0.0,0.0,0
16-1-2017 8:00,84407.68009857892,0.0,0.0,0.0,0
16-1-2017 9:00,86768.9588698971,0.0,0.0,0.0,0
16-1-2017 10:00,-3082.471153073242,0.0,0.0,0.0,0
16-1-2017 11:00,-13742.747752620475,0.0,0.0,0.0,0
16-1-2017 12:00,-33032.963409751224,0.0,0.0,0.0,0
16-1-2017 13:00,85645.41571160672,0.0,0.0,0.0,0
16-1-2017 14:00,86246.0102884037,0.0,0.0,0.0,0
16-1-2017 15:00,86306.36789690927,0.0,0.0,0.0,0
16-1-2017 16:00,-224612.1539406367,0.0,0.0,0.0,0
16-1-2017 17:00,87299.49686017216,0.0,0.0,0.0,0
16-1-2017 18:00,85836.09397379449,0.0,0.0,0.0,0
16-1-2017 19:00,-29187.54850859101,0.0,0.0,0.0,0
16-1-2017 20:00,-253453.9821254903,0.0,0.0,0.0,0
16-1-2017 21:00,85071.84551995834,0.0,0.0,0.0,0
16-1-2017 22:00,84593.32299289966,0.0,0.0,0.0,0
16-1-2017 23:00,-621207.2726813158,0.0,0.0,0.0,0
17-1-2017 0:00,83100.20601917998,0.0,0.0,0.0,0
17-1-2017 1:00,83784.5778113441,0.0,0.0,0.0,0
17-1-2017 2:00,84077.25862044835,0.0,0.0,0.0,0
17-1-2017 3:00,84261.09836549214,0.0,0.0,0.0,0
17-1-2017 4:00,84578.44034951861,0.0,0.0,0.0,0
17-1-2017 5:00,-143069.62820439332,0.0,0.0,0.0,0
17-1-2017 6:00,82103.2595427245,0.0,0.0,0.0,0
17-1-2017 7:00,81526.26393005456,0.0,0.0,0.0,0
17-1-2017 8:00,80937.08292498576,0.0,0.0,0.0,0
17-1-2017 9:00,79001.95621462709,0.0,0.0,0.0,0
17-1-2017 10:00,-13948.724096562386,0.0,0.0,0.0,0
17-1-2017 11:00,-28265.32666289529,0.0,0.0,0.0,0
17-1-2017 12:00,-69071.43037974907,0.0,0.0,0.0,0
17-1-2017 13:00,74585.24360889485,0.0,0.0,0.0,0
17-1-2017 14:00,75047.10435835639,0.0,0.0,0.0,0
17-1-2017 15:00,75436.66007530096,0.0,0.0,0.0,0
17-1-2017 16:00,-272098.88220426,0.0,0.0,0.0,0
17-1-2017 17:00,77962.63581976772,0.0,0.0,0.0,0
17-1-2017 18:00,77085.12088231124,0.0,0.0,0.0,0
17-1-2017 19:00,51764.774461492285,0.0,0.0,0.0,0
17-1-2017 20:00,-145843.85860581955,0.0,0.0,0.0,0
17-1-2017 21:00,76938.10697580353,0.0,0.0,0.0,0
17-1-2017 22:00,76158.47218220483,0.0,0.0,0.0,0
17-1-2017 23:00,-615679.8656139915,0.0,0.0,0.0,0
18-1-2017 0:00,78658.64620994717,0.0,0.0,0.0,0
18-1-2017 1:00,78439.04854777083,0.0,0.0,0.0,0
18-1-2017 2:00,78162.9499858217,0.0,0.0,0.0,0
18-1-2017 3:00,77679.77025858904,0.0,0.0,0.0,0
18-1-2017 4:00,77174.54041934948,0.0,0.0,0.0,0
18-1-2017 5:00,-152249.63851637737,0.0,0.0,0.0,0
18-1-2017 6:00,75062.75755069082,0.0,0.0,0.0,0
18-1-2017 7:00,74807.83205142655,0.0,0.0,0.0,0
18-1-2017 8:00,76179.09877016219,0.0,0.0,0.0,0
18-1-2017 9:00,77054.13891808242,0.0,0.0,0.0,0
18-1-2017 10:00,-1518.5147979859248,0.0,0.0,0.0,0
18-1-2017 11:00,-16595.00241382353,0.0,0.0,0.0,0
18-1-2017 12:00,-97417.64740118379,0.0,0.0,0.0,0
18-1-2017 13:00,76080.07642258717,0.0,0.0,0.0,0
18-1-2017 14:00,77386.74912303082,0.0,0.0,0.0,0
18-1-2017 15:00,77452.38253161806,0.0,0.0,0.0,0
18-1-2017 16:00,-281390.84524669655,0.0,0.0,0.0,0
18-1-2017 17:00,79437.91109403333,0.0,0.0,0.0,0
18-1-2017 18:00,77092.31843150783,0.0,0.0,0.0,0
18-1-2017 19:00,55965.43191230392,0.0,0.0,0.0,0
18-1-2017 20:00,-90922.51219834348,0.0,0.0,0.0,0
18-1-2017 21:00,74396.49482220787,0.0,0.0,0.0,0
18-1-2017 22:00,73420.94199530946,0.0,0.0,0.0,0
18-1-2017 23:00,-601497.522814846,0.0,0.0,0.0,0
19-1-2017 0:00,74560.23080921822,0.0,0.0,0.0,0
19-1-2017 1:00,74279.13443183739,0.0,0.0,0.0,0
19-1-2017 2:00,74405.42723797084,0.0,0.0,0.0,0
19-1-2017 3:00,74634.0587775977,0.0,0.0,0.0,0
19-1-2017 4:00,74559.78904601643,0.0,0.0,0.0,0
19-1-2017 5:00,-155938.13571317864,0.0,0.0,0.0,0
19-1-2017 6:00,73387.98323218663,0.0,0.0,0.0,0
19-1-2017 7:00,73985.50004844187,0.0,0.0,0.0,0
19-1-2017 8:00,75325.07669309582,0.0,0.0,0.0,0
19-1-2017 9:00,75628.86168162037,0.0,0.0,0.0,0
19-1-2017 10:00,7385.516634760017,0.0,0.0,0.0,0
19-1-2017 11:00,-9010.743956495498,0.0,0.0,0.0,0
19-1-2017 12:00,-131898.88814027535,0.0,0.0,0.0,0
19-1-2017 13:00,74049.404716883,0.0,0.0,0.0,0
19-1-2017 14:00,75017.27856656912,0.0,0.0,0.0,0
19-1-2017 15:00,74809.37886505939,0.0,0.0,0.0,0
19-1-2017 16:00,-297811.9026636974,0.0,0.0,0.0,0
19-1-2017 17:00,74969.63470264856,0.0,0.0,0.0,0
19-1-2017 18:00,76747.56702396792,0.0,0.0,0.0,0
19-1-2017 19:00,59495.127089412395,0.0,0.0,0.0,0
19-1-2017 20:00,-79057.54138153716,0.0,0.0,0.0,0
19-1-2017 21:00,71485.5339960708,0.0,0.0,0.0,0
19-1-2017 22:00,74338.33499733571,0.0,0.0,0.0,0
19-1-2017 23:00,-582364.254965316,0.0,0.0,0.0,0
20-1-2017 0:00,75952.1323203369,0.0,0.0,0.0,0
20-1-2017 1:00,75315.59712200052,0.0,0.0,0.0,0
20-1-2017 2:00,74903.35119046553,0.0,0.0,0.0,0
20-1-2017 3:00,74692.01389120091,0.0,0.0,0.0,0
20-1-2017 4:00,74569.56059136488,0.0,0.0,0.0,0
20-1-2017 5:00,-157693.7162067804,0.0,0.0,0.0,0
20-1-2017 6:00,72705.9194013999,0.0,0.0,0.0,0
20-1-2017 7:00,72647.02398648509,0.0,0.0,0.0,0
20-1-2017 8:00,74257.54601036775,0.0,0.0,0.0,0
20-1-2017 9:00,73830.53130721627,0.0,0.0,0.0,0
20-1-2017 10:00,16231.409118752366,0.0,0.0,0.0,0
20-1-2017 11:00,-1840.910258732576,0.0,0.0,0.0,0
20-1-2017 12:00,-164291.06944974358,0.0,0.0,0.0,0
20-1-2017 13:00,73158.55663876582,0.0,0.0,0.0,0
20-1-2017 14:00,75241.855835658,0.0,0.0,0.0,0
20-1-2017 15:00,76268.96722201495,0.0,0.0,0.0,0
20-1-2017 16:00,-305587.9943671742,0.0,0.0,0.0,0
20-1-2017 17:00,77342.94422120116,0.0,0.0,0.0,0
20-1-2017 18:00,74781.81172277877,0.0,0.0,0.0,0
20-1-2017 19:00,62757.582858658236,0.0,0.0,0.0,0
20-1-2017 20:00,-45695.255486806935,0.0,0.0,0.0,0
20-1-2017 21:00,71263.7328854101,0.0,0.0,0.0,0
20-1-2017 22:00,70234.78565760789,0.0,0.0,0.0,0
20-1-2017 23:00,-566411.7615147707,0.0,0.0,0.0,0
21-1-2017 0:00,76469.73737524061,0.0,0.0,0.0,0
21-1-2017 1:00,75979.51913770093,0.0,0.0,0.0,0
21-1-2017 2:00,75538.27025024971,0.0,0.0,0.0,0
21-1-2017 3:00,75764.11989384578,0.0,0.0,0.0,0
21-1-2017 4:00,75848.27128743412,0.0,0.0,0.0,0
21-1-2017 5:00,-166618.7785148288,0.0,0.0,0.0,0
21-1-2017 6:00,56016.242790999124,0.0,0.0,0.0,0
21-1-2017 7:00,47017.77843485622,0.0,0.0,0.0,0
21-1-2017 8:00,38648.65912790959,0.0,0.0,0.0,0
21-1-2017 9:00,6546.254446392064,0.0,0.0,0.0,0
21-1-2017 10:00,-72775.13084165113,0.0,0.0,0.0,0
21-1-2017 11:00,-121399.3949633412,0.0,0.0,0.0,0
21-1-2017 12:00,-354164.4051195591,0.0,0.0,0.0,0
21-1-2017 13:00,-118584.85296121034,0.0,0.0,0.0,0
21-1-2017 14:00,-157995.8955786237,0.0,0.0,0.0,0
21-1-2017 15:00,-197626.68026591174,0.0,0.0,0.0,0
21-1-2017 16:00,-628793.3857739354,0.0,0.0,0.0,0
21-1-2017 17:00,-263433.2101101746,0.0,0.0,0.0,0
21-1-2017 18:00,-291644.2515749828,0.0,0.0,0.0,0
21-1-2017 19:00,-327146.37080159463,0.0,0.0,0.0,0
21-1-2017 20:00,-434174.7404545017,0.0,0.0,0.0,0
21-1-2017 21:00,-364308.98102859536,0.0,0.0,0.0,0
21-1-2017 22:00,-377898.88659887895,0.0,0.0,0.0,0
21-1-2017 23:00,5086911.778905601,0.0,0.0,0.0,0
22-1-2017 0:00,-395258.75425409153,0.0,0.0,0.0,0
22-1-2017 1:00,-393686.4724786641,0.0,0.0,0.0,0
22-1-2017 2:00,-392271.654489257,0.0,0.0,0.0,0
22-1-2017 3:00,-390690.16102917976,0.0,0.0,0.0,0
22-1-2017 4:00,-389139.6836826968,0.0,0.0,0.0,0
22-1-2017 5:00,3992410.5660407133,0.0,0.0,0.0,0
22-1-2017 6:00,-357077.21868465835,0.0,0.0,0.0,0
22-1-2017 7:00,-341330.42508576164,0.0,0.0,0.0,0
22-1-2017 8:00,-326059.7548671486,0.0,0.0,0.0,0
22-1-2017 9:00,-302052.8195281788,0.0,0.0,0.0,0
22-1-2017 10:00,-314993.9280456887,0.0,0.0,0.0,0
22-1-2017 11:00,-305899.08467605093,0.0,0.0,0.0,0
22-1-2017 12:00,-512601.3150342541,0.0,0.0,0.0,0
22-1-2017 13:00,-172253.6584640451,0.0,0.0,0.0,0
22-1-2017 14:00,-138509.8067215064,0.0,0.0,0.0,0
22-1-2017 15:00,-100786.08826385388,0.0,0.0,0.0,0
22-1-2017 16:00,-468708.69070244825,0.0,0.0,0.0,0
22-1-2017 17:00,-33708.56581199712,0.0,0.0,0.0,0
22-1-2017 18:00,-4515.6477886431385,0.0,0.0,0.0,0
22-1-2017 19:00,19474.93837073208,0.0,0.0,0.0,0
22-1-2017 20:00,-10535.655982961194,0.0,0.0,0.0,0
22-1-2017 21:00,44232.46682448008,0.0,0.0,0.0,0
22-1-2017 22:00,45567.19965565138,0.0,0.0,0.0,0
22-1-2017 23:00,-563133.209512712,0.0,0.0,0.0,0
23-1-2017 0:00,47519.44564829738,0.0,0.0,0.0,0
23-1-2017 1:00,12364.462587137576,0.0,0.0,0.0,0
23-1-2017 2:00,-22371.19739615143,0.0,0.0,0.0,0
23-1-2017 3:00,-56831.43496914733,0.0,0.0,0.0,0
23-1-2017 4:00,-90976.15220450328,0.0,0.0,0.0,0
23-1-2017 5:00,-367993.51487096894,0.0,0.0,0.0,0
23-1-2017 6:00,-161233.21754308758,0.0,0.0,0.0,0
23-1-2017 7:00,-195719.75385081442,0.0,0.0,0.0,0
23-1-2017 8:00,-225767.8319683047,0.0,0.0,0.0,0
23-1-2017 9:00,-197114.9118584578,0.0,0.0,0.0,0
23-1-2017 10:00,-194708.21366081352,0.0,0.0,0.0,0
23-1-2017 11:00,-242563.25285522672,0.0,0.0,0.0,0
23-1-2017 12:00,-536671.0234707942,0.0,0.0,0.0,0
23-1-2017 13:00,-204993.97269614803,0.0,0.0,0.0,0
23-1-2017 14:00,-207821.38680108055,0.0,0.0,0.0,0
23-1-2017 15:00,-208582.79540591064,0.0,0.0,0.0,0
23-1-2017 16:00,6916749.477304704,0.0,0.0,0.0,0
23-1-2017 17:00,-289340.36703970376,0.0,0.0,0.0,0
23-1-2017 18:00,-290392.54798973585,0.0,0.0,0.0,0
23-1-2017 19:00,-289574.43361345754,0.0,0.0,0.0,0
23-1-2017 20:00,-315705.4298370211,0.0,0.0,0.0,0
23-1-2017 21:00,-269981.9203529506,0.0,0.0,0.0,0
23-1-2017 22:00,-253967.63738729045,0.0,0.0,0.0,0
23-1-2017 23:00,-833749.1194954637,0.0,0.0,0.0,0
24-1-2017 0:00,-215815.20428071788,0.0,0.0,0.0,0
24-1-2017 1:00,-182519.19268422853,0.0,0.0,0.0,0
24-1-2017 2:00,-148448.8011459773,0.0,0.0,0.0,0
24-1-2017 3:00,-114292.19025781003,0.0,0.0,0.0,0
24-1-2017 4:00,-80325.88849821549,0.0,0.0,0.0,0
24-1-2017 5:00,-296535.6520914389,0.0,0.0,0.0,0
24-1-2017 6:00,-19427.01124718717,0.0,0.0,0.0,0
24-1-2017 7:00,12559.604102192388,0.0,0.0,0.0,0
24-1-2017 8:00,46906.34921232861,0.0,0.0,0.0,0
24-1-2017 9:00,53867.163502953204,0.0,0.0,0.0,0
24-1-2017 10:00,49928.09739289392,0.0,0.0,0.0,0
24-1-2017 11:00,33640.00461157182,0.0,0.0,0.0,0
24-1-2017 12:00,-278898.5372842178,0.0,0.0,0.0,0
24-1-2017 13:00,70688.3458397126,0.0,0.0,0.0,0
24-1-2017 14:00,71735.02403215613,0.0,0.0,0.0,0
24-1-2017 15:00,71372.47650969069,0.0,0.0,0.0,0
24-1-2017 16:00,-365187.0282354726,0.0,0.0,0.0,0
24-1-2017 17:00,70349.278352268,0.0,0.0,0.0,0
24-1-2017 18:00,67009.84859585523,0.0,0.0,0.0,0
24-1-2017 19:00,65364.992719853195,0.0,0.0,0.0,0
24-1-2017 20:00,58178.67615723604,0.0,0.0,0.0,0
24-1-2017 21:00,50359.89420685482,0.0,0.0,0.0,0
24-1-2017 22:00,39760.895539096484,0.0,0.0,0.0,0
24-1-2017 23:00,-555166.691276794,0.0,0.0,0.0,0
25-1-2017 0:00,23347.01222378078,0.0,0.0,0.0,0
25-1-2017 1:00,12167.158057406283,0.0,0.0,0.0,0
25-1-2017 2:00,1453.860696684831,0.0,0.0,0.0,0
25-1-2017 3:00,-8990.3903744977,0.0,0.0,0.0,0
25-1-2017 4:00,-19527.645703766568,0.0,0.0,0.0,0
25-1-2017 5:00,-276314.2979889903,0.0,0.0,0.0,0
25-1-2017 6:00,-30742.441393610876,0.0,0.0,0.0,0
25-1-2017 7:00,-34659.263428836246,0.0,0.0,0.0,0
25-1-2017 8:00,-36636.38413278476,0.0,0.0,0.0,0
25-1-2017 9:00,-37130.82113026199,0.0,0.0,0.0,0
25-1-2017 10:00,-41805.9858244168,0.0,0.0,0.0,0
25-1-2017 11:00,309798.6635309603,0.0,0.0,0.0,0
25-1-2017 12:00,1615617.8160785565,0.0,0.0,0.0,0
25-1-2017 13:00,-38935.23994339052,0.0,0.0,0.0,0
25-1-2017 14:00,-35070.930948732755,0.0,0.0,0.0,0
25-1-2017 15:00,-34497.47888399541,0.0,0.0,0.0,0
25-1-2017 16:00,-485730.7555161971,0.0,0.0,0.0,0
25-1-2017 17:00,-27968.385790419852,0.0,0.0,0.0,0
25-1-2017 18:00,-24482.562147324177,0.0,0.0,0.0,0
25-1-2017 19:00,-15393.508058726875,-117489.09,1619103.19,-1854081.38,0
25-1-2017 20:00,7506.815256482019,-112917.85,1622191.67,-1848027.37,0
25-1-2017 21:00,-8336.252809515776,-114126.02,1619503.12,-1847755.16,0
25-1-2017 22:00,1658.994657676827,-112056.21,1619628.54,-1843740.95,0
25-1-2017 23:00,-558270.6290975616,-111121.14,1619710.14,-1841952.43,0
26-1-2017 0:00,32189.312680279385,25878.91,1755614.86,-1703857.05,0
26-1-2017 1:00,41680.483773114895,17225.18,1745515.81,-1711065.44,0
26-1-2017 2:00,51551.12677461322,7873.31,1734720.63,-1718974.0,0
26-1-2017 3:00,61412.05421413923,-4535.36,1720854.23,-1729924.95,0
26-1-2017 4:00,71312.678615974,-19316.4,1704657.33,-1743290.14,0
26-1-2017 5:00,-180217.2267670096,-36473.74,1686087.48,-1759034.96,0
26-1-2017 6:00,73126.9376427171,8017.75,1729193.08,-1713157.58,0
26-1-2017 7:00,74349.88415752086,-10093.63,1709670.38,-1729857.65,0
26-1-2017 8:00,76405.52214833576,-27709.88,1690628.17,-1746047.94,0
26-1-2017 9:00,65434.93698500097,-46103.05,1670854.05,-1763060.15,0
26-1-2017 10:00,60593.74639979921,-61698.64,1653851.19,-1777248.48,0
26-1-2017 11:00,31406.36456917459,-76081.45,1638095.47,-1790258.36,0
26-1-2017 12:00,-361220.4842914583,-83210.62,1629604.78,-1796026.03,0
26-1-2017 13:00,55244.745398164756,5688.67,1717214.7,-1705837.37,0
26-1-2017 14:00,51420.608884863796,-8232.84,1701882.76,-1718348.45,0
26-1-2017 15:00,51598.61677809735,-20064.3,1688676.04,-1728804.63,0
26-1-2017 16:00,-412082.87578086735,-32364.42,1674995.11,-1739723.94,0
26-1-2017 17:00,55576.76559368217,68929.88,1775160.29,-1637300.53,0
26-1-2017 18:00,61343.41025386883,54582.34,1759427.7,-1650263.02,0
26-1-2017 19:00,71284.18186870561,40131.52,1743589.49,-1663326.44,0
26-1-2017 20:00,109694.65811797067,22737.36,1724815.64,-1679340.91,0
26-1-2017 21:00,49804.07639141059,-3925.27,1696735.98,-1704586.51,0
26-1-2017 22:00,35104.38165359528,-15875.58,1683474.32,-1715225.49,0
26-1-2017 23:00,-539310.10781852,-24242.55,1673721.62,-1722206.71,0
27-1-2017 0:00,17931.219573643946,108197.41,1805290.64,-1588895.82,0
27-1-2017 1:00,2513.610528200239,102706.53,1798453.0,-1593039.95,0
27-1-2017 2:00,-12252.651505570888,102515.76,1796917.23,-1591885.71,0
27-1-2017 3:00,-27218.33095282555,105265.99,1798334.55,-1587802.57,0
27-1-2017 4:00,-42229.39130485892,111644.07,1803391.8,-1580103.66,0
27-1-2017 5:00,-305084.39765922085,121683.06,1812066.0,-1568699.88,0
27-1-2017 6:00,-34890.35330876548,195849.31,1885269.85,-1493571.22,0
27-1-2017 7:00,-42005.62596271103,203217.22,1891435.9,-1485001.46,0
27-1-2017 8:00,-69427.03699591116,213014.54,1899925.55,-1473896.46,0
27-1-2017 9:00,-67638.28441874014,228852.75,1914605.41,-1456899.9,0
27-1-2017 10:00,-49314.97421755959,244221.08,1928813.09,-1440370.93,0
27-1-2017 11:00,-76963.33055675667,255015.55,1938420.7,-1428389.6,0
27-1-2017 12:00,2558073.255851811,272334.89,1954645.04,-1409975.26,1
27-1-2017 13:00,-70141.57080138763,-354661.26,1335669.01,-2044991.53,0
27-1-2017 14:00,-65994.1348770387,-331966.82,1357110.1,-2021043.74,0
27-1-2017 15:00,-64865.453209700354,-317031.91,1370867.76,-2004931.58,0
27-1-2017 16:00,-542773.1281855834,-299599.98,1387090.82,-1986290.79,0
27-1-2017 17:00,-35637.64605452806,-166103.92,1519325.97,-1851533.81,0
27-1-2017 18:00,-49057.61126951687,-157196.97,1526978.09,-1841372.04,0
27-1-2017 19:00,-41645.372282093944,-143918.86,1538965.78,-1826803.5,0
27-1-2017 20:00,19953.88674757391,-133080.72,1548516.2,-1814677.64,0
27-1-2017 21:00,-34336.8747491792,-137306.25,1543025.52,-1817638.02,0
27-1-2017 22:00,-22952.012665751827,-128002.85,1551026.2,-1807031.91,0
27-1-2017 23:00,-559961.6788284935,-121911.91,1555860.4,-1799684.22,0
28-1-2017 0:00,14152.553204244075,15641.87,1692434.6,-1661150.87,0
28-1-2017 1:00,26642.310111179526,11457.6,1686950.77,-1664035.57,0
28-1-2017 2:00,39833.55913279729,5798.48,1680065.57,-1668468.6,0
28-1-2017 3:00,52619.6388894203,-3737.77,1669186.6,-1676662.14,0
28-1-2017 4:00,65685.806586268,-16541.24,1655085.18,-1688167.66,0
28-1-2017 5:00,-193311.540823127,-32220.97,1638151.85,-1702593.79,0
28-1-2017 6:00,59019.1833844024,15346.52,1684469.79,-1653776.75,0
28-1-2017 7:00,56465.24576239851,624.88,1668466.3,-1667216.54,0
28-1-2017 8:00,55424.40990587427,-12707.19,1653684.56,-1679098.94,0
28-1-2017 9:00,33730.61170333717,-26113.84,1639213.3,-1691440.97,0
28-1-2017 10:00,39449.974381396954,-34113.26,1629937.13,-1698163.65,0
28-1-2017 11:00,-6894.474775875657,-44010.73,1618929.73,-1706951.19,0
28-1-2017 12:00,-498007.2014076114,-41315.38,1620173.98,-1702804.75,0
28-1-2017 13:00,-31814.504777772614,80830.32,1741451.26,-1579790.63,0
28-1-2017 14:00,-47133.016789915535,87809.43,1747183.3,-1571564.44,0
28-1-2017 15:00,-59562.83172261412,99701.12,1757851.14,-1558448.9,0
28-1-2017 16:00,-561872.856565697,113813.21,1770680.66,-1543054.24,0
28-1-2017 17:00,-71910.81703557409,251060.49,1907533.6,-1405412.63,0
28-1-2017 18:00,-72420.61548317669,266783.55,1922189.45,-1388622.35,0
28-1-2017 19:00,-64332.39716041536,283670.78,1938024.29,-1370682.72,0
28-1-2017 20:00,8052.026612407644,297934.78,1951260.55,-1355390.98,0
28-1-2017 21:00,-79505.10245409723,296383.32,1949203.67,-1356437.04,0
28-1-2017 22:00,-79705.30321269526,312408.12,1963665.9,-1338849.66,0
28-1-2017 23:00,2661236.5642706687,330263.19,1980551.57,-1320025.2,1
29-1-2017 0:00,-69123.15871928827,-320909.27,1337490.89,-1979309.42,0
29-1-2017 1:00,-63423.58223130024,-297379.96,1359783.78,-1954543.69,0
29-1-2017 2:00,-61471.98852562014,-284631.98,1371528.23,-1940792.19,0
29-1-2017 3:00,-59526.20593644606,-171829.46,1566805.15,-1910464.07,0
29-1-2017 4:00,-57372.94045024751,6831.63,1763491.0,-1749827.74,0
29-1-2017 5:00,-307352.55207142263,-236839.5,1415935.56,-1889614.56,0
29-1-2017 6:00,-43189.701163566366,-161463.19,1490053.77,-1812980.15,0
29-1-2017 7:00,-36432.505926588114,-150156.17,1500173.24,-1800485.58,0
29-1-2017 8:00,-29013.198779395912,-140661.53,1508467.14,-1789790.2,0
29-1-2017 9:00,-26218.271298319232,-132875.03,1515064.14,-1780814.19,0
29-1-2017 10:00,12796.15823943894,-125647.15,1521109.41,-1772403.71,0
29-1-2017 11:00,-8139.069353090046,-128171.57,1517290.22,-1773633.37,0
29-1-2017 12:00,-507317.88464230974,-125395.95,1519010.18,-1769802.08,0
29-1-2017 13:00,16390.714726791906,-1301.49,1642117.61,-1644720.6,0
29-1-2017 14:00,23998.794234382833,-5935.83,1636279.78,-1648151.44,0
29-1-2017 15:00,35211.82215787304,-10860.59,1630166.51,-1651887.69,0
29-1-2017 16:00,-455925.7013152876,-19180.49,1620655.6,-1659016.59,0
29-1-2017 17:00,54059.79766137269,92318.61,1731253.29,-1546616.07,0
29-1-2017 18:00,62192.58802862617,78175.7,1715931.07,-1559579.66,0
29-1-2017 19:00,79786.64599209453,63534.84,1700100.98,-1573031.31,0
29-1-2017 20:00,176992.13481344125,44023.91,1679124.54,-1591076.72,0
29-1-2017 21:00,68170.50682002958,889.12,1635123.31,-1633345.07,0
29-1-2017 22:00,66291.25988440267,-15414.71,1617645.28,-1648474.69,0
29-1-2017 23:00,-462113.4723211312,-31572.22,1600317.52,-1663461.96,0
30-1-2017 0:00,79986.49869002898,81512.25,1712520.16,-1549495.67,0
30-1-2017 1:00,77602.8781480453,61117.97,1690956.24,-1568720.31,0
30-1-2017 2:00,75581.09115878538,42749.58,1671421.97,-1585922.81,0
30-1-2017 3:00,73199.2934621163,24310.64,1651812.16,-1603190.88,0
30-1-2017 4:00,70827.22188251038,6398.25,1632732.37,-1619935.87,0
30-1-2017 5:00,-186027.17230327736,-10726.64,1614456.17,-1635909.45,0
30-1-2017 6:00,65169.38634831742,34962.19,1659030.44,-1589106.06,0
30-1-2017 7:00,63779.05243401627,18599.54,1641503.18,-1604304.1,0
30-1-2017 8:00,66085.40445823007,3421.97,1625179.96,-1618336.02,0
30-1-2017 9:00,67984.30578457816,-12866.24,1607729.04,-1633461.52,0
30-1-2017 10:00,126122.09232083819,-29459.4,1589984.16,-1648902.97,0
30-1-2017 11:00,94954.65656588633,-59532.59,1558854.66,-1677919.84,0
30-1-2017 12:00,-467820.20405833813,-82202.13,1535068.48,-1699472.75,0
30-1-2017 13:00,81785.62123618949,32166.29,1648241.71,-1583909.13,0
30-1-2017 14:00,78570.33221163717,11729.38,1626781.21,-1603322.46,0
30-1-2017 15:00,75370.87394510888,-6854.37,1607230.64,-1620939.37,0
30-1-2017 16:00,-438500.22176720144,-25102.89,1587859.41,-1638065.19,0
30-1-2017 17:00,71115.82638379867,82394.4,1694494.27,-1529705.47,0
30-1-2017 18:00,68534.97664083751,63888.79,1674854.14,-1547076.56,0
30-1-2017 19:00,78994.40042802288,47844.39,1657682.91,-1561994.13,0
30-1-2017 20:00,188121.27260710025,28426.33,1637136.55,-1580283.88,0
30-1-2017 21:00,61643.91451912651,-17486.74,1590146.36,-1625119.85,0
30-1-2017 22:00,59851.80672060452,-32743.23,1573743.7,-1639230.15,0
30-1-2017 23:00,-462293.97432472766,-46483.58,1558946.86,-1651914.02,0
31-1-2017 0:00,69052.69645558126,66551.36,1671120.77,-1538018.04,0
31-1-2017 1:00,67139.72560347398,48833.33,1652278.93,-1554612.27,0
31-1-2017 2:00,65998.29463912206,32797.96,1635129.82,-1569533.89,0
31-1-2017 3:00,64988.293376457856,16827.81,1618056.99,-1584401.37,0
31-1-2017 4:00,63712.39731842417,1036.13,1601165.81,-1599093.55,0
31-1-2017 5:00,-188586.7338474514,-13328.21,1587564.73,-1614221.14,0
31-1-2017 6:00,61712.68813240669,32063.88,1630259.25,-1566131.49,0
31-1-2017 7:00,63770.58848151482,15459.62,1612258.84,-1581339.61,0
31-1-2017 8:00,69377.43879743891,1059.12,1596826.95,-1594708.71,0
31-1-2017 9:00,74762.10001307553,-15909.49,1578768.13,-1610587.11,0
31-1-2017 10:00,135149.76397699068,-33847.36,1559761.05,-1627455.78,0
31-1-2017 11:00,103100.85048876921,-66675.55,1525890.43,-1659241.52,0
31-1-2017 12:00,-491134.4350413068,-91334.77,1500060.58,-1682730.12,0
31-1-2017 13:00,80241.8047048848,28913.89,1619582.33,-1561754.54,0
31-1-2017 14:00,86917.83567442719,8658.72,1598255.19,-1580937.76,0
31-1-2017 15:00,88196.55974411839,-11991.67,1576530.79,-1600514.12,0
31-1-2017 16:00,-426585.7493200001,-33254.71,1554209.5,-1620718.92,0
31-1-2017 17:00,94416.60309992927,71507.9,1658133.03,-1515117.23,0
31-1-2017 18:00,94657.93834134305,47441.86,1632980.21,-1538096.49,0
31-1-2017 19:00,110827.6438925305,24722.64,1609190.86,-1559745.58,0
31-1-2017 20:00,237534.06536962354,-1904.18,1581474.71,-1585283.07,0
31-1-2017 21:00,97047.77275527123,-60118.19,1522342.71,-1642579.09,0
31-1-2017 22:00,98000.0044017864,-83600.23,1497812.9,-1665013.36,0
31-1-2017 23:00,-413654.2251754118,-107306.84,1473102.01,-1687715.69,0
