Time,Actual,Forecasts,Upper Interval,Lower Interval,Is Anomalies
1-1-2017 0:00,-3.955491784473422E-4,0.0,0.0,0.0,0
1-1-2017 1:00,0.004699557403155412,0.0,0.0,0.0,0
1-1-2017 2:00,0.009794663984758208,0.0,0.0,0.0,0
1-1-2017 3:00,0.03611036098016597,0.0,0.0,0.0,0
1-1-2017 4:00,0.03270844003062997,0.0,0.0,0.0,0
1-1-2017 5:00,0.04889686874892852,0.0,0.0,0.0,0
1-1-2017 6:00,0.0708573417464972,0.0,0.0,0.0,0
1-1-2017 7:00,0.05039326422527303,0.0,0.0,0.0,0
1-1-2017 8:00,0.05285438979234902,0.0,0.0,0.0,0
1-1-2017 9:00,0.05626703039232003,0.0,0.0,0.0,0
1-1-2017 10:00,0.06023188737354218,0.0,0.0,0.0,0
1-1-2017 11:00,-0.09703052169742578,0.0,0.0,0.0,0
1-1-2017 12:00,-0.09688562380431799,0.0,0.0,0.0,0
1-1-2017 13:00,-0.09388197071980152,0.0,0.0,0.0,0
1-1-2017 14:00,-0.0766586452065598,0.0,0.0,0.0,0
1-1-2017 15:00,-0.09508238032394467,0.0,0.0,0.0,0
1-1-2017 16:00,-0.061710655460164285,0.0,0.0,0.0,0
1-1-2017 17:00,-0.0807674191987361,0.0,0.0,0.0,0
1-1-2017 18:00,-0.06966715167576099,0.0,0.0,0.0,0
1-1-2017 19:00,-0.0838421307901764,0.0,0.0,0.0,0
1-1-2017 20:00,-0.10862474811061551,0.0,0.0,0.0,0
1-1-2017 21:00,-0.1056222414140708,0.0,0.0,0.0,0
1-1-2017 22:00,-0.0055916340638959144,0.0,0.0,0.0,0
1-1-2017 23:00,-0.02285969493353133,0.0,0.0,0.0,0
2-1-2017 0:00,-0.03063171092750032,0.0,0.0,0.0,0
2-1-2017 1:00,-0.06464235202188168,0.0,0.0,0.0,0
2-1-2017 2:00,-0.09865299311626298,0.0,0.0,0.0,0
2-1-2017 3:00,-0.11041509201345387,0.0,0.0,0.0,0
2-1-2017 4:00,-0.15519242237542835,0.0,0.0,0.0,0
2-1-2017 5:00,-0.18415152410010144,0.0,0.0,0.0,0
2-1-2017 6:00,-0.20675000355732642,0.0,0.0,0.0,0
2-1-2017 7:00,-0.2696718252483375,0.0,0.0,0.0,0
2-1-2017 8:00,-0.3131994188108476,0.0,0.0,0.0,0
2-1-2017 9:00,-0.35648646301046516,0.0,0.0,0.0,0
2-1-2017 10:00,-0.3993393656661399,0.0,0.0,0.0,0
2-1-2017 11:00,0.38898959819804746,0.0,0.0,0.0,0
2-1-2017 12:00,0.36268313389575413,0.0,0.0,0.0,0
2-1-2017 13:00,0.3203900788172446,0.0,0.0,0.0,0
2-1-2017 14:00,0.2885482005992458,0.0,0.0,0.0,0
2-1-2017 15:00,0.21867731777836752,0.0,0.0,0.0,0
2-1-2017 16:00,0.19940243185281314,0.0,0.0,0.0,0
2-1-2017 17:00,0.14554618941539232,0.0,0.0,0.0,0
2-1-2017 18:00,0.11655728141478972,0.0,0.0,0.0,0
2-1-2017 19:00,0.07125938074188709,0.0,0.0,0.0,0
2-1-2017 20:00,0.012128581629681223,0.0,0.0,0.0,0
2-1-2017 21:00,0.009002622325614662,0.0,0.0,0.0,0
2-1-2017 22:00,0.09636055764732354,0.0,0.0,0.0,0
2-1-2017 23:00,0.07484611346308001,0.0,0.0,0.0,0
3-1-2017 0:00,0.06088121190213458,0.0,0.0,0.0,0
3-1-2017 1:00,0.05587766490092316,0.0,0.0,0.0,0
3-1-2017 2:00,0.05087411789971141,0.0,0.0,0.0,0
3-1-2017 3:00,0.06914706487907585,0.0,0.0,0.0,0
3-1-2017 4:00,0.05110788815991474,0.0,0.0,0.0,0
3-1-2017 5:00,0.06688449454474021,0.0,0.0,0.0,0
3-1-2017 6:00,0.08961030118519164,0.0,0.0,0.0,0
3-1-2017 7:00,0.07411446787399645,0.0,0.0,0.0,0
3-1-2017 8:00,0.07448188773150277,0.0,0.0,0.0,0
3-1-2017 9:00,0.07687403386502889,0.0,0.0,0.0,0
3-1-2017 10:00,0.07958239372500064,0.0,0.0,0.0,0
3-1-2017 11:00,-0.05411824732311343,0.0,0.0,0.0,0
3-1-2017 12:00,-0.054497051668264684,0.0,0.0,0.0,0
3-1-2017 13:00,-0.05232898427033983,0.0,0.0,0.0,0
3-1-2017 14:00,-0.04347823558011865,0.0,0.0,0.0,0
3-1-2017 15:00,-0.07503843546502975,0.0,0.0,0.0,0
3-1-2017 16:00,-0.057201024183955895,0.0,0.0,0.0,0
3-1-2017 17:00,-0.07106120853290565,0.0,0.0,0.0,0
3-1-2017 18:00,-0.06534375526976577,0.0,0.0,0.0,0
3-1-2017 19:00,-0.16696828298822353,0.0,0.0,0.0,0
3-1-2017 20:00,-0.06565096937926462,0.0,0.0,0.0,0
3-1-2017 21:00,-0.0686850048625548,0.0,0.0,0.0,0
3-1-2017 22:00,0.032220862564091624,0.0,0.0,0.0,0
3-1-2017 23:00,0.03268063919864328,0.0,0.0,0.0,0
4-1-2017 0:00,0.03874345620412534,0.0,0.0,0.0,0
4-1-2017 1:00,0.038466088696517575,0.0,0.0,0.0,0
4-1-2017 2:00,0.038188721188910146,0.0,0.0,0.0,0
4-1-2017 3:00,0.0622157994452639,0.0,0.0,0.0,0
4-1-2017 4:00,0.046633555844150854,0.0,0.0,0.0,0
4-1-2017 5:00,0.0680506792146387,0.0,0.0,0.0,0
4-1-2017 6:00,0.09700558082893052,0.0,0.0,0.0,0
4-1-2017 7:00,0.08984036681634566,0.0,0.0,0.0,0
4-1-2017 8:00,0.09500743101266318,0.0,0.0,0.0,0
4-1-2017 9:00,0.11858465388737338,0.0,0.0,0.0,0
4-1-2017 10:00,0.14236012576382207,0.0,0.0,0.0,0
4-1-2017 11:00,0.04213572930423737,0.0,0.0,0.0,0
4-1-2017 12:00,0.06319043441705874,0.0,0.0,0.0,0
4-1-2017 13:00,0.10262241837284525,0.0,0.0,0.0,0
4-1-2017 14:00,0.1449685880527134,0.0,0.0,0.0,0
4-1-2017 15:00,0.14452186518519639,0.0,0.0,0.0,0
4-1-2017 16:00,0.19227424119953818,0.0,0.0,0.0,0
4-1-2017 17:00,0.225566126375087,0.0,0.0,0.0,0
4-1-2017 18:00,0.27314595233799666,0.0,0.0,0.0,0
4-1-2017 19:00,0.32235030176219415,0.0,0.0,0.0,0
4-1-2017 20:00,0.3512712322805287,0.0,0.0,0.0,0
4-1-2017 21:00,0.29239542324349366,0.0,0.0,0.0,0
4-1-2017 22:00,-0.4190853987722349,0.0,0.0,0.0,0
4-1-2017 23:00,-0.40258602286620054,0.0,0.0,0.0,0
5-1-2017 0:00,-0.3524301088416039,0.0,0.0,0.0,0
5-1-2017 1:00,-0.3093173012769843,0.0,0.0,0.0,0
5-1-2017 2:00,-0.2662044937123647,0.0,0.0,0.0,0
5-1-2017 3:00,-0.19775928860039818,0.0,0.0,0.0,0
5-1-2017 4:00,-0.17222129582409573,0.0,0.0,0.0,0
5-1-2017 5:00,-0.12104615352635949,0.0,0.0,0.0,0
5-1-2017 6:00,-0.061744654996641266,0.0,0.0,0.0,0
5-1-2017 7:00,-0.036461575216633804,0.0,0.0,0.0,0
5-1-2017 8:00,-0.0023771921875231222,0.0,0.0,0.0,0
5-1-2017 9:00,0.01595759596976347,0.0,0.0,0.0,0
5-1-2017 10:00,0.03437376625167249,0.0,0.0,0.0,0
5-1-2017 11:00,-0.058800799230399575,0.0,0.0,0.0,0
5-1-2017 12:00,-0.04273899827062217,0.0,0.0,0.0,0
5-1-2017 13:00,-0.038354510715571055,0.0,0.0,0.0,0
5-1-2017 14:00,-0.03482433300465301,0.0,0.0,0.0,0
5-1-2017 15:00,-0.07646899181337274,0.0,0.0,0.0,0
5-1-2017 16:00,-0.07111147440381964,0.0,0.0,0.0,0
5-1-2017 17:00,-0.07951997456589804,0.0,0.0,0.0,0
5-1-2017 18:00,-0.07893023076534435,0.0,0.0,0.0,0
5-1-2017 19:00,-0.0677478015057551,0.0,0.0,0.0,0
5-1-2017 20:00,-0.08007405138530858,0.0,0.0,0.0,0
5-1-2017 21:00,-0.06566897961583444,0.0,0.0,0.0,0
5-1-2017 22:00,0.019587879213823933,0.0,0.0,0.0,0
5-1-2017 23:00,0.021251224679102794,0.0,0.0,0.0,0
6-1-2017 0:00,0.025459180800816314,0.0,0.0,0.0,0
6-1-2017 1:00,0.02533801992775396,0.0,0.0,0.0,0
6-1-2017 2:00,0.02521685905469163,0.0,0.0,0.0,0
6-1-2017 3:00,0.05074397624765781,0.0,0.0,0.0,0
6-1-2017 4:00,0.031569035148325875,0.0,0.0,0.0,0
6-1-2017 5:00,0.049606455384981034,0.0,0.0,0.0,0
6-1-2017 6:00,0.07606653844743787,0.0,0.0,0.0,0
6-1-2017 7:00,0.07213305947606237,0.0,0.0,0.0,0
6-1-2017 8:00,0.07287920118013053,0.0,0.0,0.0,0
6-1-2017 9:00,0.07480166607613534,0.0,0.0,0.0,0
6-1-2017 10:00,0.07668428957091433,0.0,0.0,0.0,0
6-1-2017 11:00,-0.02169905562246541,0.0,0.0,0.0,0
6-1-2017 12:00,-0.021824517379087475,0.0,0.0,0.0,0
6-1-2017 13:00,-0.019956355316068847,0.0,0.0,0.0,0
6-1-2017 14:00,-0.022538779524561382,0.0,0.0,0.0,0
6-1-2017 15:00,-0.07118098717296568,0.0,0.0,0.0,0
6-1-2017 16:00,-0.07663386733492175,0.0,0.0,0.0,0
6-1-2017 17:00,-0.08171130466596835,0.0,0.0,0.0,0
6-1-2017 18:00,-0.08366672908634205,0.0,0.0,0.0,0
6-1-2017 19:00,-0.06622523431733576,0.0,0.0,0.0,0
6-1-2017 20:00,-0.07561690281644028,0.0,0.0,0.0,0
6-1-2017 21:00,-0.06241448828017723,0.0,0.0,0.0,0
6-1-2017 22:00,0.01588110170938083,0.0,0.0,0.0,0
6-1-2017 23:00,0.01819845871964571,0.0,0.0,0.0,0
7-1-2017 0:00,0.020933013516905394,0.0,0.0,0.0,0
7-1-2017 1:00,0.02079458171052599,0.0,0.0,0.0,0
7-1-2017 2:00,0.02065614990414661,0.0,0.0,0.0,0
7-1-2017 3:00,0.046481876682477344,0.0,0.0,0.0,0
7-1-2017 4:00,0.025811014562126786,0.0,0.0,0.0,0
7-1-2017 5:00,0.04431428471833546,0.0,0.0,0.0,0
7-1-2017 6:00,0.07153652429416545,0.0,0.0,0.0,0
7-1-2017 7:00,0.07199078054727276,0.0,0.0,0.0,0
7-1-2017 8:00,0.07300297490216413,0.0,0.0,0.0,0
7-1-2017 9:00,0.07486148816064789,0.0,0.0,0.0,0
7-1-2017 10:00,0.07656015155190862,0.0,0.0,0.0,0
7-1-2017 11:00,-0.01068238666916703,0.0,0.0,0.0,0
7-1-2017 12:00,-0.010645524458576779,0.0,0.0,0.0,0
7-1-2017 13:00,-0.00886341037287753,0.0,0.0,0.0,0
7-1-2017 14:00,-0.015128158986067515,0.0,0.0,0.0,0
7-1-2017 15:00,-0.0683376379594433,0.0,0.0,0.0,0
7-1-2017 16:00,-0.08216930166722998,0.0,0.0,0.0,0
7-1-2017 17:00,-0.0839132909213767,0.0,0.0,0.0,0
7-1-2017 18:00,-0.08841149831680972,0.0,0.0,0.0,0
7-1-2017 19:00,-0.06470790973328959,0.0,0.0,0.0,0
7-1-2017 20:00,-0.07116196854684836,0.0,0.0,0.0,0
7-1-2017 21:00,-0.05916108165356434,0.0,0.0,0.0,0
7-1-2017 22:00,0.012174236668050306,0.0,0.0,0.0,0
7-1-2017 23:00,0.015146602395458088,0.0,0.0,0.0,0
8-1-2017 0:00,0.01640875304042084,0.0,0.0,0.0,0
8-1-2017 1:00,0.016253342645658402,0.0,0.0,0.0,0
8-1-2017 2:00,0.01609793225089598,0.0,0.0,0.0,0
8-1-2017 3:00,0.04222256095952527,0.0,0.0,0.0,0
8-1-2017 4:00,0.020055566328336816,0.0,0.0,0.0,0
8-1-2017 5:00,0.03902456392993135,0.0,0.0,0.0,0
8-1-2017 6:00,0.06700883754496685,0.0,0.0,0.0,0
8-1-2017 7:00,0.07185043182697165,0.0,0.0,0.0,0
8-1-2017 8:00,0.07312828163710089,0.0,0.0,0.0,0
8-1-2017 9:00,0.07492264251459128,0.0,0.0,0.0,0
8-1-2017 10:00,0.07643708645273155,0.0,0.0,0.0,0
8-1-2017 11:00,3.350958543577257E-4,0.0,0.0,0.0,0
8-1-2017 12:00,5.340226825580448E-4,0.0,0.0,0.0,0
8-1-2017 13:00,0.0022299712639824785,0.0,0.0,0.0,0
8-1-2017 14:00,-0.007717219280860404,0.0,0.0,0.0,0
8-1-2017 15:00,-0.0654940871061631,0.0,0.0,0.0,0
8-1-2017 16:00,-0.08770466098501081,0.0,0.0,0.0,0
8-1-2017 17:00,-0.08611533227365553,0.0,0.0,0.0,0
8-1-2017 18:00,-0.09315645275554574,0.0,0.0,0.0,0
8-1-2017 19:00,-0.06319092460533465,0.0,0.0,0.0,0
8-1-2017 20:00,-0.06670752798117059,0.0,0.0,0.0,0
8-1-2017 21:00,-0.05590847980667249,0.0,0.0,0.0,0
8-1-2017 22:00,0.008466252049729329,0.0,0.0,0.0,0
8-1-2017 23:00,0.012093311697010608,0.0,0.0,0.0,0
9-1-2017 0:00,0.011882743392407004,0.0,0.0,0.0,0
9-1-2017 1:00,0.01170992691189553,0.0,0.0,0.0,0
9-1-2017 2:00,0.01153711043138406,0.0,0.0,0.0,0
9-1-2017 3:00,0.03796021357294591,0.0,0.0,0.0,0
9-1-2017 4:00,0.014297072116670716,0.0,0.0,0.0,0
9-1-2017 5:00,0.03373150000746902,0.0,0.0,0.0,0
9-1-2017 6:00,0.06247751050552797,0.0,0.0,0.0,0
9-1-2017 7:00,0.07170681980755145,0.0,0.0,0.0,0
9-1-2017 8:00,0.07325070206403972,0.0,0.0,0.0,0
9-1-2017 9:00,0.07498088740547709,0.0,0.0,0.0,0
9-1-2017 10:00,0.0763115520757995,0.0,0.0,0.0,0
9-1-2017 11:00,0.011350549285430153,0.0,0.0,0.0,0
9-1-2017 12:00,0.011711980916543163,0.0,0.0,0.0,0
9-1-2017 13:00,0.013323354485336565,0.0,0.0,0.0,0
9-1-2017 14:00,-3.046874995154417E-4,0.0,0.0,0.0,0
9-1-2017 15:00,-0.06264735368510127,0.0,0.0,0.0,0
9-1-2017 16:00,-0.09323570721690055,0.0,0.0,0.0,0
9-1-2017 17:00,-0.0883068169268521,0.0,0.0,0.0,0
9-1-2017 18:00,-0.0978846068820084,0.0,0.0,0.0,0
9-1-2017 19:00,-0.061651660831035224,0.0,0.0,0.0,0
9-1-2017 20:00,-0.062225330435077164,0.0,0.0,0.0,0
9-1-2017 21:00,-0.05465686443464931,0.0,0.0,0.0,0
9-1-2017 22:00,7.276019180270064E-4,0.0,0.0,0.0,0
9-1-2017 23:00,0.0029796764466691137,0.0,0.0,0.0,0
10-1-2017 0:00,-6.372220011993512E-4,0.0,0.0,0.0,0
10-1-2017 1:00,-0.016149626067687363,0.0,0.0,0.0,0
10-1-2017 2:00,-0.03166203013417536,0.0,0.0,0.0,0
10-1-2017 3:00,-0.020388937242787314,0.0,0.0,0.0,0
10-1-2017 4:00,-0.0603070994600673,0.0,0.0,0.0,0
10-1-2017 5:00,-0.07346708064038099,0.0,0.0,0.0,0
10-1-2017 6:00,-0.07715992313066912,0.0,0.0,0.0,0
10-1-2017 7:00,-0.09587615823919882,0.0,0.0,0.0,0
10-1-2017 8:00,-0.12680710922453886,0.0,0.0,0.0,0
10-1-2017 9:00,-0.1662639354841985,0.0,0.0,0.0,0
10-1-2017 10:00,-0.20623061418192068,0.0,0.0,0.0,0
10-1-2017 11:00,-0.30152600043893557,0.0,0.0,0.0,0
10-1-2017 12:00,-0.34213279294911697,0.0,0.0,0.0,0
10-1-2017 13:00,-0.37141360601594303,0.0,0.0,0.0,0
10-1-2017 14:00,-0.41894793288056914,0.0,0.0,0.0,0
10-1-2017 15:00,0.1550210525792194,0.0,0.0,0.0,0
10-1-2017 16:00,0.41419130861190795,0.0,0.0,0.0,0
10-1-2017 17:00,0.4106530504668895,0.0,0.0,0.0,0
10-1-2017 18:00,0.38642810551748874,0.0,0.0,0.0,0
10-1-2017 19:00,0.41549576733326343,0.0,0.0,0.0,0
10-1-2017 20:00,0.4051520100569641,0.0,0.0,0.0,0
10-1-2017 21:00,0.41815225050697835,0.0,0.0,0.0,0
10-1-2017 22:00,0.4733155644775974,0.0,0.0,0.0,0
10-1-2017 23:00,0.4828742798106531,0.0,0.0,0.0,0
11-1-2017 0:00,0.48453981326035045,0.0,0.0,0.0,0
11-1-2017 1:00,0.506729363658962,0.0,0.0,0.0,0
11-1-2017 2:00,0.5289189140575735,0.0,0.0,0.0,0
11-1-2017 3:00,0.048083538749863874,0.0,0.0,0.0,0
11-1-2017 4:00,-0.42504739462135743,0.0,0.0,0.0,0
11-1-2017 5:00,-0.36673818643200345,0.0,0.0,0.0,0
11-1-2017 6:00,-0.29880628346985905,0.0,0.0,0.0,0
11-1-2017 7:00,-0.24140379300294468,0.0,0.0,0.0,0
11-1-2017 8:00,-0.20074530724411577,0.0,0.0,0.0,0
11-1-2017 9:00,-0.16183491990712262,0.0,0.0,0.0,0
11-1-2017 10:00,-0.12354425625009013,0.0,0.0,0.0,0
11-1-2017 11:00,-0.12961934025095123,0.0,0.0,0.0,0
11-1-2017 12:00,-0.09163967117962776,0.0,0.0,0.0,0
11-1-2017 13:00,-0.0728069153531756,0.0,0.0,0.0,0
11-1-2017 14:00,-0.07524177156867799,0.0,0.0,0.0,0
11-1-2017 15:00,-0.12595537893461733,0.0,0.0,0.0,0
11-1-2017 16:00,-0.15802123597862733,0.0,0.0,0.0,0
11-1-2017 17:00,-0.14568802234852646,0.0,0.0,0.0,0
11-1-2017 18:00,-0.1602215020819857,0.0,0.0,0.0,0
11-1-2017 19:00,-0.1139813178431931,0.0,0.0,0.0,0
11-1-2017 20:00,-0.10975735613353388,0.0,0.0,0.0,0
11-1-2017 21:00,-0.10604742243951515,0.0,0.0,0.0,0
11-1-2017 22:00,-0.06582828508268844,0.0,0.0,0.0,0
11-1-2017 23:00,-0.06368595317695412,0.0,0.0,0.0,0
12-1-2017 0:00,-0.07146101206142665,0.0,0.0,0.0,0
12-1-2017 1:00,-0.07252002680044226,0.0,0.0,0.0,0
12-1-2017 2:00,-0.07357904153945787,0.0,0.0,0.0,0
12-1-2017 3:00,-0.04747340464899198,0.0,0.0,0.0,0
12-1-2017 4:00,0.9252322240366835,0.0,0.0,0.0,0
12-1-2017 5:00,0.5454362158873454,0.0,0.0,0.0,0
12-1-2017 6:00,-0.024581541406437417,0.0,0.0,0.0,0
12-1-2017 7:00,-6.347297713958089E-4,0.0,0.0,0.0,0
12-1-2017 8:00,0.0020387883242851818,0.0,0.0,0.0,0
12-1-2017 9:00,0.00634239345082524,0.0,0.0,0.0,0
12-1-2017 10:00,0.009916405063162853,0.0,0.0,0.0,0
12-1-2017 11:00,-0.019912371080994,0.0,0.0,0.0,0
12-1-2017 12:00,-0.01632023482761518,0.0,0.0,0.0,0
12-1-2017 13:00,-0.008604743156711087,0.0,0.0,0.0,0
12-1-2017 14:00,-0.025170961771916096,0.0,0.0,0.0,0
12-1-2017 15:00,-0.08979799501240966,0.0,0.0,0.0,0
12-1-2017 16:00,-0.14233096563571268,0.0,0.0,0.0,0
12-1-2017 17:00,-0.118890450337889,0.0,0.0,0.0,0
12-1-2017 18:00,-0.1284966349628032,0.0,0.0,0.0,0
12-1-2017 19:00,-0.06984880394799464,0.0,0.0,0.0,0
12-1-2017 20:00,-0.05582199889937864,0.0,0.0,0.0,0
12-1-2017 21:00,-0.04821596532495408,0.0,0.0,0.0,0
12-1-2017 22:00,-0.00975596350991071,0.0,0.0,0.0,0
12-1-2017 23:00,-0.001844973959488844,0.0,0.0,0.0,0
13-1-2017 0:00,-0.005875584106121939,0.0,0.0,0.0,0
13-1-2017 1:00,-0.006326969705379656,0.0,0.0,0.0,0
13-1-2017 2:00,-0.006778355304637353,0.0,0.0,0.0,0
13-1-2017 3:00,0.02012448806138917,0.0,0.0,0.0,0
13-1-2017 4:00,-0.007476860280255529,0.0,0.0,0.0,0
13-1-2017 5:00,0.012458829444431644,0.0,0.0,0.0,0
13-1-2017 6:00,0.04232832610743898,0.0,0.0,0.0,0
13-1-2017 7:00,0.07065971234947245,0.0,0.0,0.0,0
13-1-2017 8:00,0.07318851622087016,0.0,0.0,0.0,0
13-1-2017 9:00,0.07441824601040821,0.0,0.0,0.0,0
13-1-2017 10:00,0.07481322474157749,0.0,0.0,0.0,0
13-1-2017 11:00,0.052768375617651374,0.0,0.0,0.0,0
13-1-2017 12:00,0.05351059821661206,0.0,0.0,0.0,0
13-1-2017 13:00,0.05454046822527023,0.0,0.0,0.0,0
13-1-2017 14:00,0.028274529703664748,0.0,0.0,0.0,0
13-1-2017 15:00,-0.04583428691808086,0.0,0.0,0.0,0
13-1-2017 16:00,-0.11440113874457115,0.0,0.0,0.0,0
13-1-2017 17:00,-0.09370557356111643,0.0,0.0,0.0,0
13-1-2017 18:00,-0.11223671485957733,0.0,0.0,0.0,0
13-1-2017 19:00,-0.05503379663253177,0.0,0.0,0.0,0
13-1-2017 20:00,-0.04505670780873794,0.0,0.0,0.0,0
13-1-2017 21:00,-0.04022274094645721,0.0,0.0,0.0,0
13-1-2017 22:00,-0.010191710466300248,0.0,0.0,0.0,0
13-1-2017 23:00,-0.003181899064293888,0.0,0.0,0.0,0
14-1-2017 0:00,-0.00906944182921659,0.0,0.0,0.0,0
14-1-2017 1:00,-0.009536428493564557,0.0,0.0,0.0,0
14-1-2017 2:00,-0.01000341515791251,0.0,0.0,0.0,0
14-1-2017 3:00,0.0164951951626582,0.0,0.0,0.0,0
14-1-2017 4:00,-0.011614350837345383,0.0,0.0,0.0,0
14-1-2017 5:00,0.008086029224065906,0.0,0.0,0.0,0
14-1-2017 6:00,0.03769683755768438,0.0,0.0,0.0,0
14-1-2017 7:00,0.07010061162073081,0.0,0.0,0.0,0
14-1-2017 8:00,0.07280773034258271,0.0,0.0,0.0,0
14-1-2017 9:00,0.07385574354516841,0.0,0.0,0.0,0
14-1-2017 10:00,0.07400543447940668,0.0,0.0,0.0,0
14-1-2017 11:00,0.0577904384085783,0.0,0.0,0.0,0
14-1-2017 12:00,0.05846771627643443,0.0,0.0,0.0,0
14-1-2017 13:00,0.059314495219341644,0.0,0.0,0.0,0
14-1-2017 14:00,0.031547559632866005,0.0,0.0,0.0,0
14-1-2017 15:00,-0.04015842015552204,0.0,0.0,0.0,0
14-1-2017 16:00,-0.11643489178532229,0.0,0.0,0.0,0
14-1-2017 17:00,-0.091383048563612,0.0,0.0,0.0,0
14-1-2017 18:00,-0.11104904537396426,0.0,0.0,0.0,0
14-1-2017 19:00,-0.05162833830349344,0.0,0.0,0.0,0
14-1-2017 20:00,-0.040134255886888376,0.0,0.0,0.0,0
14-1-2017 21:00,-0.036339095608536806,0.0,0.0,0.0,0
14-1-2017 22:00,-0.012671469233959662,0.0,0.0,0.0,0
14-1-2017 23:00,-0.0051804961197346126,0.0,0.0,0.0,0
15-1-2017 0:00,-0.012681353146818267,0.0,0.0,0.0,0
15-1-2017 1:00,-0.013188852316395099,0.0,0.0,0.0,0
15-1-2017 2:00,-0.013696351485971913,0.0,0.0,0.0,0
15-1-2017 3:00,0.012373114349004373,0.0,0.0,0.0,0
15-1-2017 4:00,-0.016264907032433853,0.0,0.0,0.0,0
15-1-2017 5:00,0.003258379312574392,0.0,0.0,0.0,0
15-1-2017 6:00,0.032668715263676845,0.0,0.0,0.0,0
15-1-2017 7:00,0.06920774769032176,0.0,0.0,0.0,0
15-1-2017 8:00,0.0721560518052134,0.0,0.0,0.0,0
15-1-2017 9:00,0.07306914234761218,0.0,0.0,0.0,0
15-1-2017 10:00,0.07302525169580222,0.0,0.0,0.0,0
15-1-2017 11:00,0.06269181488895445,0.0,0.0,0.0,0
15-1-2017 12:00,0.06335585423658883,0.0,0.0,0.0,0
15-1-2017 13:00,0.06403566691238681,0.0,0.0,0.0,0
15-1-2017 14:00,0.03478385905968276,0.0,0.0,0.0,0
15-1-2017 15:00,-0.034503159096705996,0.0,0.0,0.0,0
15-1-2017 16:00,-0.11847187075590702,0.0,0.0,0.0,0
15-1-2017 17:00,-0.08905741301887946,0.0,0.0,0.0,0
15-1-2017 18:00,-0.10985192886406137,0.0,0.0,0.0,0
15-1-2017 19:00,-0.048208815334001384,0.0,0.0,0.0,0
15-1-2017 20:00,-0.03519312170842124,0.0,0.0,0.0,0
15-1-2017 21:00,-0.0324316869950948,0.0,0.0,0.0,0
15-1-2017 22:00,-0.015126784036531348,0.0,0.0,0.0,0
15-1-2017 23:00,-0.0071539685205215,0.0,0.0,0.0,0
16-1-2017 0:00,-0.016267459120199997,0.0,0.0,0.0,0
16-1-2017 1:00,-0.016817316105128776,0.0,0.0,0.0,0
16-1-2017 2:00,-0.017367173090057548,0.0,0.0,0.0,0
16-1-2017 3:00,0.008271302949201222,0.0,0.0,0.0,0
16-1-2017 4:00,-0.020899222663127125,0.0,0.0,0.0,0
16-1-2017 5:00,-0.0015547401412813273,0.0,0.0,0.0,0
16-1-2017 6:00,0.0276534133205457,0.0,0.0,0.0,0
16-1-2017 7:00,0.06832533631924703,0.0,0.0,0.0,0
16-1-2017 8:00,0.07151245803563637,0.0,0.0,0.0,0
16-1-2017 9:00,0.07229094158771743,0.0,0.0,0.0,0
16-1-2017 10:00,0.07205368502270744,0.0,0.0,0.0,0
16-1-2017 11:00,0.06760202315268844,0.0,0.0,0.0,0
16-1-2017 12:00,0.06825303965294925,0.0,0.0,0.0,0
16-1-2017 13:00,0.0687692120531705,0.0,0.0,0.0,0
16-1-2017 14:00,0.038035857925770515,0.0,0.0,0.0,0
16-1-2017 15:00,-0.028828872607086456,0.0,0.0,0.0,0
16-1-2017 16:00,-0.12048735232361994,0.0,0.0,0.0,0
16-1-2017 17:00,-0.0867044444621013,0.0,0.0,0.0,0
16-1-2017 18:00,-0.10862164373293907,0.0,0.0,0.0,0
16-1-2017 19:00,-0.04475390624548848,0.0,0.0,0.0,0
16-1-2017 20:00,-0.0302143839131318,0.0,0.0,0.0,0
16-1-2017 21:00,-0.028481928326684194,0.0,0.0,0.0,0
16-1-2017 22:00,-0.017542071837363192,0.0,0.0,0.0,0
16-1-2017 23:00,-0.009089736972797295,0.0,0.0,0.0,0
17-1-2017 0:00,-0.019818184198299386,0.0,0.0,0.0,0
17-1-2017 1:00,-0.020419890671659953,0.0,0.0,0.0,0
17-1-2017 2:00,-0.021021597145020512,0.0,0.0,0.0,0
17-1-2017 3:00,0.004176397425440908,0.0,0.0,0.0,0
17-1-2017 4:00,-0.02553919507008154,0.0,0.0,0.0,0
17-1-2017 5:00,-0.006394191755999497,0.0,0.0,0.0,0
17-1-2017 6:00,0.022591103831950794,0.0,0.0,0.0,0
17-1-2017 7:00,0.0673802302044415,0.0,0.0,0.0,0
17-1-2017 8:00,0.07079048232406147,0.0,0.0,0.0,0
17-1-2017 9:00,0.07135706743220495,0.0,0.0,0.0,0
17-1-2017 10:00,0.07086009133436798,0.0,0.0,0.0,0
17-1-2017 11:00,0.07222385078155079,0.0,0.0,0.0,0
17-1-2017 12:00,0.07279549081481108,0.0,0.0,0.0,0
17-1-2017 13:00,0.07303810732640886,0.0,0.0,0.0,0
17-1-2017 14:00,0.04071329131126621,0.0,0.0,0.0,0
17-1-2017 15:00,-0.023839067211105715,0.0,0.0,0.0,0
17-1-2017 16:00,-0.12328730028315212,0.0,0.0,0.0,0
17-1-2017 17:00,-0.085171820341776,0.0,0.0,0.0,0
17-1-2017 18:00,-0.10824758108290325,0.0,0.0,0.0,0
17-1-2017 19:00,-0.04218300139968774,0.0,0.0,0.0,0
17-1-2017 20:00,-0.02614743212218018,0.0,0.0,0.0,0
17-1-2017 21:00,-0.031978045712226406,0.0,0.0,0.0,0
17-1-2017 22:00,-0.03392894815925282,0.0,0.0,0.0,0
17-1-2017 23:00,-0.03152280641323584,0.0,0.0,0.0,0
18-1-2017 0:00,-0.04485253220872573,0.0,0.0,0.0,0
18-1-2017 1:00,-0.08114952794452239,0.0,0.0,0.0,0
18-1-2017 2:00,-0.11744652368031905,0.0,0.0,0.0,0
18-1-2017 3:00,-0.1308553573915251,0.0,0.0,0.0,0
18-1-2017 4:00,-0.19350561684019618,0.0,0.0,0.0,0
18-1-2017 5:00,-0.23351386857193124,0.0,0.0,0.0,0
18-1-2017 6:00,-0.26475464343413324,0.0,0.0,0.0,0
18-1-2017 7:00,-0.2766491962379161,0.0,0.0,0.0,0
18-1-2017 8:00,-0.3302245340323515,0.0,0.0,0.0,0
18-1-2017 9:00,-0.386017931585584,0.0,0.0,0.0,0
18-1-2017 10:00,-0.4428497807418569,0.0,0.0,0.0,0
18-1-2017 11:00,-0.497838074166179,0.0,0.0,0.0,0
18-1-2017 12:00,-0.55363655273483,0.0,0.0,0.0,0
18-1-2017 13:00,-0.6020781064787497,0.0,0.0,0.0,0
18-1-2017 14:00,-0.011578424555401035,0.0,0.0,0.0,0
18-1-2017 15:00,1.2143078148501205,0.0,0.0,0.0,0
18-1-2017 16:00,1.067825147299613,0.0,0.0,0.0,0
18-1-2017 17:00,1.0947243425679336,0.0,0.0,0.0,0
18-1-2017 18:00,1.449620529193477,0.0,0.0,0.0,0
18-1-2017 19:00,0.2999142431080337,0.0,0.0,0.0,0
18-1-2017 20:00,-0.007669000305401741,0.0,0.0,0.0,0
18-1-2017 21:00,-0.03438939287322873,0.0,0.0,0.0,0
18-1-2017 22:00,-0.0579260667162631,0.0,0.0,0.0,0
18-1-2017 23:00,-0.07640356409092197,0.0,0.0,0.0,0
19-1-2017 0:00,-0.1111674530178769,0.0,0.0,0.0,0
19-1-2017 1:00,-0.11214270949123795,0.0,0.0,0.0,0
19-1-2017 2:00,-0.11311796596459889,0.0,0.0,0.0,0
19-1-2017 3:00,-0.09411659943260076,0.0,0.0,0.0,0
19-1-2017 4:00,-0.11867906734097411,0.0,0.0,0.0,0
19-1-2017 5:00,-0.0875509776392599,0.0,0.0,0.0,0
19-1-2017 6:00,-0.04872822647234831,0.0,0.0,0.0,0
19-1-2017 7:00,0.012991588001540988,0.0,0.0,0.0,0
19-1-2017 8:00,0.03272870674699613,0.0,0.0,0.0,0
19-1-2017 9:00,0.03975709858623988,0.0,0.0,0.0,0
19-1-2017 10:00,0.06578375103730738,0.0,0.0,0.0,0
19-1-2017 11:00,0.053636779407256086,0.0,0.0,0.0,0
19-1-2017 12:00,0.06066155690246955,0.0,0.0,0.0,0
19-1-2017 13:00,0.060463467222865885,0.0,0.0,0.0,0
19-1-2017 14:00,0.030715281404539274,0.0,0.0,0.0,0
19-1-2017 15:00,-0.01603224694221228,0.0,0.0,0.0,0
19-1-2017 16:00,-0.11261349237540952,0.0,0.0,0.0,0
19-1-2017 17:00,-0.0713882961133342,0.0,0.0,0.0,0
19-1-2017 18:00,-0.09297787645431121,0.0,0.0,0.0,0
19-1-2017 19:00,-0.03291188258133959,0.0,0.0,0.0,0
19-1-2017 20:00,-0.018570792958644722,0.0,0.0,0.0,0
19-1-2017 21:00,-0.018218934302870138,0.0,0.0,0.0,0
19-1-2017 22:00,-0.015385110740769647,0.0,0.0,0.0,0
19-1-2017 23:00,-0.006789978434961652,0.0,0.0,0.0,0
20-1-2017 0:00,-0.015031761692239076,0.0,0.0,0.0,0
20-1-2017 1:00,-0.015924754307306888,0.0,0.0,0.0,0
20-1-2017 2:00,-0.016817746922374588,0.0,0.0,0.0,0
20-1-2017 3:00,-6.456555513145723E-4,0.0,0.0,0.0,0
20-1-2017 4:00,-0.022364057797432002,0.0,0.0,0.0,0
20-1-2017 5:00,-0.010061352095417475,0.0,0.0,0.0,0
20-1-2017 6:00,0.00886319966745952,0.0,0.0,0.0,0
20-1-2017 7:00,0.05423392509169944,0.0,0.0,0.0,0
20-1-2017 8:00,0.057320044049723684,0.0,0.0,0.0,0
20-1-2017 9:00,0.05717730132511423,0.0,0.0,0.0,0
20-1-2017 10:00,0.056069199038226936,0.0,0.0,0.0,0
20-1-2017 11:00,0.05677029285715207,0.0,0.0,0.0,0
20-1-2017 12:00,0.056625070070935424,0.0,0.0,0.0,0
20-1-2017 13:00,0.05600243277170569,0.0,0.0,0.0,0
20-1-2017 14:00,0.027338367527761642,0.0,0.0,0.0,0
20-1-2017 15:00,-0.010710940255204915,0.0,0.0,0.0,0
20-1-2017 16:00,-0.10605875777545559,0.0,0.0,0.0,0
20-1-2017 17:00,-0.06338650386660305,0.0,0.0,0.0,0
20-1-2017 18:00,-0.08434079452107723,0.0,0.0,0.0,0
20-1-2017 19:00,-0.027381390315974974,0.0,0.0,0.0,0
20-1-2017 20:00,-0.01399483728343387,0.0,0.0,0.0,0
20-1-2017 21:00,-0.014033650072602377,0.0,0.0,0.0,0
20-1-2017 22:00,-0.012292120308367904,0.0,0.0,0.0,0
20-1-2017 23:00,-0.004087149525093481,0.0,0.0,0.0,0
21-1-2017 0:00,-0.013269618315694065,0.0,0.0,0.0,0
21-1-2017 1:00,-0.014384634217007752,0.0,0.0,0.0,0
21-1-2017 2:00,-0.015499650118321329,0.0,0.0,0.0,0
21-1-2017 3:00,-0.0024611210527385463,0.0,0.0,0.0,0
21-1-2017 4:00,-0.021639857085513525,0.0,0.0,0.0,0
21-1-2017 5:00,-0.011439788940970086,0.0,0.0,0.0,0
21-1-2017 6:00,0.004309309860101029,0.0,0.0,0.0,0
21-1-2017 7:00,0.050053200162142764,0.0,0.0,0.0,0
21-1-2017 8:00,0.0532105732601873,0.0,0.0,0.0,0
21-1-2017 9:00,0.053580279172499745,0.0,0.0,0.0,0
21-1-2017 10:00,0.053020112022969856,0.0,0.0,0.0,0
21-1-2017 11:00,0.054251961166182916,0.0,0.0,0.0,0
21-1-2017 12:00,0.05461942797384811,0.0,0.0,0.0,0
21-1-2017 13:00,0.07688581312374598,0.0,0.0,0.0,0
21-1-2017 14:00,0.0026194385229387773,0.0,0.0,0.0,0
21-1-2017 15:00,0.006581921372511457,0.0,0.0,0.0,0
21-1-2017 16:00,-0.08421961735199923,0.0,0.0,0.0,0
21-1-2017 17:00,-0.02328130986464172,0.0,0.0,0.0,0
21-1-2017 18:00,0.0032186850991148264,0.0,0.0,0.0,0
21-1-2017 19:00,0.04389007117875576,0.0,0.0,0.0,0
21-1-2017 20:00,0.07314065916355117,0.0,0.0,0.0,0
21-1-2017 21:00,0.10651819974024335,0.0,0.0,0.0,0
21-1-2017 22:00,0.14097432568629487,0.0,0.0,0.0,0
21-1-2017 23:00,0.012596024926718075,0.0,0.0,0.0,0
22-1-2017 0:00,0.20618128410339875,0.0,0.0,0.0,0
22-1-2017 1:00,0.24812399115034045,0.0,0.0,0.0,0
22-1-2017 2:00,0.29006669819728226,0.0,0.0,0.0,0
22-1-2017 3:00,0.31320401472431614,0.0,0.0,0.0,0
22-1-2017 4:00,0.37025912496662816,0.0,0.0,0.0,0
22-1-2017 5:00,0.42287054664445034,0.0,0.0,0.0,0
22-1-2017 6:00,0.47985960527864024,0.0,0.0,0.0,0
22-1-2017 7:00,-0.34870980518783545,0.0,0.0,0.0,0
22-1-2017 8:00,-0.380716636492102,0.0,0.0,0.0,0
22-1-2017 9:00,-0.3376365782354632,0.0,0.0,0.0,0
22-1-2017 10:00,-0.2954474806559401,0.0,0.0,0.0,0
22-1-2017 11:00,-0.25150877792049015,0.0,0.0,0.0,0
22-1-2017 12:00,-0.20842936570902443,0.0,0.0,0.0,0
22-1-2017 13:00,-0.1728860156010939,0.0,0.0,0.0,0
22-1-2017 14:00,-0.1619580946303075,0.0,0.0,0.0,0
22-1-2017 15:00,-0.14495195489111695,0.0,0.0,0.0,0
22-1-2017 16:00,-0.20234267203112222,0.0,0.0,0.0,0
22-1-2017 17:00,-0.13474009184664854,0.0,0.0,0.0,0
22-1-2017 18:00,-0.1324738022219748,0.0,0.0,0.0,0
22-1-2017 19:00,-0.06059462231046554,0.0,0.0,0.0,0
22-1-2017 20:00,-0.02754640086249957,0.0,0.0,0.0,0
22-1-2017 21:00,-0.02649578211717409,0.0,0.0,0.0,0
22-1-2017 22:00,-0.02483758703590569,0.0,0.0,0.0,0
22-1-2017 23:00,-0.01546889204780011,0.0,0.0,0.0,0
23-1-2017 0:00,-0.02477957906851283,0.0,0.0,0.0,0
23-1-2017 1:00,-0.06519912241403304,0.0,0.0,0.0,0
23-1-2017 2:00,-0.10561866575955323,0.0,0.0,0.0,0
23-1-2017 3:00,-0.1378025351117854,0.0,0.0,0.0,0
23-1-2017 4:00,-0.18993434963861025,0.0,0.0,0.0,0
23-1-2017 5:00,-0.277696656324,0.0,0.0,0.0,0
23-1-2017 6:00,-0.3622527197531816,0.0,0.0,0.0,0
23-1-2017 7:00,-0.40792125281544295,0.0,0.0,0.0,0
23-1-2017 8:00,-0.49787811034928864,0.0,0.0,0.0,0
23-1-2017 9:00,-0.6254852641131946,0.0,0.0,0.0,0
23-1-2017 10:00,-0.7539453875794137,0.0,0.0,0.0,0
23-1-2017 11:00,-0.8806983170265223,0.0,0.0,0.0,0
23-1-2017 12:00,-1.0083054451860511,0.0,0.0,0.0,0
23-1-2017 13:00,-1.1458528066222622,0.0,0.0,0.0,0
23-1-2017 14:00,-1.3060982665820562,0.0,0.0,0.0,0
23-1-2017 15:00,-1.4524161464554222,0.0,0.0,0.0,0
23-1-2017 16:00,1.8672355972600998,0.0,0.0,0.0,0
23-1-2017 17:00,1.2302709975246229,0.0,0.0,0.0,0
23-1-2017 18:00,1.0770721291931467,0.0,0.0,0.0,0
23-1-2017 19:00,0.9889273733715236,0.0,0.0,0.0,0
23-1-2017 20:00,0.8645414987176596,0.0,0.0,0.0,0
23-1-2017 21:00,0.749380853498546,0.0,0.0,0.0,0
23-1-2017 22:00,0.6343569036819261,0.0,0.0,0.0,0
23-1-2017 23:00,0.5275883803846089,0.0,0.0,0.0,0
24-1-2017 0:00,0.40149753313339787,0.0,0.0,0.0,0
24-1-2017 1:00,0.36380943053735315,0.0,0.0,0.0,0
24-1-2017 2:00,0.3261213279413093,0.0,0.0,0.0,0
24-1-2017 3:00,0.2937099638517493,0.0,0.0,0.0,0
24-1-2017 4:00,0.2474852583972913,0.0,0.0,0.0,0
24-1-2017 5:00,0.31987872434256825,0.0,0.0,0.0,0
24-1-2017 6:00,0.3943070398438935,0.0,0.0,0.0,0
24-1-2017 7:00,0.5120690088877247,0.0,0.0,0.0,0
24-1-2017 8:00,0.5846917498261783,0.0,0.0,0.0,0
24-1-2017 9:00,0.7094842812079705,0.0,0.0,0.0,0
24-1-2017 10:00,0.8334618479044829,0.0,0.0,0.0,0
24-1-2017 11:00,0.9591041974832892,0.0,0.0,0.0,0
24-1-2017 12:00,1.0838974401612391,0.0,0.0,0.0,0
24-1-2017 13:00,1.2180837082985638,0.0,0.0,0.0,0
24-1-2017 14:00,1.3314892085258672,0.0,0.0,0.0,0
24-1-2017 15:00,0.616671650157623,0.0,0.0,0.0,0
24-1-2017 16:00,-1.1718098084013286,0.0,0.0,0.0,0
24-1-2017 17:00,-1.3076000784198938,0.0,0.0,0.0,0
24-1-2017 18:00,-1.1905225950706562,0.0,0.0,0.0,0
24-1-2017 19:00,-1.0129497816754964,0.0,0.0,0.0,0
24-1-2017 20:00,-0.8690282474812755,0.0,0.0,0.0,0
24-1-2017 21:00,-0.7522278121422649,0.0,0.0,0.0,0
24-1-2017 22:00,-0.635761505672945,0.0,0.0,0.0,0
24-1-2017 23:00,-0.5104948460718572,0.0,0.0,0.0,0
25-1-2017 0:00,-0.405193452369739,0.0,0.0,0.0,0
25-1-2017 1:00,-0.33172733209073757,0.0,0.0,0.0,0
25-1-2017 2:00,-0.258261211811736,0.0,0.0,0.0,0
25-1-2017 3:00,-0.1824772885130549,0.0,0.0,0.0,0
25-1-2017 4:00,-0.11437088350991706,0.0,0.0,0.0,0
25-1-2017 5:00,-0.09101015573050555,0.0,0.0,0.0,0
25-1-2017 6:00,-0.06678597209520502,0.0,0.0,0.0,0
25-1-2017 7:00,0.005219934234917727,0.0,0.0,0.0,0
25-1-2017 8:00,0.031235708825869374,0.0,0.0,0.0,0
25-1-2017 9:00,0.030904051533919362,0.0,0.0,0.0,0
25-1-2017 10:00,0.029797040742164,0.0,0.0,0.0,0
25-1-2017 11:00,0.03031240169588622,0.0,0.0,0.0,0
25-1-2017 12:00,0.029983747560316153,0.0,0.0,0.0,0
25-1-2017 13:00,0.027968362054123123,0.0,0.0,0.0,0
25-1-2017 14:00,0.007089539251469532,0.0,0.0,0.0,0
25-1-2017 15:00,0.015837019171292797,0.0,0.0,0.0,0
25-1-2017 16:00,-0.0787135995464166,0.0,0.0,0.0,0
25-1-2017 17:00,-0.027221806083535593,0.0,0.0,0.0,0
25-1-2017 18:00,-0.043760237289050846,0.0,0.0,0.0,0
25-1-2017 19:00,-0.004363810745583673,-0.04,0.35,-0.44,0
25-1-2017 20:00,0.003971176228247006,-0.0,0.39,-0.4,0
25-1-2017 21:00,0.0025785234273409167,0.0,0.4,-0.39,0
25-1-2017 22:00,3.78633734265143E-4,0.0,0.39,-0.39,0
25-1-2017 23:00,0.007524023785422331,0.0,0.39,-0.39,0
26-1-2017 0:00,-0.005863109627467127,0.01,0.4,-0.38,0
26-1-2017 1:00,-0.00789938427499608,-0.01,0.38,-0.4,0
26-1-2017 2:00,-0.009935658922524997,-0.01,0.38,-0.4,0
26-1-2017 3:00,-0.012401128950650297,-0.01,0.38,-0.4,0
26-1-2017 4:00,-0.016557826349903396,-0.01,0.38,-0.4,0
26-1-2017 5:00,-0.018980385687152997,-0.02,0.37,-0.41,0
26-1-2017 6:00,-0.02167903358396674,-0.02,0.37,-0.41,0
26-1-2017 7:00,0.027156688216842362,-0.02,0.37,-0.41,0
26-1-2017 8:00,0.029695470035819262,0.03,0.42,-0.36,0
26-1-2017 9:00,0.028109250968426515,0.03,0.42,-0.36,0
26-1-2017 10:00,0.025812495645709928,0.03,0.42,-0.36,0
26-1-2017 11:00,0.025025464005360636,0.03,0.41,-0.36,0
26-1-2017 12:00,0.023441050582644497,0.03,0.41,-0.36,0
26-1-2017 13:00,0.021055014223553693,0.02,0.41,-0.36,0
26-1-2017 14:00,0.002606408652656142,0.02,0.41,-0.37,0
26-1-2017 15:00,0.022432939010131256,0.0,0.39,-0.38,0
26-1-2017 16:00,-0.07143452428980838,0.02,0.41,-0.36,0
26-1-2017 17:00,-0.018205140253880807,-0.07,0.31,-0.46,0
26-1-2017 18:00,-0.03328455856669386,-0.02,0.37,-0.4,0
26-1-2017 19:00,6.928240697913129E-4,-0.03,0.35,-0.42,0
26-1-2017 20:00,0.007480055413642143,0.0,0.39,-0.38,0
26-1-2017 21:00,0.005785408146937563,0.01,0.39,-0.38,0
26-1-2017 22:00,0.002975330680477101,0.01,0.39,-0.38,0
26-1-2017 23:00,0.009698227476935077,0.0,0.39,-0.38,0
27-1-2017 0:00,-0.004408404074096661,0.01,0.39,-0.37,0
27-1-2017 1:00,-0.006689767747056451,-0.0,0.38,-0.39,0
27-1-2017 2:00,-0.00897113142001621,-0.01,0.38,-0.39,0
27-1-2017 3:00,-0.014428688873848296,-0.01,0.37,-0.39,0
27-1-2017 4:00,-0.01558892664616691,-0.01,0.37,-0.4,0
27-1-2017 5:00,-0.020513696835465823,-0.02,0.37,-0.4,0
27-1-2017 6:00,-0.026854099999782076,-0.02,0.36,-0.4,0
27-1-2017 7:00,0.022094596197303543,-0.03,0.35,-0.41,0
27-1-2017 8:00,0.024439544169895872,0.02,0.4,-0.36,0
27-1-2017 9:00,0.02252471266814616,0.02,0.41,-0.36,0
27-1-2017 10:00,0.01996577575304098,0.02,0.4,-0.36,0
27-1-2017 11:00,0.018803914457192827,0.02,0.4,-0.36,0
27-1-2017 12:00,0.016891304685903254,0.02,0.4,-0.36,0
27-1-2017 13:00,0.014138123428327381,0.02,0.4,-0.36,0
27-1-2017 14:00,-0.0018767589564014104,0.01,0.39,-0.37,0
27-1-2017 15:00,0.029032327793138267,-0.0,0.38,-0.38,0
27-1-2017 16:00,-0.06414915729720713,0.03,0.41,-0.35,0
27-1-2017 17:00,-0.009179935884786944,-0.06,0.31,-0.44,0
27-1-2017 18:00,-0.022798094501451725,-0.01,0.37,-0.39,0
27-1-2017 19:00,0.0057607918245913,-0.02,0.36,-0.4,0
27-1-2017 20:00,0.011000815135002149,0.01,0.38,-0.37,0
27-1-2017 21:00,0.009005567644563346,0.01,0.39,-0.37,0
27-1-2017 22:00,0.005584526219016565,0.01,0.39,-0.37,0
27-1-2017 23:00,0.0118841535750737,0.01,0.38,-0.37,0
28-1-2017 0:00,-0.0029427522998019522,0.01,0.39,-0.36,0
28-1-2017 1:00,-0.005470483421759317,-0.0,0.37,-0.38,0
28-1-2017 2:00,-0.007998214543716655,-0.01,0.37,-0.38,0
28-1-2017 3:00,-0.016449137846822268,-0.01,0.37,-0.38,0
28-1-2017 4:00,-0.014614712850056647,-0.02,0.36,-0.39,0
28-1-2017 5:00,-0.022042554749212562,-0.01,0.36,-0.39,0
28-1-2017 6:00,-0.032025574038839,-0.02,0.35,-0.4,0
28-1-2017 7:00,0.017035167354591478,-0.03,0.34,-0.41,0
28-1-2017 8:00,0.019185352280867585,0.02,0.39,-0.36,0
28-1-2017 9:00,0.016941605683523837,0.02,0.39,-0.35,0
28-1-2017 10:00,0.014120180800270308,0.02,0.39,-0.36,0
28-1-2017 11:00,0.012583183473163539,0.01,0.39,-0.36,0
28-1-2017 12:00,0.010342070977540765,0.01,0.39,-0.36,0
28-1-2017 13:00,0.007221733442676224,0.01,0.38,-0.36,0
28-1-2017 14:00,-0.006359437134687424,0.01,0.38,-0.37,0
28-1-2017 15:00,0.0356321946281132,-0.01,0.37,-0.38,0
28-1-2017 16:00,-0.05686334174777393,0.04,0.41,-0.34,0
28-1-2017 17:00,-1.5427174501850358E-4,-0.06,0.31,-0.43,0
28-1-2017 18:00,-0.012311159451692404,0.0,0.37,-0.37,0
28-1-2017 19:00,0.01082915264400525,-0.01,0.36,-0.38,0
28-1-2017 20:00,0.014521890001072886,0.01,0.38,-0.36,0
28-1-2017 21:00,0.012225803783252047,0.01,0.39,-0.36,0
28-1-2017 22:00,0.008193366381999953,0.01,0.38,-0.36,0
28-1-2017 23:00,0.014069292281037251,0.01,0.38,-0.36,0
29-1-2017 0:00,-0.0014783199343013057,0.01,0.38,-0.36,0
29-1-2017 1:00,-0.0042532452939315285,-0.0,0.37,-0.37,0
29-1-2017 2:00,-0.0070281706535617276,-0.0,0.37,-0.37,0
29-1-2017 3:00,-0.018473286594616153,-0.01,0.36,-0.38,0
29-1-2017 4:00,-0.013644594795335075,-0.02,0.35,-0.39,0
29-1-2017 5:00,-0.023576396254177075,-0.01,0.35,-0.38,0
29-1-2017 6:00,-0.03720291951894279,-0.02,0.34,-0.39,0
29-1-2017 7:00,0.011969958803317983,-0.04,0.33,-0.41,0
29-1-2017 8:00,0.013925472415763286,0.01,0.38,-0.36,0
29-1-2017 9:00,0.011351226962989397,0.01,0.38,-0.35,0
29-1-2017 10:00,0.008266668896056917,0.01,0.38,-0.36,0
29-1-2017 11:00,0.006353890322160928,0.01,0.38,-0.36,0
29-1-2017 12:00,0.003783629886674361,0.01,0.37,-0.36,0
29-1-2017 13:00,2.942750251905673E-4,0.0,0.37,-0.36,0
29-1-2017 14:00,-0.01085504479413852,0.0,0.37,-0.37,0
29-1-2017 15:00,0.04221727093259247,-0.01,0.36,-0.38,0
29-1-2017 16:00,-0.04959431387404022,0.04,0.41,-0.32,0
29-1-2017 17:00,0.008861986128924016,-0.05,0.32,-0.42,0
29-1-2017 18:00,-0.0018262492578854197,0.01,0.37,-0.36,0
29-1-2017 19:00,0.015902221508777483,-0.0,0.36,-0.37,0
29-1-2017 20:00,0.018054405813812523,0.02,0.38,-0.35,0
29-1-2017 21:00,0.015476008350747158,0.02,0.38,-0.35,0
29-1-2017 22:00,0.01084989941751499,0.02,0.38,-0.35,0
29-1-2017 23:00,0.016319848303257688,0.01,0.37,-0.35,0
30-1-2017 0:00,1.9450541801545372E-4,0.02,0.38,-0.35,0
30-1-2017 1:00,-0.00285560924794594,0.0,0.36,-0.36,0
30-1-2017 2:00,-0.00590572391390731,-0.0,0.36,-0.37,0
30-1-2017 3:00,-0.020156195722640092,-0.01,0.36,-0.37,0
30-1-2017 4:00,-0.012460772610864571,-0.02,0.34,-0.38,0
30-1-2017 5:00,-0.024792579308384338,-0.01,0.35,-0.37,0
30-1-2017 6:00,-0.04188871271111309,-0.02,0.34,-0.39,0
30-1-2017 7:00,0.00639917127663046,-0.04,0.32,-0.4,0
30-1-2017 8:00,0.008038689519649865,0.01,0.37,-0.36,0
30-1-2017 9:00,0.00509752762752132,0.01,0.37,-0.35,0
30-1-2017 10:00,0.0017317803150598405,0.01,0.37,-0.36,0
30-1-2017 11:00,-6.214912168212105E-4,0.0,0.36,-0.36,0
30-1-2017 12:00,-0.0035593204279453605,-0.0,0.36,-0.36,0
30-1-2017 13:00,-0.007429014491965746,-0.0,0.36,-0.36,0
30-1-2017 14:00,-0.015652656302630907,-0.01,0.35,-0.37,0
30-1-2017 15:00,0.04874058656582014,-0.02,0.34,-0.38,0
30-1-2017 16:00,-0.04062904925885003,0.05,0.41,-0.31,0
30-1-2017 17:00,0.018863374371058277,-0.04,0.32,-0.4,0
30-1-2017 18:00,0.010006705938833474,0.02,0.38,-0.34,0
30-1-2017 19:00,0.02124249656127462,0.01,0.37,-0.35,0
30-1-2017 20:00,0.02157155658272639,0.02,0.38,-0.34,0
30-1-2017 21:00,0.018694367070733173,0.02,0.38,-0.34,0
30-1-2017 22:00,0.013541085799024988,0.02,0.38,-0.34,0
30-1-2017 23:00,0.018391348087028043,0.01,0.37,-0.34,0
31-1-2017 0:00,0.0017420811393801686,0.02,0.38,-0.34,0
31-1-2017 1:00,-0.0015803695347900264,0.0,0.36,-0.36,0
31-1-2017 2:00,-0.004902820208960197,-0.0,0.36,-0.36,0
31-1-2017 3:00,-0.02195579458724896,-0.0,0.35,-0.36,0
31-1-2017 4:00,-0.011389716514791962,-0.02,0.33,-0.38,0
31-1-2017 5:00,-0.02670378073862986,-0.01,0.35,-0.37,0
31-1-2017 6:00,-0.04785177656696198,-0.03,0.33,-0.38,0
31-1-2017 7:00,-0.0010298269973613777,-0.05,0.31,-0.4,0
31-1-2017 8:00,-2.872442073935807E-4,-0.0,0.35,-0.36,0
31-1-2017 9:00,-0.004011160162863004,-0.0,0.36,-0.36,0
31-1-2017 10:00,-0.008072661697390286,-0.0,0.35,-0.36,0
31-1-2017 11:00,-0.011280991163793202,-0.01,0.35,-0.36,0
31-1-2017 12:00,-0.015000954127091739,-0.01,0.34,-0.37,0
31-1-2017 13:00,-0.019889248663042213,-0.02,0.34,-0.37,0
31-1-2017 14:00,-0.025825473734436943,-0.02,0.33,-0.37,0
31-1-2017 15:00,0.049250435006340666,-0.03,0.33,-0.38,0
31-1-2017 16:00,-0.03831564011168245,0.05,0.4,-0.3,0
31-1-2017 17:00,0.021099749467423486,-0.04,0.32,-0.39,0
31-1-2017 18:00,0.012961490312036892,0.02,0.37,-0.33,0
31-1-2017 19:00,0.016590741111318207,0.01,0.37,-0.34,0
31-1-2017 20:00,0.013982817170248645,0.02,0.37,-0.34,0
31-1-2017 21:00,0.009158143966905825,0.01,0.37,-0.34,0
31-1-2017 22:00,0.0018280338822832289,0.01,0.36,-0.34,0
31-1-2017 23:00,0.0044089530981082335,0.0,0.35,-0.35,0
