Time,Actual,Forecasts,Upper Interval,Lower Interval,Is Anomalies
1-1-2017 0:00,-4291.412560803816,0.0,0.0,0.0,0
1-1-2017 1:00,5968.656704682857,0.0,0.0,0.0,0
1-1-2017 2:00,13996.400774432346,0.0,0.0,0.0,0
1-1-2017 3:00,16575.56599233672,0.0,0.0,0.0,0
1-1-2017 4:00,10546.10915206559,0.0,0.0,0.0,0
1-1-2017 5:00,8712.276711298153,0.0,0.0,0.0,0
1-1-2017 6:00,1739.5853592138737,0.0,0.0,0.0,0
1-1-2017 7:00,-42564.004181684926,0.0,0.0,0.0,0
1-1-2017 8:00,-34484.78335204348,0.0,0.0,0.0,0
1-1-2017 9:00,3218.6123941149563,0.0,0.0,0.0,0
1-1-2017 10:00,2888.074866997078,0.0,0.0,0.0,0
1-1-2017 11:00,1944.633998453617,0.0,0.0,0.0,0
1-1-2017 12:00,2410.0488150455058,0.0,0.0,0.0,0
1-1-2017 13:00,-2834.8867241498083,0.0,0.0,0.0,0
1-1-2017 14:00,-1727.4764582831413,0.0,0.0,0.0,0
1-1-2017 15:00,-2260.8052546214312,0.0,0.0,0.0,0
1-1-2017 16:00,-6560.801536979154,0.0,0.0,0.0,0
1-1-2017 17:00,-4113.479095386341,0.0,0.0,0.0,0
1-1-2017 18:00,635.0533983334899,0.0,0.0,0.0,0
1-1-2017 19:00,-3463.220888417214,0.0,0.0,0.0,0
1-1-2017 20:00,12341.288717495278,0.0,0.0,0.0,0
1-1-2017 21:00,-1561.218741768971,0.0,0.0,0.0,0
1-1-2017 22:00,1356.3344565909356,0.0,0.0,0.0,0
1-1-2017 23:00,78294.80153528042,0.0,0.0,0.0,0
2-1-2017 0:00,11076.035661991686,0.0,0.0,0.0,0
2-1-2017 1:00,33288.42364114523,0.0,0.0,0.0,0
2-1-2017 2:00,29524.980622902513,0.0,0.0,0.0,0
2-1-2017 3:00,17783.67295639962,0.0,0.0,0.0,0
2-1-2017 4:00,218.3566304128617,0.0,0.0,0.0,0
2-1-2017 5:00,-2414.933081753552,0.0,0.0,0.0,0
2-1-2017 6:00,-19866.845965784043,0.0,0.0,0.0,0
2-1-2017 7:00,800.8116844315082,0.0,0.0,0.0,0
2-1-2017 8:00,-8151.282572098076,0.0,0.0,0.0,0
2-1-2017 9:00,-15714.314122425392,0.0,0.0,0.0,0
2-1-2017 10:00,-19491.53178237565,0.0,0.0,0.0,0
2-1-2017 11:00,-17331.728444550186,0.0,0.0,0.0,0
2-1-2017 12:00,-16171.888118000701,0.0,0.0,0.0,0
2-1-2017 13:00,-15688.562350224704,0.0,0.0,0.0,0
2-1-2017 14:00,-12667.819158094004,0.0,0.0,0.0,0
2-1-2017 15:00,-11214.053464900702,0.0,0.0,0.0,0
2-1-2017 16:00,-9624.738406844437,0.0,0.0,0.0,0
2-1-2017 17:00,-3324.3617686834186,0.0,0.0,0.0,0
2-1-2017 18:00,4475.422926936299,0.0,0.0,0.0,0
2-1-2017 19:00,4623.885632041842,0.0,0.0,0.0,0
2-1-2017 20:00,20900.63734147325,0.0,0.0,0.0,0
2-1-2017 21:00,10035.885951373726,0.0,0.0,0.0,0
2-1-2017 22:00,12491.264112858102,0.0,0.0,0.0,0
2-1-2017 23:00,88309.1962723881,0.0,0.0,0.0,0
3-1-2017 0:00,15221.416471196339,0.0,0.0,0.0,0
3-1-2017 1:00,-30815.84650574252,0.0,0.0,0.0,0
3-1-2017 2:00,-12687.526281733066,0.0,0.0,0.0,0
3-1-2017 3:00,-8839.496502399445,0.0,0.0,0.0,0
3-1-2017 4:00,-13371.405795065686,0.0,0.0,0.0,0
3-1-2017 5:00,-17436.6836593505,0.0,0.0,0.0,0
3-1-2017 6:00,-39384.558956036344,0.0,0.0,0.0,0
3-1-2017 7:00,-23054.346717534587,0.0,0.0,0.0,0
3-1-2017 8:00,6146.321336934343,0.0,0.0,0.0,0
3-1-2017 9:00,967.9643879048526,0.0,0.0,0.0,0
3-1-2017 10:00,771.9118584971875,0.0,0.0,0.0,0
3-1-2017 11:00,621.4446660745889,0.0,0.0,0.0,0
3-1-2017 12:00,3218.025765957311,0.0,0.0,0.0,0
3-1-2017 13:00,2533.4808660782874,0.0,0.0,0.0,0
3-1-2017 14:00,3309.615009849891,0.0,0.0,0.0,0
3-1-2017 15:00,3838.653217945248,0.0,0.0,0.0,0
3-1-2017 16:00,2643.2841159384698,0.0,0.0,0.0,0
3-1-2017 17:00,7011.903103586286,0.0,0.0,0.0,0
3-1-2017 18:00,7782.538154022768,0.0,0.0,0.0,0
3-1-2017 19:00,10344.813524570316,0.0,0.0,0.0,0
3-1-2017 20:00,-61462.03698889539,0.0,0.0,0.0,0
3-1-2017 21:00,12450.502824369818,0.0,0.0,0.0,0
3-1-2017 22:00,13765.460845507681,0.0,0.0,0.0,0
3-1-2017 23:00,85936.3229824081,0.0,0.0,0.0,0
4-1-2017 0:00,14256.734149850905,0.0,0.0,0.0,0
4-1-2017 1:00,-17046.191907864064,0.0,0.0,0.0,0
4-1-2017 2:00,-14608.350566286594,0.0,0.0,0.0,0
4-1-2017 3:00,-14309.595465799794,0.0,0.0,0.0,0
4-1-2017 4:00,-16082.332754073665,0.0,0.0,0.0,0
4-1-2017 5:00,-16227.799951896071,0.0,0.0,0.0,0
4-1-2017 6:00,-32324.93884266168,0.0,0.0,0.0,0
4-1-2017 7:00,-16520.19458810985,0.0,0.0,0.0,0
4-1-2017 8:00,7353.893205117434,0.0,0.0,0.0,0
4-1-2017 9:00,3006.9337641075253,0.0,0.0,0.0,0
4-1-2017 10:00,2386.4883841034025,0.0,0.0,0.0,0
4-1-2017 11:00,1109.302680293098,0.0,0.0,0.0,0
4-1-2017 12:00,3242.826572369784,0.0,0.0,0.0,0
4-1-2017 13:00,-683.4236589577049,0.0,0.0,0.0,0
4-1-2017 14:00,609.706772653386,0.0,0.0,0.0,0
4-1-2017 15:00,-1591.867168141529,0.0,0.0,0.0,0
4-1-2017 16:00,-3791.9527328368276,0.0,0.0,0.0,0
4-1-2017 17:00,-1939.0898424983025,0.0,0.0,0.0,0
4-1-2017 18:00,-4345.292884044349,0.0,0.0,0.0,0
4-1-2017 19:00,-4133.114312369376,0.0,0.0,0.0,0
4-1-2017 20:00,6118.253486959264,0.0,0.0,0.0,0
4-1-2017 21:00,-22415.70112516731,0.0,0.0,0.0,0
4-1-2017 22:00,-8879.34306694381,0.0,0.0,0.0,0
4-1-2017 23:00,-1318.9107752423733,0.0,0.0,0.0,0
5-1-2017 0:00,-31655.01846173778,0.0,0.0,0.0,0
5-1-2017 1:00,40154.72695362568,0.0,0.0,0.0,0
5-1-2017 2:00,48076.74396662228,0.0,0.0,0.0,0
5-1-2017 3:00,24810.20894211717,0.0,0.0,0.0,0
5-1-2017 4:00,7919.6880141031,0.0,0.0,0.0,0
5-1-2017 5:00,5399.400691559538,0.0,0.0,0.0,0
5-1-2017 6:00,28069.80741553381,0.0,0.0,0.0,0
5-1-2017 7:00,36258.62697764672,0.0,0.0,0.0,0
5-1-2017 8:00,-7710.932198856026,0.0,0.0,0.0,0
5-1-2017 9:00,-12051.850652160123,0.0,0.0,0.0,0
5-1-2017 10:00,-11776.489648863673,0.0,0.0,0.0,0
5-1-2017 11:00,-10964.424630168825,0.0,0.0,0.0,0
5-1-2017 12:00,-8222.848712000996,0.0,0.0,0.0,0
5-1-2017 13:00,-8517.800142692402,0.0,0.0,0.0,0
5-1-2017 14:00,-4929.3292911518365,0.0,0.0,0.0,0
5-1-2017 15:00,-3323.7712487466633,0.0,0.0,0.0,0
5-1-2017 16:00,-5392.691692268476,0.0,0.0,0.0,0
5-1-2017 17:00,-2123.971257580444,0.0,0.0,0.0,0
5-1-2017 18:00,-3819.568749446422,0.0,0.0,0.0,0
5-1-2017 19:00,-1270.8837835658342,0.0,0.0,0.0,0
5-1-2017 20:00,8821.2155216299,0.0,0.0,0.0,0
5-1-2017 21:00,-8143.702503185719,0.0,0.0,0.0,0
5-1-2017 22:00,-7443.65087839216,0.0,0.0,0.0,0
5-1-2017 23:00,53537.295097591355,0.0,0.0,0.0,0
6-1-2017 0:00,-4940.946290250868,0.0,0.0,0.0,0
6-1-2017 1:00,-32445.663413396105,0.0,0.0,0.0,0
6-1-2017 2:00,-74562.85732507706,0.0,0.0,0.0,0
6-1-2017 3:00,-46898.1274447497,0.0,0.0,0.0,0
6-1-2017 4:00,6692.300297932699,0.0,0.0,0.0,0
6-1-2017 5:00,25632.046615235507,0.0,0.0,0.0,0
6-1-2017 6:00,45859.20728716999,0.0,0.0,0.0,0
6-1-2017 7:00,46831.75434825383,0.0,0.0,0.0,0
6-1-2017 8:00,3908.8217384088784,0.0,0.0,0.0,0
6-1-2017 9:00,-318.271577199921,0.0,0.0,0.0,0
6-1-2017 10:00,-217.12965808063745,0.0,0.0,0.0,0
6-1-2017 11:00,-1761.6394920963794,0.0,0.0,0.0,0
6-1-2017 12:00,2197.032750347629,0.0,0.0,0.0,0
6-1-2017 13:00,106.29555804282427,0.0,0.0,0.0,0
6-1-2017 14:00,3088.929522527382,0.0,0.0,0.0,0
6-1-2017 15:00,3722.2681355196983,0.0,0.0,0.0,0
6-1-2017 16:00,43.96321710012853,0.0,0.0,0.0,0
6-1-2017 17:00,3175.1259588077664,0.0,0.0,0.0,0
6-1-2017 18:00,-314.0867431461811,0.0,0.0,0.0,0
6-1-2017 19:00,2709.822792125866,0.0,0.0,0.0,0
6-1-2017 20:00,-11464.270368430763,0.0,0.0,0.0,0
6-1-2017 21:00,3731.4817298799753,0.0,0.0,0.0,0
6-1-2017 22:00,-13798.836671015248,0.0,0.0,0.0,0
6-1-2017 23:00,25123.375078152865,0.0,0.0,0.0,0
7-1-2017 0:00,-6262.376679651439,0.0,0.0,0.0,0
7-1-2017 1:00,-5467.997479246929,0.0,0.0,0.0,0
7-1-2017 2:00,-8693.88345355168,0.0,0.0,0.0,0
7-1-2017 3:00,-11521.17980632931,0.0,0.0,0.0,0
7-1-2017 4:00,-15278.572832679376,0.0,0.0,0.0,0
7-1-2017 5:00,-12396.651854310185,0.0,0.0,0.0,0
7-1-2017 6:00,-12184.72621319443,0.0,0.0,0.0,0
7-1-2017 7:00,-21081.06643367745,0.0,0.0,0.0,0
7-1-2017 8:00,6028.91274260357,0.0,0.0,0.0,0
7-1-2017 9:00,14135.061938904226,0.0,0.0,0.0,0
7-1-2017 10:00,18477.504108436406,0.0,0.0,0.0,0
7-1-2017 11:00,18031.708756301552,0.0,0.0,0.0,0
7-1-2017 12:00,23891.92665761523,0.0,0.0,0.0,0
7-1-2017 13:00,22618.017343549058,0.0,0.0,0.0,0
7-1-2017 14:00,29317.79806082882,0.0,0.0,0.0,0
7-1-2017 15:00,32422.910884262994,0.0,0.0,0.0,0
7-1-2017 16:00,31206.867304919288,0.0,0.0,0.0,0
7-1-2017 17:00,33582.14034350775,0.0,0.0,0.0,0
7-1-2017 18:00,25671.210421323776,0.0,0.0,0.0,0
7-1-2017 19:00,28063.280032241717,0.0,0.0,0.0,0
7-1-2017 20:00,38395.779912184924,0.0,0.0,0.0,0
7-1-2017 21:00,31128.125921929255,0.0,0.0,0.0,0
7-1-2017 22:00,30811.10541280359,0.0,0.0,0.0,0
7-1-2017 23:00,-606979.3991473895,0.0,0.0,0.0,0
8-1-2017 0:00,38775.5066423025,0.0,0.0,0.0,0
8-1-2017 1:00,32242.83839470707,0.0,0.0,0.0,0
8-1-2017 2:00,19445.556586232036,0.0,0.0,0.0,0
8-1-2017 3:00,17418.0602288004,0.0,0.0,0.0,0
8-1-2017 4:00,12067.086713772267,0.0,0.0,0.0,0
8-1-2017 5:00,9115.03217562288,0.0,0.0,0.0,0
8-1-2017 6:00,16261.022608339787,0.0,0.0,0.0,0
8-1-2017 7:00,-20353.060129070655,0.0,0.0,0.0,0
8-1-2017 8:00,13443.945597974584,0.0,0.0,0.0,0
8-1-2017 9:00,26227.181090485305,0.0,0.0,0.0,0
8-1-2017 10:00,26200.4141916465,0.0,0.0,0.0,0
8-1-2017 11:00,19558.33400261216,0.0,0.0,0.0,0
8-1-2017 12:00,19286.52824400738,0.0,0.0,0.0,0
8-1-2017 13:00,11112.234749272466,0.0,0.0,0.0,0
8-1-2017 14:00,14219.690160438418,0.0,0.0,0.0,0
8-1-2017 15:00,11115.87513540499,0.0,0.0,0.0,0
8-1-2017 16:00,5166.872093055397,0.0,0.0,0.0,0
8-1-2017 17:00,4130.585612144321,0.0,0.0,0.0,0
8-1-2017 18:00,-7772.891346646473,0.0,0.0,0.0,0
8-1-2017 19:00,-9826.351529935375,0.0,0.0,0.0,0
8-1-2017 20:00,-1395.1284793447703,0.0,0.0,0.0,0
8-1-2017 21:00,-10652.30905230157,0.0,0.0,0.0,0
8-1-2017 22:00,-13244.550336468965,0.0,0.0,0.0,0
8-1-2017 23:00,42950.55012716353,0.0,0.0,0.0,0
9-1-2017 0:00,1004.6347975376993,0.0,0.0,0.0,0
9-1-2017 1:00,12400.893465360627,0.0,0.0,0.0,0
9-1-2017 2:00,15761.55018613115,0.0,0.0,0.0,0
9-1-2017 3:00,6482.938187461346,0.0,0.0,0.0,0
9-1-2017 4:00,-3346.3783937469125,0.0,0.0,0.0,0
9-1-2017 5:00,-8534.607411682606,0.0,0.0,0.0,0
9-1-2017 6:00,-3790.4411506373435,0.0,0.0,0.0,0
9-1-2017 7:00,7928.6680171806365,0.0,0.0,0.0,0
9-1-2017 8:00,-199.62528285384178,0.0,0.0,0.0,0
9-1-2017 9:00,-3007.285170281306,0.0,0.0,0.0,0
9-1-2017 10:00,-780.1080545466393,0.0,0.0,0.0,0
9-1-2017 11:00,-6819.5999975427985,0.0,0.0,0.0,0
9-1-2017 12:00,200.20366688072681,0.0,0.0,0.0,0
9-1-2017 13:00,-1147.6598225608468,0.0,0.0,0.0,0
9-1-2017 14:00,3753.514468455687,0.0,0.0,0.0,0
9-1-2017 15:00,3711.875780923292,0.0,0.0,0.0,0
9-1-2017 16:00,1177.7023286744952,0.0,0.0,0.0,0
9-1-2017 17:00,4021.7622921727598,0.0,0.0,0.0,0
9-1-2017 18:00,-7061.675739318132,0.0,0.0,0.0,0
9-1-2017 19:00,-2537.495096627623,0.0,0.0,0.0,0
9-1-2017 20:00,3483.5117447935045,0.0,0.0,0.0,0
9-1-2017 21:00,-1841.7198284342885,0.0,0.0,0.0,0
9-1-2017 22:00,-2766.4574375804514,0.0,0.0,0.0,0
9-1-2017 23:00,51994.13249994069,0.0,0.0,0.0,0
10-1-2017 0:00,1775.2158122491091,0.0,0.0,0.0,0
10-1-2017 1:00,-6850.231008194387,0.0,0.0,0.0,0
10-1-2017 2:00,-24345.902954341844,0.0,0.0,0.0,0
10-1-2017 3:00,-23096.525551503524,0.0,0.0,0.0,0
10-1-2017 4:00,-22535.693166594952,0.0,0.0,0.0,0
10-1-2017 5:00,-24358.169902287424,0.0,0.0,0.0,0
10-1-2017 6:00,-26798.207625674084,0.0,0.0,0.0,0
10-1-2017 7:00,-14046.064718306065,0.0,0.0,0.0,0
10-1-2017 8:00,12621.347800321877,0.0,0.0,0.0,0
10-1-2017 9:00,11307.166872158647,0.0,0.0,0.0,0
10-1-2017 10:00,11124.128245858476,0.0,0.0,0.0,0
10-1-2017 11:00,9445.148661648855,0.0,0.0,0.0,0
10-1-2017 12:00,13491.840046040714,0.0,0.0,0.0,0
10-1-2017 13:00,9269.150895653293,0.0,0.0,0.0,0
10-1-2017 14:00,10491.14828017354,0.0,0.0,0.0,0
10-1-2017 15:00,9226.495073469356,0.0,0.0,0.0,0
10-1-2017 16:00,405.3986620660871,0.0,0.0,0.0,0
10-1-2017 17:00,-559.3785930015147,0.0,0.0,0.0,0
10-1-2017 18:00,-11242.940109334886,0.0,0.0,0.0,0
10-1-2017 19:00,-8967.207415698096,0.0,0.0,0.0,0
10-1-2017 20:00,-7463.172769097611,0.0,0.0,0.0,0
10-1-2017 21:00,-13791.152176970616,0.0,0.0,0.0,0
10-1-2017 22:00,-24958.931232327595,0.0,0.0,0.0,0
10-1-2017 23:00,40418.16832061112,0.0,0.0,0.0,0
11-1-2017 0:00,-29583.31762645021,0.0,0.0,0.0,0
11-1-2017 1:00,15837.210627630353,0.0,0.0,0.0,0
11-1-2017 2:00,-19771.579422639683,0.0,0.0,0.0,0
11-1-2017 3:00,-15575.752055501565,0.0,0.0,0.0,0
11-1-2017 4:00,10612.01289467886,0.0,0.0,0.0,0
11-1-2017 5:00,23409.592475568876,0.0,0.0,0.0,0
11-1-2017 6:00,44471.014802092686,0.0,0.0,0.0,0
11-1-2017 7:00,39458.32583199814,0.0,0.0,0.0,0
11-1-2017 8:00,29422.23855226487,0.0,0.0,0.0,0
11-1-2017 9:00,-32285.35797568038,0.0,0.0,0.0,0
11-1-2017 10:00,-30926.65688339621,0.0,0.0,0.0,0
11-1-2017 11:00,2619.38135179691,0.0,0.0,0.0,0
11-1-2017 12:00,9879.395916774869,0.0,0.0,0.0,0
11-1-2017 13:00,5511.144763858989,0.0,0.0,0.0,0
11-1-2017 14:00,7809.51890030317,0.0,0.0,0.0,0
11-1-2017 15:00,7264.954832844436,0.0,0.0,0.0,0
11-1-2017 16:00,3287.746501505375,0.0,0.0,0.0,0
11-1-2017 17:00,3219.5650579277426,0.0,0.0,0.0,0
11-1-2017 18:00,-11483.42691318877,0.0,0.0,0.0,0
11-1-2017 19:00,-18644.064589207992,0.0,0.0,0.0,0
11-1-2017 20:00,-25578.224558038637,0.0,0.0,0.0,0
11-1-2017 21:00,-23946.31586849317,0.0,0.0,0.0,0
11-1-2017 22:00,-5839.317915713415,0.0,0.0,0.0,0
11-1-2017 23:00,39125.59970698506,0.0,0.0,0.0,0
12-1-2017 0:00,-8646.417045105249,0.0,0.0,0.0,0
12-1-2017 1:00,-95955.70738904178,0.0,0.0,0.0,0
12-1-2017 2:00,-49919.169215986505,0.0,0.0,0.0,0
12-1-2017 3:00,-7961.635557094589,0.0,0.0,0.0,0
12-1-2017 4:00,20705.57329717651,0.0,0.0,0.0,0
12-1-2017 5:00,23181.586507504806,0.0,0.0,0.0,0
12-1-2017 6:00,48889.70619679429,0.0,0.0,0.0,0
12-1-2017 7:00,56198.89918047562,0.0,0.0,0.0,0
12-1-2017 8:00,13005.765933630988,0.0,0.0,0.0,0
12-1-2017 9:00,11244.064212914556,0.0,0.0,0.0,0
12-1-2017 10:00,12591.722800510004,0.0,0.0,0.0,0
12-1-2017 11:00,6634.726631829515,0.0,0.0,0.0,0
12-1-2017 12:00,5564.93215412274,0.0,0.0,0.0,0
12-1-2017 13:00,1652.9872052110732,0.0,0.0,0.0,0
12-1-2017 14:00,6350.676300119609,0.0,0.0,0.0,0
12-1-2017 15:00,7525.919578447938,0.0,0.0,0.0,0
12-1-2017 16:00,2915.5945526193827,0.0,0.0,0.0,0
12-1-2017 17:00,2894.6187775172293,0.0,0.0,0.0,0
12-1-2017 18:00,-23869.843791395426,0.0,0.0,0.0,0
12-1-2017 19:00,-32521.29798872955,0.0,0.0,0.0,0
12-1-2017 20:00,-5076.928724650294,0.0,0.0,0.0,0
12-1-2017 21:00,-8708.917148299515,0.0,0.0,0.0,0
12-1-2017 22:00,-10437.566376416013,0.0,0.0,0.0,0
12-1-2017 23:00,35078.03512701206,0.0,0.0,0.0,0
13-1-2017 0:00,-1388.426619136706,0.0,0.0,0.0,0
13-1-2017 1:00,-1760.6268542017788,0.0,0.0,0.0,0
13-1-2017 2:00,5367.688249075785,0.0,0.0,0.0,0
13-1-2017 3:00,1350.646906612441,0.0,0.0,0.0,0
13-1-2017 4:00,-12692.446572966874,0.0,0.0,0.0,0
13-1-2017 5:00,-19298.196428803727,0.0,0.0,0.0,0
13-1-2017 6:00,-8670.01607234776,0.0,0.0,0.0,0
13-1-2017 7:00,16701.096234202385,0.0,0.0,0.0,0
13-1-2017 8:00,25632.614389333874,0.0,0.0,0.0,0
13-1-2017 9:00,26837.17890373245,0.0,0.0,0.0,0
13-1-2017 10:00,29952.303874041885,0.0,0.0,0.0,0
13-1-2017 11:00,25018.832188896835,0.0,0.0,0.0,0
13-1-2017 12:00,-57254.6024440974,0.0,0.0,0.0,0
13-1-2017 13:00,25350.137630660087,0.0,0.0,0.0,0
13-1-2017 14:00,-57608.12949631177,0.0,0.0,0.0,0
13-1-2017 15:00,-58412.64005254023,0.0,0.0,0.0,0
13-1-2017 16:00,23871.208109365776,0.0,0.0,0.0,0
13-1-2017 17:00,-65667.17003133334,0.0,0.0,0.0,0
13-1-2017 18:00,287.9187678862363,0.0,0.0,0.0,0
13-1-2017 19:00,1453.1546143833548,0.0,0.0,0.0,0
13-1-2017 20:00,-1499.3503234796226,0.0,0.0,0.0,0
13-1-2017 21:00,-4529.566822703928,0.0,0.0,0.0,0
13-1-2017 22:00,-6237.037333518267,0.0,0.0,0.0,0
13-1-2017 23:00,-58128.73605116084,0.0,0.0,0.0,0
14-1-2017 0:00,-25539.918536012992,0.0,0.0,0.0,0
14-1-2017 1:00,7069.404257480055,0.0,0.0,0.0,0
14-1-2017 2:00,37651.33617250435,0.0,0.0,0.0,0
14-1-2017 3:00,23997.423289520666,0.0,0.0,0.0,0
14-1-2017 4:00,13027.399321058765,0.0,0.0,0.0,0
14-1-2017 5:00,9598.991155935451,0.0,0.0,0.0,0
14-1-2017 6:00,37944.10276263021,0.0,0.0,0.0,0
14-1-2017 7:00,46276.91596507467,0.0,0.0,0.0,0
14-1-2017 8:00,4791.4237710647285,0.0,0.0,0.0,0
14-1-2017 9:00,5754.179023891687,0.0,0.0,0.0,0
14-1-2017 10:00,8620.843576453626,0.0,0.0,0.0,0
14-1-2017 11:00,1555.1891688797623,0.0,0.0,0.0,0
14-1-2017 12:00,6884.712199278176,0.0,0.0,0.0,0
14-1-2017 13:00,3453.877722233534,0.0,0.0,0.0,0
14-1-2017 14:00,10465.69891150482,0.0,0.0,0.0,0
14-1-2017 15:00,11267.391604213044,0.0,0.0,0.0,0
14-1-2017 16:00,6442.110857810825,0.0,0.0,0.0,0
14-1-2017 17:00,3824.8459246121347,0.0,0.0,0.0,0
14-1-2017 18:00,-16946.661529155448,0.0,0.0,0.0,0
14-1-2017 19:00,-15132.034374983981,0.0,0.0,0.0,0
14-1-2017 20:00,-11674.75529457815,0.0,0.0,0.0,0
14-1-2017 21:00,-14317.228417497128,0.0,0.0,0.0,0
14-1-2017 22:00,-18752.095729906112,0.0,0.0,0.0,0
14-1-2017 23:00,17681.139250891283,0.0,0.0,0.0,0
15-1-2017 0:00,-10662.775306409225,0.0,0.0,0.0,0
15-1-2017 1:00,-11784.100585401058,0.0,0.0,0.0,0
15-1-2017 2:00,3026.3070403207093,0.0,0.0,0.0,0
15-1-2017 3:00,-1805.498484229669,0.0,0.0,0.0,0
15-1-2017 4:00,-7789.7538285870105,0.0,0.0,0.0,0
15-1-2017 5:00,-15919.898602932692,0.0,0.0,0.0,0
15-1-2017 6:00,-5111.434045929462,0.0,0.0,0.0,0
15-1-2017 7:00,-11596.042454728857,0.0,0.0,0.0,0
15-1-2017 8:00,-4978.697505030781,0.0,0.0,0.0,0
15-1-2017 9:00,11779.267827756703,0.0,0.0,0.0,0
15-1-2017 10:00,17774.815526492894,0.0,0.0,0.0,0
15-1-2017 11:00,11390.651960413903,0.0,0.0,0.0,0
15-1-2017 12:00,15567.326218128204,0.0,0.0,0.0,0
15-1-2017 13:00,10353.185002595186,0.0,0.0,0.0,0
15-1-2017 14:00,15395.672321422026,0.0,0.0,0.0,0
15-1-2017 15:00,15161.666076378897,0.0,0.0,0.0,0
15-1-2017 16:00,11668.669335365295,0.0,0.0,0.0,0
15-1-2017 17:00,7768.100570034236,0.0,0.0,0.0,0
15-1-2017 18:00,-17336.650176348165,0.0,0.0,0.0,0
15-1-2017 19:00,-15640.096172202379,0.0,0.0,0.0,0
15-1-2017 20:00,-16722.057531233877,0.0,0.0,0.0,0
15-1-2017 21:00,-17071.39932222478,0.0,0.0,0.0,0
15-1-2017 22:00,-22580.48657686077,0.0,0.0,0.0,0
15-1-2017 23:00,8749.548961743712,0.0,0.0,0.0,0
16-1-2017 0:00,-11592.260808635503,0.0,0.0,0.0,0
16-1-2017 1:00,7360.71140203625,0.0,0.0,0.0,0
16-1-2017 2:00,6116.110300613567,0.0,0.0,0.0,0
16-1-2017 3:00,1581.6676966492087,0.0,0.0,0.0,0
16-1-2017 4:00,-3548.0010408833623,0.0,0.0,0.0,0
16-1-2017 5:00,-8962.414242412895,0.0,0.0,0.0,0
16-1-2017 6:00,7788.421446936205,0.0,0.0,0.0,0
16-1-2017 7:00,14683.238744879141,0.0,0.0,0.0,0
16-1-2017 8:00,7567.648156279698,0.0,0.0,0.0,0
16-1-2017 9:00,5352.965809991583,0.0,0.0,0.0,0
16-1-2017 10:00,8767.080514432862,0.0,0.0,0.0,0
16-1-2017 11:00,1964.8216493837535,0.0,0.0,0.0,0
16-1-2017 12:00,8269.790993940085,0.0,0.0,0.0,0
16-1-2017 13:00,2313.1514089684933,0.0,0.0,0.0,0
16-1-2017 14:00,7795.913226393983,0.0,0.0,0.0,0
16-1-2017 15:00,7726.566412648186,0.0,0.0,0.0,0
16-1-2017 16:00,14404.832524610683,0.0,0.0,0.0,0
16-1-2017 17:00,13872.32172559388,0.0,0.0,0.0,0
16-1-2017 18:00,-8082.950514955446,0.0,0.0,0.0,0
16-1-2017 19:00,-3363.2378669902682,0.0,0.0,0.0,0
16-1-2017 20:00,-2756.0678716059774,0.0,0.0,0.0,0
16-1-2017 21:00,-3796.9385058432817,0.0,0.0,0.0,0
16-1-2017 22:00,-9186.639682549983,0.0,0.0,0.0,0
16-1-2017 23:00,18430.352434016764,0.0,0.0,0.0,0
17-1-2017 0:00,-5939.656529286876,0.0,0.0,0.0,0
17-1-2017 1:00,-30523.524869531393,0.0,0.0,0.0,0
17-1-2017 2:00,-28023.60273868777,0.0,0.0,0.0,0
17-1-2017 3:00,-29076.920462649316,0.0,0.0,0.0,0
17-1-2017 4:00,-24935.668213624507,0.0,0.0,0.0,0
17-1-2017 5:00,-28132.293500335887,0.0,0.0,0.0,0
17-1-2017 6:00,-15057.690336633474,0.0,0.0,0.0,0
17-1-2017 7:00,-17502.304741786793,0.0,0.0,0.0,0
17-1-2017 8:00,23364.331721479073,0.0,0.0,0.0,0
17-1-2017 9:00,22089.03131997399,0.0,0.0,0.0,0
17-1-2017 10:00,25396.274110607803,0.0,0.0,0.0,0
17-1-2017 11:00,19753.98102707416,0.0,0.0,0.0,0
17-1-2017 12:00,24373.996538961306,0.0,0.0,0.0,0
17-1-2017 13:00,20016.33431932889,0.0,0.0,0.0,0
17-1-2017 14:00,25906.95637013018,0.0,0.0,0.0,0
17-1-2017 15:00,24315.864722456783,0.0,0.0,0.0,0
17-1-2017 16:00,14986.23538835533,0.0,0.0,0.0,0
17-1-2017 17:00,6353.131194682792,0.0,0.0,0.0,0
17-1-2017 18:00,-16688.343901006505,0.0,0.0,0.0,0
17-1-2017 19:00,-12679.362881727517,0.0,0.0,0.0,0
17-1-2017 20:00,-16221.591804431751,0.0,0.0,0.0,0
17-1-2017 21:00,-21927.288634844124,0.0,0.0,0.0,0
17-1-2017 22:00,-17250.85599578917,0.0,0.0,0.0,0
17-1-2017 23:00,-25823.689563430846,0.0,0.0,0.0,0
18-1-2017 0:00,-92890.73812789842,0.0,0.0,0.0,0
18-1-2017 1:00,-40262.609371759,0.0,0.0,0.0,0
18-1-2017 2:00,-2856.512422941625,0.0,0.0,0.0,0
18-1-2017 3:00,5599.029010929167,0.0,0.0,0.0,0
18-1-2017 4:00,117.22726603969932,0.0,0.0,0.0,0
18-1-2017 5:00,-12998.779785089195,0.0,0.0,0.0,0
18-1-2017 6:00,5558.516493588686,0.0,0.0,0.0,0
18-1-2017 7:00,849.3806228023022,0.0,0.0,0.0,0
18-1-2017 8:00,-51259.12796141766,0.0,0.0,0.0,0
18-1-2017 9:00,-76053.2753848657,0.0,0.0,0.0,0
18-1-2017 10:00,-95151.28502957895,0.0,0.0,0.0,0
18-1-2017 11:00,-123514.79524021968,0.0,0.0,0.0,0
18-1-2017 12:00,-140370.9053450413,0.0,0.0,0.0,0
18-1-2017 13:00,-167918.84846984968,0.0,0.0,0.0,0
18-1-2017 14:00,-187831.90242439695,0.0,0.0,0.0,0
18-1-2017 15:00,-210096.81534038484,0.0,0.0,0.0,0
18-1-2017 16:00,-238674.83434730023,0.0,0.0,0.0,0
18-1-2017 17:00,-108389.36798794009,0.0,0.0,0.0,0
18-1-2017 18:00,241071.15699453093,0.0,0.0,0.0,0
18-1-2017 19:00,220078.26898781024,0.0,0.0,0.0,0
18-1-2017 20:00,227930.9983537495,0.0,0.0,0.0,0
18-1-2017 21:00,275022.89230966754,0.0,0.0,0.0,0
18-1-2017 22:00,269676.7686385643,0.0,0.0,0.0,0
18-1-2017 23:00,287336.8994849641,0.0,0.0,0.0,0
19-1-2017 0:00,265788.23484798707,0.0,0.0,0.0,0
19-1-2017 1:00,283695.4434686918,0.0,0.0,0.0,0
19-1-2017 2:00,292551.4580036532,0.0,0.0,0.0,0
19-1-2017 3:00,281511.5413635317,0.0,0.0,0.0,0
19-1-2017 4:00,277676.5008503515,0.0,0.0,0.0,0
19-1-2017 5:00,289402.7547981739,0.0,0.0,0.0,0
19-1-2017 6:00,-112267.89304480143,0.0,0.0,0.0,0
19-1-2017 7:00,-234241.7175029274,0.0,0.0,0.0,0
19-1-2017 8:00,-210013.66825634427,0.0,0.0,0.0,0
19-1-2017 9:00,-188185.19868510962,0.0,0.0,0.0,0
19-1-2017 10:00,-248761.13771135546,0.0,0.0,0.0,0
19-1-2017 11:00,-140713.04199529253,0.0,0.0,0.0,0
19-1-2017 12:00,-112952.89466301166,0.0,0.0,0.0,0
19-1-2017 13:00,-94404.05178254843,0.0,0.0,0.0,0
19-1-2017 14:00,-69472.3848319985,0.0,0.0,0.0,0
19-1-2017 15:00,-48840.10210584849,0.0,0.0,0.0,0
19-1-2017 16:00,-31305.676951874048,0.0,0.0,0.0,0
19-1-2017 17:00,-23518.944144414738,0.0,0.0,0.0,0
19-1-2017 18:00,-35813.97318871692,0.0,0.0,0.0,0
19-1-2017 19:00,-52389.513247098774,0.0,0.0,0.0,0
19-1-2017 20:00,-20351.72861817479,0.0,0.0,0.0,0
19-1-2017 21:00,-10470.123110897839,0.0,0.0,0.0,0
19-1-2017 22:00,-13869.644845724106,0.0,0.0,0.0,0
19-1-2017 23:00,7439.5486611537635,0.0,0.0,0.0,0
20-1-2017 0:00,5564.84619810991,0.0,0.0,0.0,0
20-1-2017 1:00,12693.880670722574,0.0,0.0,0.0,0
20-1-2017 2:00,-13304.721220821142,0.0,0.0,0.0,0
20-1-2017 3:00,-29405.699947588146,0.0,0.0,0.0,0
20-1-2017 4:00,-33277.86826028302,0.0,0.0,0.0,0
20-1-2017 5:00,-34900.58382983878,0.0,0.0,0.0,0
20-1-2017 6:00,-22943.12631079741,0.0,0.0,0.0,0
20-1-2017 7:00,12063.403194023296,0.0,0.0,0.0,0
20-1-2017 8:00,17835.082821702585,0.0,0.0,0.0,0
20-1-2017 9:00,16154.63831259869,0.0,0.0,0.0,0
20-1-2017 10:00,20071.44003951922,0.0,0.0,0.0,0
20-1-2017 11:00,15171.351816987619,0.0,0.0,0.0,0
20-1-2017 12:00,17620.666721070185,0.0,0.0,0.0,0
20-1-2017 13:00,15195.398237744346,0.0,0.0,0.0,0
20-1-2017 14:00,17434.108724331483,0.0,0.0,0.0,0
20-1-2017 15:00,15956.489723555744,0.0,0.0,0.0,0
20-1-2017 16:00,12675.39723726362,0.0,0.0,0.0,0
20-1-2017 17:00,11344.469484273344,0.0,0.0,0.0,0
20-1-2017 18:00,-9322.72059535794,0.0,0.0,0.0,0
20-1-2017 19:00,-6789.239418961108,0.0,0.0,0.0,0
20-1-2017 20:00,-3809.456240620464,0.0,0.0,0.0,0
20-1-2017 21:00,-3607.5499523952603,0.0,0.0,0.0,0
20-1-2017 22:00,-10524.008781434968,0.0,0.0,0.0,0
20-1-2017 23:00,6102.208355428651,0.0,0.0,0.0,0
21-1-2017 0:00,1923.5090358182788,0.0,0.0,0.0,0
21-1-2017 1:00,-11588.564828868955,0.0,0.0,0.0,0
21-1-2017 2:00,-33490.66733613424,0.0,0.0,0.0,0
21-1-2017 3:00,-27145.512338755652,0.0,0.0,0.0,0
21-1-2017 4:00,-23481.42823124118,0.0,0.0,0.0,0
21-1-2017 5:00,-25007.652205547318,0.0,0.0,0.0,0
21-1-2017 6:00,-9497.288211856037,0.0,0.0,0.0,0
21-1-2017 7:00,-9566.59719482623,0.0,0.0,0.0,0
21-1-2017 8:00,17757.550363207236,0.0,0.0,0.0,0
21-1-2017 9:00,20207.135649181902,0.0,0.0,0.0,0
21-1-2017 10:00,24413.98837229982,0.0,0.0,0.0,0
21-1-2017 11:00,20641.3964542076,0.0,0.0,0.0,0
21-1-2017 12:00,23474.949173128232,0.0,0.0,0.0,0
21-1-2017 13:00,14004.262113649398,0.0,0.0,0.0,0
21-1-2017 14:00,9595.608923912048,0.0,0.0,0.0,0
21-1-2017 15:00,15115.040983848274,0.0,0.0,0.0,0
21-1-2017 16:00,13479.25111125037,0.0,0.0,0.0,0
21-1-2017 17:00,12698.22667097114,0.0,0.0,0.0,0
21-1-2017 18:00,-8030.040570817888,0.0,0.0,0.0,0
21-1-2017 19:00,-4734.860888648778,0.0,0.0,0.0,0
21-1-2017 20:00,2024.5681101121008,0.0,0.0,0.0,0
21-1-2017 21:00,5216.021886760369,0.0,0.0,0.0,0
21-1-2017 22:00,-618.7927680443972,0.0,0.0,0.0,0
21-1-2017 23:00,-4062.650732746348,0.0,0.0,0.0,0
22-1-2017 0:00,-29649.506158094853,0.0,0.0,0.0,0
22-1-2017 1:00,-2443.3048678394407,0.0,0.0,0.0,0
22-1-2017 2:00,-11873.68163272366,0.0,0.0,0.0,0
22-1-2017 3:00,-21285.070268450305,0.0,0.0,0.0,0
22-1-2017 4:00,-31857.318123551086,0.0,0.0,0.0,0
22-1-2017 5:00,-37422.793282512575,0.0,0.0,0.0,0
22-1-2017 6:00,-10454.08030391857,0.0,0.0,0.0,0
22-1-2017 7:00,-54252.626021774486,0.0,0.0,0.0,0
22-1-2017 8:00,-12441.275091310963,0.0,0.0,0.0,0
22-1-2017 9:00,13811.359201496467,0.0,0.0,0.0,0
22-1-2017 10:00,31267.633125683293,0.0,0.0,0.0,0
22-1-2017 11:00,29353.630109813064,0.0,0.0,0.0,0
22-1-2017 12:00,29750.95327461511,0.0,0.0,0.0,0
22-1-2017 13:00,25898.367190038785,0.0,0.0,0.0,0
22-1-2017 14:00,28462.635289568454,0.0,0.0,0.0,0
22-1-2017 15:00,26252.46612314321,0.0,0.0,0.0,0
22-1-2017 16:00,21775.250393170863,0.0,0.0,0.0,0
22-1-2017 17:00,14509.673684943467,0.0,0.0,0.0,0
22-1-2017 18:00,-3703.9347765147686,0.0,0.0,0.0,0
22-1-2017 19:00,-6555.157397244126,0.0,0.0,0.0,0
22-1-2017 20:00,-8303.145578354597,0.0,0.0,0.0,0
22-1-2017 21:00,-94650.81828864664,0.0,0.0,0.0,0
22-1-2017 22:00,-16449.55323919654,0.0,0.0,0.0,0
22-1-2017 23:00,-7389.887411372736,0.0,0.0,0.0,0
23-1-2017 0:00,-8238.505398459733,0.0,0.0,0.0,0
23-1-2017 1:00,8667.414621192962,0.0,0.0,0.0,0
23-1-2017 2:00,7717.977173142135,0.0,0.0,0.0,0
23-1-2017 3:00,4568.7584787756205,0.0,0.0,0.0,0
23-1-2017 4:00,5261.278047911823,0.0,0.0,0.0,0
23-1-2017 5:00,2130.8360593598336,0.0,0.0,0.0,0
23-1-2017 6:00,23308.202377922833,0.0,0.0,0.0,0
23-1-2017 7:00,9126.320366051048,0.0,0.0,0.0,0
23-1-2017 8:00,6089.105109814554,0.0,0.0,0.0,0
23-1-2017 9:00,3008.83599938266,0.0,0.0,0.0,0
23-1-2017 10:00,9933.6077138111,0.0,0.0,0.0,0
23-1-2017 11:00,9813.160189341754,0.0,0.0,0.0,0
23-1-2017 12:00,10626.67038919963,0.0,0.0,0.0,0
23-1-2017 13:00,7887.548437779769,0.0,0.0,0.0,0
23-1-2017 14:00,11229.840984834358,0.0,0.0,0.0,0
23-1-2017 15:00,10010.983750311658,0.0,0.0,0.0,0
23-1-2017 16:00,10144.263923346996,0.0,0.0,0.0,0
23-1-2017 17:00,9302.82883532159,0.0,0.0,0.0,0
23-1-2017 18:00,-6452.156957656145,0.0,0.0,0.0,0
23-1-2017 19:00,-5748.294005332515,0.0,0.0,0.0,0
23-1-2017 20:00,-7769.91149035655,0.0,0.0,0.0,0
23-1-2017 21:00,-3079.1668456103653,0.0,0.0,0.0,0
23-1-2017 22:00,-14351.830209117383,0.0,0.0,0.0,0
23-1-2017 23:00,-15617.328705985099,0.0,0.0,0.0,0
24-1-2017 0:00,-2008.1573720313609,0.0,0.0,0.0,0
24-1-2017 1:00,-15395.45559002459,0.0,0.0,0.0,0
24-1-2017 2:00,-22758.57068829052,0.0,0.0,0.0,0
24-1-2017 3:00,-18706.24640835263,0.0,0.0,0.0,0
24-1-2017 4:00,-14460.602083755657,0.0,0.0,0.0,0
24-1-2017 5:00,-16142.105879662558,0.0,0.0,0.0,0
24-1-2017 6:00,-11026.13119889237,0.0,0.0,0.0,0
24-1-2017 7:00,-9178.014307126403,0.0,0.0,0.0,0
24-1-2017 8:00,19222.949447583407,0.0,0.0,0.0,0
24-1-2017 9:00,17689.11665662378,0.0,0.0,0.0,0
24-1-2017 10:00,20249.434568190947,0.0,0.0,0.0,0
24-1-2017 11:00,17540.30094202049,0.0,0.0,0.0,0
24-1-2017 12:00,21115.03658382967,0.0,0.0,0.0,0
24-1-2017 13:00,18871.89654558152,0.0,0.0,0.0,0
24-1-2017 14:00,18137.831320172176,0.0,0.0,0.0,0
24-1-2017 15:00,16145.693797565997,0.0,0.0,0.0,0
24-1-2017 16:00,13288.595676895231,0.0,0.0,0.0,0
24-1-2017 17:00,9671.035980904475,0.0,0.0,0.0,0
24-1-2017 18:00,-19744.403371749446,0.0,0.0,0.0,0
24-1-2017 19:00,-14896.237083172426,0.0,0.0,0.0,0
24-1-2017 20:00,-40136.88610891625,0.0,0.0,0.0,0
24-1-2017 21:00,-20814.501084754243,0.0,0.0,0.0,0
24-1-2017 22:00,-22512.90501770377,0.0,0.0,0.0,0
24-1-2017 23:00,373.8300042524934,0.0,0.0,0.0,0
25-1-2017 0:00,4524.298502767459,0.0,0.0,0.0,0
25-1-2017 1:00,-3576.497030923143,0.0,0.0,0.0,0
25-1-2017 2:00,-10371.3188574519,0.0,0.0,0.0,0
25-1-2017 3:00,-13645.210681254044,0.0,0.0,0.0,0
25-1-2017 4:00,-19460.556851379573,0.0,0.0,0.0,0
25-1-2017 5:00,-7587.442245658487,0.0,0.0,0.0,0
25-1-2017 6:00,5517.201006298885,0.0,0.0,0.0,0
25-1-2017 7:00,24083.170186037198,0.0,0.0,0.0,0
25-1-2017 8:00,16305.986336031929,0.0,0.0,0.0,0
25-1-2017 9:00,14043.15507369116,0.0,0.0,0.0,0
25-1-2017 10:00,16219.025183383375,0.0,0.0,0.0,0
25-1-2017 11:00,17615.761456491426,0.0,0.0,0.0,0
25-1-2017 12:00,16027.408541239798,0.0,0.0,0.0,0
25-1-2017 13:00,14443.089031917974,0.0,0.0,0.0,0
25-1-2017 14:00,9925.45464980416,0.0,0.0,0.0,0
25-1-2017 15:00,4988.445454863831,0.0,0.0,0.0,0
25-1-2017 16:00,2937.522057145834,0.0,0.0,0.0,0
25-1-2017 17:00,-3908.7712037097663,0.0,0.0,0.0,0
25-1-2017 18:00,-12622.403072951362,0.0,0.0,0.0,0
25-1-2017 19:00,-8540.4528409075,-9487.98,70835.01,-89810.97,0
25-1-2017 20:00,-6892.542800154537,-9035.4,71220.18,-89290.98,0
25-1-2017 21:00,-7928.614286424592,-8082.88,72105.59,-88271.35,0
25-1-2017 22:00,-5492.244023395702,-7771.13,72349.98,-87892.25,0
25-1-2017 23:00,-7585.350717196241,-6323.38,73731.34,-86378.1,0
26-1-2017 0:00,-3763.4307808373123,-6429.66,73557.22,-86416.54,0
26-1-2017 1:00,-52537.560393895954,-4308.32,75613.51,-84230.14,0
26-1-2017 2:00,-67272.45114952698,-24207.29,55740.08,-104154.67,0
26-1-2017 3:00,-23811.678736902773,-34248.24,45705.09,-114201.56,0
26-1-2017 4:00,5432.366411719471,-17150.09,62747.24,-97047.42,0
26-1-2017 5:00,14652.832452144474,1896.9,81742.31,-77948.52,0
26-1-2017 6:00,35813.13517811522,12403.57,92189.23,-67382.08,0
26-1-2017 7:00,36333.01128969714,25424.3,105166.21,-54317.61,0
26-1-2017 8:00,7284.616813944653,28858.8,108538.64,-50821.04,0
26-1-2017 9:00,9325.313303275034,16544.98,96178.93,-63088.98,0
26-1-2017 10:00,14109.904176618904,13514.86,93084.52,-66054.81,0
26-1-2017 11:00,12519.040156003088,13392.59,92898.11,-66112.93,0
26-1-2017 12:00,11424.342071529478,11631.72,91072.29,-67808.84,0
26-1-2017 13:00,8992.641063684598,9899.16,89274.34,-69476.02,0
26-1-2017 14:00,10456.58322190307,7573.75,86884.92,-71737.41,0
26-1-2017 15:00,6230.191556595266,6876.41,86123.26,-72370.45,0
26-1-2017 16:00,5629.365403607488,4143.61,83326.17,-75038.94,0
26-1-2017 17:00,-291.13094685412943,2624.52,81742.87,-76493.83,0
26-1-2017 18:00,-12589.189489362761,-863.91,78191.21,-79919.03,0
26-1-2017 19:00,-11364.273950438946,-7349.38,71646.85,-86345.61,0
26-1-2017 20:00,-13002.405415769666,-8467.42,70464.71,-87399.56,0
26-1-2017 21:00,-10525.252202469856,-9407.22,69463.1,-88277.54,0
26-1-2017 22:00,-15953.025721210986,-8131.82,70676.11,-86939.74,0
26-1-2017 23:00,-17260.26756851934,-9591.16,69154.83,-88337.14,0
27-1-2017 0:00,-6828.057676231489,-9716.58,68975.77,-88408.93,0
27-1-2017 1:00,13999.808413663879,-4597.89,74032.3,-83228.08,0
27-1-2017 2:00,11262.818511249498,6380.31,84953.58,-72192.95,0
27-1-2017 3:00,12067.594942616299,8296.04,86807.22,-70215.14,0
27-1-2017 4:00,16892.951865244657,9398.28,87847.54,-69050.98,0
27-1-2017 5:00,6691.488424891606,11448.37,89838.98,-66942.23,0
27-1-2017 6:00,1982.3297093957663,6982.74,85310.18,-71344.71,0
27-1-2017 7:00,5323.545921873301,3402.09,81671.05,-74866.87,0
27-1-2017 8:00,4599.333989420906,3268.17,81472.97,-74936.64,0
27-1-2017 9:00,1012.503431007266,2394.45,80537.53,-75748.63,0
27-1-2017 10:00,4410.752908233553,289.66,78371.16,-77791.83,0
27-1-2017 11:00,4468.256434125826,964.33,78985.01,-77056.36,0
27-1-2017 12:00,5500.401020672172,813.59,78769.93,-77142.74,0
27-1-2017 13:00,7361.196447033435,1046.24,78945.61,-76853.13,0
27-1-2017 14:00,7438.463078312576,1636.87,79476.66,-76202.93,0
27-1-2017 15:00,5144.106875367463,1501.9,79282.06,-76278.27,0
27-1-2017 16:00,5882.406347278506,149.04,77868.93,-77570.85,0
27-1-2017 17:00,2554.052193844691,-214.41,77446.08,-77874.91,0
27-1-2017 18:00,-10450.997735297307,-2113.2,75485.06,-79711.46,0
27-1-2017 19:00,-10338.584056032822,-8467.62,69077.08,-86012.31,0
27-1-2017 20:00,-14136.234193976969,-10015.97,67466.48,-87498.41,0
27-1-2017 21:00,-11360.739741876721,-11962.35,65464.3,-89389.0,0
27-1-2017 22:00,-7268.269209606573,-10884.34,66478.7,-88247.38,0
27-1-2017 23:00,-29615.32837765105,-8477.73,68827.71,-85783.16,0
28-1-2017 0:00,-35036.61069665104,-16686.52,60574.72,-93947.76,0
28-1-2017 1:00,-85779.88958078437,-20012.25,57202.09,-97226.59,0
28-1-2017 2:00,-22990.14930695668,-41651.52,35667.38,-118970.42,0
28-1-2017 3:00,9381.170466175303,-18062.66,59216.29,-95341.61,0
28-1-2017 4:00,29984.950063290074,4025.01,81265.6,-73215.58,0
28-1-2017 5:00,30616.79437597841,20378.85,97585.95,-56828.25,0
28-1-2017 6:00,48000.4914528355,25768.52,102920.43,-51383.39,0
28-1-2017 7:00,43477.544545434415,34771.29,111882.98,-42340.41,0
28-1-2017 8:00,6049.451935511082,33955.55,111019.43,-43108.32,0
28-1-2017 9:00,5906.692807093263,15660.48,92686.67,-61365.71,0
28-1-2017 10:00,6789.638442041352,9617.0,86588.9,-67354.89,0
28-1-2017 11:00,7324.617068275809,6749.51,83662.75,-70163.73,0
28-1-2017 12:00,-1441.7881203275174,4927.24,81780.75,-71926.27,0
28-1-2017 13:00,2806.61620298028,1555.93,83322.64,-80210.77,0
28-1-2017 14:00,9853.059770060703,347.57,77088.26,-76393.11,0
28-1-2017 15:00,7682.571492217481,2970.29,79656.43,-73715.85,0
28-1-2017 16:00,8499.313494309783,5047.6,86633.02,-76537.82,0
28-1-2017 17:00,7801.275230711326,2207.81,78780.75,-74365.12,0
28-1-2017 18:00,4368.6776077430695,1444.64,77961.31,-75072.03,0
28-1-2017 19:00,6447.2775011416525,5438.84,86793.26,-75915.57,0
28-1-2017 20:00,9293.856764372438,4022.88,85364.58,-77318.82,0
28-1-2017 21:00,12194.718289658427,77.93,76428.76,-76272.9,0
28-1-2017 22:00,5920.374435033649,7787.24,89009.66,-73435.17,0
28-1-2017 23:00,1597.7495083529502,3387.42,84500.94,-77726.1,0
29-1-2017 0:00,-881.1734598372132,-4860.99,71326.07,-81048.04,0
29-1-2017 1:00,34508.17815906927,-7058.97,69076.78,-83194.71,0
29-1-2017 2:00,2772.3240861967206,7352.79,83491.91,-68786.33,0
29-1-2017 3:00,-60137.86732184328,-3737.28,72346.2,-79820.77,0
29-1-2017 4:00,-120892.42280799896,-33679.51,42465.02,-109824.04,1
29-1-2017 5:00,-101708.48855265416,-66967.72,9400.0,-143335.44,0
29-1-2017 6:00,-43015.983493834734,-64540.37,11814.71,-140895.46,0
29-1-2017 7:00,20197.1115092393,-35834.76,40488.98,-112158.49,0
29-1-2017 8:00,12030.743252199143,3389.73,79761.5,-72982.03,0
29-1-2017 9:00,15837.564443968236,11550.27,87868.77,-64768.24,0
29-1-2017 10:00,23565.814330877736,18023.06,94286.32,-58240.2,0
29-1-2017 11:00,25639.606151698157,23751.03,99959.6,-52457.53,0
29-1-2017 12:00,23410.999282190576,25789.0,101941.96,-50363.95,0
29-1-2017 13:00,20708.396418666467,24577.38,100674.95,-51520.18,0
29-1-2017 14:00,18789.390837768093,22051.55,98094.23,-53991.13,0
29-1-2017 15:00,8951.604401247576,19344.03,95331.78,-56643.71,0
29-1-2017 16:00,10276.203248232603,13033.67,88970.24,-62902.9,0
29-1-2017 17:00,4615.439217394218,11087.54,86969.28,-64794.21,0
29-1-2017 18:00,-2740.217756478116,6903.61,82735.51,-68928.29,0
29-1-2017 19:00,-5035.565146105364,2057.36,77834.36,-73719.65,0
29-1-2017 20:00,-6869.289978859946,-539.05,75184.76,-76262.87,0
29-1-2017 21:00,-3700.481486188248,-2358.07,73317.54,-78033.68,0
29-1-2017 22:00,-10448.180710071698,-1318.86,74297.62,-76935.34,0
29-1-2017 23:00,-19419.692377753556,-4006.9,71558.2,-79572.01,0
30-1-2017 0:00,-5291.799795242026,-8168.6,67350.85,-83688.04,0
30-1-2017 1:00,22190.45635723695,-2334.06,73132.27,-77800.38,0
30-1-2017 2:00,23466.307934310287,11450.78,86883.38,-63981.81,0
30-1-2017 3:00,20031.226348618045,15097.17,90481.54,-60287.2,0
30-1-2017 4:00,28899.7351853624,14385.21,89716.77,-60946.36,0
30-1-2017 5:00,21965.877830071375,17546.68,92831.89,-57738.54,0
30-1-2017 6:00,27141.388372568414,13933.38,89165.64,-61298.89,0
30-1-2017 7:00,12969.489882903174,14247.61,89434.56,-60939.34,0
30-1-2017 8:00,6080.847936904058,6485.33,81616.96,-68646.29,0
30-1-2017 9:00,237.61485359445214,528.4,75607.74,-74550.94,0
30-1-2017 10:00,-10627.565251991153,-4604.98,70420.34,-79630.3,0
30-1-2017 11:00,-37289.24805733748,-11395.78,63577.59,-86369.14,0
30-1-2017 12:00,-31700.177457489073,-24985.57,49958.43,-99929.56,0
30-1-2017 13:00,-21861.136085806414,-25035.04,49858.15,-99928.23,0
30-1-2017 14:00,-23185.174428818747,-20052.88,54787.91,-94893.67,0
30-1-2017 15:00,932.9485780708492,-18297.91,56490.64,-93086.46,0
30-1-2017 16:00,4701.9805757422,-5622.31,69127.07,-80371.69,0
30-1-2017 17:00,2341.264888284728,-178.08,74522.74,-74878.91,0
30-1-2017 18:00,5134.730090396479,994.68,75643.42,-73654.07,0
30-1-2017 19:00,5762.28449344635,3029.88,77627.04,-71567.27,0
30-1-2017 20:00,8317.16250233166,3875.5,78421.85,-70670.84,0
30-1-2017 21:00,10242.19983302243,5081.95,79576.0,-69412.09,0
30-1-2017 22:00,2458.4489747229964,5949.14,80392.24,-68493.96,0
30-1-2017 23:00,-4738.793393205851,2324.2,76715.84,-72067.44,0
31-1-2017 0:00,1543.6851129680872,-1934.24,72408.41,-76276.9,0
31-1-2017 1:00,-19651.11027176492,-350.6,73940.1,-74641.3,0
31-1-2017 2:00,-18234.999115532264,-9676.9,64575.57,-83929.37,0
31-1-2017 3:00,-5953.306949660182,-10663.39,63540.35,-84867.13,0
31-1-2017 4:00,8049.565970454365,-5184.28,68967.96,-79336.52,0
31-1-2017 5:00,175.21410826966166,2687.18,76795.49,-71421.14,0
31-1-2017 6:00,-12461.652761816978,1368.55,75426.48,-72689.39,0
31-1-2017 7:00,-10745.751694222912,-4027.57,69985.74,-78040.88,0
31-1-2017 8:00,12135.835720820352,-4089.95,69874.05,-78053.95,0
31-1-2017 9:00,4435.683075655252,6215.0,80137.56,-67707.57,0
31-1-2017 10:00,4739.096119496971,5015.01,78887.05,-68857.02,0
31-1-2017 11:00,9025.061829911545,5310.94,79142.47,-68520.59,0
31-1-2017 12:00,6188.163041042164,7026.24,80797.77,-66745.29,0
31-1-2017 13:00,7449.2028289064765,5834.0,79555.24,-67887.23,0
31-1-2017 14:00,3223.595904747024,5846.31,79517.3,-67824.67,0
31-1-2017 15:00,570.0725360177457,3536.23,77157.4,-70084.94,0
31-1-2017 16:00,1815.1267565060407,1520.22,75091.67,-72051.23,0
31-1-2017 17:00,-2998.271012702957,1305.08,74826.62,-72216.46,0
31-1-2017 18:00,-258.8840597458184,-1154.96,72317.42,-74627.34,0
31-1-2017 19:00,1100.8085258174688,-561.81,72861.73,-73985.35,0
31-1-2017 20:00,1882.2757661808282,64.07,73437.21,-73309.06,0
31-1-2017 21:00,4896.959620937705,3048.6,76405.97,-70308.76,0
31-1-2017 22:00,-2036.5620135907084,1929.86,75204.82,-71345.1,0
31-1-2017 23:00,-17108.18422357738,-914.48,72313.23,-74142.19,0
