Time,Actual,Forecasts,Upper Interval,Lower Interval,Is Anomalies
1-1-2017 0:00,17028.23039737271,0.0,0.0,0.0,0
1-1-2017 1:00,15796.987696548895,0.0,0.0,0.0,0
1-1-2017 2:00,13326.633399778977,0.0,0.0,0.0,0
1-1-2017 3:00,11169.07987738098,0.0,0.0,0.0,0
1-1-2017 4:00,9043.451702773513,0.0,0.0,0.0,0
1-1-2017 5:00,6381.708999210416,0.0,0.0,0.0,0
1-1-2017 6:00,3708.1994980993622,0.0,0.0,0.0,0
1-1-2017 7:00,1041.9948984798975,0.0,0.0,0.0,0
1-1-2017 8:00,-1522.9581254996301,0.0,0.0,0.0,0
1-1-2017 9:00,-4504.982633906417,0.0,0.0,0.0,0
1-1-2017 10:00,-7376.258363061526,0.0,0.0,0.0,0
1-1-2017 11:00,-9330.67598893764,0.0,0.0,0.0,0
1-1-2017 12:00,-11869.37748413792,0.0,0.0,0.0,0
1-1-2017 13:00,-14525.007048302097,0.0,0.0,0.0,0
1-1-2017 14:00,-17221.198607327475,0.0,0.0,0.0,0
1-1-2017 15:00,-20017.308177211497,0.0,0.0,0.0,0
1-1-2017 16:00,-19590.445069282985,0.0,0.0,0.0,0
1-1-2017 17:00,-22959.548624778225,0.0,0.0,0.0,0
1-1-2017 18:00,-24848.929016193375,0.0,0.0,0.0,0
1-1-2017 19:00,-24158.192948003678,0.0,0.0,0.0,0
1-1-2017 20:00,-25072.537095531152,0.0,0.0,0.0,0
1-1-2017 21:00,-23438.92246256891,0.0,0.0,0.0,0
1-1-2017 22:00,-20841.24003352411,0.0,0.0,0.0,0
1-1-2017 23:00,2286.51928096349,0.0,0.0,0.0,0
2-1-2017 0:00,34969.54535946547,0.0,0.0,0.0,0
2-1-2017 1:00,26658.4516695535,0.0,0.0,0.0,0
2-1-2017 2:00,24463.65797034328,0.0,0.0,0.0,0
2-1-2017 3:00,19034.82314227376,0.0,0.0,0.0,0
2-1-2017 4:00,13782.463569084648,0.0,0.0,0.0,0
2-1-2017 5:00,7908.92204348612,0.0,0.0,0.0,0
2-1-2017 6:00,2192.2659909772046,0.0,0.0,0.0,0
2-1-2017 7:00,-3236.302106905321,0.0,0.0,0.0,0
2-1-2017 8:00,-7898.8708384022175,0.0,0.0,0.0,0
2-1-2017 9:00,-11605.3623874209,0.0,0.0,0.0,0
2-1-2017 10:00,-13004.237891330704,0.0,0.0,0.0,0
2-1-2017 11:00,-12616.518939086236,0.0,0.0,0.0,0
2-1-2017 12:00,-10869.13871816732,0.0,0.0,0.0,0
2-1-2017 13:00,-10519.975430280727,0.0,0.0,0.0,0
2-1-2017 14:00,-11733.389323889452,0.0,0.0,0.0,0
2-1-2017 15:00,-12455.22517151304,0.0,0.0,0.0,0
2-1-2017 16:00,-10024.843853327911,0.0,0.0,0.0,0
2-1-2017 17:00,-11691.732526960317,0.0,0.0,0.0,0
2-1-2017 18:00,-12853.932300194341,0.0,0.0,0.0,0
2-1-2017 19:00,-12975.940628139128,0.0,0.0,0.0,0
2-1-2017 20:00,-15198.665173409565,0.0,0.0,0.0,0
2-1-2017 21:00,-13271.47606411745,0.0,0.0,0.0,0
2-1-2017 22:00,-10242.40911744989,0.0,0.0,0.0,0
2-1-2017 23:00,11417.733794357395,0.0,0.0,0.0,0
3-1-2017 0:00,41482.979256360326,0.0,0.0,0.0,0
3-1-2017 1:00,36757.31201090157,0.0,0.0,0.0,0
3-1-2017 2:00,30442.926342792343,0.0,0.0,0.0,0
3-1-2017 3:00,24148.487642592692,0.0,0.0,0.0,0
3-1-2017 4:00,17855.461247207597,0.0,0.0,0.0,0
3-1-2017 5:00,11902.931672917097,0.0,0.0,0.0,0
3-1-2017 6:00,6155.099842353782,0.0,0.0,0.0,0
3-1-2017 7:00,884.057977960736,0.0,0.0,0.0,0
3-1-2017 8:00,-3564.7767293012002,0.0,0.0,0.0,0
3-1-2017 9:00,-6567.815926148731,0.0,0.0,0.0,0
3-1-2017 10:00,-7830.785555589537,0.0,0.0,0.0,0
3-1-2017 11:00,-8047.714376000862,0.0,0.0,0.0,0
3-1-2017 12:00,-8249.336789739027,0.0,0.0,0.0,0
3-1-2017 13:00,-9752.926720385847,0.0,0.0,0.0,0
3-1-2017 14:00,-10814.87901916221,0.0,0.0,0.0,0
3-1-2017 15:00,-11341.59721510968,0.0,0.0,0.0,0
3-1-2017 16:00,-9253.554514621035,0.0,0.0,0.0,0
3-1-2017 17:00,-10722.15470692591,0.0,0.0,0.0,0
3-1-2017 18:00,-11412.390262514062,0.0,0.0,0.0,0
3-1-2017 19:00,-28094.622657259402,0.0,0.0,0.0,0
3-1-2017 20:00,-25861.89727093873,0.0,0.0,0.0,0
3-1-2017 21:00,-10641.855899640475,0.0,0.0,0.0,0
3-1-2017 22:00,-7665.360908663657,0.0,0.0,0.0,0
3-1-2017 23:00,12489.889127150062,0.0,0.0,0.0,0
4-1-2017 0:00,40353.86749934056,0.0,0.0,0.0,0
4-1-2017 1:00,36028.31468553678,0.0,0.0,0.0,0
4-1-2017 2:00,30415.645035730442,0.0,0.0,0.0,0
4-1-2017 3:00,25104.520450602286,0.0,0.0,0.0,0
4-1-2017 4:00,19818.968646241236,0.0,0.0,0.0,0
4-1-2017 5:00,17276.416589376167,0.0,0.0,0.0,0
4-1-2017 6:00,14861.114546876051,0.0,0.0,0.0,0
4-1-2017 7:00,12874.614960636245,0.0,0.0,0.0,0
4-1-2017 8:00,11665.590322273201,0.0,0.0,0.0,0
4-1-2017 9:00,20700.670631803572,0.0,0.0,0.0,0
4-1-2017 10:00,31170.339691707166,0.0,0.0,0.0,0
4-1-2017 11:00,42638.71591351542,0.0,0.0,0.0,0
4-1-2017 12:00,54133.38367999543,0.0,0.0,0.0,0
4-1-2017 13:00,76404.23659405042,0.0,0.0,0.0,0
4-1-2017 14:00,98357.68195334193,0.0,0.0,0.0,0
4-1-2017 15:00,117033.44747230614,0.0,0.0,0.0,0
4-1-2017 16:00,113270.98299206741,0.0,0.0,0.0,0
4-1-2017 17:00,140816.43139510643,0.0,0.0,0.0,0
4-1-2017 18:00,160201.48017118045,0.0,0.0,0.0,0
4-1-2017 19:00,184996.14110682998,0.0,0.0,0.0,0
4-1-2017 20:00,203412.0838219371,0.0,0.0,0.0,0
4-1-2017 21:00,170980.1623072588,0.0,0.0,0.0,0
4-1-2017 22:00,144193.53924373572,0.0,0.0,0.0,0
4-1-2017 23:00,-6902.519695253344,0.0,0.0,0.0,0
5-1-2017 0:00,-240019.8345116844,0.0,0.0,0.0,0
5-1-2017 1:00,-214632.62122476508,0.0,0.0,0.0,0
5-1-2017 2:00,-189878.94318720046,0.0,0.0,0.0,0
5-1-2017 3:00,-164558.41198818875,0.0,0.0,0.0,0
5-1-2017 4:00,-139045.8463289854,0.0,0.0,0.0,0
5-1-2017 5:00,-117141.51166672327,0.0,0.0,0.0,0
5-1-2017 6:00,-95282.43471945875,0.0,0.0,0.0,0
5-1-2017 7:00,-73727.36733466432,0.0,0.0,0.0,0
5-1-2017 8:00,-52770.05721124717,0.0,0.0,0.0,0
5-1-2017 9:00,-41713.70273018627,0.0,0.0,0.0,0
5-1-2017 10:00,-31943.485778048474,0.0,0.0,0.0,0
5-1-2017 11:00,-23334.455311130834,0.0,0.0,0.0,0
5-1-2017 12:00,-14946.348161542754,0.0,0.0,0.0,0
5-1-2017 13:00,-15990.736611438773,0.0,0.0,0.0,0
5-1-2017 14:00,-16627.977802732403,0.0,0.0,0.0,0
5-1-2017 15:00,-16787.392777509718,0.0,0.0,0.0,0
5-1-2017 16:00,-14336.584763211948,0.0,0.0,0.0,0
5-1-2017 17:00,-18104.411449639687,0.0,0.0,0.0,0
5-1-2017 18:00,-20900.40202671401,0.0,0.0,0.0,0
5-1-2017 19:00,-22290.926687701267,0.0,0.0,0.0,0
5-1-2017 20:00,-25120.07557083939,0.0,0.0,0.0,0
5-1-2017 21:00,-24546.3561475299,0.0,0.0,0.0,0
5-1-2017 22:00,-22830.334975301957,0.0,0.0,0.0,0
5-1-2017 23:00,-5745.700598842887,0.0,0.0,0.0,0
6-1-2017 0:00,19899.392091507725,0.0,0.0,0.0,0
6-1-2017 1:00,19174.264276905924,0.0,0.0,0.0,0
6-1-2017 2:00,17886.83917193501,0.0,0.0,0.0,0
6-1-2017 3:00,17124.282102005986,0.0,0.0,0.0,0
6-1-2017 4:00,16507.249612287076,0.0,0.0,0.0,0
6-1-2017 5:00,16077.721435073143,0.0,0.0,0.0,0
6-1-2017 6:00,15602.404556834046,0.0,0.0,0.0,0
6-1-2017 7:00,14851.239490215303,0.0,0.0,0.0,0
6-1-2017 8:00,13555.603625110782,0.0,0.0,0.0,0
6-1-2017 9:00,11516.916083920818,0.0,0.0,0.0,0
6-1-2017 10:00,8302.540909471445,0.0,0.0,0.0,0
6-1-2017 11:00,4030.3219529094504,0.0,0.0,0.0,0
6-1-2017 12:00,-438.42886765384713,0.0,0.0,0.0,0
6-1-2017 13:00,-4643.977208845574,0.0,0.0,0.0,0
6-1-2017 14:00,-8485.838591388436,0.0,0.0,0.0,0
6-1-2017 15:00,-11887.15318651163,0.0,0.0,0.0,0
6-1-2017 16:00,-12883.770128539736,0.0,0.0,0.0,0
6-1-2017 17:00,-16482.294290783888,0.0,0.0,0.0,0
6-1-2017 18:00,-19170.9083193247,0.0,0.0,0.0,0
6-1-2017 19:00,-20558.13596166193,0.0,0.0,0.0,0
6-1-2017 20:00,-23312.929559680404,0.0,0.0,0.0,0
6-1-2017 21:00,-22552.95343567677,0.0,0.0,0.0,0
6-1-2017 22:00,-20765.152764586976,0.0,0.0,0.0,0
6-1-2017 23:00,-5080.318940845396,0.0,0.0,0.0,0
7-1-2017 0:00,18427.61135700679,0.0,0.0,0.0,0
7-1-2017 1:00,17723.584775465646,0.0,0.0,0.0,0
7-1-2017 2:00,16528.49886254093,0.0,0.0,0.0,0
7-1-2017 3:00,15816.295858252919,0.0,0.0,0.0,0
7-1-2017 4:00,15201.87349898076,0.0,0.0,0.0,0
7-1-2017 5:00,14777.660473468837,0.0,0.0,0.0,0
7-1-2017 6:00,14307.127760904172,0.0,0.0,0.0,0
7-1-2017 7:00,13588.146231707402,0.0,0.0,0.0,0
7-1-2017 8:00,12377.98036691635,0.0,0.0,0.0,0
7-1-2017 9:00,10491.330817126869,0.0,0.0,0.0,0
7-1-2017 10:00,7539.122188566758,0.0,0.0,0.0,0
7-1-2017 11:00,3632.412481001561,0.0,0.0,0.0,0
7-1-2017 12:00,-446.4376372366926,0.0,0.0,0.0,0
7-1-2017 13:00,-4278.19284709806,0.0,0.0,0.0,0
7-1-2017 14:00,-7789.721398264091,0.0,0.0,0.0,0
7-1-2017 15:00,-10897.982591107097,0.0,0.0,0.0,0
7-1-2017 16:00,-11806.506835450897,0.0,0.0,0.0,0
7-1-2017 17:00,-15143.504502044672,0.0,0.0,0.0,0
7-1-2017 18:00,-17632.518010585172,0.0,0.0,0.0,0
7-1-2017 19:00,-18923.45533866876,0.0,0.0,0.0,0
7-1-2017 20:00,-21510.90035596396,0.0,0.0,0.0,0
7-1-2017 21:00,-20565.04010529006,0.0,0.0,0.0,0
7-1-2017 22:00,-18705.085944728853,0.0,0.0,0.0,0
7-1-2017 23:00,-4419.678683095202,0.0,0.0,0.0,0
8-1-2017 0:00,16951.46321286812,0.0,0.0,0.0,0
8-1-2017 1:00,16268.973649000967,0.0,0.0,0.0,0
8-1-2017 2:00,15166.66271273579,0.0,0.0,0.0,0
8-1-2017 3:00,14505.249558702119,0.0,0.0,0.0,0
8-1-2017 4:00,13894.165743832516,0.0,0.0,0.0,0
8-1-2017 5:00,13475.60086508217,0.0,0.0,0.0,0
8-1-2017 6:00,13010.185313251499,0.0,0.0,0.0,0
8-1-2017 7:00,12323.804063297572,0.0,0.0,0.0,0
8-1-2017 8:00,11199.524940640847,0.0,0.0,0.0,0
8-1-2017 9:00,9465.103090140721,0.0,0.0,0.0,0
8-1-2017 10:00,6775.258654814887,0.0,0.0,0.0,0
8-1-2017 11:00,3234.2558435915025,0.0,0.0,0.0,0
8-1-2017 12:00,-454.4959249766925,0.0,0.0,0.0,0
8-1-2017 13:00,-3912.314307769486,0.0,0.0,0.0,0
8-1-2017 14:00,-7093.366331820471,0.0,0.0,0.0,0
8-1-2017 15:00,-9908.430426645078,0.0,0.0,0.0,0
8-1-2017 16:00,-10728.735837939132,0.0,0.0,0.0,0
8-1-2017 17:00,-13803.995445658575,0.0,0.0,0.0,0
8-1-2017 18:00,-16093.19687097481,0.0,0.0,0.0,0
8-1-2017 19:00,-17287.708497827763,0.0,0.0,0.0,0
8-1-2017 20:00,-19707.669547422687,0.0,0.0,0.0,0
8-1-2017 21:00,-18575.615650320742,0.0,0.0,0.0,0
8-1-2017 22:00,-16643.364377586982,0.0,0.0,0.0,0
8-1-2017 23:00,-3757.240055360125,0.0,0.0,0.0,0
9-1-2017 0:00,15477.257061415465,0.0,0.0,0.0,0
9-1-2017 1:00,14816.40667750267,0.0,0.0,0.0,0
9-1-2017 2:00,13806.972880177396,0.0,0.0,0.0,0
9-1-2017 3:00,13196.451738678432,0.0,0.0,0.0,0
9-1-2017 4:00,12588.50314749551,0.0,0.0,0.0,0
9-1-2017 5:00,12175.453519941904,0.0,0.0,0.0,0
9-1-2017 6:00,11715.0222332804,0.0,0.0,0.0,0
9-1-2017 7:00,11060.816470106265,0.0,0.0,0.0,0
9-1-2017 8:00,10021.999297120825,0.0,0.0,0.0,0
9-1-2017 9:00,8438.300099533873,0.0,0.0,0.0,0
9-1-2017 10:00,6009.128326289189,0.0,0.0,0.0,0
9-1-2017 11:00,2832.140880254487,0.0,0.0,0.0,0
9-1-2017 12:00,-468.20406979677705,0.0,0.0,0.0,0
9-1-2017 13:00,-3555.427690218541,0.0,0.0,0.0,0
9-1-2017 14:00,-6409.345251852024,0.0,0.0,0.0,0
9-1-2017 15:00,-8934.554313355773,0.0,0.0,0.0,0
9-1-2017 16:00,-9669.82811765108,0.0,0.0,0.0,0
9-1-2017 17:00,-12487.166912106117,0.0,0.0,0.0,0
9-1-2017 18:00,-14580.37349980801,0.0,0.0,0.0,0
9-1-2017 19:00,-15681.9368320209,0.0,0.0,0.0,0
9-1-2017 20:00,-17937.89132050614,0.0,0.0,0.0,0
9-1-2017 21:00,-16622.24916884999,0.0,0.0,0.0,0
9-1-2017 22:00,-14619.786263944936,0.0,0.0,0.0,0
9-1-2017 23:00,-3135.0303611261297,0.0,0.0,0.0,0
10-1-2017 0:00,14075.376844972992,0.0,0.0,0.0,0
10-1-2017 1:00,13429.460584742888,0.0,0.0,0.0,0
10-1-2017 2:00,12505.450457583673,0.0,0.0,0.0,0
10-1-2017 3:00,11942.219634648294,0.0,0.0,0.0,0
10-1-2017 4:00,11330.032793870914,0.0,0.0,0.0,0
10-1-2017 5:00,10921.890049567077,0.0,0.0,0.0,0
10-1-2017 6:00,10463.090814465639,0.0,0.0,0.0,0
10-1-2017 7:00,9838.650004489285,0.0,0.0,0.0,0
10-1-2017 8:00,8881.993731363058,0.0,0.0,0.0,0
10-1-2017 9:00,7443.6825383307805,0.0,0.0,0.0,0
10-1-2017 10:00,5265.068231258963,0.0,0.0,0.0,0
10-1-2017 11:00,2438.8411001370464,0.0,0.0,0.0,0
10-1-2017 12:00,-486.8138185354949,0.0,0.0,0.0,0
10-1-2017 13:00,-3214.494879060201,0.0,0.0,0.0,0
10-1-2017 14:00,-5750.954689113686,0.0,0.0,0.0,0
10-1-2017 15:00,-7994.628647097868,0.0,0.0,0.0,0
10-1-2017 16:00,-8647.779226935067,0.0,0.0,0.0,0
10-1-2017 17:00,-11226.428891338881,0.0,0.0,0.0,0
10-1-2017 18:00,-13140.645286196464,0.0,0.0,0.0,0
10-1-2017 19:00,-14157.033315448978,0.0,0.0,0.0,0
10-1-2017 20:00,-16283.417204071891,0.0,0.0,0.0,0
10-1-2017 21:00,-14718.698315107558,0.0,0.0,0.0,0
10-1-2017 22:00,-12575.992087387773,0.0,0.0,0.0,0
10-1-2017 23:00,-2468.134091878686,0.0,0.0,0.0,0
11-1-2017 0:00,12699.361260020309,0.0,0.0,0.0,0
11-1-2017 1:00,12066.863660398609,0.0,0.0,0.0,0
11-1-2017 2:00,11226.761740331169,0.0,0.0,0.0,0
11-1-2017 3:00,10709.305772885082,0.0,0.0,0.0,0
11-1-2017 4:00,10090.931399002453,0.0,0.0,0.0,0
11-1-2017 5:00,9685.151662105218,0.0,0.0,0.0,0
11-1-2017 6:00,9225.440602720677,0.0,0.0,0.0,0
11-1-2017 7:00,8627.904657936375,0.0,0.0,0.0,0
11-1-2017 8:00,7750.549196663627,0.0,0.0,0.0,0
11-1-2017 9:00,6455.903247188568,0.0,0.0,0.0,0
11-1-2017 10:00,4525.937347757487,0.0,0.0,0.0,0
11-1-2017 11:00,2048.561473016228,0.0,0.0,0.0,0
11-1-2017 12:00,-504.31247280972127,0.0,0.0,0.0,0
11-1-2017 13:00,-2872.951205411107,0.0,0.0,0.0,0
11-1-2017 14:00,-5092.453495858334,0.0,0.0,0.0,0
11-1-2017 15:00,-7055.092582296688,0.0,0.0,0.0,0
11-1-2017 16:00,-7626.500451748523,0.0,0.0,0.0,0
11-1-2017 17:00,-9966.662095390346,0.0,0.0,0.0,0
11-1-2017 18:00,-11702.08940669285,0.0,0.0,0.0,0
11-1-2017 19:00,-12633.315755748794,0.0,0.0,0.0,0
11-1-2017 20:00,-14630.142667273187,0.0,0.0,0.0,0
11-1-2017 21:00,-12816.451269832576,0.0,0.0,0.0,0
11-1-2017 22:00,-10533.41783037066,0.0,0.0,0.0,0
11-1-2017 23:00,-1802.3738532438927,0.0,0.0,0.0,0
12-1-2017 0:00,11322.293533382377,0.0,0.0,0.0,0
12-1-2017 1:00,10703.32667364924,0.0,0.0,0.0,0
12-1-2017 2:00,9947.245039953734,0.0,0.0,0.0,0
12-1-2017 3:00,9475.676007277101,0.0,0.0,0.0,0
12-1-2017 4:00,8851.290348289516,0.0,0.0,0.0,0
12-1-2017 5:00,8447.954179155468,0.0,0.0,0.0,0
12-1-2017 6:00,7987.411855844406,0.0,0.0,0.0,0
12-1-2017 7:00,7416.873494240911,0.0,0.0,0.0,0
12-1-2017 8:00,6618.911562810401,0.0,0.0,0.0,0
12-1-2017 9:00,5467.966921885691,0.0,0.0,0.0,0
12-1-2017 10:00,3786.6854014673454,0.0,0.0,0.0,0
12-1-2017 11:00,1658.1967544787399,0.0,0.0,0.0,0
12-1-2017 12:00,-521.860247128619,0.0,0.0,0.0,0
12-1-2017 13:00,-2531.4133553598685,0.0,0.0,0.0,0
12-1-2017 14:00,-4433.9148297540205,0.0,0.0,0.0,0
12-1-2017 15:00,-6115.475748199733,0.0,0.0,0.0,0
12-1-2017 16:00,-6605.086515426311,0.0,0.0,0.0,0
12-1-2017 17:00,-8706.602490768666,0.0,0.0,0.0,0
12-1-2017 18:00,-10263.083070978608,0.0,0.0,0.0,0
12-1-2017 19:00,-11108.967746349052,0.0,0.0,0.0,0
12-1-2017 20:00,-12976.057687285993,0.0,0.0,0.0,0
12-1-2017 21:00,-10912.992009930585,0.0,0.0,0.0,0
12-1-2017 22:00,-8489.269358258845,0.0,0.0,0.0,0
12-1-2017 23:00,-1134.6773990467047,0.0,0.0,0.0,0
13-1-2017 0:00,9947.52402277453,0.0,0.0,0.0,0
13-1-2017 1:00,9342.528627685122,0.0,0.0,0.0,0
13-1-2017 2:00,8670.908005116713,0.0,0.0,0.0,0
13-1-2017 3:00,8245.666631964701,0.0,0.0,0.0,0
13-1-2017 4:00,7615.225925465206,0.0,0.0,0.0,0
13-1-2017 5:00,7214.69841941197,0.0,0.0,0.0,0
13-1-2017 6:00,6753.689927492015,0.0,0.0,0.0,0
13-1-2017 7:00,6209.882051744932,0.0,0.0,0.0,0
13-1-2017 8:00,5491.046552832262,0.0,0.0,0.0,0
13-1-2017 9:00,4484.0597898912965,0.0,0.0,0.0,0
13-1-2017 10:00,3051.1578173533467,0.0,0.0,0.0,0
13-1-2017 11:00,1271.2515669850543,0.0,0.0,0.0,0
13-1-2017 12:00,-536.2933215360538,0.0,0.0,0.0,0
13-1-2017 13:00,-2189.5271493016753,0.0,0.0,0.0,0
13-1-2017 14:00,-3777.7941515472603,0.0,0.0,0.0,0
13-1-2017 15:00,-5181.043245904837,0.0,0.0,0.0,0
13-1-2017 16:00,-5591.377664834365,0.0,0.0,0.0,0
13-1-2017 17:00,-7462.113723132822,0.0,0.0,0.0,0
13-1-2017 18:00,-8847.513323505782,0.0,0.0,0.0,0
13-1-2017 19:00,-9615.322611627062,0.0,0.0,0.0,0
13-1-2017 20:00,-11359.941868412889,0.0,0.0,0.0,0
13-1-2017 21:00,-9056.29189938117,0.0,0.0,0.0,0
13-1-2017 22:00,-6499.8353880408085,0.0,0.0,0.0,0
13-1-2017 23:00,-529.6507992844959,0.0,0.0,0.0,0
14-1-2017 0:00,8393.716268690987,0.0,0.0,0.0,0
14-1-2017 1:00,7864.32848641336,0.0,0.0,0.0,0
14-1-2017 2:00,7309.15827385592,0.0,0.0,0.0,0
14-1-2017 3:00,6984.798602217245,0.0,0.0,0.0,0
14-1-2017 4:00,6410.614110707425,0.0,0.0,0.0,0
14-1-2017 5:00,6083.981978555538,0.0,0.0,0.0,0
14-1-2017 6:00,5688.819405755708,0.0,0.0,0.0,0
14-1-2017 7:00,5232.614347921798,0.0,0.0,0.0,0
14-1-2017 8:00,4636.519589754411,0.0,0.0,0.0,0
14-1-2017 9:00,3782.951693804001,0.0,0.0,0.0,0
14-1-2017 10:00,2565.4621592444882,0.0,0.0,0.0,0
14-1-2017 11:00,1062.1946776285529,0.0,0.0,0.0,0
14-1-2017 12:00,-449.9533545583938,0.0,0.0,0.0,0
14-1-2017 13:00,-1823.8777998527855,0.0,0.0,0.0,0
14-1-2017 14:00,-3156.919033069292,0.0,0.0,0.0,0
14-1-2017 15:00,-4334.773526579721,0.0,0.0,0.0,0
14-1-2017 16:00,-4702.235991288482,0.0,0.0,0.0,0
14-1-2017 17:00,-6392.395032302146,0.0,0.0,0.0,0
14-1-2017 18:00,-7659.428569470142,0.0,0.0,0.0,0
14-1-2017 19:00,-8352.636749285532,0.0,0.0,0.0,0
14-1-2017 20:00,-10063.796119162002,0.0,0.0,0.0,0
14-1-2017 21:00,-7467.870435884917,0.0,0.0,0.0,0
14-1-2017 22:00,-4677.083850639117,0.0,0.0,0.0,0
14-1-2017 23:00,3.3836902150995343,0.0,0.0,0.0,0
15-1-2017 0:00,6935.502152122794,0.0,0.0,0.0,0
15-1-2017 1:00,6478.406851313491,0.0,0.0,0.0,0
15-1-2017 2:00,6036.371917423566,0.0,0.0,0.0,0
15-1-2017 3:00,5809.578815954775,0.0,0.0,0.0,0
15-1-2017 4:00,5287.128606966827,0.0,0.0,0.0,0
15-1-2017 5:00,5025.174065525276,0.0,0.0,0.0,0
15-1-2017 6:00,4686.639628654555,0.0,0.0,0.0,0
15-1-2017 7:00,4307.945998352175,0.0,0.0,0.0,0
15-1-2017 8:00,3824.500590548432,0.0,0.0,0.0,0
15-1-2017 9:00,3116.668367370151,0.0,0.0,0.0,0
15-1-2017 10:00,2106.315490550438,0.0,0.0,0.0,0
15-1-2017 11:00,871.4109974482196,0.0,0.0,0.0,0
15-1-2017 12:00,-353.6159586432044,0.0,0.0,0.0,0
15-1-2017 13:00,-1451.3176986645199,0.0,0.0,0.0,0
15-1-2017 14:00,-2532.219840050102,0.0,0.0,0.0,0
15-1-2017 15:00,-3487.7664099115373,0.0,0.0,0.0,0
15-1-2017 16:00,-3815.1758168352267,0.0,0.0,0.0,0
15-1-2017 17:00,-5325.683056428652,0.0,0.0,0.0,0
15-1-2017 18:00,-6475.27574625624,0.0,0.0,0.0,0
15-1-2017 19:00,-7094.163876908159,0.0,0.0,0.0,0
15-1-2017 20:00,-8772.144419017694,0.0,0.0,0.0,0
15-1-2017 21:00,-5884.513514244904,0.0,0.0,0.0,0
15-1-2017 22:00,-2859.2122540877053,0.0,0.0,0.0,0
15-1-2017 23:00,531.7228398703801,0.0,0.0,0.0,0
16-1-2017 0:00,5472.777296716247,0.0,0.0,0.0,0
16-1-2017 1:00,5088.358364127209,0.0,0.0,0.0,0
16-1-2017 2:00,4759.84259565674,0.0,0.0,0.0,0
16-1-2017 3:00,4630.999951109771,0.0,0.0,0.0,0
16-1-2017 4:00,4161.02906837675,0.0,0.0,0.0,0
16-1-2017 5:00,3964.175811832658,0.0,0.0,0.0,0
16-1-2017 6:00,3682.693205078169,0.0,0.0,0.0,0
16-1-2017 7:00,3382.055403768743,0.0,0.0,0.0,0
16-1-2017 8:00,3011.803747790066,0.0,0.0,0.0,0
16-1-2017 9:00,2450.2819070331902,0.0,0.0,0.0,0
16-1-2017 10:00,1647.655990329792,0.0,0.0,0.0,0
16-1-2017 11:00,681.7047881178079,0.0,0.0,0.0,0
16-1-2017 12:00,-255.6107895015775,0.0,0.0,0.0,0
16-1-2017 13:00,-1075.8530819641603,0.0,0.0,0.0,0
16-1-2017 14:00,-1903.3793892331607,0.0,0.0,0.0,0
16-1-2017 15:00,-2635.381293159945,0.0,0.0,0.0,0
16-1-2017 16:00,-2921.699519607533,0.0,0.0,0.0,0
16-1-2017 17:00,-4250.045942876433,0.0,0.0,0.0,0
16-1-2017 18:00,-5279.68877045933,0.0,0.0,0.0,0
16-1-2017 19:00,-5822.628826784982,0.0,0.0,0.0,0
16-1-2017 20:00,-7465.802515964786,0.0,0.0,0.0,0
16-1-2017 21:00,-4282.619085816719,0.0,0.0,0.0,0
16-1-2017 22:00,-1020.9416283832845,0.0,0.0,0.0,0
16-1-2017 23:00,1082.322541043505,0.0,0.0,0.0,0
17-1-2017 0:00,4034.174515192379,0.0,0.0,0.0,0
17-1-2017 1:00,3723.683608450834,0.0,0.0,0.0,0
17-1-2017 2:00,3509.9386630270465,0.0,0.0,0.0,0
17-1-2017 3:00,3480.298133029126,0.0,0.0,0.0,0
17-1-2017 4:00,3060.1553303301716,0.0,0.0,0.0,0
17-1-2017 5:00,2926.49776172136,0.0,0.0,0.0,0
17-1-2017 6:00,2700.161388120926,0.0,0.0,0.0,0
17-1-2017 7:00,2471.9778986580786,0.0,0.0,0.0,0
17-1-2017 8:00,2209.3184773580915,0.0,0.0,0.0,0
17-1-2017 9:00,1775.5099213395333,0.0,0.0,0.0,0
17-1-2017 10:00,1159.8364390218414,0.0,0.0,0.0,0
17-1-2017 11:00,442.06400196948204,0.0,0.0,0.0,0
17-1-2017 12:00,-228.31472290847367,0.0,0.0,0.0,0
17-1-2017 13:00,-813.425436157868,0.0,0.0,0.0,0
17-1-2017 14:00,-1429.9037776558314,0.0,0.0,0.0,0
17-1-2017 15:00,-1980.6888839935093,0.0,0.0,0.0,0
17-1-2017 16:00,-2265.166075825846,0.0,0.0,0.0,0
17-1-2017 17:00,-3462.5404037014873,0.0,0.0,0.0,0
17-1-2017 18:00,-4423.422089970956,0.0,0.0,0.0,0
17-1-2017 19:00,-4935.813850395809,0.0,0.0,0.0,0
17-1-2017 20:00,-6589.580465071349,0.0,0.0,0.0,0
17-1-2017 21:00,-3145.021449239783,0.0,0.0,0.0,0
17-1-2017 22:00,326.8928896001781,0.0,0.0,0.0,0
17-1-2017 23:00,1116.3468186259618,0.0,0.0,0.0,0
18-1-2017 0:00,3317.9902998732055,0.0,0.0,0.0,0
18-1-2017 1:00,3067.633913051248,0.0,0.0,0.0,0
18-1-2017 2:00,2916.1414877209036,0.0,0.0,0.0,0
18-1-2017 3:00,2950.517857443923,0.0,0.0,0.0,0
18-1-2017 4:00,2592.163993170309,0.0,0.0,0.0,0
18-1-2017 5:00,2532.3506057469085,0.0,0.0,0.0,0
18-1-2017 6:00,2373.960445546067,0.0,0.0,0.0,0
18-1-2017 7:00,2220.519788914373,0.0,0.0,0.0,0
18-1-2017 8:00,2021.4560046601594,0.0,0.0,0.0,0
18-1-2017 9:00,1523.4833976957757,0.0,0.0,0.0,0
18-1-2017 10:00,812.2377654360272,0.0,0.0,0.0,0
18-1-2017 11:00,-15.5766268732512,0.0,0.0,0.0,0
18-1-2017 12:00,-771.0933694893226,0.0,0.0,0.0,0
18-1-2017 13:00,-1570.9563425831989,0.0,0.0,0.0,0
18-1-2017 14:00,-2394.1174585177805,0.0,0.0,0.0,0
18-1-2017 15:00,-3161.3140069258493,0.0,0.0,0.0,0
18-1-2017 16:00,-3683.3618815834748,0.0,0.0,0.0,0
18-1-2017 17:00,-5194.233657351015,0.0,0.0,0.0,0
18-1-2017 18:00,-6486.598426423202,0.0,0.0,0.0,0
18-1-2017 19:00,-7307.306668675739,0.0,0.0,0.0,0
18-1-2017 20:00,-8764.694865111655,0.0,0.0,0.0,0
18-1-2017 21:00,-4090.5999573174345,0.0,0.0,0.0,0
18-1-2017 22:00,643.6043381580712,0.0,0.0,0.0,0
18-1-2017 23:00,1973.9205177100257,0.0,0.0,0.0,0
19-1-2017 0:00,4310.950730780336,0.0,0.0,0.0,0
19-1-2017 1:00,3861.600459660198,0.0,0.0,0.0,0
19-1-2017 2:00,3452.3221502055276,0.0,0.0,0.0,0
19-1-2017 3:00,3149.627015431717,0.0,0.0,0.0,0
19-1-2017 4:00,2382.1577413592713,0.0,0.0,0.0,0
19-1-2017 5:00,1800.1651792336015,0.0,0.0,0.0,0
19-1-2017 6:00,133.97787654466902,0.0,0.0,0.0,0
19-1-2017 7:00,-800.671440497068,0.0,0.0,0.0,0
19-1-2017 8:00,-1143.5210809467044,0.0,0.0,0.0,0
19-1-2017 9:00,-1456.9074546416014,0.0,0.0,0.0,0
19-1-2017 10:00,-1788.5061470051114,0.0,0.0,0.0,0
19-1-2017 11:00,-1287.923404733012,0.0,0.0,0.0,0
19-1-2017 12:00,-1049.4390752489016,0.0,0.0,0.0,0
19-1-2017 13:00,-840.2828677483703,0.0,0.0,0.0,0
19-1-2017 14:00,-805.4453176806801,0.0,0.0,0.0,0
19-1-2017 15:00,-757.8618677202503,0.0,0.0,0.0,0
19-1-2017 16:00,-656.8285014688317,0.0,0.0,0.0,0
19-1-2017 17:00,-1508.9345584087641,0.0,0.0,0.0,0
19-1-2017 18:00,-2310.5992435641638,0.0,0.0,0.0,0
19-1-2017 19:00,-2208.3938379020674,0.0,0.0,0.0,0
19-1-2017 20:00,-6120.23348635603,0.0,0.0,0.0,0
19-1-2017 21:00,-2238.6894529252604,0.0,0.0,0.0,0
19-1-2017 22:00,1863.0640936522832,0.0,0.0,0.0,0
19-1-2017 23:00,2492.5618181969003,0.0,0.0,0.0,0
20-1-2017 0:00,4332.698057556769,0.0,0.0,0.0,0
20-1-2017 1:00,3746.6525697160905,0.0,0.0,0.0,0
20-1-2017 2:00,3166.677043714739,0.0,0.0,0.0,0
20-1-2017 3:00,2700.7190720217404,0.0,0.0,0.0,0
20-1-2017 4:00,1775.2395758072598,0.0,0.0,0.0,0
20-1-2017 5:00,1205.3427985566668,0.0,0.0,0.0,0
20-1-2017 6:00,567.4933129569908,0.0,0.0,0.0,0
20-1-2017 7:00,33.336403667213744,0.0,0.0,0.0,0
20-1-2017 8:00,-328.2980248158419,0.0,0.0,0.0,0
20-1-2017 9:00,-677.5491042256326,0.0,0.0,0.0,0
20-1-2017 10:00,-856.6149125125485,0.0,0.0,0.0,0
20-1-2017 11:00,-762.2490914787086,0.0,0.0,0.0,0
20-1-2017 12:00,-617.5777457140575,0.0,0.0,0.0,0
20-1-2017 13:00,-556.557876302868,0.0,0.0,0.0,0
20-1-2017 14:00,-639.7671789166488,0.0,0.0,0.0,0
20-1-2017 15:00,-941.5692492714661,0.0,0.0,0.0,0
20-1-2017 16:00,-1148.2788549569086,0.0,0.0,0.0,0
20-1-2017 17:00,-2281.160340544513,0.0,0.0,0.0,0
20-1-2017 18:00,-3276.256089258408,0.0,0.0,0.0,0
20-1-2017 19:00,-3736.4417622004476,0.0,0.0,0.0,0
20-1-2017 20:00,-5574.407589191233,0.0,0.0,0.0,0
20-1-2017 21:00,-1483.3629437486015,0.0,0.0,0.0,0
20-1-2017 22:00,2613.7500861077715,0.0,0.0,0.0,0
20-1-2017 23:00,2754.169587821845,0.0,0.0,0.0,0
21-1-2017 0:00,4206.622085648072,0.0,0.0,0.0,0
21-1-2017 1:00,3513.952299997851,0.0,0.0,0.0,0
21-1-2017 2:00,2879.160476360812,0.0,0.0,0.0,0
21-1-2017 3:00,2400.6905866596135,0.0,0.0,0.0,0
21-1-2017 4:00,1450.830815727495,0.0,0.0,0.0,0
21-1-2017 5:00,798.8356699877113,0.0,0.0,0.0,0
21-1-2017 6:00,52.50984811302624,0.0,0.0,0.0,0
21-1-2017 7:00,-612.7360739743308,0.0,0.0,0.0,0
21-1-2017 8:00,-1150.1867110403473,0.0,0.0,0.0,0
21-1-2017 9:00,-1726.9523472786968,0.0,0.0,0.0,0
21-1-2017 10:00,-2161.455539169023,0.0,0.0,0.0,0
21-1-2017 11:00,-1951.6969070534542,0.0,0.0,0.0,0
21-1-2017 12:00,-1818.1088126882823,0.0,0.0,0.0,0
21-1-2017 13:00,-2423.1982945574273,0.0,0.0,0.0,0
21-1-2017 14:00,-1547.4374630436942,0.0,0.0,0.0,0
21-1-2017 15:00,-1175.3180669047579,0.0,0.0,0.0,0
21-1-2017 16:00,-581.826760130818,0.0,0.0,0.0,0
21-1-2017 17:00,-1061.919083361674,0.0,0.0,0.0,0
21-1-2017 18:00,-1400.7013046296197,0.0,0.0,0.0,0
21-1-2017 19:00,-1906.614498035604,0.0,0.0,0.0,0
21-1-2017 20:00,-4189.102945423037,0.0,0.0,0.0,0
21-1-2017 21:00,-36.54362338466308,0.0,0.0,0.0,0
21-1-2017 22:00,4129.076947832968,0.0,0.0,0.0,0
21-1-2017 23:00,4160.89628479891,0.0,0.0,0.0,0
22-1-2017 0:00,4986.469256137432,0.0,0.0,0.0,0
22-1-2017 1:00,4212.560995214728,0.0,0.0,0.0,0
22-1-2017 2:00,3499.7980438303202,0.0,0.0,0.0,0
22-1-2017 3:00,706.1791523866414,0.0,0.0,0.0,0
22-1-2017 4:00,1845.8556879926182,0.0,0.0,0.0,0
22-1-2017 5:00,1349.7998273639532,0.0,0.0,0.0,0
22-1-2017 6:00,854.0625696126081,0.0,0.0,0.0,0
22-1-2017 7:00,401.4110463326797,0.0,0.0,0.0,0
22-1-2017 8:00,27.03263259351661,0.0,0.0,0.0,0
22-1-2017 9:00,-385.0210178266425,0.0,0.0,0.0,0
22-1-2017 10:00,-718.1670225748676,0.0,0.0,0.0,0
22-1-2017 11:00,-878.8677880442992,0.0,0.0,0.0,0
22-1-2017 12:00,-796.6649548779242,0.0,0.0,0.0,0
22-1-2017 13:00,-724.02229974074,0.0,0.0,0.0,0
22-1-2017 14:00,-809.2320161836687,0.0,0.0,0.0,0
22-1-2017 15:00,-990.6843392495648,0.0,0.0,0.0,0
22-1-2017 16:00,-1072.9904938659165,0.0,0.0,0.0,0
22-1-2017 17:00,-2140.848676233378,0.0,0.0,0.0,0
22-1-2017 18:00,-3030.0948831258283,0.0,0.0,0.0,0
22-1-2017 19:00,-3230.6495982423803,0.0,0.0,0.0,0
22-1-2017 20:00,-5013.821147451934,0.0,0.0,0.0,0
22-1-2017 21:00,-3315.7422743060306,0.0,0.0,0.0,0
22-1-2017 22:00,4613.342232978699,0.0,0.0,0.0,0
22-1-2017 23:00,2611.928727160688,0.0,0.0,0.0,0
23-1-2017 0:00,2877.0913410273206,0.0,0.0,0.0,0
23-1-2017 1:00,3819.633891043748,0.0,0.0,0.0,0
23-1-2017 2:00,3224.3290981235914,0.0,0.0,0.0,0
23-1-2017 3:00,1631.23049114905,0.0,0.0,0.0,0
23-1-2017 4:00,3603.574328267714,0.0,0.0,0.0,0
23-1-2017 5:00,1774.6984236818535,0.0,0.0,0.0,0
23-1-2017 6:00,2712.480400985587,0.0,0.0,0.0,0
23-1-2017 7:00,2328.01084981054,0.0,0.0,0.0,0
23-1-2017 8:00,611.8822326956288,0.0,0.0,0.0,0
23-1-2017 9:00,51.12678006468923,0.0,0.0,0.0,0
23-1-2017 10:00,2.959547792444937,0.0,0.0,0.0,0
23-1-2017 11:00,-1882.929029928011,0.0,0.0,0.0,0
23-1-2017 12:00,-3567.8198726265255,0.0,0.0,0.0,0
23-1-2017 13:00,-5367.966609939627,0.0,0.0,0.0,0
23-1-2017 14:00,-7148.868403795845,0.0,0.0,0.0,0
23-1-2017 15:00,-8920.513975523136,0.0,0.0,0.0,0
23-1-2017 16:00,-13008.0796117235,0.0,0.0,0.0,0
23-1-2017 17:00,-439.87290646345355,0.0,0.0,0.0,0
23-1-2017 18:00,-1484.9323522163613,0.0,0.0,0.0,0
23-1-2017 19:00,-1938.8760332305974,0.0,0.0,0.0,0
23-1-2017 20:00,-4094.0781284494005,0.0,0.0,0.0,0
23-1-2017 21:00,299.50300157326274,0.0,0.0,0.0,0
23-1-2017 22:00,5059.12563579579,0.0,0.0,0.0,0
23-1-2017 23:00,4877.9334780645295,0.0,0.0,0.0,0
24-1-2017 0:00,6370.499925330019,0.0,0.0,0.0,0
24-1-2017 1:00,5457.247934746643,0.0,0.0,0.0,0
24-1-2017 2:00,4534.515948751752,0.0,0.0,0.0,0
24-1-2017 3:00,3750.422274707409,0.0,0.0,0.0,0
24-1-2017 4:00,2457.251721675013,0.0,0.0,0.0,0
24-1-2017 5:00,2314.318547161878,0.0,0.0,0.0,0
24-1-2017 6:00,2060.1325335505826,0.0,0.0,0.0,0
24-1-2017 7:00,1931.3406437348021,0.0,0.0,0.0,0
24-1-2017 8:00,1906.127512498526,0.0,0.0,0.0,0
24-1-2017 9:00,4138.839325315872,0.0,0.0,0.0,0
24-1-2017 10:00,6498.817038214038,0.0,0.0,0.0,0
24-1-2017 11:00,9149.436820936957,0.0,0.0,0.0,0
24-1-2017 12:00,11894.368475067997,0.0,0.0,0.0,0
24-1-2017 13:00,16742.912892599197,0.0,0.0,0.0,0
24-1-2017 14:00,21294.329568624293,0.0,0.0,0.0,0
24-1-2017 15:00,25865.521295530183,0.0,0.0,0.0,0
24-1-2017 16:00,30746.346514686316,0.0,0.0,0.0,0
24-1-2017 17:00,35602.796188450506,0.0,0.0,0.0,0
24-1-2017 18:00,51586.0215847138,0.0,0.0,0.0,0
24-1-2017 19:00,58115.89176786253,0.0,0.0,0.0,0
24-1-2017 20:00,93171.99195669511,0.0,0.0,0.0,0
24-1-2017 21:00,21100.857308477352,0.0,0.0,0.0,0
24-1-2017 22:00,-58602.46723365841,0.0,0.0,0.0,0
24-1-2017 23:00,-53636.92334659902,0.0,0.0,0.0,0
25-1-2017 0:00,-46448.23836923082,0.0,0.0,0.0,0
25-1-2017 1:00,-41150.83873480712,0.0,0.0,0.0,0
25-1-2017 2:00,-35735.791748269825,0.0,0.0,0.0,0
25-1-2017 3:00,-30113.09432377709,0.0,0.0,0.0,0
25-1-2017 4:00,-24958.828556264227,0.0,0.0,0.0,0
25-1-2017 5:00,-20207.93332680979,0.0,0.0,0.0,0
25-1-2017 6:00,-15603.351657441277,0.0,0.0,0.0,0
25-1-2017 7:00,-10978.333125715419,0.0,0.0,0.0,0
25-1-2017 8:00,-6495.9880108906855,0.0,0.0,0.0,0
25-1-2017 9:00,-4617.0327970539865,0.0,0.0,0.0,0
25-1-2017 10:00,-3230.966079545434,0.0,0.0,0.0,0
25-1-2017 11:00,-2088.46387693921,0.0,0.0,0.0,0
25-1-2017 12:00,-690.9756665386906,0.0,0.0,0.0,0
25-1-2017 13:00,-1199.5130437227986,0.0,0.0,0.0,0
25-1-2017 14:00,-1670.4708473760495,0.0,0.0,0.0,0
25-1-2017 15:00,-2149.6947713966283,0.0,0.0,0.0,0
25-1-2017 16:00,-2471.9920564286494,0.0,0.0,0.0,0
25-1-2017 17:00,-4105.621570476878,0.0,0.0,0.0,0
25-1-2017 18:00,-5611.093488513946,0.0,0.0,0.0,0
25-1-2017 19:00,-6443.705803044819,-4952.64,16710.08,-26615.36,0
25-1-2017 20:00,-9104.039692003387,-5819.95,15824.99,-27464.88,0
25-1-2017 21:00,-4232.432265974864,-8968.3,12659.98,-30596.57,0
25-1-2017 22:00,858.6849255087837,-126.33,21487.0,-21739.66,0
25-1-2017 23:00,398.80376733653134,2143.63,23739.1,-19451.84,0
26-1-2017 0:00,2474.3383265294087,704.75,22282.33,-20872.83,0
26-1-2017 1:00,2444.523981034797,4098.05,25657.85,-17461.75,0
26-1-2017 2:00,2534.975785839769,1741.62,23283.95,-19800.71,0
26-1-2017 3:00,2835.4337657712776,3140.76,24666.16,-18384.64,0
26-1-2017 4:00,2658.8487167888775,2304.46,23812.89,-19203.98,0
26-1-2017 5:00,3077.601923414104,2510.68,24000.36,-18979.0,0
26-1-2017 6:00,3341.8047647974477,2782.94,24255.28,-18689.4,0
26-1-2017 7:00,3629.5182521410843,2948.84,24403.06,-18505.38,0
26-1-2017 8:00,3758.4666443086767,3194.13,24630.54,-18242.28,0
26-1-2017 9:00,3435.447279510155,3164.92,24583.87,-18254.02,0
26-1-2017 10:00,2573.6396979121178,2663.66,24065.03,-18737.71,0
26-1-2017 11:00,1447.8282747449512,1662.6,23047.33,-19722.12,0
26-1-2017 12:00,604.5772769678877,579.23,21946.43,-20787.97,0
26-1-2017 13:00,-258.2386651448868,-20.46,21328.05,-21368.97,0
26-1-2017 14:00,-1072.554073534657,-860.27,20470.88,-22191.42,0
26-1-2017 15:00,-1904.3641731816833,-1433.99,19880.8,-22748.77,0
26-1-2017 16:00,-2582.6712228849597,-2189.57,19106.98,-23486.12,0
26-1-2017 17:00,-4291.9756515387,-2596.73,18682.49,-23875.95,0
26-1-2017 18:00,-5885.701292817971,-4673.68,16589.3,-25936.66,0
26-1-2017 19:00,-6773.7979360524205,-5608.98,15636.0,-26853.96,0
26-1-2017 20:00,-9588.051607005456,-6246.51,14981.71,-27474.73,0
26-1-2017 21:00,-4509.359302208513,-9657.67,11555.21,-30870.54,0
26-1-2017 22:00,819.0285610061688,-264.87,20935.02,-21464.77,0
26-1-2017 23:00,266.00287528623596,2061.38,23244.27,-19121.51,0
27-1-2017 0:00,2517.869929039685,523.22,21689.22,-20642.77,0
27-1-2017 1:00,2502.58471123685,4216.22,25367.55,-16935.11,0
27-1-2017 2:00,2610.1844419195963,1725.07,22859.83,-19409.69,0
27-1-2017 3:00,2930.1460848999777,3248.53,24364.53,-17867.48,0
27-1-2017 4:00,2764.054982123321,2366.53,23467.71,-18734.64,0
27-1-2017 5:00,3230.180282166297,2629.06,23711.75,-18453.63,0
27-1-2017 6:00,3533.5184118114253,2933.16,23999.34,-18133.03,0
27-1-2017 7:00,3863.159473278637,3133.07,24183.14,-17917.0,0
27-1-2017 8:00,4017.943761294883,3405.84,24438.31,-17626.62,0
27-1-2017 9:00,3688.934247573986,3393.4,24409.52,-17622.72,0
27-1-2017 10:00,2775.092844638191,2868.24,23868.41,-18131.93,0
27-1-2017 11:00,1576.808273466466,1798.99,22782.13,-19184.15,0
27-1-2017 12:00,688.6585452806519,646.65,21613.28,-20319.98,0
27-1-2017 13:00,-225.78003759802812,20.8,20971.25,-20929.65,0
27-1-2017 14:00,-1080.7971265615563,-878.85,20054.94,-21812.63,0
27-1-2017 15:00,-1962.5374776722697,-1473.62,19443.72,-22390.96,0
27-1-2017 16:00,-2694.079198577259,-2286.08,18614.81,-23186.97,0
27-1-2017 17:00,-4479.2217250623635,-2723.66,18161.11,-23608.42,0
27-1-2017 18:00,-6161.364272809692,-4885.41,15982.97,-25753.79,0
27-1-2017 19:00,-7104.943135131533,-5887.99,14964.25,-26740.23,0
27-1-2017 20:00,-10073.11447846285,-6557.28,14279.34,-27393.91,0
27-1-2017 21:00,-4787.415661386587,-10155.47,10667.49,-30978.43,0
27-1-2017 22:00,778.3210282031608,-359.41,20450.78,-21169.61,0
27-1-2017 23:00,132.22896957957954,2088.62,22882.91,-18705.68,0
28-1-2017 0:00,2560.5066725376323,379.67,21158.46,-20399.11,0
28-1-2017 1:00,2559.844250101457,4428.96,25192.43,-16334.52,0
28-1-2017 2:00,2684.6855743368587,1731.62,22479.33,-19016.09,0
28-1-2017 3:00,3024.2445480409956,3402.53,24134.98,-17329.93,0
28-1-2017 4:00,2868.7975041442164,2461.39,23177.83,-18255.05,0
28-1-2017 5:00,3382.3657500212653,2758.97,23459.63,-17941.69,0
28-1-2017 6:00,3724.910020344503,3076.16,23760.85,-17608.54,0
28-1-2017 7:00,4096.563800365941,3317.38,23986.46,-17351.69,0
28-1-2017 8:00,4277.269128661492,3624.06,24276.88,-17028.75,0
28-1-2017 9:00,3942.3142556702496,3623.37,24261.07,-17014.33,0
28-1-2017 10:00,2976.4847589551596,3073.77,23695.33,-17547.79,0
28-1-2017 11:00,1705.772767337339,1938.64,22544.93,-18667.66,0
28-1-2017 12:00,772.7700363012376,713.16,21304.01,-19877.68,0
28-1-2017 13:00,-193.24187878520237,60.51,20639.55,-20518.53,0
28-1-2017 14:00,-1088.9113397643432,-896.87,19662.09,-21455.83,0
28-1-2017 15:00,-2020.5326337805977,-1512.51,19032.26,-22057.28,0
28-1-2017 16:00,-2805.2671683873423,-2380.61,18147.82,-22909.04,0
28-1-2017 17:00,-4666.1614007879625,-2848.63,17664.63,-23361.9,0
28-1-2017 18:00,-6436.634463087499,-5092.89,15404.9,-25590.69,0
28-1-2017 19:00,-7435.641201014859,-6166.56,14314.67,-26647.78,0
28-1-2017 20:00,-10557.67587324258,-6868.74,13598.48,-27335.95,0
28-1-2017 21:00,-5064.839382008608,-10657.65,9796.26,-31111.56,0
28-1-2017 22:00,738.3082929750335,-447.7,19994.98,-20890.38,0
28-1-2017 23:00,-0.7879795333682296,2105.77,22533.23,-18321.69,0
29-1-2017 0:00,2603.962531648116,269.04,20682.77,-20144.68,0
29-1-2017 1:00,2617.978585986693,4616.66,25015.86,-15782.55,0
29-1-2017 2:00,2760.117185182845,1731.69,22122.09,-18658.72,0
29-1-2017 3:00,3119.32917101883,3553.36,23922.57,-16815.85,0
29-1-2017 4:00,2974.4554742492505,2505.64,22861.51,-17850.24,0
29-1-2017 5:00,3535.445566976345,2891.86,23232.0,-17448.28,0
29-1-2017 6:00,3917.174878993665,3198.29,23522.99,-17126.41,0
29-1-2017 7:00,4330.69423781413,3509.59,23819.28,-16800.1,0
29-1-2017 8:00,4537.173466633792,3837.36,24131.94,-16457.22,0
29-1-2017 9:00,4195.705329556334,3862.17,24141.91,-16417.56,0
29-1-2017 10:00,3177.2194188730173,3275.43,23540.45,-16989.59,0
29-1-2017 11:00,1833.4116866201705,2076.44,22326.3,-18173.41,0
29-1-2017 12:00,854.88763254485,778.34,21013.33,-19456.64,0
29-1-2017 13:00,-164.07693648898078,105.67,20327.4,-20116.07,0
29-1-2017 14:00,-1101.7780912233648,-918.19,19287.96,-21124.34,0
29-1-2017 15:00,-2084.6596498847916,-1552.93,18637.82,-21743.68,0
29-1-2017 16:00,-2923.9695956809637,-2474.63,17701.44,-22650.7,0
29-1-2017 17:00,-4867.173716399369,-2989.2,17172.78,-23151.18,0
29-1-2017 18:00,-6732.5354756533825,-5323.54,14823.41,-25470.5,0
29-1-2017 19:00,-7793.446041100064,-6468.62,13665.05,-26602.28,0
29-1-2017 20:00,-11075.819994137997,-7205.69,12912.97,-27324.35,0
29-1-2017 21:00,-5391.810296821968,-11194.49,8911.15,-31300.13,0
29-1-2017 22:00,632.9555870921982,-585.25,19510.89,-20681.4,0
29-1-2017 23:00,-214.9376757643915,2079.52,22161.07,-18002.03,0
30-1-2017 0:00,2598.8382826105394,18.77,20087.17,-20049.63,0
30-1-2017 1:00,2612.213651719978,4790.07,24845.01,-15264.88,0
30-1-2017 2:00,2754.56014110957,1675.75,21716.37,-18364.88,0
30-1-2017 3:00,3112.7345040531054,3638.78,23666.05,-16388.49,0
30-1-2017 4:00,2965.9853331989534,2492.48,22505.33,-17520.38,0
30-1-2017 5:00,3565.5892873576377,2917.14,22915.6,-17081.31,0
30-1-2017 6:00,3979.4791780331934,3233.95,23217.76,-16749.85,0
30-1-2017 7:00,4427.619800592244,3596.56,23566.98,-16373.85,0
30-1-2017 8:00,4651.099008695372,3933.05,23888.98,-16022.88,0
30-1-2017 9:00,4300.415922000715,3969.35,23910.88,-15972.18,0
30-1-2017 10:00,3983.438720452288,3361.13,23288.95,-16566.69,0
30-1-2017 11:00,3632.198090359793,3166.23,23079.83,-16747.37,0
30-1-2017 12:00,1241.9315169542836,2698.01,22597.31,-17201.3,0
30-1-2017 13:00,73.51645223124623,-447.19,19438.75,-20333.13,0
30-1-2017 14:00,-1282.0044005563395,-314.4,19557.92,-20186.73,0
30-1-2017 15:00,-2319.726172476604,-2356.34,17502.05,-22214.73,0
30-1-2017 16:00,-3216.435448459516,-2421.23,17422.48,-22264.95,0
30-1-2017 17:00,-5344.8625480699675,-3577.31,16252.31,-23406.93,0
30-1-2017 18:00,-7412.02557568602,-5687.57,14129.14,-25504.28,0
30-1-2017 19:00,-8648.361372745565,-7272.53,12530.31,-27075.37,0
30-1-2017 20:00,-12187.35212729777,-7955.14,11835.8,-27746.08,0
30-1-2017 21:00,-7061.546809427658,-12329.58,7448.18,-32107.34,0
30-1-2017 22:00,-1562.68182475466,-2250.42,17517.76,-22018.61,0
30-1-2017 23:00,-3196.8245490871714,-52.05,19702.19,-19806.29,0
31-1-2017 0:00,-823.9499739423286,-2897.09,16844.42,-22638.61,0
31-1-2017 1:00,-2671.9625842143837,1771.77,21500.39,-17956.86,0
31-1-2017 2:00,-4390.155498783708,-3882.23,15835.39,-23599.85,0
31-1-2017 3:00,-5893.766052884979,-2991.17,16712.65,-22694.99,0
31-1-2017 4:00,-7903.387307901488,-6144.85,13546.49,-25836.19,0
31-1-2017 5:00,-11281.799787706572,-6991.92,12686.83,-26670.67,0
31-1-2017 6:00,-14852.379613768135,-11389.16,8277.37,-31055.69,0
31-1-2017 7:00,-18212.676937404365,-13737.19,5918.79,-33393.17,0
31-1-2017 8:00,-20238.88695995164,-17114.47,2530.54,-36759.47,0
31-1-2017 9:00,-20311.325363360316,-17693.19,1940.47,-37326.85,0
31-1-2017 10:00,-18362.84608885645,-17091.3,2529.25,-36711.84,0
31-1-2017 11:00,-14983.4918498712,-14111.36,5495.63,-33718.35,0
31-1-2017 12:00,-11183.073175689497,-10577.89,9015.45,-30171.23,0
31-1-2017 13:00,-8044.422979274037,-6860.54,12720.86,-26441.94,0
31-1-2017 14:00,-5269.067773287119,-4450.27,15116.61,-24017.14,0
31-1-2017 15:00,-2409.904001638519,-2014.3,17539.66,-21568.25,0
31-1-2017 16:00,254.92375855569117,332.48,19874.47,-19209.51,0
31-1-2017 17:00,1691.5077824429027,2428.07,21955.19,-17099.06,0
31-1-2017 18:00,2970.337588854527,2841.39,22355.6,-16672.82,0
31-1-2017 19:00,5015.320139393269,3961.35,23462.2,-15539.51,0
31-1-2017 20:00,4447.716162537938,5741.65,25229.73,-13746.43,0
31-1-2017 21:00,12861.934711442023,3570.15,23044.92,-15904.62,0
31-1-2017 22:00,21085.497989968935,16475.27,35948.05,-2997.52,0
31-1-2017 23:00,20828.214997255578,20358.24,39821.2,895.28,0
