Time,Actual,Forecasts,Upper Interval,Lower Interval,Is Anomalies
1-1-2017 0:00,0.0,0.0,0.0,0.0,0
1-1-2017 1:00,0.0,0.0,0.0,0.0,0
1-1-2017 2:00,0.0,0.0,0.0,0.0,0
1-1-2017 3:00,0.0,0.0,0.0,0.0,0
1-1-2017 4:00,0.0,0.0,0.0,0.0,0
1-1-2017 5:00,0.0,0.0,0.0,0.0,0
1-1-2017 6:00,0.0,0.0,0.0,0.0,0
1-1-2017 7:00,0.0,0.0,0.0,0.0,0
1-1-2017 8:00,0.0,0.0,0.0,0.0,0
1-1-2017 9:00,0.0,0.0,0.0,0.0,0
1-1-2017 10:00,0.0,0.0,0.0,0.0,0
1-1-2017 11:00,0.0,0.0,0.0,0.0,0
1-1-2017 12:00,0.0,0.0,0.0,0.0,0
1-1-2017 13:00,0.0,0.0,0.0,0.0,0
1-1-2017 14:00,0.0,0.0,0.0,0.0,0
1-1-2017 15:00,0.0,0.0,0.0,0.0,0
1-1-2017 16:00,0.0,0.0,0.0,0.0,0
1-1-2017 17:00,0.0,0.0,0.0,0.0,0
1-1-2017 18:00,0.0,0.0,0.0,0.0,0
1-1-2017 19:00,0.0,0.0,0.0,0.0,0
1-1-2017 20:00,0.0,0.0,0.0,0.0,0
1-1-2017 21:00,0.0,0.0,0.0,0.0,0
1-1-2017 22:00,0.0,0.0,0.0,0.0,0
1-1-2017 23:00,0.0,0.0,0.0,0.0,0
2-1-2017 0:00,0.0,0.0,0.0,0.0,0
2-1-2017 1:00,0.0,0.0,0.0,0.0,0
2-1-2017 2:00,0.0,0.0,0.0,0.0,0
2-1-2017 3:00,0.0,0.0,0.0,0.0,0
2-1-2017 4:00,0.0,0.0,0.0,0.0,0
2-1-2017 5:00,0.0,0.0,0.0,0.0,0
2-1-2017 6:00,0.0,0.0,0.0,0.0,0
2-1-2017 7:00,0.0,0.0,0.0,0.0,0
2-1-2017 8:00,0.0,0.0,0.0,0.0,0
2-1-2017 9:00,0.0,0.0,0.0,0.0,0
2-1-2017 10:00,0.0,0.0,0.0,0.0,0
2-1-2017 11:00,0.0,0.0,0.0,0.0,0
2-1-2017 12:00,0.0,0.0,0.0,0.0,0
2-1-2017 13:00,0.0,0.0,0.0,0.0,0
2-1-2017 14:00,0.0,0.0,0.0,0.0,0
2-1-2017 15:00,0.0,0.0,0.0,0.0,0
2-1-2017 16:00,0.0,0.0,0.0,0.0,0
2-1-2017 17:00,0.0,0.0,0.0,0.0,0
2-1-2017 18:00,0.0,0.0,0.0,0.0,0
2-1-2017 19:00,0.0,0.0,0.0,0.0,0
2-1-2017 20:00,0.0,0.0,0.0,0.0,0
2-1-2017 21:00,0.0,0.0,0.0,0.0,0
2-1-2017 22:00,0.0,0.0,0.0,0.0,0
2-1-2017 23:00,0.0,0.0,0.0,0.0,0
3-1-2017 0:00,0.0,0.0,0.0,0.0,0
3-1-2017 1:00,0.0,0.0,0.0,0.0,0
3-1-2017 2:00,0.0,0.0,0.0,0.0,0
3-1-2017 3:00,0.0,0.0,0.0,0.0,0
3-1-2017 4:00,0.0,0.0,0.0,0.0,0
3-1-2017 5:00,0.0,0.0,0.0,0.0,0
3-1-2017 6:00,0.0,0.0,0.0,0.0,0
3-1-2017 7:00,0.0,0.0,0.0,0.0,0
3-1-2017 8:00,0.0,0.0,0.0,0.0,0
3-1-2017 9:00,0.0,0.0,0.0,0.0,0
3-1-2017 10:00,0.0,0.0,0.0,0.0,0
3-1-2017 11:00,0.0,0.0,0.0,0.0,0
3-1-2017 12:00,0.0,0.0,0.0,0.0,0
3-1-2017 13:00,0.0,0.0,0.0,0.0,0
3-1-2017 14:00,0.0,0.0,0.0,0.0,0
3-1-2017 15:00,0.0,0.0,0.0,0.0,0
3-1-2017 16:00,0.0,0.0,0.0,0.0,0
3-1-2017 17:00,0.0,0.0,0.0,0.0,0
3-1-2017 18:00,0.0,0.0,0.0,0.0,0
3-1-2017 19:00,0.0,0.0,0.0,0.0,0
3-1-2017 20:00,0.0,0.0,0.0,0.0,0
3-1-2017 21:00,0.0,0.0,0.0,0.0,0
3-1-2017 22:00,0.0,0.0,0.0,0.0,0
3-1-2017 23:00,0.0,0.0,0.0,0.0,0
4-1-2017 0:00,0.0,0.0,0.0,0.0,0
4-1-2017 1:00,0.0,0.0,0.0,0.0,0
4-1-2017 2:00,0.0,0.0,0.0,0.0,0
4-1-2017 3:00,0.0,0.0,0.0,0.0,0
4-1-2017 4:00,0.0,0.0,0.0,0.0,0
4-1-2017 5:00,0.0,0.0,0.0,0.0,0
4-1-2017 6:00,0.0,0.0,0.0,0.0,0
4-1-2017 7:00,0.0,0.0,0.0,0.0,0
4-1-2017 8:00,0.0,0.0,0.0,0.0,0
4-1-2017 9:00,0.0,0.0,0.0,0.0,0
4-1-2017 10:00,0.0,0.0,0.0,0.0,0
4-1-2017 11:00,0.0,0.0,0.0,0.0,0
4-1-2017 12:00,0.0,0.0,0.0,0.0,0
4-1-2017 13:00,0.0,0.0,0.0,0.0,0
4-1-2017 14:00,0.0,0.0,0.0,0.0,0
4-1-2017 15:00,0.0,0.0,0.0,0.0,0
4-1-2017 16:00,0.0,0.0,0.0,0.0,0
4-1-2017 17:00,0.0,0.0,0.0,0.0,0
4-1-2017 18:00,0.0,0.0,0.0,0.0,0
4-1-2017 19:00,0.0,0.0,0.0,0.0,0
4-1-2017 20:00,0.0,0.0,0.0,0.0,0
4-1-2017 21:00,0.0,0.0,0.0,0.0,0
4-1-2017 22:00,0.0,0.0,0.0,0.0,0
4-1-2017 23:00,0.0,0.0,0.0,0.0,0
5-1-2017 0:00,0.0,0.0,0.0,0.0,0
5-1-2017 1:00,0.0,0.0,0.0,0.0,0
5-1-2017 2:00,0.0,0.0,0.0,0.0,0
5-1-2017 3:00,0.0,0.0,0.0,0.0,0
5-1-2017 4:00,0.0,0.0,0.0,0.0,0
5-1-2017 5:00,0.0,0.0,0.0,0.0,0
5-1-2017 6:00,0.0,0.0,0.0,0.0,0
5-1-2017 7:00,0.0,0.0,0.0,0.0,0
5-1-2017 8:00,0.0,0.0,0.0,0.0,0
5-1-2017 9:00,0.0,0.0,0.0,0.0,0
5-1-2017 10:00,0.0,0.0,0.0,0.0,0
5-1-2017 11:00,0.0,0.0,0.0,0.0,0
5-1-2017 12:00,0.0,0.0,0.0,0.0,0
5-1-2017 13:00,0.0,0.0,0.0,0.0,0
5-1-2017 14:00,0.0,0.0,0.0,0.0,0
5-1-2017 15:00,0.0,0.0,0.0,0.0,0
5-1-2017 16:00,0.0,0.0,0.0,0.0,0
5-1-2017 17:00,0.0,0.0,0.0,0.0,0
5-1-2017 18:00,0.0,0.0,0.0,0.0,0
5-1-2017 19:00,0.0,0.0,0.0,0.0,0
5-1-2017 20:00,0.0,0.0,0.0,0.0,0
5-1-2017 21:00,0.0,0.0,0.0,0.0,0
5-1-2017 22:00,0.0,0.0,0.0,0.0,0
5-1-2017 23:00,0.0,0.0,0.0,0.0,0
6-1-2017 0:00,0.0,0.0,0.0,0.0,0
6-1-2017 1:00,0.0,0.0,0.0,0.0,0
6-1-2017 2:00,0.0,0.0,0.0,0.0,0
6-1-2017 3:00,0.0,0.0,0.0,0.0,0
6-1-2017 4:00,0.0,0.0,0.0,0.0,0
6-1-2017 5:00,0.0,0.0,0.0,0.0,0
6-1-2017 6:00,0.0,0.0,0.0,0.0,0
6-1-2017 7:00,0.0,0.0,0.0,0.0,0
6-1-2017 8:00,0.0,0.0,0.0,0.0,0
6-1-2017 9:00,0.0,0.0,0.0,0.0,0
6-1-2017 10:00,0.0,0.0,0.0,0.0,0
6-1-2017 11:00,0.0,0.0,0.0,0.0,0
6-1-2017 12:00,0.0,0.0,0.0,0.0,0
6-1-2017 13:00,0.0,0.0,0.0,0.0,0
6-1-2017 14:00,0.0,0.0,0.0,0.0,0
6-1-2017 15:00,0.0,0.0,0.0,0.0,0
6-1-2017 16:00,0.0,0.0,0.0,0.0,0
6-1-2017 17:00,0.0,0.0,0.0,0.0,0
6-1-2017 18:00,0.0,0.0,0.0,0.0,0
6-1-2017 19:00,0.0,0.0,0.0,0.0,0
6-1-2017 20:00,0.0,0.0,0.0,0.0,0
6-1-2017 21:00,0.0,0.0,0.0,0.0,0
6-1-2017 22:00,0.0,0.0,0.0,0.0,0
6-1-2017 23:00,0.0,0.0,0.0,0.0,0
7-1-2017 0:00,0.0,0.0,0.0,0.0,0
7-1-2017 1:00,0.0,0.0,0.0,0.0,0
7-1-2017 2:00,0.0,0.0,0.0,0.0,0
7-1-2017 3:00,0.0,0.0,0.0,0.0,0
7-1-2017 4:00,0.0,0.0,0.0,0.0,0
7-1-2017 5:00,0.0,0.0,0.0,0.0,0
7-1-2017 6:00,0.0,0.0,0.0,0.0,0
7-1-2017 7:00,0.0,0.0,0.0,0.0,0
7-1-2017 8:00,0.0,0.0,0.0,0.0,0
7-1-2017 9:00,0.0,0.0,0.0,0.0,0
7-1-2017 10:00,0.0,0.0,0.0,0.0,0
7-1-2017 11:00,0.0,0.0,0.0,0.0,0
7-1-2017 12:00,0.0,0.0,0.0,0.0,0
7-1-2017 13:00,0.0,0.0,0.0,0.0,0
7-1-2017 14:00,0.0,0.0,0.0,0.0,0
7-1-2017 15:00,0.0,0.0,0.0,0.0,0
7-1-2017 16:00,0.0,0.0,0.0,0.0,0
7-1-2017 17:00,0.0,0.0,0.0,0.0,0
7-1-2017 18:00,0.0,0.0,0.0,0.0,0
7-1-2017 19:00,0.0,0.0,0.0,0.0,0
7-1-2017 20:00,0.0,0.0,0.0,0.0,0
7-1-2017 21:00,0.0,0.0,0.0,0.0,0
7-1-2017 22:00,0.0,0.0,0.0,0.0,0
7-1-2017 23:00,0.0,0.0,0.0,0.0,0
8-1-2017 0:00,0.0,0.0,0.0,0.0,0
8-1-2017 1:00,0.0,0.0,0.0,0.0,0
8-1-2017 2:00,0.0,0.0,0.0,0.0,0
8-1-2017 3:00,0.0,0.0,0.0,0.0,0
8-1-2017 4:00,0.0,0.0,0.0,0.0,0
8-1-2017 5:00,0.0,0.0,0.0,0.0,0
8-1-2017 6:00,0.0,0.0,0.0,0.0,0
8-1-2017 7:00,0.0,0.0,0.0,0.0,0
8-1-2017 8:00,0.0,0.0,0.0,0.0,0
8-1-2017 9:00,0.0,0.0,0.0,0.0,0
8-1-2017 10:00,0.0,0.0,0.0,0.0,0
8-1-2017 11:00,0.0,0.0,0.0,0.0,0
8-1-2017 12:00,0.0,0.0,0.0,0.0,0
8-1-2017 13:00,0.0,0.0,0.0,0.0,0
8-1-2017 14:00,0.0,0.0,0.0,0.0,0
8-1-2017 15:00,0.0,0.0,0.0,0.0,0
8-1-2017 16:00,0.0,0.0,0.0,0.0,0
8-1-2017 17:00,0.0,0.0,0.0,0.0,0
8-1-2017 18:00,0.0,0.0,0.0,0.0,0
8-1-2017 19:00,0.0,0.0,0.0,0.0,0
8-1-2017 20:00,0.0,0.0,0.0,0.0,0
8-1-2017 21:00,0.0,0.0,0.0,0.0,0
8-1-2017 22:00,0.0,0.0,0.0,0.0,0
8-1-2017 23:00,0.0,0.0,0.0,0.0,0
9-1-2017 0:00,0.0,0.0,0.0,0.0,0
9-1-2017 1:00,0.0,0.0,0.0,0.0,0
9-1-2017 2:00,0.0,0.0,0.0,0.0,0
9-1-2017 3:00,0.0,0.0,0.0,0.0,0
9-1-2017 4:00,0.0,0.0,0.0,0.0,0
9-1-2017 5:00,0.0,0.0,0.0,0.0,0
9-1-2017 6:00,0.0,0.0,0.0,0.0,0
9-1-2017 7:00,0.0,0.0,0.0,0.0,0
9-1-2017 8:00,0.0,0.0,0.0,0.0,0
9-1-2017 9:00,0.0,0.0,0.0,0.0,0
9-1-2017 10:00,0.0,0.0,0.0,0.0,0
9-1-2017 11:00,0.0,0.0,0.0,0.0,0
9-1-2017 12:00,0.0,0.0,0.0,0.0,0
9-1-2017 13:00,0.0,0.0,0.0,0.0,0
9-1-2017 14:00,0.0,0.0,0.0,0.0,0
9-1-2017 15:00,0.0,0.0,0.0,0.0,0
9-1-2017 16:00,0.0,0.0,0.0,0.0,0
9-1-2017 17:00,0.0,0.0,0.0,0.0,0
9-1-2017 18:00,0.0,0.0,0.0,0.0,0
9-1-2017 19:00,0.0,0.0,0.0,0.0,0
9-1-2017 20:00,0.0,0.0,0.0,0.0,0
9-1-2017 21:00,0.0,0.0,0.0,0.0,0
9-1-2017 22:00,0.0,0.0,0.0,0.0,0
9-1-2017 23:00,0.0,0.0,0.0,0.0,0
10-1-2017 0:00,0.0,0.0,0.0,0.0,0
10-1-2017 1:00,0.0,0.0,0.0,0.0,0
10-1-2017 2:00,0.0,0.0,0.0,0.0,0
10-1-2017 3:00,0.0,0.0,0.0,0.0,0
10-1-2017 4:00,0.0,0.0,0.0,0.0,0
10-1-2017 5:00,0.0,0.0,0.0,0.0,0
10-1-2017 6:00,0.0,0.0,0.0,0.0,0
10-1-2017 7:00,0.0,0.0,0.0,0.0,0
10-1-2017 8:00,0.0,0.0,0.0,0.0,0
10-1-2017 9:00,0.0,0.0,0.0,0.0,0
10-1-2017 10:00,0.0,0.0,0.0,0.0,0
10-1-2017 11:00,0.0,0.0,0.0,0.0,0
10-1-2017 12:00,0.0,0.0,0.0,0.0,0
10-1-2017 13:00,0.0,0.0,0.0,0.0,0
10-1-2017 14:00,0.0,0.0,0.0,0.0,0
10-1-2017 15:00,0.0,0.0,0.0,0.0,0
10-1-2017 16:00,0.0,0.0,0.0,0.0,0
10-1-2017 17:00,0.0,0.0,0.0,0.0,0
10-1-2017 18:00,0.0,0.0,0.0,0.0,0
10-1-2017 19:00,0.0,0.0,0.0,0.0,0
10-1-2017 20:00,0.0,0.0,0.0,0.0,0
10-1-2017 21:00,0.0,0.0,0.0,0.0,0
10-1-2017 22:00,0.0,0.0,0.0,0.0,0
10-1-2017 23:00,0.0,0.0,0.0,0.0,0
11-1-2017 0:00,0.0,0.0,0.0,0.0,0
11-1-2017 1:00,0.0,0.0,0.0,0.0,0
11-1-2017 2:00,0.0,0.0,0.0,0.0,0
11-1-2017 3:00,0.0,0.0,0.0,0.0,0
11-1-2017 4:00,0.0,0.0,0.0,0.0,0
11-1-2017 5:00,0.0,0.0,0.0,0.0,0
11-1-2017 6:00,0.0,0.0,0.0,0.0,0
11-1-2017 7:00,0.0,0.0,0.0,0.0,0
11-1-2017 8:00,0.0,0.0,0.0,0.0,0
11-1-2017 9:00,0.0,0.0,0.0,0.0,0
11-1-2017 10:00,0.0,0.0,0.0,0.0,0
11-1-2017 11:00,0.0,0.0,0.0,0.0,0
11-1-2017 12:00,0.0,0.0,0.0,0.0,0
11-1-2017 13:00,0.0,0.0,0.0,0.0,0
11-1-2017 14:00,0.0,0.0,0.0,0.0,0
11-1-2017 15:00,0.0,0.0,0.0,0.0,0
11-1-2017 16:00,0.0,0.0,0.0,0.0,0
11-1-2017 17:00,0.0,0.0,0.0,0.0,0
11-1-2017 18:00,0.0,0.0,0.0,0.0,0
11-1-2017 19:00,0.0,0.0,0.0,0.0,0
11-1-2017 20:00,0.0,0.0,0.0,0.0,0
11-1-2017 21:00,0.0,0.0,0.0,0.0,0
11-1-2017 22:00,0.0,0.0,0.0,0.0,0
11-1-2017 23:00,0.0,0.0,0.0,0.0,0
12-1-2017 0:00,0.0,0.0,0.0,0.0,0
12-1-2017 1:00,0.0,0.0,0.0,0.0,0
12-1-2017 2:00,0.0,0.0,0.0,0.0,0
12-1-2017 3:00,0.0,0.0,0.0,0.0,0
12-1-2017 4:00,0.0,0.0,0.0,0.0,0
12-1-2017 5:00,0.0,0.0,0.0,0.0,0
12-1-2017 6:00,0.0,0.0,0.0,0.0,0
12-1-2017 7:00,0.0,0.0,0.0,0.0,0
12-1-2017 8:00,0.0,0.0,0.0,0.0,0
12-1-2017 9:00,0.0,0.0,0.0,0.0,0
12-1-2017 10:00,0.0,0.0,0.0,0.0,0
12-1-2017 11:00,0.0,0.0,0.0,0.0,0
12-1-2017 12:00,0.0,0.0,0.0,0.0,0
12-1-2017 13:00,0.0,0.0,0.0,0.0,0
12-1-2017 14:00,0.0,0.0,0.0,0.0,0
12-1-2017 15:00,0.0,0.0,0.0,0.0,0
12-1-2017 16:00,0.0,0.0,0.0,0.0,0
12-1-2017 17:00,0.0,0.0,0.0,0.0,0
12-1-2017 18:00,0.0,0.0,0.0,0.0,0
12-1-2017 19:00,0.0,0.0,0.0,0.0,0
12-1-2017 20:00,0.0,0.0,0.0,0.0,0
12-1-2017 21:00,0.0,0.0,0.0,0.0,0
12-1-2017 22:00,0.0,0.0,0.0,0.0,0
12-1-2017 23:00,0.0,0.0,0.0,0.0,0
13-1-2017 0:00,0.0,0.0,0.0,0.0,0
13-1-2017 1:00,0.0,0.0,0.0,0.0,0
13-1-2017 2:00,0.0,0.0,0.0,0.0,0
13-1-2017 3:00,0.0,0.0,0.0,0.0,0
13-1-2017 4:00,0.0,0.0,0.0,0.0,0
13-1-2017 5:00,0.0,0.0,0.0,0.0,0
13-1-2017 6:00,0.0,0.0,0.0,0.0,0
13-1-2017 7:00,0.0,0.0,0.0,0.0,0
13-1-2017 8:00,0.0,0.0,0.0,0.0,0
13-1-2017 9:00,0.0,0.0,0.0,0.0,0
13-1-2017 10:00,0.0,0.0,0.0,0.0,0
13-1-2017 11:00,0.0,0.0,0.0,0.0,0
13-1-2017 12:00,0.0,0.0,0.0,0.0,0
13-1-2017 13:00,0.0,0.0,0.0,0.0,0
13-1-2017 14:00,0.0,0.0,0.0,0.0,0
13-1-2017 15:00,0.0,0.0,0.0,0.0,0
13-1-2017 16:00,0.0,0.0,0.0,0.0,0
13-1-2017 17:00,0.0,0.0,0.0,0.0,0
13-1-2017 18:00,0.0,0.0,0.0,0.0,0
13-1-2017 19:00,0.0,0.0,0.0,0.0,0
13-1-2017 20:00,0.0,0.0,0.0,0.0,0
13-1-2017 21:00,0.0,0.0,0.0,0.0,0
13-1-2017 22:00,0.0,0.0,0.0,0.0,0
13-1-2017 23:00,0.0,0.0,0.0,0.0,0
14-1-2017 0:00,0.0,0.0,0.0,0.0,0
14-1-2017 1:00,0.0,0.0,0.0,0.0,0
14-1-2017 2:00,0.0,0.0,0.0,0.0,0
14-1-2017 3:00,0.0,0.0,0.0,0.0,0
14-1-2017 4:00,0.0,0.0,0.0,0.0,0
14-1-2017 5:00,0.0,0.0,0.0,0.0,0
14-1-2017 6:00,0.0,0.0,0.0,0.0,0
14-1-2017 7:00,0.0,0.0,0.0,0.0,0
14-1-2017 8:00,0.0,0.0,0.0,0.0,0
14-1-2017 9:00,0.0,0.0,0.0,0.0,0
14-1-2017 10:00,0.0,0.0,0.0,0.0,0
14-1-2017 11:00,0.0,0.0,0.0,0.0,0
14-1-2017 12:00,0.0,0.0,0.0,0.0,0
14-1-2017 13:00,0.0,0.0,0.0,0.0,0
14-1-2017 14:00,0.0,0.0,0.0,0.0,0
14-1-2017 15:00,0.0,0.0,0.0,0.0,0
14-1-2017 16:00,0.0,0.0,0.0,0.0,0
14-1-2017 17:00,0.0,0.0,0.0,0.0,0
14-1-2017 18:00,0.0,0.0,0.0,0.0,0
14-1-2017 19:00,0.0,0.0,0.0,0.0,0
14-1-2017 20:00,0.0,0.0,0.0,0.0,0
14-1-2017 21:00,0.0,0.0,0.0,0.0,0
14-1-2017 22:00,0.0,0.0,0.0,0.0,0
14-1-2017 23:00,0.0,0.0,0.0,0.0,0
15-1-2017 0:00,0.0,0.0,0.0,0.0,0
15-1-2017 1:00,0.0,0.0,0.0,0.0,0
15-1-2017 2:00,0.0,0.0,0.0,0.0,0
15-1-2017 3:00,0.0,0.0,0.0,0.0,0
15-1-2017 4:00,0.0,0.0,0.0,0.0,0
15-1-2017 5:00,0.0,0.0,0.0,0.0,0
15-1-2017 6:00,0.0,0.0,0.0,0.0,0
15-1-2017 7:00,0.0,0.0,0.0,0.0,0
15-1-2017 8:00,0.0,0.0,0.0,0.0,0
15-1-2017 9:00,0.0,0.0,0.0,0.0,0
15-1-2017 10:00,0.0,0.0,0.0,0.0,0
15-1-2017 11:00,0.0,0.0,0.0,0.0,0
15-1-2017 12:00,0.0,0.0,0.0,0.0,0
15-1-2017 13:00,0.0,0.0,0.0,0.0,0
15-1-2017 14:00,0.0,0.0,0.0,0.0,0
15-1-2017 15:00,0.0,0.0,0.0,0.0,0
15-1-2017 16:00,0.0,0.0,0.0,0.0,0
15-1-2017 17:00,0.0,0.0,0.0,0.0,0
15-1-2017 18:00,0.0,0.0,0.0,0.0,0
15-1-2017 19:00,0.0,0.0,0.0,0.0,0
15-1-2017 20:00,0.0,0.0,0.0,0.0,0
15-1-2017 21:00,0.0,0.0,0.0,0.0,0
15-1-2017 22:00,0.0,0.0,0.0,0.0,0
15-1-2017 23:00,0.0,0.0,0.0,0.0,0
16-1-2017 0:00,0.0,0.0,0.0,0.0,0
16-1-2017 1:00,0.0,0.0,0.0,0.0,0
16-1-2017 2:00,0.0,0.0,0.0,0.0,0
16-1-2017 3:00,0.0,0.0,0.0,0.0,0
16-1-2017 4:00,0.0,0.0,0.0,0.0,0
16-1-2017 5:00,0.0,0.0,0.0,0.0,0
16-1-2017 6:00,0.0,0.0,0.0,0.0,0
16-1-2017 7:00,0.0,0.0,0.0,0.0,0
16-1-2017 8:00,0.0,0.0,0.0,0.0,0
16-1-2017 9:00,0.0,0.0,0.0,0.0,0
16-1-2017 10:00,0.0,0.0,0.0,0.0,0
16-1-2017 11:00,0.0,0.0,0.0,0.0,0
16-1-2017 12:00,0.0,0.0,0.0,0.0,0
16-1-2017 13:00,0.0,0.0,0.0,0.0,0
16-1-2017 14:00,0.0,0.0,0.0,0.0,0
16-1-2017 15:00,0.0,0.0,0.0,0.0,0
16-1-2017 16:00,0.0,0.0,0.0,0.0,0
16-1-2017 17:00,0.0,0.0,0.0,0.0,0
16-1-2017 18:00,0.0,0.0,0.0,0.0,0
16-1-2017 19:00,0.0,0.0,0.0,0.0,0
16-1-2017 20:00,0.0,0.0,0.0,0.0,0
16-1-2017 21:00,0.0,0.0,0.0,0.0,0
16-1-2017 22:00,0.0,0.0,0.0,0.0,0
16-1-2017 23:00,0.0,0.0,0.0,0.0,0
17-1-2017 0:00,0.0,0.0,0.0,0.0,0
17-1-2017 1:00,0.0,0.0,0.0,0.0,0
17-1-2017 2:00,0.0,0.0,0.0,0.0,0
17-1-2017 3:00,0.0,0.0,0.0,0.0,0
17-1-2017 4:00,0.0,0.0,0.0,0.0,0
17-1-2017 5:00,0.0,0.0,0.0,0.0,0
17-1-2017 6:00,0.0,0.0,0.0,0.0,0
17-1-2017 7:00,0.0,0.0,0.0,0.0,0
17-1-2017 8:00,0.0,0.0,0.0,0.0,0
17-1-2017 9:00,0.0,0.0,0.0,0.0,0
17-1-2017 10:00,0.0,0.0,0.0,0.0,0
17-1-2017 11:00,0.0,0.0,0.0,0.0,0
17-1-2017 12:00,0.0,0.0,0.0,0.0,0
17-1-2017 13:00,0.0,0.0,0.0,0.0,0
17-1-2017 14:00,0.0,0.0,0.0,0.0,0
17-1-2017 15:00,0.0,0.0,0.0,0.0,0
17-1-2017 16:00,0.0,0.0,0.0,0.0,0
17-1-2017 17:00,0.0,0.0,0.0,0.0,0
17-1-2017 18:00,0.0,0.0,0.0,0.0,0
17-1-2017 19:00,0.0,0.0,0.0,0.0,0
17-1-2017 20:00,0.0,0.0,0.0,0.0,0
17-1-2017 21:00,0.0,0.0,0.0,0.0,0
17-1-2017 22:00,0.0,0.0,0.0,0.0,0
17-1-2017 23:00,0.0,0.0,0.0,0.0,0
18-1-2017 0:00,0.0,0.0,0.0,0.0,0
18-1-2017 1:00,0.0,0.0,0.0,0.0,0
18-1-2017 2:00,0.0,0.0,0.0,0.0,0
18-1-2017 3:00,0.0,0.0,0.0,0.0,0
18-1-2017 4:00,0.0,0.0,0.0,0.0,0
18-1-2017 5:00,0.0,0.0,0.0,0.0,0
18-1-2017 6:00,0.0,0.0,0.0,0.0,0
18-1-2017 7:00,0.0,0.0,0.0,0.0,0
18-1-2017 8:00,0.0,0.0,0.0,0.0,0
18-1-2017 9:00,0.0,0.0,0.0,0.0,0
18-1-2017 10:00,0.0,0.0,0.0,0.0,0
18-1-2017 11:00,0.0,0.0,0.0,0.0,0
18-1-2017 12:00,0.0,0.0,0.0,0.0,0
18-1-2017 13:00,0.0,0.0,0.0,0.0,0
18-1-2017 14:00,0.0,0.0,0.0,0.0,0
18-1-2017 15:00,0.0,0.0,0.0,0.0,0
18-1-2017 16:00,0.0,0.0,0.0,0.0,0
18-1-2017 17:00,0.0,0.0,0.0,0.0,0
18-1-2017 18:00,0.0,0.0,0.0,0.0,0
18-1-2017 19:00,0.0,0.0,0.0,0.0,0
18-1-2017 20:00,0.0,0.0,0.0,0.0,0
18-1-2017 21:00,0.0,0.0,0.0,0.0,0
18-1-2017 22:00,0.0,0.0,0.0,0.0,0
18-1-2017 23:00,0.0,0.0,0.0,0.0,0
19-1-2017 0:00,0.0,0.0,0.0,0.0,0
19-1-2017 1:00,0.0,0.0,0.0,0.0,0
19-1-2017 2:00,0.0,0.0,0.0,0.0,0
19-1-2017 3:00,0.0,0.0,0.0,0.0,0
19-1-2017 4:00,0.0,0.0,0.0,0.0,0
19-1-2017 5:00,0.0,0.0,0.0,0.0,0
19-1-2017 6:00,0.0,0.0,0.0,0.0,0
19-1-2017 7:00,0.0,0.0,0.0,0.0,0
19-1-2017 8:00,0.0,0.0,0.0,0.0,0
19-1-2017 9:00,0.0,0.0,0.0,0.0,0
19-1-2017 10:00,0.0,0.0,0.0,0.0,0
19-1-2017 11:00,0.0,0.0,0.0,0.0,0
19-1-2017 12:00,0.0,0.0,0.0,0.0,0
19-1-2017 13:00,0.0,0.0,0.0,0.0,0
19-1-2017 14:00,0.0,0.0,0.0,0.0,0
19-1-2017 15:00,0.0,0.0,0.0,0.0,0
19-1-2017 16:00,0.0,0.0,0.0,0.0,0
19-1-2017 17:00,0.0,0.0,0.0,0.0,0
19-1-2017 18:00,0.0,0.0,0.0,0.0,0
19-1-2017 19:00,0.0,0.0,0.0,0.0,0
19-1-2017 20:00,0.0,0.0,0.0,0.0,0
19-1-2017 21:00,0.0,0.0,0.0,0.0,0
19-1-2017 22:00,0.0,0.0,0.0,0.0,0
19-1-2017 23:00,0.0,0.0,0.0,0.0,0
20-1-2017 0:00,0.0,0.0,0.0,0.0,0
20-1-2017 1:00,0.0,0.0,0.0,0.0,0
20-1-2017 2:00,0.0,0.0,0.0,0.0,0
20-1-2017 3:00,0.0,0.0,0.0,0.0,0
20-1-2017 4:00,0.0,0.0,0.0,0.0,0
20-1-2017 5:00,0.0,0.0,0.0,0.0,0
20-1-2017 6:00,0.0,0.0,0.0,0.0,0
20-1-2017 7:00,0.0,0.0,0.0,0.0,0
20-1-2017 8:00,0.0,0.0,0.0,0.0,0
20-1-2017 9:00,0.0,0.0,0.0,0.0,0
20-1-2017 10:00,0.0,0.0,0.0,0.0,0
20-1-2017 11:00,0.0,0.0,0.0,0.0,0
20-1-2017 12:00,0.0,0.0,0.0,0.0,0
20-1-2017 13:00,0.0,0.0,0.0,0.0,0
20-1-2017 14:00,0.0,0.0,0.0,0.0,0
20-1-2017 15:00,0.0,0.0,0.0,0.0,0
20-1-2017 16:00,0.0,0.0,0.0,0.0,0
20-1-2017 17:00,0.0,0.0,0.0,0.0,0
20-1-2017 18:00,0.0,0.0,0.0,0.0,0
20-1-2017 19:00,0.0,0.0,0.0,0.0,0
20-1-2017 20:00,0.0,0.0,0.0,0.0,0
20-1-2017 21:00,0.0,0.0,0.0,0.0,0
20-1-2017 22:00,0.0,0.0,0.0,0.0,0
20-1-2017 23:00,0.0,0.0,0.0,0.0,0
21-1-2017 0:00,0.0,0.0,0.0,0.0,0
21-1-2017 1:00,0.0,0.0,0.0,0.0,0
21-1-2017 2:00,0.0,0.0,0.0,0.0,0
21-1-2017 3:00,0.0,0.0,0.0,0.0,0
21-1-2017 4:00,0.0,0.0,0.0,0.0,0
21-1-2017 5:00,0.0,0.0,0.0,0.0,0
21-1-2017 6:00,0.0,0.0,0.0,0.0,0
21-1-2017 7:00,0.0,0.0,0.0,0.0,0
21-1-2017 8:00,0.0,0.0,0.0,0.0,0
21-1-2017 9:00,0.0,0.0,0.0,0.0,0
21-1-2017 10:00,0.0,0.0,0.0,0.0,0
21-1-2017 11:00,0.0,0.0,0.0,0.0,0
21-1-2017 12:00,0.0,0.0,0.0,0.0,0
21-1-2017 13:00,0.0,0.0,0.0,0.0,0
21-1-2017 14:00,0.0,0.0,0.0,0.0,0
21-1-2017 15:00,0.0,0.0,0.0,0.0,0
21-1-2017 16:00,0.0,0.0,0.0,0.0,0
21-1-2017 17:00,0.0,0.0,0.0,0.0,0
21-1-2017 18:00,0.0,0.0,0.0,0.0,0
21-1-2017 19:00,0.0,0.0,0.0,0.0,0
21-1-2017 20:00,0.0,0.0,0.0,0.0,0
21-1-2017 21:00,0.0,0.0,0.0,0.0,0
21-1-2017 22:00,0.0,0.0,0.0,0.0,0
21-1-2017 23:00,0.0,0.0,0.0,0.0,0
22-1-2017 0:00,0.0,0.0,0.0,0.0,0
22-1-2017 1:00,0.0,0.0,0.0,0.0,0
22-1-2017 2:00,0.0,0.0,0.0,0.0,0
22-1-2017 3:00,0.0,0.0,0.0,0.0,0
22-1-2017 4:00,0.0,0.0,0.0,0.0,0
22-1-2017 5:00,0.0,0.0,0.0,0.0,0
22-1-2017 6:00,0.0,0.0,0.0,0.0,0
22-1-2017 7:00,0.0,0.0,0.0,0.0,0
22-1-2017 8:00,0.0,0.0,0.0,0.0,0
22-1-2017 9:00,0.0,0.0,0.0,0.0,0
22-1-2017 10:00,0.0,0.0,0.0,0.0,0
22-1-2017 11:00,0.0,0.0,0.0,0.0,0
22-1-2017 12:00,0.0,0.0,0.0,0.0,0
22-1-2017 13:00,0.0,0.0,0.0,0.0,0
22-1-2017 14:00,0.0,0.0,0.0,0.0,0
22-1-2017 15:00,0.0,0.0,0.0,0.0,0
22-1-2017 16:00,0.0,0.0,0.0,0.0,0
22-1-2017 17:00,0.0,0.0,0.0,0.0,0
22-1-2017 18:00,0.0,0.0,0.0,0.0,0
22-1-2017 19:00,0.0,0.0,0.0,0.0,0
22-1-2017 20:00,0.0,0.0,0.0,0.0,0
22-1-2017 21:00,0.0,0.0,0.0,0.0,0
22-1-2017 22:00,0.0,0.0,0.0,0.0,0
22-1-2017 23:00,0.0,0.0,0.0,0.0,0
23-1-2017 0:00,0.0,0.0,0.0,0.0,0
23-1-2017 1:00,0.0,0.0,0.0,0.0,0
23-1-2017 2:00,0.0,0.0,0.0,0.0,0
23-1-2017 3:00,0.0,0.0,0.0,0.0,0
23-1-2017 4:00,0.0,0.0,0.0,0.0,0
23-1-2017 5:00,0.0,0.0,0.0,0.0,0
23-1-2017 6:00,0.0,0.0,0.0,0.0,0
23-1-2017 7:00,0.0,0.0,0.0,0.0,0
23-1-2017 8:00,0.0,0.0,0.0,0.0,0
23-1-2017 9:00,0.0,0.0,0.0,0.0,0
23-1-2017 10:00,0.0,0.0,0.0,0.0,0
23-1-2017 11:00,0.0,0.0,0.0,0.0,0
23-1-2017 12:00,0.0,0.0,0.0,0.0,0
23-1-2017 13:00,0.0,0.0,0.0,0.0,0
23-1-2017 14:00,0.0,0.0,0.0,0.0,0
23-1-2017 15:00,0.0,0.0,0.0,0.0,0
23-1-2017 16:00,0.0,0.0,0.0,0.0,0
23-1-2017 17:00,0.0,0.0,0.0,0.0,0
23-1-2017 18:00,0.0,0.0,0.0,0.0,0
23-1-2017 19:00,0.0,0.0,0.0,0.0,0
23-1-2017 20:00,0.0,0.0,0.0,0.0,0
23-1-2017 21:00,0.0,0.0,0.0,0.0,0
23-1-2017 22:00,0.0,0.0,0.0,0.0,0
23-1-2017 23:00,0.0,0.0,0.0,0.0,0
24-1-2017 0:00,0.0,0.0,0.0,0.0,0
24-1-2017 1:00,0.0,0.0,0.0,0.0,0
24-1-2017 2:00,0.0,0.0,0.0,0.0,0
24-1-2017 3:00,0.0,0.0,0.0,0.0,0
24-1-2017 4:00,0.0,0.0,0.0,0.0,0
24-1-2017 5:00,0.0,0.0,0.0,0.0,0
24-1-2017 6:00,0.0,0.0,0.0,0.0,0
24-1-2017 7:00,0.0,0.0,0.0,0.0,0
24-1-2017 8:00,0.0,0.0,0.0,0.0,0
24-1-2017 9:00,0.0,0.0,0.0,0.0,0
24-1-2017 10:00,0.0,0.0,0.0,0.0,0
24-1-2017 11:00,0.0,0.0,0.0,0.0,0
24-1-2017 12:00,0.0,0.0,0.0,0.0,0
24-1-2017 13:00,0.0,0.0,0.0,0.0,0
24-1-2017 14:00,0.0,0.0,0.0,0.0,0
24-1-2017 15:00,0.0,0.0,0.0,0.0,0
24-1-2017 16:00,0.0,0.0,0.0,0.0,0
24-1-2017 17:00,0.0,0.0,0.0,0.0,0
24-1-2017 18:00,0.0,0.0,0.0,0.0,0
24-1-2017 19:00,0.0,0.0,0.0,0.0,0
24-1-2017 20:00,0.0,0.0,0.0,0.0,0
24-1-2017 21:00,0.0,0.0,0.0,0.0,0
24-1-2017 22:00,0.0,0.0,0.0,0.0,0
24-1-2017 23:00,0.0,0.0,0.0,0.0,0
25-1-2017 0:00,0.0,0.0,0.0,0.0,0
25-1-2017 1:00,0.0,0.0,0.0,0.0,0
25-1-2017 2:00,0.0,0.0,0.0,0.0,0
25-1-2017 3:00,0.0,0.0,0.0,0.0,0
25-1-2017 4:00,0.0,0.0,0.0,0.0,0
25-1-2017 5:00,0.0,0.0,0.0,0.0,0
25-1-2017 6:00,0.0,0.0,0.0,0.0,0
25-1-2017 7:00,0.0,0.0,0.0,0.0,0
25-1-2017 8:00,0.0,0.0,0.0,0.0,0
25-1-2017 9:00,0.0,0.0,0.0,0.0,0
25-1-2017 10:00,0.0,0.0,0.0,0.0,0
25-1-2017 11:00,0.0,0.0,0.0,0.0,0
25-1-2017 12:00,0.0,0.0,0.0,0.0,0
25-1-2017 13:00,0.0,0.0,0.0,0.0,0
25-1-2017 14:00,0.0,0.0,0.0,0.0,0
25-1-2017 15:00,0.0,0.0,0.0,0.0,0
25-1-2017 16:00,0.0,0.0,0.0,0.0,0
25-1-2017 17:00,0.0,0.0,0.0,0.0,0
25-1-2017 18:00,0.0,0.0,0.0,0.0,0
25-1-2017 19:00,0.0,0.0,0.0,0.0,0
25-1-2017 20:00,0.0,0.0,0.0,0.0,0
25-1-2017 21:00,0.0,0.0,0.0,0.0,0
25-1-2017 22:00,0.0,0.0,0.0,0.0,0
25-1-2017 23:00,0.0,0.0,0.0,0.0,0
26-1-2017 0:00,0.0,0.0,0.0,0.0,0
26-1-2017 1:00,0.0,0.0,0.0,0.0,0
26-1-2017 2:00,0.0,0.0,0.0,0.0,0
26-1-2017 3:00,0.0,0.0,0.0,0.0,0
26-1-2017 4:00,0.0,0.0,0.0,0.0,0
26-1-2017 5:00,0.0,0.0,0.0,0.0,0
26-1-2017 6:00,0.0,0.0,0.0,0.0,0
26-1-2017 7:00,0.0,0.0,0.0,0.0,0
26-1-2017 8:00,0.0,0.0,0.0,0.0,0
26-1-2017 9:00,0.0,0.0,0.0,0.0,0
26-1-2017 10:00,0.0,0.0,0.0,0.0,0
26-1-2017 11:00,0.0,0.0,0.0,0.0,0
26-1-2017 12:00,0.0,0.0,0.0,0.0,0
26-1-2017 13:00,0.0,0.0,0.0,0.0,0
26-1-2017 14:00,0.0,0.0,0.0,0.0,0
26-1-2017 15:00,0.0,0.0,0.0,0.0,0
26-1-2017 16:00,0.0,0.0,0.0,0.0,0
26-1-2017 17:00,0.0,0.0,0.0,0.0,0
26-1-2017 18:00,0.0,0.0,0.0,0.0,0
26-1-2017 19:00,0.0,0.0,0.0,0.0,0
26-1-2017 20:00,0.0,0.0,0.0,0.0,0
26-1-2017 21:00,0.0,0.0,0.0,0.0,0
26-1-2017 22:00,0.0,0.0,0.0,0.0,0
26-1-2017 23:00,0.0,0.0,0.0,0.0,0
27-1-2017 0:00,0.0,0.0,0.0,0.0,0
27-1-2017 1:00,0.0,0.0,0.0,0.0,0
27-1-2017 2:00,0.0,0.0,0.0,0.0,0
27-1-2017 3:00,0.0,0.0,0.0,0.0,0
27-1-2017 4:00,0.0,0.0,0.0,0.0,0
27-1-2017 5:00,0.0,0.0,0.0,0.0,0
27-1-2017 6:00,0.0,0.0,0.0,0.0,0
27-1-2017 7:00,0.0,0.0,0.0,0.0,0
27-1-2017 8:00,0.0,0.0,0.0,0.0,0
27-1-2017 9:00,0.0,0.0,0.0,0.0,0
27-1-2017 10:00,0.0,0.0,0.0,0.0,0
27-1-2017 11:00,0.0,0.0,0.0,0.0,0
27-1-2017 12:00,0.0,0.0,0.0,0.0,0
27-1-2017 13:00,0.0,0.0,0.0,0.0,0
27-1-2017 14:00,0.0,0.0,0.0,0.0,0
27-1-2017 15:00,0.0,0.0,0.0,0.0,0
27-1-2017 16:00,0.0,0.0,0.0,0.0,0
27-1-2017 17:00,0.0,0.0,0.0,0.0,0
27-1-2017 18:00,0.0,0.0,0.0,0.0,0
27-1-2017 19:00,0.0,0.0,0.0,0.0,0
27-1-2017 20:00,0.0,0.0,0.0,0.0,0
27-1-2017 21:00,0.0,0.0,0.0,0.0,0
27-1-2017 22:00,0.0,0.0,0.0,0.0,0
27-1-2017 23:00,0.0,0.0,0.0,0.0,0
28-1-2017 0:00,0.0,0.0,0.0,0.0,0
28-1-2017 1:00,0.0,0.0,0.0,0.0,0
28-1-2017 2:00,0.0,0.0,0.0,0.0,0
28-1-2017 3:00,0.0,0.0,0.0,0.0,0
28-1-2017 4:00,0.0,0.0,0.0,0.0,0
28-1-2017 5:00,0.0,0.0,0.0,0.0,0
28-1-2017 6:00,0.0,0.0,0.0,0.0,0
28-1-2017 7:00,0.0,0.0,0.0,0.0,0
28-1-2017 8:00,0.0,0.0,0.0,0.0,0
28-1-2017 9:00,0.0,0.0,0.0,0.0,0
28-1-2017 10:00,0.0,0.0,0.0,0.0,0
28-1-2017 11:00,0.0,0.0,0.0,0.0,0
28-1-2017 12:00,0.0,0.0,0.0,0.0,0
28-1-2017 13:00,0.0,0.0,0.0,0.0,0
28-1-2017 14:00,0.0,0.0,0.0,0.0,0
28-1-2017 15:00,0.0,0.0,0.0,0.0,0
28-1-2017 16:00,0.0,0.0,0.0,0.0,0
28-1-2017 17:00,0.0,0.0,0.0,0.0,0
28-1-2017 18:00,0.0,0.0,0.0,0.0,0
28-1-2017 19:00,0.0,0.0,0.0,0.0,0
28-1-2017 20:00,0.0,0.0,0.0,0.0,0
28-1-2017 21:00,0.0,0.0,0.0,0.0,0
28-1-2017 22:00,0.0,0.0,0.0,0.0,0
28-1-2017 23:00,0.0,0.0,0.0,0.0,0
29-1-2017 0:00,0.0,0.0,0.0,0.0,0
29-1-2017 1:00,0.0,0.0,0.0,0.0,0
29-1-2017 2:00,0.0,0.0,0.0,0.0,0
29-1-2017 3:00,0.0,0.0,0.0,0.0,0
29-1-2017 4:00,0.0,0.0,0.0,0.0,0
29-1-2017 5:00,0.0,0.0,0.0,0.0,0
29-1-2017 6:00,0.0,0.0,0.0,0.0,0
29-1-2017 7:00,0.0,0.0,0.0,0.0,0
29-1-2017 8:00,0.0,0.0,0.0,0.0,0
29-1-2017 9:00,0.0,0.0,0.0,0.0,0
29-1-2017 10:00,0.0,0.0,0.0,0.0,0
29-1-2017 11:00,0.0,0.0,0.0,0.0,0
29-1-2017 12:00,0.0,0.0,0.0,0.0,0
29-1-2017 13:00,0.0,0.0,0.0,0.0,0
29-1-2017 14:00,0.0,0.0,0.0,0.0,0
29-1-2017 15:00,0.0,0.0,0.0,0.0,0
29-1-2017 16:00,0.0,0.0,0.0,0.0,0
29-1-2017 17:00,0.0,0.0,0.0,0.0,0
29-1-2017 18:00,0.0,0.0,0.0,0.0,0
29-1-2017 19:00,0.0,0.0,0.0,0.0,0
29-1-2017 20:00,0.0,0.0,0.0,0.0,0
29-1-2017 21:00,0.0,0.0,0.0,0.0,0
29-1-2017 22:00,0.0,0.0,0.0,0.0,0
29-1-2017 23:00,0.0,0.0,0.0,0.0,0
30-1-2017 0:00,0.0,0.0,0.0,0.0,0
30-1-2017 1:00,0.0,0.0,0.0,0.0,0
30-1-2017 2:00,0.0,0.0,0.0,0.0,0
30-1-2017 3:00,0.0,0.0,0.0,0.0,0
30-1-2017 4:00,0.0,0.0,0.0,0.0,0
30-1-2017 5:00,0.0,0.0,0.0,0.0,0
30-1-2017 6:00,0.0,0.0,0.0,0.0,0
30-1-2017 7:00,0.0,0.0,0.0,0.0,0
30-1-2017 8:00,0.0,0.0,0.0,0.0,0
30-1-2017 9:00,0.0,0.0,0.0,0.0,0
30-1-2017 10:00,0.0,0.0,0.0,0.0,0
30-1-2017 11:00,0.0,0.0,0.0,0.0,0
30-1-2017 12:00,0.0,0.0,0.0,0.0,0
30-1-2017 13:00,0.0,0.0,0.0,0.0,0
30-1-2017 14:00,0.0,0.0,0.0,0.0,0
30-1-2017 15:00,0.0,0.0,0.0,0.0,0
30-1-2017 16:00,0.0,0.0,0.0,0.0,0
30-1-2017 17:00,0.0,0.0,0.0,0.0,0
30-1-2017 18:00,0.0,0.0,0.0,0.0,0
30-1-2017 19:00,0.0,0.0,0.0,0.0,0
30-1-2017 20:00,0.0,0.0,0.0,0.0,0
30-1-2017 21:00,0.0,0.0,0.0,0.0,0
30-1-2017 22:00,0.0,0.0,0.0,0.0,0
30-1-2017 23:00,0.0,0.0,0.0,0.0,0
31-1-2017 0:00,0.0,0.0,0.0,0.0,0
31-1-2017 1:00,0.0,0.0,0.0,0.0,0
31-1-2017 2:00,0.0,0.0,0.0,0.0,0
31-1-2017 3:00,0.0,0.0,0.0,0.0,0
31-1-2017 4:00,0.0,0.0,0.0,0.0,0
31-1-2017 5:00,0.0,0.0,0.0,0.0,0
31-1-2017 6:00,0.0,0.0,0.0,0.0,0
31-1-2017 7:00,0.0,0.0,0.0,0.0,0
31-1-2017 8:00,0.0,0.0,0.0,0.0,0
31-1-2017 9:00,0.0,0.0,0.0,0.0,0
31-1-2017 10:00,0.0,0.0,0.0,0.0,0
31-1-2017 11:00,0.0,0.0,0.0,0.0,0
31-1-2017 12:00,0.0,0.0,0.0,0.0,0
31-1-2017 13:00,0.0,0.0,0.0,0.0,0
31-1-2017 14:00,0.0,0.0,0.0,0.0,0
31-1-2017 15:00,0.0,0.0,0.0,0.0,0
31-1-2017 16:00,0.0,0.0,0.0,0.0,0
31-1-2017 17:00,0.0,0.0,0.0,0.0,0
31-1-2017 18:00,0.0,0.0,0.0,0.0,0
31-1-2017 19:00,0.0,0.0,0.0,0.0,0
31-1-2017 20:00,0.0,0.0,0.0,0.0,0
31-1-2017 21:00,0.0,0.0,0.0,0.0,0
31-1-2017 22:00,0.0,0.0,0.0,0.0,0
31-1-2017 23:00,0.0,0.0,0.0,0.0,0
