Time,Actual,Forecasts,Upper Interval,Lower Interval,Is Anomalies
1-1-2017 0:00,115.67637134456709,0.0,0.0,0.0,0
1-1-2017 1:00,451.02483110627327,0.0,0.0,0.0,0
1-1-2017 2:00,631.0837574043053,0.0,0.0,0.0,0
1-1-2017 3:00,906.4701539365051,0.0,0.0,0.0,0
1-1-2017 4:00,1126.8287307815353,0.0,0.0,0.0,0
1-1-2017 5:00,1162.948061532321,0.0,0.0,0.0,0
1-1-2017 6:00,1196.4487333685465,0.0,0.0,0.0,0
1-1-2017 7:00,1095.3705270862756,0.0,0.0,0.0,0
1-1-2017 8:00,892.9407044526324,0.0,0.0,0.0,0
1-1-2017 9:00,719.8391250584427,0.0,0.0,0.0,0
1-1-2017 10:00,-54.733779614502055,0.0,0.0,0.0,0
1-1-2017 11:00,-520.9616272714029,0.0,0.0,0.0,0
1-1-2017 12:00,-1003.0580728046789,0.0,0.0,0.0,0
1-1-2017 13:00,-1486.4862167439805,0.0,0.0,0.0,0
1-1-2017 14:00,-1946.552956390924,0.0,0.0,0.0,0
1-1-2017 15:00,-2403.9176762359893,0.0,0.0,0.0,0
1-1-2017 16:00,-2657.2101970875683,0.0,0.0,0.0,0
1-1-2017 17:00,-2967.8482817517997,0.0,0.0,0.0,0
1-1-2017 18:00,-3102.1308265060998,0.0,0.0,0.0,0
1-1-2017 19:00,-2978.019075640348,0.0,0.0,0.0,0
1-1-2017 20:00,-2874.5886298195146,0.0,0.0,0.0,0
1-1-2017 21:00,-985.424171946448,0.0,0.0,0.0,0
1-1-2017 22:00,216.8357099686109,0.0,0.0,0.0,0
1-1-2017 23:00,680.3193784874275,0.0,0.0,0.0,0
2-1-2017 0:00,1290.3374409128755,0.0,0.0,0.0,0
2-1-2017 1:00,1360.4473708333535,0.0,0.0,0.0,0
2-1-2017 2:00,1136.1892099346514,0.0,0.0,0.0,0
2-1-2017 3:00,1050.1789752275035,0.0,0.0,0.0,0
2-1-2017 4:00,914.2547489180852,0.0,0.0,0.0,0
2-1-2017 5:00,524.0266119109037,0.0,0.0,0.0,0
2-1-2017 6:00,134.73049808687574,0.0,0.0,0.0,0
2-1-2017 7:00,-594.6942305085631,0.0,0.0,0.0,0
2-1-2017 8:00,-1418.9577897981508,0.0,0.0,0.0,0
2-1-2017 9:00,-1557.1008982444055,0.0,0.0,0.0,0
2-1-2017 10:00,-1408.7330855723376,0.0,0.0,0.0,0
2-1-2017 11:00,-1207.965680785779,0.0,0.0,0.0,0
2-1-2017 12:00,-1091.4682340419567,0.0,0.0,0.0,0
2-1-2017 13:00,-783.2713926508586,0.0,0.0,0.0,0
2-1-2017 14:00,-727.5943564123445,0.0,0.0,0.0,0
2-1-2017 15:00,-672.5089370668793,0.0,0.0,0.0,0
2-1-2017 16:00,-567.7479110048589,0.0,0.0,0.0,0
2-1-2017 17:00,-740.9645451394317,0.0,0.0,0.0,0
2-1-2017 18:00,-929.3918114491062,0.0,0.0,0.0,0
2-1-2017 19:00,-920.0630290936533,0.0,0.0,0.0,0
2-1-2017 20:00,-974.5183658794376,0.0,0.0,0.0,0
2-1-2017 21:00,705.8467594112699,0.0,0.0,0.0,0
2-1-2017 22:00,1708.4394804889816,0.0,0.0,0.0,0
2-1-2017 23:00,2003.0492800044303,0.0,0.0,0.0,0
3-1-2017 0:00,2427.6412668018784,0.0,0.0,0.0,0
3-1-2017 1:00,2490.1954342258905,0.0,0.0,0.0,0
3-1-2017 2:00,2337.672953475223,0.0,0.0,0.0,0
3-1-2017 3:00,2254.208854873501,0.0,0.0,0.0,0
3-1-2017 4:00,2120.43664250198,0.0,0.0,0.0,0
3-1-2017 5:00,1925.0121530760553,0.0,0.0,0.0,0
3-1-2017 6:00,1733.4803689310029,0.0,0.0,0.0,0
3-1-2017 7:00,1469.8165669186237,0.0,0.0,0.0,0
3-1-2017 8:00,1174.3967198693172,0.0,0.0,0.0,0
3-1-2017 9:00,-473.34870684412454,0.0,0.0,0.0,0
3-1-2017 10:00,-1188.8982718447805,0.0,0.0,0.0,0
3-1-2017 11:00,-1010.2537096324995,0.0,0.0,0.0,0
3-1-2017 12:00,-813.6204656293157,0.0,0.0,0.0,0
3-1-2017 13:00,-755.5379306972281,0.0,0.0,0.0,0
3-1-2017 14:00,-712.3464103626575,0.0,0.0,0.0,0
3-1-2017 15:00,-664.1501436160579,0.0,0.0,0.0,0
3-1-2017 16:00,-495.1898929399358,0.0,0.0,0.0,0
3-1-2017 17:00,-497.87658624958567,0.0,0.0,0.0,0
3-1-2017 18:00,-958.730083819366,0.0,0.0,0.0,0
3-1-2017 19:00,-2291.8932806861376,0.0,0.0,0.0,0
3-1-2017 20:00,-2967.643410790446,0.0,0.0,0.0,0
3-1-2017 21:00,-1208.9568233803839,0.0,0.0,0.0,0
3-1-2017 22:00,-119.34719106646298,0.0,0.0,0.0,0
3-1-2017 23:00,343.2628115191692,0.0,0.0,0.0,0
4-1-2017 0:00,961.5327947621736,0.0,0.0,0.0,0
4-1-2017 1:00,1151.1589896259866,0.0,0.0,0.0,0
4-1-2017 2:00,1114.7099789596286,0.0,0.0,0.0,0
4-1-2017 3:00,1134.1498063995896,0.0,0.0,0.0,0
4-1-2017 4:00,1100.4015860806794,0.0,0.0,0.0,0
4-1-2017 5:00,1084.7015294921548,0.0,0.0,0.0,0
4-1-2017 6:00,1071.8448602822064,0.0,0.0,0.0,0
4-1-2017 7:00,1003.9895143548201,0.0,0.0,0.0,0
4-1-2017 8:00,911.3809090477334,0.0,0.0,0.0,0
4-1-2017 9:00,1634.728065996882,0.0,0.0,0.0,0
4-1-2017 10:00,2440.7753878312396,0.0,0.0,0.0,0
4-1-2017 11:00,3021.2113719769877,0.0,0.0,0.0,0
4-1-2017 12:00,3619.1646777472815,0.0,0.0,0.0,0
4-1-2017 13:00,4631.21924614214,0.0,0.0,0.0,0
4-1-2017 14:00,5641.121590494546,0.0,0.0,0.0,0
4-1-2017 15:00,6673.045044564045,0.0,0.0,0.0,0
4-1-2017 16:00,7638.999671122845,0.0,0.0,0.0,0
4-1-2017 17:00,8946.377612424087,0.0,0.0,0.0,0
4-1-2017 18:00,10321.822577380164,0.0,0.0,0.0,0
4-1-2017 19:00,11680.169774033275,0.0,0.0,0.0,0
4-1-2017 20:00,11774.557223352542,0.0,0.0,0.0,0
4-1-2017 21:00,-665.377088438825,0.0,0.0,0.0,0
4-1-2017 22:00,-8502.092168784333,0.0,0.0,0.0,0
4-1-2017 23:00,-10459.893587024148,0.0,0.0,0.0,0
5-1-2017 0:00,-11218.777231231232,0.0,0.0,0.0,0
5-1-2017 1:00,-9622.030865790217,0.0,0.0,0.0,0
5-1-2017 2:00,-8274.378263234888,0.0,0.0,0.0,0
5-1-2017 3:00,-6885.416366615843,0.0,0.0,0.0,0
5-1-2017 4:00,-5544.985438079793,0.0,0.0,0.0,0
5-1-2017 5:00,-4692.349232400746,0.0,0.0,0.0,0
5-1-2017 6:00,-3837.69895724541,0.0,0.0,0.0,0
5-1-2017 7:00,-3016.2368652351597,0.0,0.0,0.0,0
5-1-2017 8:00,-2209.185246947384,0.0,0.0,0.0,0
5-1-2017 9:00,-1648.5456849458742,0.0,0.0,0.0,0
5-1-2017 10:00,-1019.1026629022463,0.0,0.0,0.0,0
5-1-2017 11:00,-632.8064434487815,0.0,0.0,0.0,0
5-1-2017 12:00,-263.3042625371313,0.0,0.0,0.0,0
5-1-2017 13:00,-287.0055054317081,0.0,0.0,0.0,0
5-1-2017 14:00,-276.50018181368114,0.0,0.0,0.0,0
5-1-2017 15:00,-244.55738517348345,0.0,0.0,0.0,0
5-1-2017 16:00,-99.0204969033457,0.0,0.0,0.0,0
5-1-2017 17:00,12.284814758609173,0.0,0.0,0.0,0
5-1-2017 18:00,26.280977990367774,0.0,0.0,0.0,0
5-1-2017 19:00,278.6655783324054,0.0,0.0,0.0,0
5-1-2017 20:00,325.88761724427786,0.0,0.0,0.0,0
5-1-2017 21:00,1561.3592753637363,0.0,0.0,0.0,0
5-1-2017 22:00,2741.693232320541,0.0,0.0,0.0,0
5-1-2017 23:00,2440.304143217022,0.0,0.0,0.0,0
6-1-2017 0:00,475.39579789311847,0.0,0.0,0.0,0
6-1-2017 1:00,-260.8032549266818,0.0,0.0,0.0,0
6-1-2017 2:00,-33.25614057980738,0.0,0.0,0.0,0
6-1-2017 3:00,-698.0648973944717,0.0,0.0,0.0,0
6-1-2017 4:00,-700.0933705191023,0.0,0.0,0.0,0
6-1-2017 5:00,-658.7653742473808,0.0,0.0,0.0,0
6-1-2017 6:00,-617.3818266995424,0.0,0.0,0.0,0
6-1-2017 7:00,-591.6250213317785,0.0,0.0,0.0,0
6-1-2017 8:00,-579.8583585532292,0.0,0.0,0.0,0
6-1-2017 9:00,-493.80249107312443,0.0,0.0,0.0,0
6-1-2017 10:00,-431.6988289243625,0.0,0.0,0.0,0
6-1-2017 11:00,-551.8288411717012,0.0,0.0,0.0,0
6-1-2017 12:00,-629.686538232135,0.0,0.0,0.0,0
6-1-2017 13:00,-910.0528626326104,0.0,0.0,0.0,0
6-1-2017 14:00,-1162.0768607735845,0.0,0.0,0.0,0
6-1-2017 15:00,-1419.1282211040327,0.0,0.0,0.0,0
6-1-2017 16:00,-1563.9799278844894,0.0,0.0,0.0,0
6-1-2017 17:00,-1801.591657086793,0.0,0.0,0.0,0
6-1-2017 18:00,-2014.9705043507774,0.0,0.0,0.0,0
6-1-2017 19:00,-1977.387195940728,0.0,0.0,0.0,0
6-1-2017 20:00,-1890.6720933649804,0.0,0.0,0.0,0
6-1-2017 21:00,-654.7138036754386,0.0,0.0,0.0,0
6-1-2017 22:00,129.3010513533809,0.0,0.0,0.0,0
6-1-2017 23:00,854.465768313692,0.0,0.0,0.0,0
7-1-2017 0:00,1476.4538334926601,0.0,0.0,0.0,0
7-1-2017 1:00,1718.6055932294857,0.0,0.0,0.0,0
7-1-2017 2:00,1681.2834501853458,0.0,0.0,0.0,0
7-1-2017 3:00,1671.3702707544135,0.0,0.0,0.0,0
7-1-2017 4:00,1607.9603276083944,0.0,0.0,0.0,0
7-1-2017 5:00,1408.4490552094358,0.0,0.0,0.0,0
7-1-2017 6:00,1209.0148158864222,0.0,0.0,0.0,0
7-1-2017 7:00,1023.7927371763508,0.0,0.0,0.0,0
7-1-2017 8:00,832.3308470103266,0.0,0.0,0.0,0
7-1-2017 9:00,786.9999930406166,0.0,0.0,0.0,0
7-1-2017 10:00,673.3124696136738,0.0,0.0,0.0,0
7-1-2017 11:00,338.004399984693,0.0,0.0,0.0,0
7-1-2017 12:00,-25.455000728662526,0.0,0.0,0.0,0
7-1-2017 13:00,-384.1926030291406,0.0,0.0,0.0,0
7-1-2017 14:00,-735.6321193232161,0.0,0.0,0.0,0
7-1-2017 15:00,-1104.683833018411,0.0,0.0,0.0,0
7-1-2017 16:00,-1367.4269779690958,0.0,0.0,0.0,0
7-1-2017 17:00,-1647.894575920117,0.0,0.0,0.0,0
7-1-2017 18:00,-1858.807261564305,0.0,0.0,0.0,0
7-1-2017 19:00,-1761.7744406392221,0.0,0.0,0.0,0
7-1-2017 20:00,-1820.3354699525744,0.0,0.0,0.0,0
7-1-2017 21:00,-719.789310982198,0.0,0.0,0.0,0
7-1-2017 22:00,-1.013964470828796,0.0,0.0,0.0,0
7-1-2017 23:00,-77.15584803615639,0.0,0.0,0.0,0
8-1-2017 0:00,970.0482210562168,0.0,0.0,0.0,0
8-1-2017 1:00,1327.5927741269152,0.0,0.0,0.0,0
8-1-2017 2:00,1396.0633544690027,0.0,0.0,0.0,0
8-1-2017 3:00,1478.497733199043,0.0,0.0,0.0,0
8-1-2017 4:00,1509.9009572304367,0.0,0.0,0.0,0
8-1-2017 5:00,1395.3291121404236,0.0,0.0,0.0,0
8-1-2017 6:00,1279.165781926189,0.0,0.0,0.0,0
8-1-2017 7:00,1198.4483604151465,0.0,0.0,0.0,0
8-1-2017 8:00,1111.2014585814086,0.0,0.0,0.0,0
8-1-2017 9:00,1059.113238545684,0.0,0.0,0.0,0
8-1-2017 10:00,857.3027802952874,0.0,0.0,0.0,0
8-1-2017 11:00,412.21490403691496,0.0,0.0,0.0,0
8-1-2017 12:00,-48.83794957710961,0.0,0.0,0.0,0
8-1-2017 13:00,-492.17550479778583,0.0,0.0,0.0,0
8-1-2017 14:00,-889.7392142651643,0.0,0.0,0.0,0
8-1-2017 15:00,-1285.0699563453054,0.0,0.0,0.0,0
8-1-2017 16:00,-1572.5030532759265,0.0,0.0,0.0,0
8-1-2017 17:00,-1889.425762668132,0.0,0.0,0.0,0
8-1-2017 18:00,-2112.0815293849955,0.0,0.0,0.0,0
8-1-2017 19:00,-1991.3467574320548,0.0,0.0,0.0,0
8-1-2017 20:00,-1996.2314801216835,0.0,0.0,0.0,0
8-1-2017 21:00,-1006.5640685960243,0.0,0.0,0.0,0
8-1-2017 22:00,-350.16951926421643,0.0,0.0,0.0,0
8-1-2017 23:00,-8.799292017292828,0.0,0.0,0.0,0
9-1-2017 0:00,619.1994923263719,0.0,0.0,0.0,0
9-1-2017 1:00,937.5467132281465,0.0,0.0,0.0,0
9-1-2017 2:00,950.8798914536674,0.0,0.0,0.0,0
9-1-2017 3:00,970.0117028418899,0.0,0.0,0.0,0
9-1-2017 4:00,942.0665875707928,0.0,0.0,0.0,0
9-1-2017 5:00,714.9835820435492,0.0,0.0,0.0,0
9-1-2017 6:00,489.31057319191495,0.0,0.0,0.0,0
9-1-2017 7:00,337.8728457237976,0.0,0.0,0.0,0
9-1-2017 8:00,213.8959690662432,0.0,0.0,0.0,0
9-1-2017 9:00,160.02857268691332,0.0,0.0,0.0,0
9-1-2017 10:00,131.64381969560964,0.0,0.0,0.0,0
9-1-2017 11:00,72.56477689039457,0.0,0.0,0.0,0
9-1-2017 12:00,-17.232889541755867,0.0,0.0,0.0,0
9-1-2017 13:00,-133.49705842391086,0.0,0.0,0.0,0
9-1-2017 14:00,-289.53162180586696,0.0,0.0,0.0,0
9-1-2017 15:00,-612.2480530122357,0.0,0.0,0.0,0
9-1-2017 16:00,-1177.5166613120382,0.0,0.0,0.0,0
9-1-2017 17:00,-1238.5478664956972,0.0,0.0,0.0,0
9-1-2017 18:00,-1377.7800986354978,0.0,0.0,0.0,0
9-1-2017 19:00,-1248.3379403819745,0.0,0.0,0.0,0
9-1-2017 20:00,-1237.8409211751568,0.0,0.0,0.0,0
9-1-2017 21:00,-525.6800639517623,0.0,0.0,0.0,0
9-1-2017 22:00,29.02026898611075,0.0,0.0,0.0,0
9-1-2017 23:00,284.90918783092275,0.0,0.0,0.0,0
10-1-2017 0:00,838.1720665493631,0.0,0.0,0.0,0
10-1-2017 1:00,1162.1779891095066,0.0,0.0,0.0,0
10-1-2017 2:00,1166.704888717206,0.0,0.0,0.0,0
10-1-2017 3:00,1160.2399161882531,0.0,0.0,0.0,0
10-1-2017 4:00,1101.5526265844965,0.0,0.0,0.0,0
10-1-2017 5:00,912.8142125041304,0.0,0.0,0.0,0
10-1-2017 6:00,725.2697445197809,0.0,0.0,0.0,0
10-1-2017 7:00,646.0059545809563,0.0,0.0,0.0,0
10-1-2017 8:00,624.1565454786942,0.0,0.0,0.0,0
10-1-2017 9:00,798.823890561649,0.0,0.0,0.0,0
10-1-2017 10:00,937.9239546862518,0.0,0.0,0.0,0
10-1-2017 11:00,980.8081800381478,0.0,0.0,0.0,0
10-1-2017 12:00,1006.5483307018658,0.0,0.0,0.0,0
10-1-2017 13:00,1341.4760545301106,0.0,0.0,0.0,0
10-1-2017 14:00,1737.61432405885,0.0,0.0,0.0,0
10-1-2017 15:00,2155.46042405516,0.0,0.0,0.0,0
10-1-2017 16:00,2086.0441500835586,0.0,0.0,0.0,0
10-1-2017 17:00,1982.8973225049667,0.0,0.0,0.0,0
10-1-2017 18:00,2627.8740822483705,0.0,0.0,0.0,0
10-1-2017 19:00,3359.956207499483,0.0,0.0,0.0,0
10-1-2017 20:00,4143.086193266216,0.0,0.0,0.0,0
10-1-2017 21:00,5884.022512924686,0.0,0.0,0.0,0
10-1-2017 22:00,6446.939724758042,0.0,0.0,0.0,0
10-1-2017 23:00,6336.238546601253,0.0,0.0,0.0,0
11-1-2017 0:00,3524.1271045865706,0.0,0.0,0.0,0
11-1-2017 1:00,-379.45353459038415,0.0,0.0,0.0,0
11-1-2017 2:00,-2573.288176995966,0.0,0.0,0.0,0
11-1-2017 3:00,-4175.715196837565,0.0,0.0,0.0,0
11-1-2017 4:00,-6674.8998594839395,0.0,0.0,0.0,0
11-1-2017 5:00,-5987.681893111707,0.0,0.0,0.0,0
11-1-2017 6:00,-5294.416031223033,0.0,0.0,0.0,0
11-1-2017 7:00,-4457.358033061326,0.0,0.0,0.0,0
11-1-2017 8:00,-3534.5321240370486,0.0,0.0,0.0,0
11-1-2017 9:00,-2426.7473509747892,0.0,0.0,0.0,0
11-1-2017 10:00,-1877.209287740703,0.0,0.0,0.0,0
11-1-2017 11:00,-1718.3986122381157,0.0,0.0,0.0,0
11-1-2017 12:00,-1296.9374624849427,0.0,0.0,0.0,0
11-1-2017 13:00,-1072.931566415519,0.0,0.0,0.0,0
11-1-2017 14:00,-878.4941844453108,0.0,0.0,0.0,0
11-1-2017 15:00,-570.409273715549,0.0,0.0,0.0,0
11-1-2017 16:00,-261.8455100551621,0.0,0.0,0.0,0
11-1-2017 17:00,-305.1283973313791,0.0,0.0,0.0,0
11-1-2017 18:00,-359.0230830074504,0.0,0.0,0.0,0
11-1-2017 19:00,-173.33924602785737,0.0,0.0,0.0,0
11-1-2017 20:00,-194.23454897030797,0.0,0.0,0.0,0
11-1-2017 21:00,497.62607817139224,0.0,0.0,0.0,0
11-1-2017 22:00,653.8140577184286,0.0,0.0,0.0,0
11-1-2017 23:00,732.1466713782588,0.0,0.0,0.0,0
12-1-2017 0:00,1176.2547974486674,0.0,0.0,0.0,0
12-1-2017 1:00,837.7539729302298,0.0,0.0,0.0,0
12-1-2017 2:00,58.81416490698075,0.0,0.0,0.0,0
12-1-2017 3:00,-644.7285258516447,0.0,0.0,0.0,0
12-1-2017 4:00,-476.1249079763263,0.0,0.0,0.0,0
12-1-2017 5:00,-444.22729218796985,0.0,0.0,0.0,0
12-1-2017 6:00,-415.07783146275324,0.0,0.0,0.0,0
12-1-2017 7:00,-220.37499472470677,0.0,0.0,0.0,0
12-1-2017 8:00,44.48928290190952,0.0,0.0,0.0,0
12-1-2017 9:00,228.78116204011712,0.0,0.0,0.0,0
12-1-2017 10:00,351.65687992212406,0.0,0.0,0.0,0
12-1-2017 11:00,437.94366111383647,0.0,0.0,0.0,0
12-1-2017 12:00,477.9054654948959,0.0,0.0,0.0,0
12-1-2017 13:00,483.59261563945984,0.0,0.0,0.0,0
12-1-2017 14:00,544.6621918851022,0.0,0.0,0.0,0
12-1-2017 15:00,622.4289951822789,0.0,0.0,0.0,0
12-1-2017 16:00,710.3064866419197,0.0,0.0,0.0,0
12-1-2017 17:00,729.5352170502747,0.0,0.0,0.0,0
12-1-2017 18:00,261.56676333692076,0.0,0.0,0.0,0
12-1-2017 19:00,-2583.7668689627635,0.0,0.0,0.0,0
12-1-2017 20:00,-2767.01664162216,0.0,0.0,0.0,0
12-1-2017 21:00,-2113.2629057812674,0.0,0.0,0.0,0
12-1-2017 22:00,-1607.538536107672,0.0,0.0,0.0,0
12-1-2017 23:00,-1215.93650821835,0.0,0.0,0.0,0
13-1-2017 0:00,-463.9431916499801,0.0,0.0,0.0,0
13-1-2017 1:00,86.36170905142922,0.0,0.0,0.0,0
13-1-2017 2:00,280.50264597183946,0.0,0.0,0.0,0
13-1-2017 3:00,436.230194857515,0.0,0.0,0.0,0
13-1-2017 4:00,538.3349382024142,0.0,0.0,0.0,0
13-1-2017 5:00,418.86648071156856,0.0,0.0,0.0,0
13-1-2017 6:00,295.09381757799997,0.0,0.0,0.0,0
13-1-2017 7:00,361.26747938490666,0.0,0.0,0.0,0
13-1-2017 8:00,518.9961121063859,0.0,0.0,0.0,0
13-1-2017 9:00,517.3406412715044,0.0,0.0,0.0,0
13-1-2017 10:00,416.6556320160744,0.0,0.0,0.0,0
13-1-2017 11:00,248.96013711155456,0.0,0.0,0.0,0
13-1-2017 12:00,112.9142143351437,0.0,0.0,0.0,0
13-1-2017 13:00,75.45070615538953,0.0,0.0,0.0,0
13-1-2017 14:00,44.07056427700718,0.0,0.0,0.0,0
13-1-2017 15:00,89.31734774214101,0.0,0.0,0.0,0
13-1-2017 16:00,71.38205823080943,0.0,0.0,0.0,0
13-1-2017 17:00,180.61838171646696,0.0,0.0,0.0,0
13-1-2017 18:00,237.25213535856074,0.0,0.0,0.0,0
13-1-2017 19:00,700.586517756497,0.0,0.0,0.0,0
13-1-2017 20:00,794.8977593570526,0.0,0.0,0.0,0
13-1-2017 21:00,1274.2436425850765,0.0,0.0,0.0,0
13-1-2017 22:00,1707.6381839524488,0.0,0.0,0.0,0
13-1-2017 23:00,1384.373407638479,0.0,0.0,0.0,0
14-1-2017 0:00,412.4652293507843,0.0,0.0,0.0,0
14-1-2017 1:00,-1306.9548111409808,0.0,0.0,0.0,0
14-1-2017 2:00,-960.8932152975891,0.0,0.0,0.0,0
14-1-2017 3:00,-665.7764081788921,0.0,0.0,0.0,0
14-1-2017 4:00,-426.6301031642247,0.0,0.0,0.0,0
14-1-2017 5:00,-341.1181781928085,0.0,0.0,0.0,0
14-1-2017 6:00,-260.0600314974499,0.0,0.0,0.0,0
14-1-2017 7:00,29.472396162551377,0.0,0.0,0.0,0
14-1-2017 8:00,403.29008920305046,0.0,0.0,0.0,0
14-1-2017 9:00,496.8419341547483,0.0,0.0,0.0,0
14-1-2017 10:00,379.3042467060227,0.0,0.0,0.0,0
14-1-2017 11:00,156.85724663495876,0.0,0.0,0.0,0
14-1-2017 12:00,-98.16874889348514,0.0,0.0,0.0,0
14-1-2017 13:00,-393.04691660061746,0.0,0.0,0.0,0
14-1-2017 14:00,-602.2454270678824,0.0,0.0,0.0,0
14-1-2017 15:00,-818.2896080358094,0.0,0.0,0.0,0
14-1-2017 16:00,-1062.201400166645,0.0,0.0,0.0,0
14-1-2017 17:00,-1288.5809559331105,0.0,0.0,0.0,0
14-1-2017 18:00,-1487.306362110415,0.0,0.0,0.0,0
14-1-2017 19:00,-1300.4589691932063,0.0,0.0,0.0,0
14-1-2017 20:00,-1297.8185713513483,0.0,0.0,0.0,0
14-1-2017 21:00,-984.246012751941,0.0,0.0,0.0,0
14-1-2017 22:00,-739.1344940118626,0.0,0.0,0.0,0
14-1-2017 23:00,-494.08134089129476,0.0,0.0,0.0,0
15-1-2017 0:00,155.7110130032952,0.0,0.0,0.0,0
15-1-2017 1:00,682.0009359933504,0.0,0.0,0.0,0
15-1-2017 2:00,855.5080954347186,0.0,0.0,0.0,0
15-1-2017 3:00,967.1190654614322,0.0,0.0,0.0,0
15-1-2017 4:00,1025.7045398434207,0.0,0.0,0.0,0
15-1-2017 5:00,928.2025976469658,0.0,0.0,0.0,0
15-1-2017 6:00,825.0073045411186,0.0,0.0,0.0,0
15-1-2017 7:00,956.6640825309173,0.0,0.0,0.0,0
15-1-2017 8:00,1187.6564203671396,0.0,0.0,0.0,0
15-1-2017 9:00,1149.2373440179445,0.0,0.0,0.0,0
15-1-2017 10:00,885.9163341532071,0.0,0.0,0.0,0
15-1-2017 11:00,529.3071846928801,0.0,0.0,0.0,0
15-1-2017 12:00,127.37047218968655,0.0,0.0,0.0,0
15-1-2017 13:00,-223.10731349641173,0.0,0.0,0.0,0
15-1-2017 14:00,-473.3291510041481,0.0,0.0,0.0,0
15-1-2017 15:00,-733.4392548567232,0.0,0.0,0.0,0
15-1-2017 16:00,-1036.4258877628158,0.0,0.0,0.0,0
15-1-2017 17:00,-1263.957704361869,0.0,0.0,0.0,0
15-1-2017 18:00,-1458.558651939036,0.0,0.0,0.0,0
15-1-2017 19:00,-1261.3388382787566,0.0,0.0,0.0,0
15-1-2017 20:00,-1255.2898739717984,0.0,0.0,0.0,0
15-1-2017 21:00,-1074.7702338012464,0.0,0.0,0.0,0
15-1-2017 22:00,-904.4029462156022,0.0,0.0,0.0,0
15-1-2017 23:00,-692.3430721876366,0.0,0.0,0.0,0
16-1-2017 0:00,-62.46139463790223,0.0,0.0,0.0,0
16-1-2017 1:00,411.9142126615402,0.0,0.0,0.0,0
16-1-2017 2:00,534.8726565284524,0.0,0.0,0.0,0
16-1-2017 3:00,585.2435102907502,0.0,0.0,0.0,0
16-1-2017 4:00,579.5559905496284,0.0,0.0,0.0,0
16-1-2017 5:00,389.01180975187526,0.0,0.0,0.0,0
16-1-2017 6:00,194.49470541139635,0.0,0.0,0.0,0
16-1-2017 7:00,268.2133998380714,0.0,0.0,0.0,0
16-1-2017 8:00,475.0479485770966,0.0,0.0,0.0,0
16-1-2017 9:00,427.6598672208611,0.0,0.0,0.0,0
16-1-2017 10:00,343.9366919334234,0.0,0.0,0.0,0
16-1-2017 11:00,317.38655007714897,0.0,0.0,0.0,0
16-1-2017 12:00,332.98027759252,0.0,0.0,0.0,0
16-1-2017 13:00,208.24028265315337,0.0,0.0,0.0,0
16-1-2017 14:00,192.91252683064613,0.0,0.0,0.0,0
16-1-2017 15:00,-8.496091180880285,0.0,0.0,0.0,0
16-1-2017 16:00,-704.440224392748,0.0,0.0,0.0,0
16-1-2017 17:00,-816.5562456618209,0.0,0.0,0.0,0
16-1-2017 18:00,-948.2846784762833,0.0,0.0,0.0,0
16-1-2017 19:00,-769.4429936406577,0.0,0.0,0.0,0
16-1-2017 20:00,-781.776012436324,0.0,0.0,0.0,0
16-1-2017 21:00,-700.873217437279,0.0,0.0,0.0,0
16-1-2017 22:00,-618.1311148009063,0.0,0.0,0.0,0
16-1-2017 23:00,-467.32547366038125,0.0,0.0,0.0,0
17-1-2017 0:00,95.89457374965878,0.0,0.0,0.0,0
17-1-2017 1:00,564.7961827996478,0.0,0.0,0.0,0
17-1-2017 2:00,681.986228533262,0.0,0.0,0.0,0
17-1-2017 3:00,712.2072834723022,0.0,0.0,0.0,0
17-1-2017 4:00,684.2529598229594,0.0,0.0,0.0,0
17-1-2017 5:00,508.4249839843669,0.0,0.0,0.0,0
17-1-2017 6:00,326.69451196971204,0.0,0.0,0.0,0
17-1-2017 7:00,440.9055572996931,0.0,0.0,0.0,0
17-1-2017 8:00,701.7127514079493,0.0,0.0,0.0,0
17-1-2017 9:00,814.830841054496,0.0,0.0,0.0,0
17-1-2017 10:00,776.2562394538691,0.0,0.0,0.0,0
17-1-2017 11:00,731.5658443111533,0.0,0.0,0.0,0
17-1-2017 12:00,665.2907509545948,0.0,0.0,0.0,0
17-1-2017 13:00,817.5550634051069,0.0,0.0,0.0,0
17-1-2017 14:00,1052.3679059109763,0.0,0.0,0.0,0
17-1-2017 15:00,1301.2572903836517,0.0,0.0,0.0,0
17-1-2017 16:00,1395.938331036612,0.0,0.0,0.0,0
17-1-2017 17:00,1658.661179149134,0.0,0.0,0.0,0
17-1-2017 18:00,2743.8583351489933,0.0,0.0,0.0,0
17-1-2017 19:00,3487.7727842131335,0.0,0.0,0.0,0
17-1-2017 20:00,3919.428675368008,0.0,0.0,0.0,0
17-1-2017 21:00,4009.1631197853567,0.0,0.0,0.0,0
17-1-2017 22:00,3415.592813653251,0.0,0.0,0.0,0
17-1-2017 23:00,1105.2269980871324,0.0,0.0,0.0,0
18-1-2017 0:00,-2417.8467736625807,0.0,0.0,0.0,0
18-1-2017 1:00,-4042.0993189941723,0.0,0.0,0.0,0
18-1-2017 2:00,-4111.794532283329,0.0,0.0,0.0,0
18-1-2017 3:00,-3553.83998760509,0.0,0.0,0.0,0
18-1-2017 4:00,-3060.8694129159444,0.0,0.0,0.0,0
18-1-2017 5:00,-2737.218286212482,0.0,0.0,0.0,0
18-1-2017 6:00,-2419.222058606096,0.0,0.0,0.0,0
18-1-2017 7:00,-1798.1902427222085,0.0,0.0,0.0,0
18-1-2017 8:00,-1006.2120261017426,0.0,0.0,0.0,0
18-1-2017 9:00,-588.9219815057472,0.0,0.0,0.0,0
18-1-2017 10:00,-253.55318240886345,0.0,0.0,0.0,0
18-1-2017 11:00,158.35428837450763,0.0,0.0,0.0,0
18-1-2017 12:00,555.926389754,0.0,0.0,0.0,0
18-1-2017 13:00,707.2271406215368,0.0,0.0,0.0,0
18-1-2017 14:00,925.775307214326,0.0,0.0,0.0,0
18-1-2017 15:00,1223.5684135922475,0.0,0.0,0.0,0
18-1-2017 16:00,1389.9036477148707,0.0,0.0,0.0,0
18-1-2017 17:00,1562.0991389737037,0.0,0.0,0.0,0
18-1-2017 18:00,806.3252436398216,0.0,0.0,0.0,0
18-1-2017 19:00,-1996.2681468652572,0.0,0.0,0.0,0
18-1-2017 20:00,-2324.095740690027,0.0,0.0,0.0,0
18-1-2017 21:00,-2191.532230753736,0.0,0.0,0.0,0
18-1-2017 22:00,-1989.7568178134948,0.0,0.0,0.0,0
18-1-2017 23:00,-1709.42698061656,0.0,0.0,0.0,0
19-1-2017 0:00,-935.402702568681,0.0,0.0,0.0,0
19-1-2017 1:00,-394.09777471829875,0.0,0.0,0.0,0
19-1-2017 2:00,-167.05661946667306,0.0,0.0,0.0,0
19-1-2017 3:00,-32.11695748568172,0.0,0.0,0.0,0
19-1-2017 4:00,37.201448599991636,0.0,0.0,0.0,0
19-1-2017 5:00,-108.72592028451209,0.0,0.0,0.0,0
19-1-2017 6:00,-260.0005911871085,0.0,0.0,0.0,0
19-1-2017 7:00,-99.67445283363031,0.0,0.0,0.0,0
19-1-2017 8:00,254.53833821473154,0.0,0.0,0.0,0
19-1-2017 9:00,261.68750392452284,0.0,0.0,0.0,0
19-1-2017 10:00,202.47100453569328,0.0,0.0,0.0,0
19-1-2017 11:00,139.67764206192624,0.0,0.0,0.0,0
19-1-2017 12:00,61.53823899424424,0.0,0.0,0.0,0
19-1-2017 13:00,-78.51430809189424,0.0,0.0,0.0,0
19-1-2017 14:00,-121.16055378288002,0.0,0.0,0.0,0
19-1-2017 15:00,-124.61346187040726,0.0,0.0,0.0,0
19-1-2017 16:00,-329.6477496337975,0.0,0.0,0.0,0
19-1-2017 17:00,-425.9177339714206,0.0,0.0,0.0,0
19-1-2017 18:00,-506.9907993818106,0.0,0.0,0.0,0
19-1-2017 19:00,-340.74954065790826,0.0,0.0,0.0,0
19-1-2017 20:00,-356.34813066412426,0.0,0.0,0.0,0
19-1-2017 21:00,-466.5138726206642,0.0,0.0,0.0,0
19-1-2017 22:00,-506.64083053323884,0.0,0.0,0.0,0
19-1-2017 23:00,-436.56343049841234,0.0,0.0,0.0,0
20-1-2017 0:00,148.04080742189672,0.0,0.0,0.0,0
20-1-2017 1:00,500.3825475176509,0.0,0.0,0.0,0
20-1-2017 2:00,562.869410373456,0.0,0.0,0.0,0
20-1-2017 3:00,534.9535287205954,0.0,0.0,0.0,0
20-1-2017 4:00,437.97138890581664,0.0,0.0,0.0,0
20-1-2017 5:00,206.85927136113241,0.0,0.0,0.0,0
20-1-2017 6:00,-31.86255112266008,0.0,0.0,0.0,0
20-1-2017 7:00,45.687077058328214,0.0,0.0,0.0,0
20-1-2017 8:00,333.33360989250104,0.0,0.0,0.0,0
20-1-2017 9:00,327.5986595248396,0.0,0.0,0.0,0
20-1-2017 10:00,212.54933868267653,0.0,0.0,0.0,0
20-1-2017 11:00,149.6576199841511,0.0,0.0,0.0,0
20-1-2017 12:00,56.2091895016747,0.0,0.0,0.0,0
20-1-2017 13:00,-87.2565117709928,0.0,0.0,0.0,0
20-1-2017 14:00,-140.43702597860465,0.0,0.0,0.0,0
20-1-2017 15:00,-128.2558047644343,0.0,0.0,0.0,0
20-1-2017 16:00,-258.13881001558366,0.0,0.0,0.0,0
20-1-2017 17:00,-332.58052007959304,0.0,0.0,0.0,0
20-1-2017 18:00,-417.2090056964207,0.0,0.0,0.0,0
20-1-2017 19:00,-304.19486653373315,0.0,0.0,0.0,0
20-1-2017 20:00,-307.68622151159434,0.0,0.0,0.0,0
20-1-2017 21:00,-403.6356509363759,0.0,0.0,0.0,0
20-1-2017 22:00,-446.7572606738868,0.0,0.0,0.0,0
20-1-2017 23:00,-392.9345787732891,0.0,0.0,0.0,0
21-1-2017 0:00,204.94733804733005,0.0,0.0,0.0,0
21-1-2017 1:00,565.9294403522799,0.0,0.0,0.0,0
21-1-2017 2:00,668.5155607760898,0.0,0.0,0.0,0
21-1-2017 3:00,670.5476854532099,0.0,0.0,0.0,0
21-1-2017 4:00,601.5535503635783,0.0,0.0,0.0,0
21-1-2017 5:00,422.2469680019494,0.0,0.0,0.0,0
21-1-2017 6:00,230.9482777801968,0.0,0.0,0.0,0
21-1-2017 7:00,351.95952301752186,0.0,0.0,0.0,0
21-1-2017 8:00,697.0579248663362,0.0,0.0,0.0,0
21-1-2017 9:00,705.2453927817314,0.0,0.0,0.0,0
21-1-2017 10:00,503.97958889404254,0.0,0.0,0.0,0
21-1-2017 11:00,288.1258523785673,0.0,0.0,0.0,0
21-1-2017 12:00,39.244732889101215,0.0,0.0,0.0,0
21-1-2017 13:00,-218.44753816290358,0.0,0.0,0.0,0
21-1-2017 14:00,-276.14573647995167,0.0,0.0,0.0,0
21-1-2017 15:00,-219.2238015568928,0.0,0.0,0.0,0
21-1-2017 16:00,-418.91034956538533,0.0,0.0,0.0,0
21-1-2017 17:00,-300.7286429351516,0.0,0.0,0.0,0
21-1-2017 18:00,-44.81740633778463,0.0,0.0,0.0,0
21-1-2017 19:00,351.29016891049287,0.0,0.0,0.0,0
21-1-2017 20:00,533.996604607797,0.0,0.0,0.0,0
21-1-2017 21:00,1033.4175917264238,0.0,0.0,0.0,0
21-1-2017 22:00,1590.77094687914,0.0,0.0,0.0,0
21-1-2017 23:00,2994.4385273606786,0.0,0.0,0.0,0
22-1-2017 0:00,3476.1666383641623,0.0,0.0,0.0,0
22-1-2017 1:00,4652.14647842705,0.0,0.0,0.0,0
22-1-2017 2:00,5596.860460969969,0.0,0.0,0.0,0
22-1-2017 3:00,6257.854702539729,0.0,0.0,0.0,0
22-1-2017 4:00,7217.334614827847,0.0,0.0,0.0,0
22-1-2017 5:00,7970.468133301776,0.0,0.0,0.0,0
22-1-2017 6:00,8716.050381876008,0.0,0.0,0.0,0
22-1-2017 7:00,3703.8134767275315,0.0,0.0,0.0,0
22-1-2017 8:00,-4052.200243346886,0.0,0.0,0.0,0
22-1-2017 9:00,-6631.041186692202,0.0,0.0,0.0,0
22-1-2017 10:00,-6147.13831334663,0.0,0.0,0.0,0
22-1-2017 11:00,-5643.47863305059,0.0,0.0,0.0,0
22-1-2017 12:00,-5195.002997244854,0.0,0.0,0.0,0
22-1-2017 13:00,-4795.096050371881,0.0,0.0,0.0,0
22-1-2017 14:00,-4303.319656149765,0.0,0.0,0.0,0
22-1-2017 15:00,-3783.2741953585646,0.0,0.0,0.0,0
22-1-2017 16:00,-3370.922548824012,0.0,0.0,0.0,0
22-1-2017 17:00,-3066.554726118299,0.0,0.0,0.0,0
22-1-2017 18:00,-2689.0213574593568,0.0,0.0,0.0,0
22-1-2017 19:00,-2106.2526513035027,0.0,0.0,0.0,0
22-1-2017 20:00,-1546.9733709270276,0.0,0.0,0.0,0
22-1-2017 21:00,-1437.0607060996883,0.0,0.0,0.0,0
22-1-2017 22:00,-1226.8253396285925,0.0,0.0,0.0,0
22-1-2017 23:00,-952.9942885161265,0.0,0.0,0.0,0
23-1-2017 0:00,-92.50524985345032,0.0,0.0,0.0,0
23-1-2017 1:00,260.9612494508633,0.0,0.0,0.0,0
23-1-2017 2:00,418.2820155963677,0.0,0.0,0.0,0
23-1-2017 3:00,475.81729554225967,0.0,0.0,0.0,0
23-1-2017 4:00,449.97378853727514,0.0,0.0,0.0,0
23-1-2017 5:00,261.2455942178058,0.0,0.0,0.0,0
23-1-2017 6:00,54.38696795906526,0.0,0.0,0.0,0
23-1-2017 7:00,196.9778030925454,0.0,0.0,0.0,0
23-1-2017 8:00,619.7878517626623,0.0,0.0,0.0,0
23-1-2017 9:00,675.9692982807092,0.0,0.0,0.0,0
23-1-2017 10:00,219.72143822945327,0.0,0.0,0.0,0
23-1-2017 11:00,-420.5048752930811,0.0,0.0,0.0,0
23-1-2017 12:00,-1148.9518948222294,0.0,0.0,0.0,0
23-1-2017 13:00,-1837.1096113552153,0.0,0.0,0.0,0
23-1-2017 14:00,-2393.232505924869,0.0,0.0,0.0,0
23-1-2017 15:00,-2906.307400596464,0.0,0.0,0.0,0
23-1-2017 16:00,324.0684707356377,0.0,0.0,0.0,0
23-1-2017 17:00,789.3622149044932,0.0,0.0,0.0,0
23-1-2017 18:00,806.7875210126786,0.0,0.0,0.0,0
23-1-2017 19:00,738.8915393694169,0.0,0.0,0.0,0
23-1-2017 20:00,624.4278457183709,0.0,0.0,0.0,0
23-1-2017 21:00,569.4668712953808,0.0,0.0,0.0,0
23-1-2017 22:00,570.1487540359094,0.0,0.0,0.0,0
23-1-2017 23:00,225.58778073035955,0.0,0.0,0.0,0
24-1-2017 0:00,188.46225200328445,0.0,0.0,0.0,0
24-1-2017 1:00,506.20825036709084,0.0,0.0,0.0,0
24-1-2017 2:00,644.7686399332524,0.0,0.0,0.0,0
24-1-2017 3:00,693.667798073342,0.0,0.0,0.0,0
24-1-2017 4:00,653.5244060013774,0.0,0.0,0.0,0
24-1-2017 5:00,742.5875007443083,0.0,0.0,0.0,0
24-1-2017 6:00,822.321001508395,0.0,0.0,0.0,0
24-1-2017 7:00,1243.1426483240684,0.0,0.0,0.0,0
24-1-2017 8:00,1972.39953713895,0.0,0.0,0.0,0
24-1-2017 9:00,2512.04197303008,0.0,0.0,0.0,0
24-1-2017 10:00,2942.6019869924503,0.0,0.0,0.0,0
24-1-2017 11:00,3442.5582870617964,0.0,0.0,0.0,0
24-1-2017 12:00,3870.137219608212,0.0,0.0,0.0,0
24-1-2017 13:00,4490.5149571792135,0.0,0.0,0.0,0
24-1-2017 14:00,2966.5028913277365,0.0,0.0,0.0,0
24-1-2017 15:00,1269.4577587032963,0.0,0.0,0.0,0
24-1-2017 16:00,-536.7524378103963,0.0,0.0,0.0,0
24-1-2017 17:00,-1679.991222135608,0.0,0.0,0.0,0
24-1-2017 18:00,-1232.4324285353905,0.0,0.0,0.0,0
24-1-2017 19:00,-1615.6144693343658,0.0,0.0,0.0,0
24-1-2017 20:00,-3842.6925083695296,0.0,0.0,0.0,0
24-1-2017 21:00,-3768.0000319418077,0.0,0.0,0.0,0
24-1-2017 22:00,-3689.9935764279717,0.0,0.0,0.0,0
24-1-2017 23:00,-3169.878517647665,0.0,0.0,0.0,0
25-1-2017 0:00,-2059.1905572606165,0.0,0.0,0.0,0
25-1-2017 1:00,-1456.2986006160963,0.0,0.0,0.0,0
25-1-2017 2:00,-1005.3421284080546,0.0,0.0,0.0,0
25-1-2017 3:00,-661.5126328525444,0.0,0.0,0.0,0
25-1-2017 4:00,-617.0067322143736,0.0,0.0,0.0,0
25-1-2017 5:00,-747.5652542391063,0.0,0.0,0.0,0
25-1-2017 6:00,-750.2125322822571,0.0,0.0,0.0,0
25-1-2017 7:00,-393.56680610813555,0.0,0.0,0.0,0
25-1-2017 8:00,298.8301905277681,0.0,0.0,0.0,0
25-1-2017 9:00,548.7606667535347,0.0,0.0,0.0,0
25-1-2017 10:00,608.7302226740885,0.0,0.0,0.0,0
25-1-2017 11:00,667.0408042798704,0.0,0.0,0.0,0
25-1-2017 12:00,559.9473568464127,0.0,0.0,0.0,0
25-1-2017 13:00,470.7794202986033,0.0,0.0,0.0,0
25-1-2017 14:00,381.74705494250793,0.0,0.0,0.0,0
25-1-2017 15:00,625.9305561424189,0.0,0.0,0.0,0
25-1-2017 16:00,752.2705510576207,0.0,0.0,0.0,0
25-1-2017 17:00,980.4617000179423,0.0,0.0,0.0,0
25-1-2017 18:00,1329.7164428897927,0.0,0.0,0.0,0
25-1-2017 19:00,1700.8855801411191,1339.67,2714.66,-35.32,0
25-1-2017 20:00,2037.3104329278513,1707.72,3081.85,333.59,0
25-1-2017 21:00,1629.4898310261988,1957.11,3330.29,583.92,0
25-1-2017 22:00,1539.9481940476999,1083.72,2456.07,-288.63,0
25-1-2017 23:00,1563.7566196482235,1387.2,2758.87,15.52,0
26-1-2017 0:00,1687.2809476910656,1286.69,2657.3,-83.93,0
26-1-2017 1:00,-211.93070514826422,1583.7,2953.58,213.82,1
26-1-2017 2:00,-1954.6677502956095,-1604.2,-227.99,-2980.41,0
26-1-2017 3:00,-2220.8958278249147,-2499.77,-1124.48,-3875.06,0
26-1-2017 4:00,-1933.3957187062547,-2109.54,-735.2,-3483.88,0
26-1-2017 5:00,-1714.0569458997968,-1504.4,-131.13,-2877.68,0
26-1-2017 6:00,-1507.3088910085053,-1366.0,6.24,-2738.24,0
26-1-2017 7:00,-961.9016222071691,-1148.16,223.0,-2519.31,0
26-1-2017 8:00,-75.1899987751035,-463.2,906.9,-1833.31,0
26-1-2017 9:00,256.7191921021881,491.97,1861.35,-877.4,0
26-1-2017 10:00,264.12771485612984,353.92,1722.24,-1014.4,0
26-1-2017 11:00,159.87910091381332,279.3,1646.49,-1087.89,0
26-1-2017 12:00,-21.634127228098578,53.76,1419.91,-1312.39,0
26-1-2017 13:00,-289.28508574111765,-123.04,1241.98,-1488.05,0
26-1-2017 14:00,-456.794667179302,-427.12,936.85,-1791.09,0
26-1-2017 15:00,-576.5318167411353,-478.25,884.64,-1841.14,0
26-1-2017 16:00,-834.0192338874442,-586.03,775.74,-1947.8,0
26-1-2017 17:00,-992.3950285735273,-889.18,471.67,-2250.03,0
26-1-2017 18:00,-995.9737306142895,-931.74,428.0,-2291.47,0
26-1-2017 19:00,-983.4740944750017,-865.51,493.15,-2224.18,0
26-1-2017 20:00,-865.3728783321781,-845.87,511.77,-2203.5,0
26-1-2017 21:00,-932.6310279007791,-659.84,696.63,-2016.31,0
26-1-2017 22:00,-942.9473155104188,-879.66,475.95,-2235.27,0
26-1-2017 23:00,-910.0316365141362,-784.04,570.44,-2138.52,0
27-1-2017 0:00,-226.5851967048029,-785.63,567.8,-2139.06,0
27-1-2017 1:00,-39.482150530579474,302.2,1655.48,-1051.08,0
27-1-2017 2:00,58.50559546409113,-51.3,1300.95,-1403.56,0
27-1-2017 3:00,71.0782533473739,209.44,1560.61,-1141.72,0
27-1-2017 4:00,-26.057092526363704,6.24,1356.4,-1343.92,0
27-1-2017 5:00,-212.05110690730135,-55.87,1293.24,-1404.99,0
27-1-2017 6:00,-408.1778011001543,-321.2,1026.92,-1669.33,0
27-1-2017 7:00,-251.58605893623735,-461.39,885.64,-1808.42,0
27-1-2017 8:00,293.8431220273551,-94.76,1251.26,-1440.78,0
27-1-2017 9:00,516.5083681286751,593.56,1938.88,-751.76,0
27-1-2017 10:00,594.6474417544578,525.43,1869.7,-818.84,0
27-1-2017 11:00,717.2812163024964,598.2,1941.42,-745.02,0
27-1-2017 12:00,798.4397914905849,683.22,2025.42,-658.97,0
27-1-2017 13:00,982.3783604808505,734.76,2075.93,-606.41,0
27-1-2017 14:00,1212.7441124290744,973.18,2313.44,-367.08,0
27-1-2017 15:00,1569.6688615739922,1177.46,2516.79,-161.88,0
27-1-2017 16:00,1757.8931490255745,1590.1,2928.73,251.46,0
27-1-2017 17:00,2142.402398305675,1597.99,2935.64,260.34,0
27-1-2017 18:00,2003.502238964893,2136.64,3473.9,799.38,0
27-1-2017 19:00,2409.8232942323693,1546.21,2882.46,209.96,0
27-1-2017 20:00,2926.231793971513,2472.82,3809.72,1135.91,0
27-1-2017 21:00,3168.7559166195188,2743.5,4079.84,1407.16,0
27-1-2017 22:00,2868.5905949824046,2903.35,4239.42,1567.28,0
27-1-2017 23:00,2028.829143978116,2237.25,3571.89,902.62,0
28-1-2017 0:00,-1875.1066878423926,1237.09,2570.8,-96.62,1
28-1-2017 1:00,-2558.927778234558,-4355.82,-3001.95,-5709.7,1
28-1-2017 2:00,-2550.8940766778123,-1993.93,-634.23,-3353.63,0
28-1-2017 3:00,-2619.019518961885,-2684.96,-1325.66,-4044.26,0
28-1-2017 4:00,-2276.7238101448706,-2068.96,-710.69,-3427.22,0
28-1-2017 5:00,-1987.6481851494066,-1817.57,-460.25,-3174.88,0
28-1-2017 6:00,-1713.6672018626066,-1515.38,-159.04,-2871.71,0
28-1-2017 7:00,-1091.29697939613,-1301.17,54.2,-2656.54,0
28-1-2017 8:00,-90.2762339610299,-517.99,836.72,-1872.7,0
28-1-2017 9:00,301.3781226678757,542.37,1896.18,-811.44,0
28-1-2017 10:00,363.49098922758753,432.63,1785.52,-920.26,0
28-1-2017 11:00,319.6003943280689,405.09,1756.96,-946.79,0
28-1-2017 12:00,176.29401490824284,231.3,1582.16,-1119.57,0
28-1-2017 13:00,-77.3631724803979,68.28,1418.06,-1281.51,0
28-1-2017 14:00,-228.4173710279582,-232.39,1116.48,-1581.26,0
28-1-2017 15:00,-305.4460070584819,-271.72,1076.13,-1619.57,0
28-1-2017 16:00,-530.6758460449108,-322.7,1024.15,-1669.54,0
28-1-2017 17:00,-609.2311517530377,-608.91,736.99,-1954.81,0
28-1-2017 18:00,-508.24236734825615,-544.27,800.63,-1889.17,0
28-1-2017 19:00,-503.0733468217302,-384.45,959.45,-1728.35,0
28-1-2017 20:00,-356.2110173554099,-444.08,898.84,-1787.0,0
28-1-2017 21:00,-345.5440166623773,-188.0,1153.93,-1529.93,0
28-1-2017 22:00,-286.0596643341821,-326.52,1014.46,-1667.49,0
28-1-2017 23:00,-119.52953734626408,-176.28,1163.71,-1516.26,0
29-1-2017 0:00,653.2810671961668,-7.47,1331.74,-1346.68,0
29-1-2017 1:00,941.702089914138,1095.47,2434.41,-243.46,0
29-1-2017 2:00,888.1679967094838,879.4,2217.39,-458.6,0
29-1-2017 3:00,257.34070393458273,792.35,2129.36,-544.67,0
29-1-2017 4:00,-543.1200624493474,-234.92,1101.69,-1571.54,0
29-1-2017 5:00,-488.1671907855457,-912.11,423.72,-2247.94,0
29-1-2017 6:00,-429.6509227271566,-333.86,1001.36,-1669.09,0
29-1-2017 7:00,-29.06498094643416,-418.58,915.73,-1752.88,0
29-1-2017 8:00,777.3045679718599,301.14,1634.74,-1032.47,0
29-1-2017 9:00,1030.7390000780615,1142.02,2475.11,-191.08,0
29-1-2017 10:00,917.0064257316194,986.02,2318.15,-346.1,0
29-1-2017 11:00,674.6722275444606,753.6,2084.77,-577.58,0
29-1-2017 12:00,302.8116596766381,420.13,1750.35,-910.08,0
29-1-2017 13:00,-76.16286002023196,27.7,1356.94,-1301.55,0
29-1-2017 14:00,-335.2985849928989,-296.08,1032.24,-1624.4,0
29-1-2017 15:00,-506.11218212818653,-444.17,883.18,-1771.52,0
29-1-2017 16:00,-820.8995431300182,-546.23,780.18,-1872.64,0
29-1-2017 17:00,-973.510233608669,-918.46,407.12,-2244.04,0
29-1-2017 18:00,-927.6933352406179,-899.9,424.73,-2224.54,0
29-1-2017 19:00,-1016.2786433426816,-780.23,543.44,-2103.9,0
29-1-2017 20:00,-920.7947780368218,-947.12,375.72,-2269.95,0
29-1-2017 21:00,-1049.9440093323956,-697.05,624.83,-2018.92,0
29-1-2017 22:00,-1132.3274733322955,-1034.22,286.97,-2355.41,0
29-1-2017 23:00,-1170.1532586455726,-978.4,341.86,-2298.66,0
30-1-2017 0:00,-490.2633737138058,-1055.43,263.95,-2374.8,0
30-1-2017 1:00,-460.42715938292235,75.39,1394.5,-1243.71,0
30-1-2017 2:00,-422.77094910715687,-519.89,798.88,-1838.66,0
30-1-2017 3:00,-466.020029023053,-218.9,1098.93,-1536.73,0
30-1-2017 4:00,-629.7549690321052,-502.83,814.19,-1819.86,0
30-1-2017 5:00,-945.4214646980438,-610.16,705.96,-1926.28,0
30-1-2017 6:00,-1274.910024070277,-1035.5,279.9,-2350.9,0
30-1-2017 7:00,-1253.6279029248217,-1282.07,32.52,-2596.65,0
30-1-2017 8:00,-791.8458364790299,-1047.73,265.92,-2361.38,0
30-1-2017 9:00,-866.3069510078863,-389.85,923.0,-1702.71,0
30-1-2017 10:00,-1226.9277044907703,-870.04,442.36,-2182.43,0
30-1-2017 11:00,-1408.8709904806992,-1229.3,82.43,-2541.03,0
30-1-2017 12:00,-901.0124501089604,-1322.54,-11.67,-2633.41,0
30-1-2017 13:00,-213.12474917678537,-417.37,892.94,-1727.69,0
30-1-2017 14:00,1062.6430120691884,189.22,1498.69,-1120.25,0
30-1-2017 15:00,1653.7137895332944,1776.62,3086.73,466.51,0
30-1-2017 16:00,1344.115712366678,1654.38,2963.6,345.16,0
30-1-2017 17:00,1224.5707674471505,997.62,2306.11,-310.88,0
30-1-2017 18:00,1222.6847716216853,1026.72,2334.35,-280.92,0
30-1-2017 19:00,943.4427499440117,1013.15,2320.0,-293.7,0
30-1-2017 20:00,819.9262348274387,618.19,1924.14,-687.76,0
30-1-2017 21:00,592.3593907285122,663.56,1968.67,-641.56,0
30-1-2017 22:00,417.84232455742494,323.71,1627.92,-980.5,0
30-1-2017 23:00,239.7500729452786,280.47,1583.77,-1022.83,0
31-1-2017 0:00,765.8133092695716,70.05,1372.47,-1232.36,0
31-1-2017 1:00,810.5749922230098,1057.01,2359.53,-245.51,0
31-1-2017 2:00,887.0617829888379,595.47,1897.21,-706.26,0
31-1-2017 3:00,883.1811929415908,911.04,2212.05,-389.97,0
31-1-2017 4:00,751.7960908369969,690.46,1990.54,-609.62,0
31-1-2017 5:00,661.5236633882541,591.35,1890.57,-707.87,0
31-1-2017 6:00,558.2437121323383,506.78,1805.11,-791.55,0
31-1-2017 7:00,697.3119012367606,411.32,1708.76,-886.12,0
31-1-2017 8:00,-402.31362619571337,707.2,2003.91,-589.51,0
31-1-2017 9:00,-729.8712285567453,-1166.79,131.52,-2465.11,0
31-1-2017 10:00,-632.2962805780335,-615.22,682.6,-1913.05,0
31-1-2017 11:00,-418.1247737726935,-618.01,678.93,-1914.95,0
31-1-2017 12:00,-277.3832445633543,-173.1,1123.04,-1469.24,0
31-1-2017 13:00,-270.02447612547076,-193.43,1101.84,-1488.7,0
31-1-2017 14:00,-108.32438178419216,-211.36,1083.03,-1505.76,0
31-1-2017 15:00,164.1896171559747,18.55,1312.09,-1274.99,0
31-1-2017 16:00,208.08733075282362,302.2,1594.89,-990.5,0
31-1-2017 17:00,415.51648802662567,182.63,1474.47,-1109.21,0
31-1-2017 18:00,-389.86404535814654,525.9,1816.97,-765.16,0
31-1-2017 19:00,-338.8103115359627,-955.82,336.06,-2247.71,0
31-1-2017 20:00,-57.36473799950181,-61.25,1230.58,-1353.09,0
31-1-2017 21:00,23.069677589521234,-14.55,1276.52,-1305.61,0
31-1-2017 22:00,129.13577087742487,94.56,1382.36,-1193.25,0
31-1-2017 23:00,231.61381459659242,165.59,1454.76,-1123.57,0
