Time,Actual,Forecasts,Upper Interval,Lower Interval,Is Anomalies
1-1-2017 0:00,-0.3850124022782211,0.0,0.0,0.0,0
1-1-2017 1:00,1.4627561520551922,0.0,0.0,0.0,0
1-1-2017 2:00,1.9947359775969744,0.0,0.0,0.0,0
1-1-2017 3:00,4.6302608877113585,0.0,0.0,0.0,0
1-1-2017 4:00,3.098996913029964,0.0,0.0,0.0,0
1-1-2017 5:00,2.1272197153654133,0.0,0.0,0.0,0
1-1-2017 6:00,1.5170499388090093,0.0,0.0,0.0,0
1-1-2017 7:00,0.7719355010091817,0.0,0.0,0.0,0
1-1-2017 8:00,-1.2083928439597003,0.0,0.0,0.0,0
1-1-2017 9:00,-4.623901306381072,0.0,0.0,0.0,0
1-1-2017 10:00,-4.458642623451283,0.0,0.0,0.0,0
1-1-2017 11:00,-4.554260431155058,0.0,0.0,0.0,0
1-1-2017 12:00,-2.682485989438703,0.0,0.0,0.0,0
1-1-2017 13:00,-2.349870154786629,0.0,0.0,0.0,0
1-1-2017 14:00,-2.161457128245786,0.0,0.0,0.0,0
1-1-2017 15:00,-0.04722275600528292,0.0,0.0,0.0,0
1-1-2017 16:00,1.0308582066894019,0.0,0.0,0.0,0
1-1-2017 17:00,-0.7766555716587504,0.0,0.0,0.0,0
1-1-2017 18:00,-1.103406685866048,0.0,0.0,0.0,0
1-1-2017 19:00,1.3726566328588206,0.0,0.0,0.0,0
1-1-2017 20:00,-1.8877559388261602,0.0,0.0,0.0,0
1-1-2017 21:00,-0.876319801471368,0.0,0.0,0.0,0
1-1-2017 22:00,-2.4380861952723762,0.0,0.0,0.0,0
1-1-2017 23:00,-0.5397692020100635,0.0,0.0,0.0,0
2-1-2017 0:00,-0.15710786087811357,0.0,0.0,0.0,0
2-1-2017 1:00,-1.31931869711741,0.0,0.0,0.0,0
2-1-2017 2:00,2.6772347533219545,0.0,0.0,0.0,0
2-1-2017 3:00,5.846164820731758,0.0,0.0,0.0,0
2-1-2017 4:00,4.728644204049772,0.0,0.0,0.0,0
2-1-2017 5:00,4.09439906106104,0.0,0.0,0.0,0
2-1-2017 6:00,2.796668836645324,0.0,0.0,0.0,0
2-1-2017 7:00,2.2915506345927383,0.0,0.0,0.0,0
2-1-2017 8:00,-0.15599352733431715,0.0,0.0,0.0,0
2-1-2017 9:00,-0.81253661752487,0.0,0.0,0.0,0
2-1-2017 10:00,-0.16922429359772195,0.0,0.0,0.0,0
2-1-2017 11:00,-0.19191296283867132,0.0,0.0,0.0,0
2-1-2017 12:00,-1.4747493124114044,0.0,0.0,0.0,0
2-1-2017 13:00,0.0921536648202732,0.0,0.0,0.0,0
2-1-2017 14:00,-0.319904249268518,0.0,0.0,0.0,0
2-1-2017 15:00,0.3288457517328993,0.0,0.0,0.0,0
2-1-2017 16:00,-1.510952307469779,0.0,0.0,0.0,0
2-1-2017 17:00,-2.013618447535066,0.0,0.0,0.0,0
2-1-2017 18:00,-2.9556510324255214,0.0,0.0,0.0,0
2-1-2017 19:00,0.3219827430547184,0.0,0.0,0.0,0
2-1-2017 20:00,-2.3481561569105907,0.0,0.0,0.0,0
2-1-2017 21:00,-2.766426433819447,0.0,0.0,0.0,0
2-1-2017 22:00,-2.5470351312782213,0.0,0.0,0.0,0
2-1-2017 23:00,-0.6423638217140706,0.0,0.0,0.0,0
3-1-2017 0:00,-0.7880643624088748,0.0,0.0,0.0,0
3-1-2017 1:00,1.2015187655686645,0.0,0.0,0.0,0
3-1-2017 2:00,1.7144191956949157,0.0,0.0,0.0,0
3-1-2017 3:00,1.6585277751896115,0.0,0.0,0.0,0
3-1-2017 4:00,4.8965263330720745,0.0,0.0,0.0,0
3-1-2017 5:00,5.483551946182104,0.0,0.0,0.0,0
3-1-2017 6:00,4.921999975329925,0.0,0.0,0.0,0
3-1-2017 7:00,3.19061223267596,0.0,0.0,0.0,0
3-1-2017 8:00,1.729586477442183,0.0,0.0,0.0,0
3-1-2017 9:00,1.8400628161521695,0.0,0.0,0.0,0
3-1-2017 10:00,-0.9005162064007664,0.0,0.0,0.0,0
3-1-2017 11:00,-0.692220724656579,0.0,0.0,0.0,0
3-1-2017 12:00,0.4783871470039003,0.0,0.0,0.0,0
3-1-2017 13:00,0.06326856964409444,0.0,0.0,0.0,0
3-1-2017 14:00,1.1044310177543935,0.0,0.0,0.0,0
3-1-2017 15:00,1.7713879503456837,0.0,0.0,0.0,0
3-1-2017 16:00,2.5173623571631083,0.0,0.0,0.0,0
3-1-2017 17:00,-1.9480635055002722,0.0,0.0,0.0,0
3-1-2017 18:00,-0.14298492195479184,0.0,0.0,0.0,0
3-1-2017 19:00,-21.771422284163265,0.0,0.0,0.0,0
3-1-2017 20:00,-2.328929106852911,0.0,0.0,0.0,0
3-1-2017 21:00,1.3228295158055516,0.0,0.0,0.0,0
3-1-2017 22:00,0.6230917765700497,0.0,0.0,0.0,0
3-1-2017 23:00,2.6338306643173723,0.0,0.0,0.0,0
4-1-2017 0:00,7.4494815036770206,0.0,0.0,0.0,0
4-1-2017 1:00,9.426711609508175,0.0,0.0,0.0,0
4-1-2017 2:00,11.451812032958287,0.0,0.0,0.0,0
4-1-2017 3:00,1.7269521381745676,0.0,0.0,0.0,0
4-1-2017 4:00,-1.2936793036024028,0.0,0.0,0.0,0
4-1-2017 5:00,-1.4094240558859497,0.0,0.0,0.0,0
4-1-2017 6:00,0.1411611053333104,0.0,0.0,0.0,0
4-1-2017 7:00,-0.260536731104537,0.0,0.0,0.0,0
4-1-2017 8:00,-2.519084632827571,0.0,0.0,0.0,0
4-1-2017 9:00,-4.578837391405784,0.0,0.0,0.0,0
4-1-2017 10:00,-4.270555996932728,0.0,0.0,0.0,0
4-1-2017 11:00,-3.118524600697242,0.0,0.0,0.0,0
4-1-2017 12:00,-4.301720744297398,0.0,0.0,0.0,0
4-1-2017 13:00,-5.933611542903975,0.0,0.0,0.0,0
4-1-2017 14:00,-4.343979399249662,0.0,0.0,0.0,0
4-1-2017 15:00,-3.8335662017237553,0.0,0.0,0.0,0
4-1-2017 16:00,-3.876567012047957,0.0,0.0,0.0,0
4-1-2017 17:00,-4.570696642421012,0.0,0.0,0.0,0
4-1-2017 18:00,-0.6844509355514106,0.0,0.0,0.0,0
4-1-2017 19:00,8.995112304235136,0.0,0.0,0.0,0
4-1-2017 20:00,6.474309298504863,0.0,0.0,0.0,0
4-1-2017 21:00,1.4257866516876447,0.0,0.0,0.0,0
4-1-2017 22:00,4.556644582193343,0.0,0.0,0.0,0
4-1-2017 23:00,-4.346824240358217,0.0,0.0,0.0,0
5-1-2017 0:00,-8.760097309426186,0.0,0.0,0.0,0
5-1-2017 1:00,-5.596616103872435,0.0,0.0,0.0,0
5-1-2017 2:00,-2.8407115652296397,0.0,0.0,0.0,0
5-1-2017 3:00,-0.7959358124227265,0.0,0.0,0.0,0
5-1-2017 4:00,-0.8465526104282333,0.0,0.0,0.0,0
5-1-2017 5:00,-0.1333717754632744,0.0,0.0,0.0,0
5-1-2017 6:00,-0.23895352953067572,0.0,0.0,0.0,0
5-1-2017 7:00,1.4107595780518523,0.0,0.0,0.0,0
5-1-2017 8:00,2.0664105676438282,0.0,0.0,0.0,0
5-1-2017 9:00,4.367358776568636,0.0,0.0,0.0,0
5-1-2017 10:00,6.315427224063285,0.0,0.0,0.0,0
5-1-2017 11:00,6.242121170785538,0.0,0.0,0.0,0
5-1-2017 12:00,5.3160476479203,0.0,0.0,0.0,0
5-1-2017 13:00,2.392718421886485,0.0,0.0,0.0,0
5-1-2017 14:00,-5.013845945095738,0.0,0.0,0.0,0
5-1-2017 15:00,-4.784642688815751,0.0,0.0,0.0,0
5-1-2017 16:00,-3.0613273805896597,0.0,0.0,0.0,0
5-1-2017 17:00,7.742671614159775,0.0,0.0,0.0,0
5-1-2017 18:00,7.116916837185727,0.0,0.0,0.0,0
5-1-2017 19:00,11.981255311886997,0.0,0.0,0.0,0
5-1-2017 20:00,7.823930756035736,0.0,0.0,0.0,0
5-1-2017 21:00,4.421277599056424,0.0,0.0,0.0,0
5-1-2017 22:00,5.138798862765583,0.0,0.0,0.0,0
5-1-2017 23:00,2.5771899933772318,0.0,0.0,0.0,0
6-1-2017 0:00,2.254696002963186,0.0,0.0,0.0,0
6-1-2017 1:00,-5.625190343617362,0.0,0.0,0.0,0
6-1-2017 2:00,-15.780633324387964,0.0,0.0,0.0,0
6-1-2017 3:00,-20.34551323489353,0.0,0.0,0.0,0
6-1-2017 4:00,-18.234083685137165,0.0,0.0,0.0,0
6-1-2017 5:00,-17.713096224541033,0.0,0.0,0.0,0
6-1-2017 6:00,-15.612922735237618,0.0,0.0,0.0,0
6-1-2017 7:00,-12.626650714978894,0.0,0.0,0.0,0
6-1-2017 8:00,-4.922147762924482,0.0,0.0,0.0,0
6-1-2017 9:00,3.198549587180537,0.0,0.0,0.0,0
6-1-2017 10:00,8.094423746397581,0.0,0.0,0.0,0
6-1-2017 11:00,8.587766013710564,0.0,0.0,0.0,0
6-1-2017 12:00,8.035696507712771,0.0,0.0,0.0,0
6-1-2017 13:00,6.948255173473058,0.0,0.0,0.0,0
6-1-2017 14:00,6.451170653000588,0.0,0.0,0.0,0
6-1-2017 15:00,6.36160024936936,0.0,0.0,0.0,0
6-1-2017 16:00,4.897616709490592,0.0,0.0,0.0,0
6-1-2017 17:00,2.988680784802625,0.0,0.0,0.0,0
6-1-2017 18:00,1.9509757538195913,0.0,0.0,0.0,0
6-1-2017 19:00,1.9439937281099446,0.0,0.0,0.0,0
6-1-2017 20:00,-0.10678878254952906,0.0,0.0,0.0,0
6-1-2017 21:00,-0.4748506898606024,0.0,0.0,0.0,0
6-1-2017 22:00,0.2610302771968236,0.0,0.0,0.0,0
6-1-2017 23:00,1.853093451439463,0.0,0.0,0.0,0
7-1-2017 0:00,-5.146915688248924,0.0,0.0,0.0,0
7-1-2017 1:00,-0.4583028296769953,0.0,0.0,0.0,0
7-1-2017 2:00,-0.22322657257421952,0.0,0.0,0.0,0
7-1-2017 3:00,2.2941046108945216,0.0,0.0,0.0,0
7-1-2017 4:00,1.9194753669585793,0.0,0.0,0.0,0
7-1-2017 5:00,1.946592565139099,0.0,0.0,0.0,0
7-1-2017 6:00,1.7508444097663869,0.0,0.0,0.0,0
7-1-2017 7:00,0.36201451713537836,0.0,0.0,0.0,0
7-1-2017 8:00,-0.6662913939138093,0.0,0.0,0.0,0
7-1-2017 9:00,-1.584143889507061,0.0,0.0,0.0,0
7-1-2017 10:00,-0.6687686065361049,0.0,0.0,0.0,0
7-1-2017 11:00,-0.21708260660085443,0.0,0.0,0.0,0
7-1-2017 12:00,-0.8834526836997725,0.0,0.0,0.0,0
7-1-2017 13:00,0.41618098014049565,0.0,0.0,0.0,0
7-1-2017 14:00,0.11976341246372613,0.0,0.0,0.0,0
7-1-2017 15:00,-1.2973935447928397,0.0,0.0,0.0,0
7-1-2017 16:00,-0.6875253176311844,0.0,0.0,0.0,0
7-1-2017 17:00,-1.2559340366333913,0.0,0.0,0.0,0
7-1-2017 18:00,-1.2421271965022243,0.0,0.0,0.0,0
7-1-2017 19:00,-1.7169937878215933,0.0,0.0,0.0,0
7-1-2017 20:00,-1.567798318487803,0.0,0.0,0.0,0
7-1-2017 21:00,-2.398881273205859,0.0,0.0,0.0,0
7-1-2017 22:00,-2.0922662346048924,0.0,0.0,0.0,0
7-1-2017 23:00,2.1158433514640933,0.0,0.0,0.0,0
8-1-2017 0:00,2.4406934306965127,0.0,0.0,0.0,0
8-1-2017 1:00,3.3175334109103005,0.0,0.0,0.0,0
8-1-2017 2:00,3.4328568223757543,0.0,0.0,0.0,0
8-1-2017 3:00,4.492127016308132,0.0,0.0,0.0,0
8-1-2017 4:00,5.841173105320593,0.0,0.0,0.0,0
8-1-2017 5:00,5.281071266480012,0.0,0.0,0.0,0
8-1-2017 6:00,5.026052691825782,0.0,0.0,0.0,0
8-1-2017 7:00,1.2387766230402235,0.0,0.0,0.0,0
8-1-2017 8:00,1.6043175856226526,0.0,0.0,0.0,0
8-1-2017 9:00,-2.6067704079270015,0.0,0.0,0.0,0
8-1-2017 10:00,-3.7565785673130563,0.0,0.0,0.0,0
8-1-2017 11:00,-5.001233400866454,0.0,0.0,0.0,0
8-1-2017 12:00,-2.316588615177409,0.0,0.0,0.0,0
8-1-2017 13:00,-1.6181655706552078,0.0,0.0,0.0,0
8-1-2017 14:00,-1.6422018029346077,0.0,0.0,0.0,0
8-1-2017 15:00,-1.825230931214719,0.0,0.0,0.0,0
8-1-2017 16:00,-2.6997932616110347,0.0,0.0,0.0,0
8-1-2017 17:00,-2.722166335949055,0.0,0.0,0.0,0
8-1-2017 18:00,-2.171339185725401,0.0,0.0,0.0,0
8-1-2017 19:00,-0.5285697974712775,0.0,0.0,0.0,0
8-1-2017 20:00,-2.6338758029611427,0.0,0.0,0.0,0
8-1-2017 21:00,-4.044196921727234,0.0,0.0,0.0,0
8-1-2017 22:00,-3.8830446350234524,0.0,0.0,0.0,0
8-1-2017 23:00,0.8349145394312245,0.0,0.0,0.0,0
9-1-2017 0:00,3.248427014143772,0.0,0.0,0.0,0
9-1-2017 1:00,3.2691148521071796,0.0,0.0,0.0,0
9-1-2017 2:00,3.67030615404326,0.0,0.0,0.0,0
9-1-2017 3:00,4.197136094547034,0.0,0.0,0.0,0
9-1-2017 4:00,4.8754948911812335,0.0,0.0,0.0,0
9-1-2017 5:00,4.457771662890707,0.0,0.0,0.0,0
9-1-2017 6:00,4.463080316526089,0.0,0.0,0.0,0
9-1-2017 7:00,4.226966192970906,0.0,0.0,0.0,0
9-1-2017 8:00,-0.09403784943003757,0.0,0.0,0.0,0
9-1-2017 9:00,-0.9347306215315143,0.0,0.0,0.0,0
9-1-2017 10:00,-3.1260921576008514,0.0,0.0,0.0,0
9-1-2017 11:00,-2.3334577589694163,0.0,0.0,0.0,0
9-1-2017 12:00,-2.84416804481873,0.0,0.0,0.0,0
9-1-2017 13:00,-0.9403250233247036,0.0,0.0,0.0,0
9-1-2017 14:00,-0.8753493239166232,0.0,0.0,0.0,0
9-1-2017 15:00,-2.177620026930299,0.0,0.0,0.0,0
9-1-2017 16:00,-5.659997887385089,0.0,0.0,0.0,0
9-1-2017 17:00,-2.8710333336057374,0.0,0.0,0.0,0
9-1-2017 18:00,-1.3078838898363756,0.0,0.0,0.0,0
9-1-2017 19:00,-0.8122036590065136,0.0,0.0,0.0,0
9-1-2017 20:00,-2.366736276317795,0.0,0.0,0.0,0
9-1-2017 21:00,-2.8323360681667396,0.0,0.0,0.0,0
9-1-2017 22:00,-2.482727891087052,0.0,0.0,0.0,0
9-1-2017 23:00,-0.07100048597368414,0.0,0.0,0.0,0
10-1-2017 0:00,1.7845403818025716,0.0,0.0,0.0,0
10-1-2017 1:00,4.194331689358478,0.0,0.0,0.0,0
10-1-2017 2:00,4.4133387254572085,0.0,0.0,0.0,0
10-1-2017 3:00,3.6615489051456507,0.0,0.0,0.0,0
10-1-2017 4:00,5.249166790517563,0.0,0.0,0.0,0
10-1-2017 5:00,4.358965103742207,0.0,0.0,0.0,0
10-1-2017 6:00,4.330600195035743,0.0,0.0,0.0,0
10-1-2017 7:00,4.449173617554379,0.0,0.0,0.0,0
10-1-2017 8:00,2.505987993892006,0.0,0.0,0.0,0
10-1-2017 9:00,1.9109972879773522,0.0,0.0,0.0,0
10-1-2017 10:00,-2.7418376298780913,0.0,0.0,0.0,0
10-1-2017 11:00,-1.9101457477731287,0.0,0.0,0.0,0
10-1-2017 12:00,-1.2176193747561115,0.0,0.0,0.0,0
10-1-2017 13:00,0.2847201317496797,0.0,0.0,0.0,0
10-1-2017 14:00,2.000743665108928,0.0,0.0,0.0,0
10-1-2017 15:00,1.9881810430405267,0.0,0.0,0.0,0
10-1-2017 16:00,0.5449389558580151,0.0,0.0,0.0,0
10-1-2017 17:00,-1.1397449441130902,0.0,0.0,0.0,0
10-1-2017 18:00,-4.369801451345609,0.0,0.0,0.0,0
10-1-2017 19:00,-0.05852923173574709,0.0,0.0,0.0,0
10-1-2017 20:00,-2.0180139442184952,0.0,0.0,0.0,0
10-1-2017 21:00,-1.6172093678478916,0.0,0.0,0.0,0
10-1-2017 22:00,-1.0399415332252033,0.0,0.0,0.0,0
10-1-2017 23:00,-0.4205795415192597,0.0,0.0,0.0,0
11-1-2017 0:00,-1.9236139047956442,0.0,0.0,0.0,0
11-1-2017 1:00,-2.015794934804177,0.0,0.0,0.0,0
11-1-2017 2:00,-4.520047971699654,0.0,0.0,0.0,0
11-1-2017 3:00,-3.9415333599833673,0.0,0.0,0.0,0
11-1-2017 4:00,-5.115725151718152,0.0,0.0,0.0,0
11-1-2017 5:00,-3.045103019196233,0.0,0.0,0.0,0
11-1-2017 6:00,-1.0838392124622942,0.0,0.0,0.0,0
11-1-2017 7:00,1.622726780522214,0.0,0.0,0.0,0
11-1-2017 8:00,2.320664599990323,0.0,0.0,0.0,0
11-1-2017 9:00,4.185349777209467,0.0,0.0,0.0,0
11-1-2017 10:00,1.0750124130693735,0.0,0.0,0.0,0
11-1-2017 11:00,0.009732714149265576,0.0,0.0,0.0,0
11-1-2017 12:00,1.219466681533845,0.0,0.0,0.0,0
11-1-2017 13:00,-1.1258679553494346,0.0,0.0,0.0,0
11-1-2017 14:00,6.655032783560216,0.0,0.0,0.0,0
11-1-2017 15:00,2.516007614036141,0.0,0.0,0.0,0
11-1-2017 16:00,6.155721688534101,0.0,0.0,0.0,0
11-1-2017 17:00,4.536468798674605,0.0,0.0,0.0,0
11-1-2017 18:00,2.542285804302054,0.0,0.0,0.0,0
11-1-2017 19:00,4.248226568512564,0.0,0.0,0.0,0
11-1-2017 20:00,5.84286631667905,0.0,0.0,0.0,0
11-1-2017 21:00,5.362273751986436,0.0,0.0,0.0,0
11-1-2017 22:00,7.259399472578025,0.0,0.0,0.0,0
11-1-2017 23:00,8.218594279302494,0.0,0.0,0.0,0
12-1-2017 0:00,7.229182913399484,0.0,0.0,0.0,0
12-1-2017 1:00,-8.08391903548133,0.0,0.0,0.0,0
12-1-2017 2:00,-14.830380726678811,0.0,0.0,0.0,0
12-1-2017 3:00,-14.730510264242525,0.0,0.0,0.0,0
12-1-2017 4:00,-14.205455515765323,0.0,0.0,0.0,0
12-1-2017 5:00,-14.837770729882777,0.0,0.0,0.0,0
12-1-2017 6:00,-16.870639373645076,0.0,0.0,0.0,0
12-1-2017 7:00,-12.199838112529392,0.0,0.0,0.0,0
12-1-2017 8:00,-4.414534152265475,0.0,0.0,0.0,0
12-1-2017 9:00,3.079084081955898,0.0,0.0,0.0,0
12-1-2017 10:00,6.500502559257001,0.0,0.0,0.0,0
12-1-2017 11:00,6.2275095670375435,0.0,0.0,0.0,0
12-1-2017 12:00,7.393709416515549,0.0,0.0,0.0,0
12-1-2017 13:00,5.937848958284036,0.0,0.0,0.0,0
12-1-2017 14:00,5.8807752247848555,0.0,0.0,0.0,0
12-1-2017 15:00,3.892435829845766,0.0,0.0,0.0,0
12-1-2017 16:00,3.712261350916691,0.0,0.0,0.0,0
12-1-2017 17:00,3.5603082563927444,0.0,0.0,0.0,0
12-1-2017 18:00,2.4138675601042223,0.0,0.0,0.0,0
12-1-2017 19:00,-7.803635031180136,0.0,0.0,0.0,0
12-1-2017 20:00,-11.392982722460005,0.0,0.0,0.0,0
12-1-2017 21:00,0.7723247704295488,0.0,0.0,0.0,0
12-1-2017 22:00,-6.243387450946273,0.0,0.0,0.0,0
12-1-2017 23:00,-7.347055657139634,0.0,0.0,0.0,0
13-1-2017 0:00,4.0044601463941945,0.0,0.0,0.0,0
13-1-2017 1:00,2.0212054256265333,0.0,0.0,0.0,0
13-1-2017 2:00,4.863303227112453,0.0,0.0,0.0,0
13-1-2017 3:00,3.3952976872542138,0.0,0.0,0.0,0
13-1-2017 4:00,5.910282825763005,0.0,0.0,0.0,0
13-1-2017 5:00,6.163148440271129,0.0,0.0,0.0,0
13-1-2017 6:00,5.4642655212774685,0.0,0.0,0.0,0
13-1-2017 7:00,5.177313688034019,0.0,0.0,0.0,0
13-1-2017 8:00,4.577995426603451,0.0,0.0,0.0,0
13-1-2017 9:00,1.9945207914221044,0.0,0.0,0.0,0
13-1-2017 10:00,1.1015697137817142,0.0,0.0,0.0,0
13-1-2017 11:00,-1.465261968119819,0.0,0.0,0.0,0
13-1-2017 12:00,-4.118721632930999,0.0,0.0,0.0,0
13-1-2017 13:00,-0.7867224199652867,0.0,0.0,0.0,0
13-1-2017 14:00,3.8266148666722017,0.0,0.0,0.0,0
13-1-2017 15:00,4.147346738863803,0.0,0.0,0.0,0
13-1-2017 16:00,4.315697308257057,0.0,0.0,0.0,0
13-1-2017 17:00,4.434391276704957,0.0,0.0,0.0,0
13-1-2017 18:00,1.059040146136823,0.0,0.0,0.0,0
13-1-2017 19:00,7.611506842793318,0.0,0.0,0.0,0
13-1-2017 20:00,4.501584355502786,0.0,0.0,0.0,0
13-1-2017 21:00,6.562365928034467,0.0,0.0,0.0,0
13-1-2017 22:00,5.7834909553532725,0.0,0.0,0.0,0
13-1-2017 23:00,-8.863365073095764,0.0,0.0,0.0,0
14-1-2017 0:00,-14.467270594495545,0.0,0.0,0.0,0
14-1-2017 1:00,-15.612883391680356,0.0,0.0,0.0,0
14-1-2017 2:00,-14.28500378240463,0.0,0.0,0.0,0
14-1-2017 3:00,-10.491748268423038,0.0,0.0,0.0,0
14-1-2017 4:00,-10.831305680025707,0.0,0.0,0.0,0
14-1-2017 5:00,-10.051824707489118,0.0,0.0,0.0,0
14-1-2017 6:00,-9.663156161903288,0.0,0.0,0.0,0
14-1-2017 7:00,-6.932706955705612,0.0,0.0,0.0,0
14-1-2017 8:00,-1.8076175133749075,0.0,0.0,0.0,0
14-1-2017 9:00,3.028041439345145,0.0,0.0,0.0,0
14-1-2017 10:00,7.2573366718698935,0.0,0.0,0.0,0
14-1-2017 11:00,6.70359645204735,0.0,0.0,0.0,0
14-1-2017 12:00,3.199819602424924,0.0,0.0,0.0,0
14-1-2017 13:00,4.6510590904908895,0.0,0.0,0.0,0
14-1-2017 14:00,0.6562298809678566,0.0,0.0,0.0,0
14-1-2017 15:00,1.6452592352805766,0.0,0.0,0.0,0
14-1-2017 16:00,0.7698169925615446,0.0,0.0,0.0,0
14-1-2017 17:00,-0.41634228290416786,0.0,0.0,0.0,0
14-1-2017 18:00,1.2620319821211297,0.0,0.0,0.0,0
14-1-2017 19:00,2.126514359131079,0.0,0.0,0.0,0
14-1-2017 20:00,1.5808765035458237,0.0,0.0,0.0,0
14-1-2017 21:00,-0.29776965650899,0.0,0.0,0.0,0
14-1-2017 22:00,-0.8797271187600586,0.0,0.0,0.0,0
14-1-2017 23:00,0.8502322218938616,0.0,0.0,0.0,0
15-1-2017 0:00,3.4472864353779755,0.0,0.0,0.0,0
15-1-2017 1:00,4.229327849700724,0.0,0.0,0.0,0
15-1-2017 2:00,5.333001554691009,0.0,0.0,0.0,0
15-1-2017 3:00,6.24753041043715,0.0,0.0,0.0,0
15-1-2017 4:00,4.053237321479344,0.0,0.0,0.0,0
15-1-2017 5:00,4.494825185056698,0.0,0.0,0.0,0
15-1-2017 6:00,3.306536728234164,0.0,0.0,0.0,0
15-1-2017 7:00,1.8297226528947022,0.0,0.0,0.0,0
15-1-2017 8:00,1.884555478008508,0.0,0.0,0.0,0
15-1-2017 9:00,-1.5943925225882367,0.0,0.0,0.0,0
15-1-2017 10:00,-3.0566991384604307,0.0,0.0,0.0,0
15-1-2017 11:00,-3.271196054765994,0.0,0.0,0.0,0
15-1-2017 12:00,-2.9791382477616537,0.0,0.0,0.0,0
15-1-2017 13:00,-2.636007016481841,0.0,0.0,0.0,0
15-1-2017 14:00,-4.2763512540516615,0.0,0.0,0.0,0
15-1-2017 15:00,-3.066372949504256,0.0,0.0,0.0,0
15-1-2017 16:00,-3.362914501314634,0.0,0.0,0.0,0
15-1-2017 17:00,-3.871889092787228,0.0,0.0,0.0,0
15-1-2017 18:00,-1.007751504261762,0.0,0.0,0.0,0
15-1-2017 19:00,-0.30911151383122615,0.0,0.0,0.0,0
15-1-2017 20:00,0.021677195355948697,0.0,0.0,0.0,0
15-1-2017 21:00,-1.6887785575149223,0.0,0.0,0.0,0
15-1-2017 22:00,-1.4060852541268218,0.0,0.0,0.0,0
15-1-2017 23:00,-1.001577289161105,0.0,0.0,0.0,0
16-1-2017 0:00,0.31416991441602704,0.0,0.0,0.0,0
16-1-2017 1:00,3.7674506687809526,0.0,0.0,0.0,0
16-1-2017 2:00,4.390503598020587,0.0,0.0,0.0,0
16-1-2017 3:00,6.009890924066042,0.0,0.0,0.0,0
16-1-2017 4:00,2.644507845289013,0.0,0.0,0.0,0
16-1-2017 5:00,4.0034931087391215,0.0,0.0,0.0,0
16-1-2017 6:00,4.5335381583403205,0.0,0.0,0.0,0
16-1-2017 7:00,3.044775968413319,0.0,0.0,0.0,0
16-1-2017 8:00,2.894667343259812,0.0,0.0,0.0,0
16-1-2017 9:00,-2.8760412033842613,0.0,0.0,0.0,0
16-1-2017 10:00,-3.5670991867009434,0.0,0.0,0.0,0
16-1-2017 11:00,-5.8595023185371815,0.0,0.0,0.0,0
16-1-2017 12:00,-6.35875937395366,0.0,0.0,0.0,0
16-1-2017 13:00,-5.857780112786173,0.0,0.0,0.0,0
16-1-2017 14:00,-6.497683091729243,0.0,0.0,0.0,0
16-1-2017 15:00,-5.330799550273355,0.0,0.0,0.0,0
16-1-2017 16:00,-0.1524664796182833,0.0,0.0,0.0,0
16-1-2017 17:00,2.179234723742013,0.0,0.0,0.0,0
16-1-2017 18:00,0.9026267466074387,0.0,0.0,0.0,0
16-1-2017 19:00,1.168965712525619,0.0,0.0,0.0,0
16-1-2017 20:00,-1.4702776514477591,0.0,0.0,0.0,0
16-1-2017 21:00,-0.6763452860889743,0.0,0.0,0.0,0
16-1-2017 22:00,-1.002806022005359,0.0,0.0,0.0,0
16-1-2017 23:00,0.5724457623287549,0.0,0.0,0.0,0
17-1-2017 0:00,3.0530811510553235,0.0,0.0,0.0,0
17-1-2017 1:00,3.9618064939738815,0.0,0.0,0.0,0
17-1-2017 2:00,5.248443895974276,0.0,0.0,0.0,0
17-1-2017 3:00,6.226894940830448,0.0,0.0,0.0,0
17-1-2017 4:00,4.384315074959375,0.0,0.0,0.0,0
17-1-2017 5:00,3.887385297978483,0.0,0.0,0.0,0
17-1-2017 6:00,4.972451413699616,0.0,0.0,0.0,0
17-1-2017 7:00,3.258010489344315,0.0,0.0,0.0,0
17-1-2017 8:00,2.4692297940827643,0.0,0.0,0.0,0
17-1-2017 9:00,-0.972525738754598,0.0,0.0,0.0,0
17-1-2017 10:00,-1.112072738876691,0.0,0.0,0.0,0
17-1-2017 11:00,-0.5521197356043785,0.0,0.0,0.0,0
17-1-2017 12:00,0.0075706971973659165,0.0,0.0,0.0,0
17-1-2017 13:00,0.44079461975741197,0.0,0.0,0.0,0
17-1-2017 14:00,1.3057295309462233,0.0,0.0,0.0,0
17-1-2017 15:00,0.6539149408155254,0.0,0.0,0.0,0
17-1-2017 16:00,2.7815371725118325,0.0,0.0,0.0,0
17-1-2017 17:00,4.382340708209426,0.0,0.0,0.0,0
17-1-2017 18:00,3.663413702919229,0.0,0.0,0.0,0
17-1-2017 19:00,1.5460784051642804,0.0,0.0,0.0,0
17-1-2017 20:00,3.575429728869608,0.0,0.0,0.0,0
17-1-2017 21:00,4.669385278936659,0.0,0.0,0.0,0
17-1-2017 22:00,1.979807693859243,0.0,0.0,0.0,0
17-1-2017 23:00,-5.05815951229485,0.0,0.0,0.0,0
18-1-2017 0:00,-16.8575383584149,0.0,0.0,0.0,0
18-1-2017 1:00,-14.987988682900607,0.0,0.0,0.0,0
18-1-2017 2:00,-12.35601711876788,0.0,0.0,0.0,0
18-1-2017 3:00,-8.425573281029926,0.0,0.0,0.0,0
18-1-2017 4:00,-7.781594669534229,0.0,0.0,0.0,0
18-1-2017 5:00,-8.008595846539379,0.0,0.0,0.0,0
18-1-2017 6:00,-5.0718359421435935,0.0,0.0,0.0,0
18-1-2017 7:00,-2.6880768796750374,0.0,0.0,0.0,0
18-1-2017 8:00,3.09675125067821,0.0,0.0,0.0,0
18-1-2017 9:00,4.773759442385227,0.0,0.0,0.0,0
18-1-2017 10:00,6.704136085836922,0.0,0.0,0.0,0
18-1-2017 11:00,6.139624585697561,0.0,0.0,0.0,0
18-1-2017 12:00,4.879838599262996,0.0,0.0,0.0,0
18-1-2017 13:00,3.576985638868564,0.0,0.0,0.0,0
18-1-2017 14:00,3.6709879066378335,0.0,0.0,0.0,0
18-1-2017 15:00,3.5853196448458107,0.0,0.0,0.0,0
18-1-2017 16:00,2.676486759697241,0.0,0.0,0.0,0
18-1-2017 17:00,1.6738232691895973,0.0,0.0,0.0,0
18-1-2017 18:00,-3.144261866329771,0.0,0.0,0.0,0
18-1-2017 19:00,-8.896940592817174,0.0,0.0,0.0,0
18-1-2017 20:00,-4.097497669062989,0.0,0.0,0.0,0
18-1-2017 21:00,-2.9254509462496685,0.0,0.0,0.0,0
18-1-2017 22:00,-2.192918378650859,0.0,0.0,0.0,0
18-1-2017 23:00,1.4015499725073823,0.0,0.0,0.0,0
19-1-2017 0:00,3.8679050992520843,0.0,0.0,0.0,0
19-1-2017 1:00,6.136406940974439,0.0,0.0,0.0,0
19-1-2017 2:00,6.501840500852097,0.0,0.0,0.0,0
19-1-2017 3:00,8.522404965084093,0.0,0.0,0.0,0
19-1-2017 4:00,8.48021159990833,0.0,0.0,0.0,0
19-1-2017 5:00,7.946680402138611,0.0,0.0,0.0,0
19-1-2017 6:00,2.458675474468805,0.0,0.0,0.0,0
19-1-2017 7:00,-0.48646343749936705,0.0,0.0,0.0,0
19-1-2017 8:00,-2.095124442791871,0.0,0.0,0.0,0
19-1-2017 9:00,-2.4257807263213067,0.0,0.0,0.0,0
19-1-2017 10:00,-7.752395777967706,0.0,0.0,0.0,0
19-1-2017 11:00,-3.658287120190437,0.0,0.0,0.0,0
19-1-2017 12:00,-2.3544648645333837,0.0,0.0,0.0,0
19-1-2017 13:00,-3.5388271067008077,0.0,0.0,0.0,0
19-1-2017 14:00,-4.041189881169828,0.0,0.0,0.0,0
19-1-2017 15:00,-5.076144213441921,0.0,0.0,0.0,0
19-1-2017 16:00,-3.9068114174168613,0.0,0.0,0.0,0
19-1-2017 17:00,-4.1137302112048815,0.0,0.0,0.0,0
19-1-2017 18:00,-1.9317617540284573,0.0,0.0,0.0,0
19-1-2017 19:00,-2.6902714605340634,0.0,0.0,0.0,0
19-1-2017 20:00,-2.611224488016717,0.0,0.0,0.0,0
19-1-2017 21:00,-2.198767278017044,0.0,0.0,0.0,0
19-1-2017 22:00,-1.2414081516153601,0.0,0.0,0.0,0
19-1-2017 23:00,0.8082121629817038,0.0,0.0,0.0,0
20-1-2017 0:00,1.3630176687177027,0.0,0.0,0.0,0
20-1-2017 1:00,3.5232784825026897,0.0,0.0,0.0,0
20-1-2017 2:00,4.374980843979927,0.0,0.0,0.0,0
20-1-2017 3:00,6.278472740560687,0.0,0.0,0.0,0
20-1-2017 4:00,6.2931873255002415,0.0,0.0,0.0,0
20-1-2017 5:00,6.595046103872164,0.0,0.0,0.0,0
20-1-2017 6:00,6.134196341042809,0.0,0.0,0.0,0
20-1-2017 7:00,5.672190032035871,0.0,0.0,0.0,0
20-1-2017 8:00,5.092070468495365,0.0,0.0,0.0,0
20-1-2017 9:00,0.9279525056740567,0.0,0.0,0.0,0
20-1-2017 10:00,-3.1314334802877966,0.0,0.0,0.0,0
20-1-2017 11:00,-4.324483903811483,0.0,0.0,0.0,0
20-1-2017 12:00,-2.8528326452800457,0.0,0.0,0.0,0
20-1-2017 13:00,-3.897307100469618,0.0,0.0,0.0,0
20-1-2017 14:00,-3.5046378484259435,0.0,0.0,0.0,0
20-1-2017 15:00,-2.087481182427041,0.0,0.0,0.0,0
20-1-2017 16:00,-2.28858044694681,0.0,0.0,0.0,0
20-1-2017 17:00,-3.8538375381955348,0.0,0.0,0.0,0
20-1-2017 18:00,-1.965898482503576,0.0,0.0,0.0,0
20-1-2017 19:00,-2.4042946192370778,0.0,0.0,0.0,0
20-1-2017 20:00,-2.5096990481663397,0.0,0.0,0.0,0
20-1-2017 21:00,-1.3009837042292247,0.0,0.0,0.0,0
20-1-2017 22:00,-2.002882512478095,0.0,0.0,0.0,0
20-1-2017 23:00,-0.2521947278954144,0.0,0.0,0.0,0
21-1-2017 0:00,0.8669766633785798,0.0,0.0,0.0,0
21-1-2017 1:00,0.1633281479624884,0.0,0.0,0.0,0
21-1-2017 2:00,3.245631009775309,0.0,0.0,0.0,0
21-1-2017 3:00,5.706382037441017,0.0,0.0,0.0,0
21-1-2017 4:00,5.92244233927488,0.0,0.0,0.0,0
21-1-2017 5:00,4.431812741607416,0.0,0.0,0.0,0
21-1-2017 6:00,3.1702397914374956,0.0,0.0,0.0,0
21-1-2017 7:00,4.323563552469636,0.0,0.0,0.0,0
21-1-2017 8:00,3.594182897759083,0.0,0.0,0.0,0
21-1-2017 9:00,0.7015617190654098,0.0,0.0,0.0,0
21-1-2017 10:00,-2.315619591093366,0.0,0.0,0.0,0
21-1-2017 11:00,-3.5708534857993186,0.0,0.0,0.0,0
21-1-2017 12:00,-2.8763976142749925,0.0,0.0,0.0,0
21-1-2017 13:00,-2.3916297610582546,0.0,0.0,0.0,0
21-1-2017 14:00,-7.39457396107349,0.0,0.0,0.0,0
21-1-2017 15:00,-4.595951775375283,0.0,0.0,0.0,0
21-1-2017 16:00,-1.918222511322142,0.0,0.0,0.0,0
21-1-2017 17:00,-1.2553991923290369,0.0,0.0,0.0,0
21-1-2017 18:00,-1.2750708304192813,0.0,0.0,0.0,0
21-1-2017 19:00,0.2929314361693969,0.0,0.0,0.0,0
21-1-2017 20:00,1.1193604393437795,0.0,0.0,0.0,0
21-1-2017 21:00,1.2690466002754306,0.0,0.0,0.0,0
21-1-2017 22:00,2.4124152236359464,0.0,0.0,0.0,0
21-1-2017 23:00,1.3186958444640027,0.0,0.0,0.0,0
22-1-2017 0:00,3.257898440532472,0.0,0.0,0.0,0
22-1-2017 1:00,4.650431974937192,0.0,0.0,0.0,0
22-1-2017 2:00,3.9148550980590926,0.0,0.0,0.0,0
22-1-2017 3:00,0.20703317680414557,0.0,0.0,0.0,0
22-1-2017 4:00,7.916544482135066,0.0,0.0,0.0,0
22-1-2017 5:00,8.193803530117293,0.0,0.0,0.0,0
22-1-2017 6:00,7.395790475841807,0.0,0.0,0.0,0
22-1-2017 7:00,-3.69366444227029,0.0,0.0,0.0,0
22-1-2017 8:00,-11.335274284674426,0.0,0.0,0.0,0
22-1-2017 9:00,-13.418585743111834,0.0,0.0,0.0,0
22-1-2017 10:00,-5.515993886639592,0.0,0.0,0.0,0
22-1-2017 11:00,-1.2463671973034707,0.0,0.0,0.0,0
22-1-2017 12:00,-1.5345102437721607,0.0,0.0,0.0,0
22-1-2017 13:00,-1.0045963043721713,0.0,0.0,0.0,0
22-1-2017 14:00,0.1336942404074648,0.0,0.0,0.0,0
22-1-2017 15:00,-0.955706662763248,0.0,0.0,0.0,0
22-1-2017 16:00,-0.6183313516320368,0.0,0.0,0.0,0
22-1-2017 17:00,-0.5498650412528718,0.0,0.0,0.0,0
22-1-2017 18:00,-1.9112076002549543,0.0,0.0,0.0,0
22-1-2017 19:00,3.2873596762768216,0.0,0.0,0.0,0
22-1-2017 20:00,2.842614760267111,0.0,0.0,0.0,0
22-1-2017 21:00,-2.5996545757636795,0.0,0.0,0.0,0
22-1-2017 22:00,-4.4533640532259255,0.0,0.0,0.0,0
22-1-2017 23:00,-5.054236679308815,0.0,0.0,0.0,0
23-1-2017 0:00,-5.861202519549806,0.0,0.0,0.0,0
23-1-2017 1:00,1.1121053562076213,0.0,0.0,0.0,0
23-1-2017 2:00,1.1232410321704833,0.0,0.0,0.0,0
23-1-2017 3:00,-2.1685615464732564,0.0,0.0,0.0,0
23-1-2017 4:00,2.2791057308821223,0.0,0.0,0.0,0
23-1-2017 5:00,1.903125618158981,0.0,0.0,0.0,0
23-1-2017 6:00,1.4375446534227763,0.0,0.0,0.0,0
23-1-2017 7:00,4.704255130025956,0.0,0.0,0.0,0
23-1-2017 8:00,-13.270639826212175,0.0,0.0,0.0,0
23-1-2017 9:00,5.020148264518639,0.0,0.0,0.0,0
23-1-2017 10:00,10.917318498570182,0.0,0.0,0.0,0
23-1-2017 11:00,8.626610982896693,0.0,0.0,0.0,0
23-1-2017 12:00,8.030674229383294,0.0,0.0,0.0,0
23-1-2017 13:00,7.519303354384363,0.0,0.0,0.0,0
23-1-2017 14:00,7.962397743376698,0.0,0.0,0.0,0
23-1-2017 15:00,7.328542850754957,0.0,0.0,0.0,0
23-1-2017 16:00,-1.900950244867488,0.0,0.0,0.0,0
23-1-2017 17:00,-4.900886902826414,0.0,0.0,0.0,0
23-1-2017 18:00,-7.957946342464368,0.0,0.0,0.0,0
23-1-2017 19:00,-8.452938801924688,0.0,0.0,0.0,0
23-1-2017 20:00,-7.302982383053802,0.0,0.0,0.0,0
23-1-2017 21:00,-7.730842054336051,0.0,0.0,0.0,0
23-1-2017 22:00,-6.7753160681160125,0.0,0.0,0.0,0
23-1-2017 23:00,-4.99702837660476,0.0,0.0,0.0,0
24-1-2017 0:00,-0.7238490886502973,0.0,0.0,0.0,0
24-1-2017 1:00,-2.1135768151590355,0.0,0.0,0.0,0
24-1-2017 2:00,3.4704614700260663,0.0,0.0,0.0,0
24-1-2017 3:00,4.4508682903747285,0.0,0.0,0.0,0
24-1-2017 4:00,7.292878291659349,0.0,0.0,0.0,0
24-1-2017 5:00,7.098284240280691,0.0,0.0,0.0,0
24-1-2017 6:00,7.15976058713369,0.0,0.0,0.0,0
24-1-2017 7:00,6.9872636500243175,0.0,0.0,0.0,0
24-1-2017 8:00,8.123710771524088,0.0,0.0,0.0,0
24-1-2017 9:00,4.607895347338342,0.0,0.0,0.0,0
24-1-2017 10:00,1.7089417772160687,0.0,0.0,0.0,0
24-1-2017 11:00,-2.8928021252204417,0.0,0.0,0.0,0
24-1-2017 12:00,0.38276523246821625,0.0,0.0,0.0,0
24-1-2017 13:00,-2.0381339106714336,0.0,0.0,0.0,0
24-1-2017 14:00,-3.028479131208144,0.0,0.0,0.0,0
24-1-2017 15:00,-0.0250314670228704,0.0,0.0,0.0,0
24-1-2017 16:00,-4.329634850177513,0.0,0.0,0.0,0
24-1-2017 17:00,-3.5558058017570033,0.0,0.0,0.0,0
24-1-2017 18:00,-3.0564134473132185,0.0,0.0,0.0,0
24-1-2017 19:00,-6.692800840611028,0.0,0.0,0.0,0
24-1-2017 20:00,-13.545978284705,0.0,0.0,0.0,0
24-1-2017 21:00,-11.511789893014935,0.0,0.0,0.0,0
24-1-2017 22:00,-7.41942101540576,0.0,0.0,0.0,0
24-1-2017 23:00,0.7256344214063688,0.0,0.0,0.0,0
25-1-2017 0:00,2.9465662652634137,0.0,0.0,0.0,0
25-1-2017 1:00,5.339610209240334,0.0,0.0,0.0,0
25-1-2017 2:00,5.522358376399438,0.0,0.0,0.0,0
25-1-2017 3:00,0.8207818684921904,0.0,0.0,0.0,0
25-1-2017 4:00,4.52286419343767,0.0,0.0,0.0,0
25-1-2017 5:00,5.237453425927356,0.0,0.0,0.0,0
25-1-2017 6:00,5.103784306893488,0.0,0.0,0.0,0
25-1-2017 7:00,5.22980872654432,0.0,0.0,0.0,0
25-1-2017 8:00,7.555326696255065,0.0,0.0,0.0,0
25-1-2017 9:00,5.9700167811315055,0.0,0.0,0.0,0
25-1-2017 10:00,1.3020093754014965,0.0,0.0,0.0,0
25-1-2017 11:00,-1.3037009452316966,0.0,0.0,0.0,0
25-1-2017 12:00,-3.8395595077749363,0.0,0.0,0.0,0
25-1-2017 13:00,-3.2120101080765835,0.0,0.0,0.0,0
25-1-2017 14:00,-1.217818127163639,0.0,0.0,0.0,0
25-1-2017 15:00,-1.8190910951925048,0.0,0.0,0.0,0
25-1-2017 16:00,-0.050763764497503416,0.0,0.0,0.0,0
25-1-2017 17:00,-1.3062699431837927,0.0,0.0,0.0,0
25-1-2017 18:00,4.16647327185558,0.0,0.0,0.0,0
25-1-2017 19:00,5.815683554610359,4.98,11.44,-1.47,0
25-1-2017 20:00,7.206364857441713,5.97,12.42,-0.48,0
25-1-2017 21:00,5.89762577271614,6.51,12.96,0.06,0
25-1-2017 22:00,5.682000149385772,5.75,12.19,-0.7,0
25-1-2017 23:00,4.258985939170259,6.31,12.75,-0.12,0
26-1-2017 0:00,5.697073752320563,4.35,10.78,-2.08,0
26-1-2017 1:00,-5.154674726681122,5.08,11.51,-1.35,1
26-1-2017 2:00,-17.415836005820438,-5.23,1.24,-11.7,1
26-1-2017 3:00,-15.79220070278825,-17.64,-11.11,-24.18,0
26-1-2017 4:00,-12.25768183715158,-15.7,-9.17,-22.23,0
26-1-2017 5:00,-11.352961407459674,-11.86,-5.32,-18.39,0
26-1-2017 6:00,-10.132922761442984,-11.33,-4.8,-17.85,0
26-1-2017 7:00,-8.1642340832243,-10.45,-3.93,-16.98,0
26-1-2017 8:00,-3.9559869587261858,-8.09,-1.57,-14.61,0
26-1-2017 9:00,1.9046532593876577,-3.43,3.09,-9.95,0
26-1-2017 10:00,4.879969839328652,2.17,8.7,-4.37,0
26-1-2017 11:00,3.6845467448064824,4.66,11.19,-1.87,0
26-1-2017 12:00,1.4958455207541306,3.44,9.97,-3.08,0
26-1-2017 13:00,2.7061213937133175,1.58,8.11,-4.94,0
26-1-2017 14:00,2.6137348059274927,2.93,9.45,-3.59,0
26-1-2017 15:00,-0.17727567836260505,2.57,9.08,-3.94,0
26-1-2017 16:00,0.42865591326403774,-0.51,6.0,-7.02,0
26-1-2017 17:00,-0.2024168190066007,0.39,6.9,-6.12,0
26-1-2017 18:00,0.1742254664976599,0.12,6.62,-6.38,0
26-1-2017 19:00,0.7169216672766083,0.21,6.7,-6.29,0
26-1-2017 20:00,-0.12474761423976588,0.44,6.93,-6.05,0
26-1-2017 21:00,-0.6549534638060663,-0.17,6.31,-6.66,0
26-1-2017 22:00,-1.6634761078761358,-0.44,6.04,-6.92,0
26-1-2017 23:00,-0.24742128493869586,-1.68,4.8,-8.15,0
27-1-2017 0:00,2.27093829513268,-0.43,6.04,-6.91,0
27-1-2017 1:00,1.4253836697247948,2.44,8.91,-4.03,0
27-1-2017 2:00,3.53129922085958,1.65,8.12,-4.81,0
27-1-2017 3:00,3.4111326114037297,3.43,9.89,-3.03,0
27-1-2017 4:00,7.338928497927725,3.25,9.7,-3.21,0
27-1-2017 5:00,7.159285440241092,7.59,14.05,1.14,0
27-1-2017 6:00,8.188537166727485,7.43,13.88,0.98,0
27-1-2017 7:00,7.595301051422325,7.98,14.43,1.53,0
27-1-2017 8:00,7.801688278616211,7.33,13.78,0.89,0
27-1-2017 9:00,4.185709744304347,7.99,14.43,1.55,0
27-1-2017 10:00,2.621738145898462,4.3,10.74,-2.14,0
27-1-2017 11:00,0.49399011346940824,2.25,8.69,-4.19,0
27-1-2017 12:00,1.379834063889973,0.25,6.68,-6.19,0
27-1-2017 13:00,2.9497158388789444,1.7,8.13,-4.72,0
27-1-2017 14:00,5.597630111163312,3.28,9.71,-3.14,0
27-1-2017 15:00,5.553761539380901,5.45,11.87,-0.97,0
27-1-2017 16:00,8.814244157037592,5.3,11.72,-1.11,0
27-1-2017 17:00,9.99015679486729,9.09,15.51,2.67,0
27-1-2017 18:00,1.0832500745214588,10.39,16.8,3.97,1
27-1-2017 19:00,3.0520699152601765,0.49,6.93,-5.96,0
27-1-2017 20:00,1.1106877713314702,2.52,8.97,-3.92,0
27-1-2017 21:00,3.085376847969002,1.65,8.09,-4.79,0
27-1-2017 22:00,1.4503950802296117,3.65,10.09,-2.79,0
27-1-2017 23:00,-5.088043166609879,0.92,7.36,-5.51,0
28-1-2017 0:00,-7.182973922547092,-5.95,0.49,-12.4,0
28-1-2017 1:00,-20.547654356042557,-6.94,-0.5,-13.38,1
28-1-2017 2:00,-18.67998163631512,-20.25,-13.73,-26.77,0
28-1-2017 3:00,-18.44926981994047,-19.23,-12.71,-25.75,0
28-1-2017 4:00,-15.233482512532419,-18.69,-12.18,-25.2,0
28-1-2017 5:00,-15.110943599543901,-14.57,-8.06,-21.08,0
28-1-2017 6:00,-13.945933334533947,-14.77,-8.27,-21.28,0
28-1-2017 7:00,-10.484535827579094,-14.54,-8.04,-21.04,0
28-1-2017 8:00,-4.5134500819057735,-10.66,-4.16,-17.17,0
28-1-2017 9:00,0.8332930570634005,-3.61,2.91,-10.13,0
28-1-2017 10:00,5.859375817488626,1.39,7.91,-5.13,0
28-1-2017 11:00,6.348645384330524,5.32,11.84,-1.21,0
28-1-2017 12:00,4.598377046401964,5.95,12.47,-0.57,0
28-1-2017 13:00,4.7637150843041525,5.07,11.58,-1.45,0
28-1-2017 14:00,6.607780577542201,5.12,11.63,-1.4,0
28-1-2017 15:00,5.23690427915102,6.23,12.74,-0.28,0
28-1-2017 16:00,2.9977887883476058,4.89,11.4,-1.61,0
28-1-2017 17:00,4.451879479786129,3.23,9.73,-3.27,0
28-1-2017 18:00,6.842616437098627,4.77,11.27,-1.72,0
28-1-2017 19:00,6.248746469052918,6.77,13.26,0.28,0
28-1-2017 20:00,6.588838013967774,6.0,12.49,-0.49,0
28-1-2017 21:00,7.780587163891994,6.65,13.13,0.16,0
28-1-2017 22:00,8.121276976357535,8.09,14.57,1.61,0
28-1-2017 23:00,8.080476363615503,8.13,14.6,1.65,0
29-1-2017 0:00,-0.8956140244559947,7.79,14.26,1.32,1
29-1-2017 1:00,11.311251259274087,-1.27,5.23,-7.76,1
29-1-2017 2:00,10.081352672907286,11.72,18.3,5.15,0
29-1-2017 3:00,3.5536144404255197,9.82,16.32,3.32,0
29-1-2017 4:00,-18.0120282063601,2.87,9.44,-3.71,1
29-1-2017 5:00,-20.949006889849414,-18.36,-11.65,-25.07,0
29-1-2017 6:00,-19.859937653468933,-21.59,-14.89,-28.29,0
29-1-2017 7:00,-18.295697963437362,-19.41,-12.65,-26.16,0
29-1-2017 8:00,-17.19170513846774,-17.97,-11.22,-24.72,0
29-1-2017 9:00,-13.131719172582251,-17.7,-11.01,-24.39,0
29-1-2017 10:00,-6.515127186454436,-13.04,-6.29,-19.79,0
29-1-2017 11:00,3.9716148465300876,-5.66,1.1,-12.43,1
29-1-2017 12:00,6.485689087124001,4.09,10.81,-2.63,0
29-1-2017 13:00,3.9050579517642348,6.17,12.96,-0.63,0
29-1-2017 14:00,-0.6961507702192193,4.04,10.84,-2.75,0
29-1-2017 15:00,1.9845397686055435,-0.73,6.07,-7.52,0
29-1-2017 16:00,2.8044511827907286,2.78,9.56,-3.99,0
29-1-2017 17:00,2.132057519920238,1.62,8.38,-5.15,0
29-1-2017 18:00,3.5857757469732974,1.33,8.09,-5.43,0
29-1-2017 19:00,-1.6953538458735977,4.78,11.54,-1.98,0
29-1-2017 20:00,2.631641571868016,-1.71,5.07,-8.5,0
29-1-2017 21:00,0.5979563298770927,2.83,9.55,-3.89,0
29-1-2017 22:00,1.3219714582684503,0.65,7.43,-6.14,0
29-1-2017 23:00,-0.9135377846551762,0.96,7.68,-5.76,0
30-1-2017 0:00,2.4132844482934104,-0.82,5.89,-7.53,0
30-1-2017 1:00,3.6584067218860525,2.69,9.39,-4.02,0
30-1-2017 2:00,3.5912841439312047,3.66,10.36,-3.05,0
30-1-2017 3:00,6.898063882656743,3.39,10.09,-3.31,0
30-1-2017 4:00,5.241758160505242,7.16,13.93,0.39,0
30-1-2017 5:00,6.942911035966404,5.47,12.16,-1.23,0
30-1-2017 6:00,6.704491904448389,6.56,13.32,-0.2,0
30-1-2017 7:00,6.36232359259165,6.8,13.49,0.12,0
30-1-2017 8:00,7.174311544732035,6.67,13.35,-0.01,0
30-1-2017 9:00,0.18741902494994633,6.94,13.62,0.27,1
30-1-2017 10:00,-5.371776732795524,-0.19,6.57,-6.95,0
30-1-2017 11:00,-5.8158644688038805,-5.51,1.25,-12.28,0
30-1-2017 12:00,-4.092929313663916,-5.67,1.09,-12.43,0
30-1-2017 13:00,-2.7271091934666742,-3.99,2.7,-10.68,0
30-1-2017 14:00,-2.8128095005424427,-2.77,3.92,-9.46,0
30-1-2017 15:00,-4.228056577852129,-2.8,3.88,-9.48,0
30-1-2017 16:00,-3.8381290212381316,-4.23,2.52,-10.97,0
30-1-2017 17:00,-3.465191150324898,-3.91,2.76,-10.58,0
30-1-2017 18:00,-2.5164183752894758,-3.4,3.33,-10.14,0
30-1-2017 19:00,-0.6802585553983818,-2.44,4.29,-9.17,0
30-1-2017 20:00,-1.3599809736960538,-0.66,6.0,-7.32,0
30-1-2017 21:00,-1.5016358086953119,-1.38,5.35,-8.1,0
30-1-2017 22:00,-1.2888076174784828,-1.54,5.18,-8.26,0
30-1-2017 23:00,-1.5854601027843387,-1.25,5.46,-7.96,0
31-1-2017 0:00,1.194182874563296,-1.56,5.08,-8.21,0
31-1-2017 1:00,1.6204764071857198,1.23,7.93,-5.48,0
31-1-2017 2:00,1.9990441068100608,1.77,8.4,-4.87,0
31-1-2017 3:00,5.323256085910145,1.94,8.64,-4.75,0
31-1-2017 4:00,7.589004424804557,5.38,12.08,-1.32,0
31-1-2017 5:00,8.229097571989143,7.87,14.56,1.17,0
31-1-2017 6:00,7.1939987853455705,8.18,14.87,1.49,0
31-1-2017 7:00,6.516079065363499,6.94,13.56,0.33,0
31-1-2017 8:00,7.5867187384375825,6.62,13.3,-0.07,0
31-1-2017 9:00,2.554441566225705,7.79,14.47,1.11,0
31-1-2017 10:00,-1.689150350581201,2.24,8.92,-4.45,0
31-1-2017 11:00,-4.282676270770651,-2.15,4.54,-8.83,0
31-1-2017 12:00,-6.239488616272695,-4.05,2.64,-10.73,0
31-1-2017 13:00,-5.874272707060129,-6.11,0.57,-12.79,0
31-1-2017 14:00,-4.451520065769984,-6.26,0.42,-12.94,0
31-1-2017 15:00,-4.57976022575599,-4.31,2.36,-10.98,0
31-1-2017 16:00,-2.7868224272094437,-4.2,2.47,-10.87,0
31-1-2017 17:00,-1.9584461110524387,-3.06,3.6,-9.73,0
31-1-2017 18:00,-0.9345118765746179,-2.06,4.6,-8.72,0
31-1-2017 19:00,1.0391236940072872,-0.53,6.13,-7.18,0
31-1-2017 20:00,1.112869777623132,1.06,7.71,-5.59,0
31-1-2017 21:00,1.9848510853951211,0.81,7.46,-5.84,0
31-1-2017 22:00,1.0381927941211302,2.16,8.8,-4.49,0
31-1-2017 23:00,2.8520975211171162,1.26,7.9,-5.38,0
