Time,Actual,Forecasts,Upper Interval,Lower Interval,Is Anomalies
1-1-2017 0:00,68689.26009950452,0.0,0.0,0.0,0
1-1-2017 1:00,6999.960345110667,0.0,0.0,0.0,0
1-1-2017 2:00,5032.676283666195,0.0,0.0,0.0,0
1-1-2017 3:00,4660.721282157079,0.0,0.0,0.0,0
1-1-2017 4:00,15914.950025217022,0.0,0.0,0.0,0
1-1-2017 5:00,16124.36747812288,0.0,0.0,0.0,0
1-1-2017 6:00,12609.962686060655,0.0,0.0,0.0,0
1-1-2017 7:00,15572.952721933078,0.0,0.0,0.0,0
1-1-2017 8:00,14300.856966174531,0.0,0.0,0.0,0
1-1-2017 9:00,-31595.779737633926,0.0,0.0,0.0,0
1-1-2017 10:00,-35630.71990314775,0.0,0.0,0.0,0
1-1-2017 11:00,4975.853760181875,0.0,0.0,0.0,0
1-1-2017 12:00,-20594.088018224116,0.0,0.0,0.0,0
1-1-2017 13:00,-25519.6386718149,0.0,0.0,0.0,0
1-1-2017 14:00,-67170.7293471295,0.0,0.0,0.0,0
1-1-2017 15:00,-45955.25863652462,0.0,0.0,0.0,0
1-1-2017 16:00,-69571.72805442009,0.0,0.0,0.0,0
1-1-2017 17:00,-89360.79339633988,0.0,0.0,0.0,0
1-1-2017 18:00,-3539.9449490804145,0.0,0.0,0.0,0
1-1-2017 19:00,13622.640251616802,0.0,0.0,0.0,0
1-1-2017 20:00,-10531.375045249262,0.0,0.0,0.0,0
1-1-2017 21:00,21380.21713174416,0.0,0.0,0.0,0
1-1-2017 22:00,10582.47892146538,0.0,0.0,0.0,0
1-1-2017 23:00,89147.2312796782,0.0,0.0,0.0,0
2-1-2017 0:00,65374.87542847844,0.0,0.0,0.0,0
2-1-2017 1:00,6590.5889730278395,0.0,0.0,0.0,0
2-1-2017 2:00,-3377.018481740877,0.0,0.0,0.0,0
2-1-2017 3:00,-8593.399403195373,0.0,0.0,0.0,0
2-1-2017 4:00,-1212.1141815926749,0.0,0.0,0.0,0
2-1-2017 5:00,-3628.478484236737,0.0,0.0,0.0,0
2-1-2017 6:00,-8961.542033745605,0.0,0.0,0.0,0
2-1-2017 7:00,-6633.916066476966,0.0,0.0,0.0,0
2-1-2017 8:00,-6560.94928247662,0.0,0.0,0.0,0
2-1-2017 9:00,-5465.389926649106,0.0,0.0,0.0,0
2-1-2017 10:00,-31774.591730560387,0.0,0.0,0.0,0
2-1-2017 11:00,9236.56646925892,0.0,0.0,0.0,0
2-1-2017 12:00,-13109.082699909479,0.0,0.0,0.0,0
2-1-2017 13:00,-13003.559723552273,0.0,0.0,0.0,0
2-1-2017 14:00,-54700.82841097443,0.0,0.0,0.0,0
2-1-2017 15:00,125405.30289455735,0.0,0.0,0.0,0
2-1-2017 16:00,15391.857479338672,0.0,0.0,0.0,0
2-1-2017 17:00,80269.87437510025,0.0,0.0,0.0,0
2-1-2017 18:00,-25046.964647350393,0.0,0.0,0.0,0
2-1-2017 19:00,-15661.627049242874,0.0,0.0,0.0,0
2-1-2017 20:00,-39819.16091134095,0.0,0.0,0.0,0
2-1-2017 21:00,-11330.107390214194,0.0,0.0,0.0,0
2-1-2017 22:00,11701.064008526795,0.0,0.0,0.0,0
2-1-2017 23:00,38364.046236214126,0.0,0.0,0.0,0
3-1-2017 0:00,16518.123146270394,0.0,0.0,0.0,0
3-1-2017 1:00,11349.013647742962,0.0,0.0,0.0,0
3-1-2017 2:00,-18258.52354237008,0.0,0.0,0.0,0
3-1-2017 3:00,-23791.996725790035,0.0,0.0,0.0,0
3-1-2017 4:00,-14250.572138262643,0.0,0.0,0.0,0
3-1-2017 5:00,-13320.710448365142,0.0,0.0,0.0,0
3-1-2017 6:00,746.0049927708387,0.0,0.0,0.0,0
3-1-2017 7:00,-9233.70038814075,0.0,0.0,0.0,0
3-1-2017 8:00,-5646.408343957926,0.0,0.0,0.0,0
3-1-2017 9:00,-15000.546522381854,0.0,0.0,0.0,0
3-1-2017 10:00,65626.82260821226,0.0,0.0,0.0,0
3-1-2017 11:00,-6067.992082575882,0.0,0.0,0.0,0
3-1-2017 12:00,-29282.216069603826,0.0,0.0,0.0,0
3-1-2017 13:00,60816.99942688111,0.0,0.0,0.0,0
3-1-2017 14:00,-52284.38838246892,0.0,0.0,0.0,0
3-1-2017 15:00,-34161.30759183055,0.0,0.0,0.0,0
3-1-2017 16:00,-48303.83313636276,0.0,0.0,0.0,0
3-1-2017 17:00,10085.90949871672,0.0,0.0,0.0,0
3-1-2017 18:00,75533.68650819262,0.0,0.0,0.0,0
3-1-2017 19:00,-376.3310452497826,0.0,0.0,0.0,0
3-1-2017 20:00,-18683.351021540082,0.0,0.0,0.0,0
3-1-2017 21:00,-2680.0974078228683,0.0,0.0,0.0,0
3-1-2017 22:00,-9697.496716971189,0.0,0.0,0.0,0
3-1-2017 23:00,27619.365063281555,0.0,0.0,0.0,0
4-1-2017 0:00,10124.684417684795,0.0,0.0,0.0,0
4-1-2017 1:00,-15217.942926283598,0.0,0.0,0.0,0
4-1-2017 2:00,-9137.534654105097,0.0,0.0,0.0,0
4-1-2017 3:00,14369.565098145358,0.0,0.0,0.0,0
4-1-2017 4:00,-11170.79272576014,0.0,0.0,0.0,0
4-1-2017 5:00,-16701.771134911512,0.0,0.0,0.0,0
4-1-2017 6:00,-21032.702794721125,0.0,0.0,0.0,0
4-1-2017 7:00,-19062.76687741505,0.0,0.0,0.0,0
4-1-2017 8:00,-20688.996926651853,0.0,0.0,0.0,0
4-1-2017 9:00,118561.66761306708,0.0,0.0,0.0,0
4-1-2017 10:00,-30791.443474697502,0.0,0.0,0.0,0
4-1-2017 11:00,-6841.11220895718,0.0,0.0,0.0,0
4-1-2017 12:00,-42618.862166708735,0.0,0.0,0.0,0
4-1-2017 13:00,-12418.915953870397,0.0,0.0,0.0,0
4-1-2017 14:00,-4506.094688922545,0.0,0.0,0.0,0
4-1-2017 15:00,-57900.27621695184,0.0,0.0,0.0,0
4-1-2017 16:00,133084.374419817,0.0,0.0,0.0,0
4-1-2017 17:00,86934.31629901788,0.0,0.0,0.0,0
4-1-2017 18:00,-36841.34715477624,0.0,0.0,0.0,0
4-1-2017 19:00,-23466.895280987286,0.0,0.0,0.0,0
4-1-2017 20:00,86956.06320731148,0.0,0.0,0.0,0
4-1-2017 21:00,-17597.787646713987,0.0,0.0,0.0,0
4-1-2017 22:00,-23053.768483907937,0.0,0.0,0.0,0
4-1-2017 23:00,-4486.247971246121,0.0,0.0,0.0,0
5-1-2017 0:00,-14785.28699265224,0.0,0.0,0.0,0
5-1-2017 1:00,-24649.755038458126,0.0,0.0,0.0,0
5-1-2017 2:00,-27802.4841603846,0.0,0.0,0.0,0
5-1-2017 3:00,-12428.984328860257,0.0,0.0,0.0,0
5-1-2017 4:00,-16354.213880219206,0.0,0.0,0.0,0
5-1-2017 5:00,-17246.53915740839,0.0,0.0,0.0,0
5-1-2017 6:00,-19426.904687152557,0.0,0.0,0.0,0
5-1-2017 7:00,-13450.120116965933,0.0,0.0,0.0,0
5-1-2017 8:00,-12727.424904959516,0.0,0.0,0.0,0
5-1-2017 9:00,-22992.812311246795,0.0,0.0,0.0,0
5-1-2017 10:00,115827.26126153705,0.0,0.0,0.0,0
5-1-2017 11:00,11561.153362712867,0.0,0.0,0.0,0
5-1-2017 12:00,26956.052313144704,0.0,0.0,0.0,0
5-1-2017 13:00,-6088.833578183316,0.0,0.0,0.0,0
5-1-2017 14:00,-43773.72605945738,0.0,0.0,0.0,0
5-1-2017 15:00,-56603.18272667416,0.0,0.0,0.0,0
5-1-2017 16:00,43017.02091992866,0.0,0.0,0.0,0
5-1-2017 17:00,45881.30570958361,0.0,0.0,0.0,0
5-1-2017 18:00,29398.3754588522,0.0,0.0,0.0,0
5-1-2017 19:00,-16844.036554234997,0.0,0.0,0.0,0
5-1-2017 20:00,44448.19708454533,0.0,0.0,0.0,0
5-1-2017 21:00,-10112.822235914406,0.0,0.0,0.0,0
5-1-2017 22:00,-13879.959456843935,0.0,0.0,0.0,0
5-1-2017 23:00,-12818.645067462989,0.0,0.0,0.0,0
6-1-2017 0:00,-16764.8150256538,0.0,0.0,0.0,0
6-1-2017 1:00,-13062.99792914965,0.0,0.0,0.0,0
6-1-2017 2:00,-2318.0222464801045,0.0,0.0,0.0,0
6-1-2017 3:00,-15461.802350834609,0.0,0.0,0.0,0
6-1-2017 4:00,-6876.427164851324,0.0,0.0,0.0,0
6-1-2017 5:00,-4516.578723877108,0.0,0.0,0.0,0
6-1-2017 6:00,-7091.685118819878,0.0,0.0,0.0,0
6-1-2017 7:00,-3433.0390445877347,0.0,0.0,0.0,0
6-1-2017 8:00,-2461.220024690054,0.0,0.0,0.0,0
6-1-2017 9:00,-12156.036604629768,0.0,0.0,0.0,0
6-1-2017 10:00,-24846.36184774213,0.0,0.0,0.0,0
6-1-2017 11:00,-16366.905065799729,0.0,0.0,0.0,0
6-1-2017 12:00,31737.84845186169,0.0,0.0,0.0,0
6-1-2017 13:00,-21845.157300381976,0.0,0.0,0.0,0
6-1-2017 14:00,126504.87486770358,0.0,0.0,0.0,0
6-1-2017 15:00,21380.41133962563,0.0,0.0,0.0,0
6-1-2017 16:00,11047.184444191633,0.0,0.0,0.0,0
6-1-2017 17:00,-32361.043851881746,0.0,0.0,0.0,0
6-1-2017 18:00,-25400.952037260457,0.0,0.0,0.0,0
6-1-2017 19:00,-8723.454742305657,0.0,0.0,0.0,0
6-1-2017 20:00,-13755.194560701868,0.0,0.0,0.0,0
6-1-2017 21:00,-8491.181082368654,0.0,0.0,0.0,0
6-1-2017 22:00,-7698.646280278976,0.0,0.0,0.0,0
6-1-2017 23:00,-13496.535832651643,0.0,0.0,0.0,0
7-1-2017 0:00,-24846.430988452023,0.0,0.0,0.0,0
7-1-2017 1:00,-8723.435054161237,0.0,0.0,0.0,0
7-1-2017 2:00,16243.549128580933,0.0,0.0,0.0,0
7-1-2017 3:00,-9361.927216175813,0.0,0.0,0.0,0
7-1-2017 4:00,-558.4854594782882,0.0,0.0,0.0,0
7-1-2017 5:00,1233.784456720634,0.0,0.0,0.0,0
7-1-2017 6:00,9451.944953640508,0.0,0.0,0.0,0
7-1-2017 7:00,-4077.5348450118836,0.0,0.0,0.0,0
7-1-2017 8:00,-7220.979394152979,0.0,0.0,0.0,0
7-1-2017 9:00,-28920.18906199826,0.0,0.0,0.0,0
7-1-2017 10:00,-15407.004318584877,0.0,0.0,0.0,0
7-1-2017 11:00,-32994.68405345402,0.0,0.0,0.0,0
7-1-2017 12:00,22406.312833858872,0.0,0.0,0.0,0
7-1-2017 13:00,18836.01936884848,0.0,0.0,0.0,0
7-1-2017 14:00,243076.30833444255,0.0,0.0,0.0,0
7-1-2017 15:00,57607.35009365236,0.0,0.0,0.0,0
7-1-2017 16:00,-66517.62931783902,0.0,0.0,0.0,0
7-1-2017 17:00,-49830.49313727428,0.0,0.0,0.0,0
7-1-2017 18:00,-31573.74169493387,0.0,0.0,0.0,0
7-1-2017 19:00,-5022.452362055192,0.0,0.0,0.0,0
7-1-2017 20:00,-26349.85290774607,0.0,0.0,0.0,0
7-1-2017 21:00,-5071.155831228105,0.0,0.0,0.0,0
7-1-2017 22:00,-3074.351583372125,0.0,0.0,0.0,0
7-1-2017 23:00,-22791.547654751346,0.0,0.0,0.0,0
8-1-2017 0:00,-11659.27058541423,0.0,0.0,0.0,0
8-1-2017 1:00,5688.728371691046,0.0,0.0,0.0,0
8-1-2017 2:00,33565.0852395337,0.0,0.0,0.0,0
8-1-2017 3:00,1431.9268394025748,0.0,0.0,0.0,0
8-1-2017 4:00,15397.007053082474,0.0,0.0,0.0,0
8-1-2017 5:00,18684.237846917003,0.0,0.0,0.0,0
8-1-2017 6:00,18024.52463811047,0.0,0.0,0.0,0
8-1-2017 7:00,22147.65799780606,0.0,0.0,0.0,0
8-1-2017 8:00,21623.368910858684,0.0,0.0,0.0,0
8-1-2017 9:00,-25917.81914372583,0.0,0.0,0.0,0
8-1-2017 10:00,-26833.52629942986,0.0,0.0,0.0,0
8-1-2017 11:00,8.395563246327583,0.0,0.0,0.0,0
8-1-2017 12:00,-27361.64606543246,0.0,0.0,0.0,0
8-1-2017 13:00,-6566.770422454039,0.0,0.0,0.0,0
8-1-2017 14:00,-41104.21783859593,0.0,0.0,0.0,0
8-1-2017 15:00,-27015.463971342793,0.0,0.0,0.0,0
8-1-2017 16:00,-46677.74793835042,0.0,0.0,0.0,0
8-1-2017 17:00,-49606.53015621037,0.0,0.0,0.0,0
8-1-2017 18:00,10014.248038786402,0.0,0.0,0.0,0
8-1-2017 19:00,18503.546014648156,0.0,0.0,0.0,0
8-1-2017 20:00,2678.441346721813,0.0,0.0,0.0,0
8-1-2017 21:00,20069.535062463205,0.0,0.0,0.0,0
8-1-2017 22:00,19456.957554454046,0.0,0.0,0.0,0
8-1-2017 23:00,-37028.54623756315,0.0,0.0,0.0,0
9-1-2017 0:00,-27048.678144719965,0.0,0.0,0.0,0
9-1-2017 1:00,15339.824206168043,0.0,0.0,0.0,0
9-1-2017 2:00,8763.234130079414,0.0,0.0,0.0,0
9-1-2017 3:00,-913.4459544578676,0.0,0.0,0.0,0
9-1-2017 4:00,8636.233253822938,0.0,0.0,0.0,0
9-1-2017 5:00,8189.288428640997,0.0,0.0,0.0,0
9-1-2017 6:00,4437.335017455975,0.0,0.0,0.0,0
9-1-2017 7:00,5010.314964506295,0.0,0.0,0.0,0
9-1-2017 8:00,5958.104768759396,0.0,0.0,0.0,0
9-1-2017 9:00,65766.2492557953,0.0,0.0,0.0,0
9-1-2017 10:00,1127.280021529812,0.0,0.0,0.0,0
9-1-2017 11:00,-20295.82669769269,0.0,0.0,0.0,0
9-1-2017 12:00,914.3429781928353,0.0,0.0,0.0,0
9-1-2017 13:00,19191.65215741213,0.0,0.0,0.0,0
9-1-2017 14:00,-33124.42721221363,0.0,0.0,0.0,0
9-1-2017 15:00,-6885.456808665127,0.0,0.0,0.0,0
9-1-2017 16:00,-1038.2714588064991,0.0,0.0,0.0,0
9-1-2017 17:00,18999.19528560157,0.0,0.0,0.0,0
9-1-2017 18:00,-3792.8024060526295,0.0,0.0,0.0,0
9-1-2017 19:00,30904.281146983805,0.0,0.0,0.0,0
9-1-2017 20:00,20780.67929101362,0.0,0.0,0.0,0
9-1-2017 21:00,34827.20890289528,0.0,0.0,0.0,0
9-1-2017 22:00,6716.739275809014,0.0,0.0,0.0,0
9-1-2017 23:00,-68363.92260005814,0.0,0.0,0.0,0
10-1-2017 0:00,-50424.55086584664,0.0,0.0,0.0,0
10-1-2017 1:00,462.3271465178186,0.0,0.0,0.0,0
10-1-2017 2:00,-7488.326815967419,0.0,0.0,0.0,0
10-1-2017 3:00,29596.46495545542,0.0,0.0,0.0,0
10-1-2017 4:00,-1367.153836328078,0.0,0.0,0.0,0
10-1-2017 5:00,-729.9506012213897,0.0,0.0,0.0,0
10-1-2017 6:00,1756.6974100199877,0.0,0.0,0.0,0
10-1-2017 7:00,192.80121719947056,0.0,0.0,0.0,0
10-1-2017 8:00,83.78356414186419,0.0,0.0,0.0,0
10-1-2017 9:00,-5866.728772319708,0.0,0.0,0.0,0
10-1-2017 10:00,-35771.676077337426,0.0,0.0,0.0,0
10-1-2017 11:00,-30319.691542302666,0.0,0.0,0.0,0
10-1-2017 12:00,-11938.14503864247,0.0,0.0,0.0,0
10-1-2017 13:00,804.4560426902972,0.0,0.0,0.0,0
10-1-2017 14:00,55504.338313049535,0.0,0.0,0.0,0
10-1-2017 15:00,103510.81882237658,0.0,0.0,0.0,0
10-1-2017 16:00,84126.84058683192,0.0,0.0,0.0,0
10-1-2017 17:00,-19159.387817889103,0.0,0.0,0.0,0
10-1-2017 18:00,-26274.784260239656,0.0,0.0,0.0,0
10-1-2017 19:00,11831.44671868666,0.0,0.0,0.0,0
10-1-2017 20:00,-17312.443744082848,0.0,0.0,0.0,0
10-1-2017 21:00,-1839.7827435287982,0.0,0.0,0.0,0
10-1-2017 22:00,1685.8672242964676,0.0,0.0,0.0,0
10-1-2017 23:00,-88765.54585348692,0.0,0.0,0.0,0
11-1-2017 0:00,-68903.83460301733,0.0,0.0,0.0,0
11-1-2017 1:00,1632.6286421179611,0.0,0.0,0.0,0
11-1-2017 2:00,-873.0696354695247,0.0,0.0,0.0,0
11-1-2017 3:00,21068.463563207806,0.0,0.0,0.0,0
11-1-2017 4:00,5407.676514033148,0.0,0.0,0.0,0
11-1-2017 5:00,5881.131796898393,0.0,0.0,0.0,0
11-1-2017 6:00,5178.77521803612,0.0,0.0,0.0,0
11-1-2017 7:00,9192.620481603219,0.0,0.0,0.0,0
11-1-2017 8:00,9113.27296749335,0.0,0.0,0.0,0
11-1-2017 9:00,-39568.67054377141,0.0,0.0,0.0,0
11-1-2017 10:00,47767.919731767164,0.0,0.0,0.0,0
11-1-2017 11:00,1779.2811723677078,0.0,0.0,0.0,0
11-1-2017 12:00,56686.360155111106,0.0,0.0,0.0,0
11-1-2017 13:00,4617.486907395156,0.0,0.0,0.0,0
11-1-2017 14:00,-42232.935413422776,0.0,0.0,0.0,0
11-1-2017 15:00,-29694.90102947936,0.0,0.0,0.0,0
11-1-2017 16:00,-9506.787357887813,0.0,0.0,0.0,0
11-1-2017 17:00,2031.7184572145998,0.0,0.0,0.0,0
11-1-2017 18:00,42988.52263312025,0.0,0.0,0.0,0
11-1-2017 19:00,16772.978940631874,0.0,0.0,0.0,0
11-1-2017 20:00,-563.9522262415339,0.0,0.0,0.0,0
11-1-2017 21:00,10361.85738629014,0.0,0.0,0.0,0
11-1-2017 22:00,12485.826066863156,0.0,0.0,0.0,0
11-1-2017 23:00,-94876.60909500028,0.0,0.0,0.0,0
12-1-2017 0:00,-70130.32921043635,0.0,0.0,0.0,0
12-1-2017 1:00,8993.39139838537,0.0,0.0,0.0,0
12-1-2017 2:00,14854.450936611262,0.0,0.0,0.0,0
12-1-2017 3:00,37019.6276934587,0.0,0.0,0.0,0
12-1-2017 4:00,8418.174515444261,0.0,0.0,0.0,0
12-1-2017 5:00,8447.560556775476,0.0,0.0,0.0,0
12-1-2017 6:00,8340.73809851698,0.0,0.0,0.0,0
12-1-2017 7:00,11457.091687614258,0.0,0.0,0.0,0
12-1-2017 8:00,12219.17118159472,0.0,0.0,0.0,0
12-1-2017 9:00,34028.54419188091,0.0,0.0,0.0,0
12-1-2017 10:00,-5035.880810879069,0.0,0.0,0.0,0
12-1-2017 11:00,33871.78467643244,0.0,0.0,0.0,0
12-1-2017 12:00,36846.94327940424,0.0,0.0,0.0,0
12-1-2017 13:00,-1944.835224436465,0.0,0.0,0.0,0
12-1-2017 14:00,-12748.363063507604,0.0,0.0,0.0,0
12-1-2017 15:00,-23767.765732023843,0.0,0.0,0.0,0
12-1-2017 16:00,-34767.52612364297,0.0,0.0,0.0,0
12-1-2017 17:00,-24848.68925052241,0.0,0.0,0.0,0
12-1-2017 18:00,-9748.267618165875,0.0,0.0,0.0,0
12-1-2017 19:00,11441.033525689145,0.0,0.0,0.0,0
12-1-2017 20:00,-261.5088375300802,0.0,0.0,0.0,0
12-1-2017 21:00,11148.429041054977,0.0,0.0,0.0,0
12-1-2017 22:00,16326.106008875213,0.0,0.0,0.0,0
12-1-2017 23:00,-106024.35166256879,0.0,0.0,0.0,0
13-1-2017 0:00,-77660.133569411,0.0,0.0,0.0,0
13-1-2017 1:00,16180.047770803041,0.0,0.0,0.0,0
13-1-2017 2:00,10260.62849254821,0.0,0.0,0.0,0
13-1-2017 3:00,34174.58217527166,0.0,0.0,0.0,0
13-1-2017 4:00,19703.26274818515,0.0,0.0,0.0,0
13-1-2017 5:00,17479.645747005394,0.0,0.0,0.0,0
13-1-2017 6:00,14149.323608373728,0.0,0.0,0.0,0
13-1-2017 7:00,13798.326181886441,0.0,0.0,0.0,0
13-1-2017 8:00,13989.763342842482,0.0,0.0,0.0,0
13-1-2017 9:00,-19066.326252322368,0.0,0.0,0.0,0
13-1-2017 10:00,-17955.79394517425,0.0,0.0,0.0,0
13-1-2017 11:00,-3234.5818229451397,0.0,0.0,0.0,0
13-1-2017 12:00,61238.55898846167,0.0,0.0,0.0,0
13-1-2017 13:00,21641.642180718096,0.0,0.0,0.0,0
13-1-2017 14:00,-44421.70422438439,0.0,0.0,0.0,0
13-1-2017 15:00,-30883.23699313842,0.0,0.0,0.0,0
13-1-2017 16:00,64544.71668801798,0.0,0.0,0.0,0
13-1-2017 17:00,3849.7255220673906,0.0,0.0,0.0,0
13-1-2017 18:00,74355.9155137855,0.0,0.0,0.0,0
13-1-2017 19:00,4823.223475264982,0.0,0.0,0.0,0
13-1-2017 20:00,-6410.628103019011,0.0,0.0,0.0,0
13-1-2017 21:00,3267.330291146547,0.0,0.0,0.0,0
13-1-2017 22:00,10716.166159279248,0.0,0.0,0.0,0
13-1-2017 23:00,-111831.35340868008,0.0,0.0,0.0,0
14-1-2017 0:00,-88150.73517065636,0.0,0.0,0.0,0
14-1-2017 1:00,14466.271846458389,0.0,0.0,0.0,0
14-1-2017 2:00,10656.871080475921,0.0,0.0,0.0,0
14-1-2017 3:00,370.1939847608737,0.0,0.0,0.0,0
14-1-2017 4:00,13908.6052266632,0.0,0.0,0.0,0
14-1-2017 5:00,17473.744154650893,0.0,0.0,0.0,0
14-1-2017 6:00,17459.699166135928,0.0,0.0,0.0,0
14-1-2017 7:00,18931.2336295979,0.0,0.0,0.0,0
14-1-2017 8:00,23244.4981904699,0.0,0.0,0.0,0
14-1-2017 9:00,-15290.652164940406,0.0,0.0,0.0,0
14-1-2017 10:00,-13647.960235286155,0.0,0.0,0.0,0
14-1-2017 11:00,33006.91126476699,0.0,0.0,0.0,0
14-1-2017 12:00,36239.2353514246,0.0,0.0,0.0,0
14-1-2017 13:00,-2449.5334208892345,0.0,0.0,0.0,0
14-1-2017 14:00,-38271.78506473926,0.0,0.0,0.0,0
14-1-2017 15:00,9126.755167381485,0.0,0.0,0.0,0
14-1-2017 16:00,-30905.295447372933,0.0,0.0,0.0,0
14-1-2017 17:00,9836.267687299587,0.0,0.0,0.0,0
14-1-2017 18:00,-16953.40329187163,0.0,0.0,0.0,0
14-1-2017 19:00,15389.203096607089,0.0,0.0,0.0,0
14-1-2017 20:00,5950.135236018115,0.0,0.0,0.0,0
14-1-2017 21:00,14185.459539563246,0.0,0.0,0.0,0
14-1-2017 22:00,23315.354929688514,0.0,0.0,0.0,0
14-1-2017 23:00,-120882.07548643307,0.0,0.0,0.0,0
15-1-2017 0:00,-80872.91868776777,0.0,0.0,0.0,0
15-1-2017 1:00,27895.69178488283,0.0,0.0,0.0,0
15-1-2017 2:00,39627.43730980791,0.0,0.0,0.0,0
15-1-2017 3:00,15309.567214289533,0.0,0.0,0.0,0
15-1-2017 4:00,27752.510545837038,0.0,0.0,0.0,0
15-1-2017 5:00,30417.358026027327,0.0,0.0,0.0,0
15-1-2017 6:00,34091.892810664234,0.0,0.0,0.0,0
15-1-2017 7:00,27426.518411649915,0.0,0.0,0.0,0
15-1-2017 8:00,23806.699620012372,0.0,0.0,0.0,0
15-1-2017 9:00,-27053.31691876129,0.0,0.0,0.0,0
15-1-2017 10:00,-26084.271340457406,0.0,0.0,0.0,0
15-1-2017 11:00,-37227.836436436686,0.0,0.0,0.0,0
15-1-2017 12:00,-22027.645048384802,0.0,0.0,0.0,0
15-1-2017 13:00,1109.5514658922457,0.0,0.0,0.0,0
15-1-2017 14:00,61937.39183445579,0.0,0.0,0.0,0
15-1-2017 15:00,-20853.63768138754,0.0,0.0,0.0,0
15-1-2017 16:00,-7813.304243668972,0.0,0.0,0.0,0
15-1-2017 17:00,-13187.028191243275,0.0,0.0,0.0,0
15-1-2017 18:00,-10419.491524173785,0.0,0.0,0.0,0
15-1-2017 19:00,19696.69832593135,0.0,0.0,0.0,0
15-1-2017 20:00,9831.459217664556,0.0,0.0,0.0,0
15-1-2017 21:00,14441.313182988213,0.0,0.0,0.0,0
15-1-2017 22:00,23875.590051890547,0.0,0.0,0.0,0
15-1-2017 23:00,-130725.7592556088,0.0,0.0,0.0,0
16-1-2017 0:00,-92548.02193951742,0.0,0.0,0.0,0
16-1-2017 1:00,19934.94795819561,0.0,0.0,0.0,0
16-1-2017 2:00,12746.6857435548,0.0,0.0,0.0,0
16-1-2017 3:00,-2437.791382240346,0.0,0.0,0.0,0
16-1-2017 4:00,7770.406443499214,0.0,0.0,0.0,0
16-1-2017 5:00,8447.551818044201,0.0,0.0,0.0,0
16-1-2017 6:00,5604.485717985051,0.0,0.0,0.0,0
16-1-2017 7:00,4287.015716307978,0.0,0.0,0.0,0
16-1-2017 8:00,1416.4968319744148,0.0,0.0,0.0,0
16-1-2017 9:00,42532.206130166676,0.0,0.0,0.0,0
16-1-2017 10:00,-678.116489576918,0.0,0.0,0.0,0
16-1-2017 11:00,-33034.630028285756,0.0,0.0,0.0,0
16-1-2017 12:00,34596.6968144633,0.0,0.0,0.0,0
16-1-2017 13:00,3484.0185951601234,0.0,0.0,0.0,0
16-1-2017 14:00,27620.29095596617,0.0,0.0,0.0,0
16-1-2017 15:00,44002.241671987635,0.0,0.0,0.0,0
16-1-2017 16:00,56221.68231636072,0.0,0.0,0.0,0
16-1-2017 17:00,54777.78383752997,0.0,0.0,0.0,0
16-1-2017 18:00,64769.830701830564,0.0,0.0,0.0,0
16-1-2017 19:00,-2306.736583102698,0.0,0.0,0.0,0
16-1-2017 20:00,-15050.637535712107,0.0,0.0,0.0,0
16-1-2017 21:00,-12724.306848315471,0.0,0.0,0.0,0
16-1-2017 22:00,-3611.1756950988784,0.0,0.0,0.0,0
16-1-2017 23:00,-153227.92108843883,0.0,0.0,0.0,0
17-1-2017 0:00,-128645.43044938416,0.0,0.0,0.0,0
17-1-2017 1:00,-7579.8361976633605,0.0,0.0,0.0,0
17-1-2017 2:00,13567.718777075279,0.0,0.0,0.0,0
17-1-2017 3:00,-20799.710450051276,0.0,0.0,0.0,0
17-1-2017 4:00,-10336.037680847767,0.0,0.0,0.0,0
17-1-2017 5:00,-5816.561563382384,0.0,0.0,0.0,0
17-1-2017 6:00,-6657.41569957188,0.0,0.0,0.0,0
17-1-2017 7:00,-5805.70129111984,0.0,0.0,0.0,0
17-1-2017 8:00,-5203.950255357566,0.0,0.0,0.0,0
17-1-2017 9:00,13816.843078566628,0.0,0.0,0.0,0
17-1-2017 10:00,25501.30392262424,0.0,0.0,0.0,0
17-1-2017 11:00,407492.82360303454,0.0,0.0,0.0,0
17-1-2017 12:00,-56372.92243767051,0.0,0.0,0.0,0
17-1-2017 13:00,-17079.647309940025,0.0,0.0,0.0,0
17-1-2017 14:00,-43505.65487627762,0.0,0.0,0.0,0
17-1-2017 15:00,25160.934152222537,0.0,0.0,0.0,0
17-1-2017 16:00,-33428.122780161924,0.0,0.0,0.0,0
17-1-2017 17:00,-22491.565314333213,0.0,0.0,0.0,0
17-1-2017 18:00,-34714.81777688561,0.0,0.0,0.0,0
17-1-2017 19:00,35191.71946300053,0.0,0.0,0.0,0
17-1-2017 20:00,-8492.251674093714,0.0,0.0,0.0,0
17-1-2017 21:00,12074.400638129657,0.0,0.0,0.0,0
17-1-2017 22:00,8571.745156936064,0.0,0.0,0.0,0
17-1-2017 23:00,-145506.33724096883,0.0,0.0,0.0,0
18-1-2017 0:00,-107824.06622217614,0.0,0.0,0.0,0
18-1-2017 1:00,26414.400906847957,0.0,0.0,0.0,0
18-1-2017 2:00,3137.967169195377,0.0,0.0,0.0,0
18-1-2017 3:00,12328.165974602343,0.0,0.0,0.0,0
18-1-2017 4:00,13151.345854853116,0.0,0.0,0.0,0
18-1-2017 5:00,8592.453513706489,0.0,0.0,0.0,0
18-1-2017 6:00,1990.9014143564782,0.0,0.0,0.0,0
18-1-2017 7:00,-5041.155230875243,0.0,0.0,0.0,0
18-1-2017 8:00,-12389.696630697712,0.0,0.0,0.0,0
18-1-2017 9:00,-71952.23076561154,0.0,0.0,0.0,0
18-1-2017 10:00,9949.161367824592,0.0,0.0,0.0,0
18-1-2017 11:00,-131640.75541256223,0.0,0.0,0.0,0
18-1-2017 12:00,-145922.92834328816,0.0,0.0,0.0,0
18-1-2017 13:00,-135648.18768003918,0.0,0.0,0.0,0
18-1-2017 14:00,-119154.694664166,0.0,0.0,0.0,0
18-1-2017 15:00,-178544.81230777488,0.0,0.0,0.0,0
18-1-2017 16:00,-210544.44144597935,0.0,0.0,0.0,0
18-1-2017 17:00,-181874.5907785982,0.0,0.0,0.0,0
18-1-2017 18:00,-177570.05734446069,0.0,0.0,0.0,0
18-1-2017 19:00,-215380.87699405095,0.0,0.0,0.0,0
18-1-2017 20:00,-204123.8139745773,0.0,0.0,0.0,0
18-1-2017 21:00,-236047.447065082,0.0,0.0,0.0,0
18-1-2017 22:00,-226556.09560970546,0.0,0.0,0.0,0
18-1-2017 23:00,2642878.2312917095,0.0,0.0,0.0,0
19-1-2017 0:00,1908199.0991270859,0.0,0.0,0.0,0
19-1-2017 1:00,-232896.71694444187,0.0,0.0,0.0,0
19-1-2017 2:00,-240659.6754723408,0.0,0.0,0.0,0
19-1-2017 3:00,-233652.10471225542,0.0,0.0,0.0,0
19-1-2017 4:00,-229174.87294808033,0.0,0.0,0.0,0
19-1-2017 5:00,-217040.48966789918,0.0,0.0,0.0,0
19-1-2017 6:00,-204449.07565046995,0.0,0.0,0.0,0
19-1-2017 7:00,-191598.40962033777,0.0,0.0,0.0,0
19-1-2017 8:00,-181248.03972669732,0.0,0.0,0.0,0
19-1-2017 9:00,-137536.803055487,0.0,0.0,0.0,0
19-1-2017 10:00,-72198.83281838734,0.0,0.0,0.0,0
19-1-2017 11:00,-36764.209245286256,0.0,0.0,0.0,0
19-1-2017 12:00,-116442.71225174813,0.0,0.0,0.0,0
19-1-2017 13:00,-52876.32289869409,0.0,0.0,0.0,0
19-1-2017 14:00,27197.763853676428,0.0,0.0,0.0,0
19-1-2017 15:00,60227.24269224513,0.0,0.0,0.0,0
19-1-2017 16:00,-44951.77201281354,0.0,0.0,0.0,0
19-1-2017 17:00,-13708.179435178252,0.0,0.0,0.0,0
19-1-2017 18:00,-28863.511395649017,0.0,0.0,0.0,0
19-1-2017 19:00,10329.265662617508,0.0,0.0,0.0,0
19-1-2017 20:00,20625.396435992327,0.0,0.0,0.0,0
19-1-2017 21:00,-17040.82305254429,0.0,0.0,0.0,0
19-1-2017 22:00,-4592.339986894156,0.0,0.0,0.0,0
19-1-2017 23:00,-161838.41911245632,0.0,0.0,0.0,0
20-1-2017 0:00,-119222.36978679264,0.0,0.0,0.0,0
20-1-2017 1:00,-11164.459763419654,0.0,0.0,0.0,0
20-1-2017 2:00,-6332.243786112471,0.0,0.0,0.0,0
20-1-2017 3:00,-15495.221775896265,0.0,0.0,0.0,0
20-1-2017 4:00,24691.163502452706,0.0,0.0,0.0,0
20-1-2017 5:00,-4105.716914602228,0.0,0.0,0.0,0
20-1-2017 6:00,-6394.016098957574,0.0,0.0,0.0,0
20-1-2017 7:00,-6703.787954466185,0.0,0.0,0.0,0
20-1-2017 8:00,-8918.177328367514,0.0,0.0,0.0,0
20-1-2017 9:00,144747.75601214118,0.0,0.0,0.0,0
20-1-2017 10:00,19848.86767795848,0.0,0.0,0.0,0
20-1-2017 11:00,-32714.3150703984,0.0,0.0,0.0,0
20-1-2017 12:00,273156.375172458,0.0,0.0,0.0,0
20-1-2017 13:00,36294.468667365276,0.0,0.0,0.0,0
20-1-2017 14:00,22054.494608281348,0.0,0.0,0.0,0
20-1-2017 15:00,-29038.29461892423,0.0,0.0,0.0,0
20-1-2017 16:00,-29767.783030006456,0.0,0.0,0.0,0
20-1-2017 17:00,-6312.76832781882,0.0,0.0,0.0,0
20-1-2017 18:00,-45748.465468599694,0.0,0.0,0.0,0
20-1-2017 19:00,-5309.1491599822475,0.0,0.0,0.0,0
20-1-2017 20:00,-14522.938090212196,0.0,0.0,0.0,0
20-1-2017 21:00,-10711.404434757722,0.0,0.0,0.0,0
20-1-2017 22:00,3187.2067226636354,0.0,0.0,0.0,0
20-1-2017 23:00,-142247.94194837782,0.0,0.0,0.0,0
21-1-2017 0:00,-98686.16465092925,0.0,0.0,0.0,0
21-1-2017 1:00,7341.266114719692,0.0,0.0,0.0,0
21-1-2017 2:00,15851.481244608294,0.0,0.0,0.0,0
21-1-2017 3:00,-3819.3908476693287,0.0,0.0,0.0,0
21-1-2017 4:00,11407.656624291874,0.0,0.0,0.0,0
21-1-2017 5:00,14876.351687752838,0.0,0.0,0.0,0
21-1-2017 6:00,14943.098479364886,0.0,0.0,0.0,0
21-1-2017 7:00,15626.803579252846,0.0,0.0,0.0,0
21-1-2017 8:00,13555.819778847112,0.0,0.0,0.0,0
21-1-2017 9:00,5849.901455876883,0.0,0.0,0.0,0
21-1-2017 10:00,-18788.598824937242,0.0,0.0,0.0,0
21-1-2017 11:00,74222.99872989883,0.0,0.0,0.0,0
21-1-2017 12:00,38080.04884672437,0.0,0.0,0.0,0
21-1-2017 13:00,-6755.300569340168,0.0,0.0,0.0,0
21-1-2017 14:00,-22527.502492703643,0.0,0.0,0.0,0
21-1-2017 15:00,27517.483161491436,0.0,0.0,0.0,0
21-1-2017 16:00,-18359.3614553454,0.0,0.0,0.0,0
21-1-2017 17:00,783.8760504609127,0.0,0.0,0.0,0
21-1-2017 18:00,-23389.46559156374,0.0,0.0,0.0,0
21-1-2017 19:00,8699.388921164602,0.0,0.0,0.0,0
21-1-2017 20:00,-1788.3507589101173,0.0,0.0,0.0,0
21-1-2017 21:00,1643.7123289941082,0.0,0.0,0.0,0
21-1-2017 22:00,13914.403781037698,0.0,0.0,0.0,0
21-1-2017 23:00,-127730.27223263198,0.0,0.0,0.0,0
22-1-2017 0:00,-70438.2386903773,0.0,0.0,0.0,0
22-1-2017 1:00,15237.160594590187,0.0,0.0,0.0,0
22-1-2017 2:00,8718.992446375742,0.0,0.0,0.0,0
22-1-2017 3:00,113553.96999754802,0.0,0.0,0.0,0
22-1-2017 4:00,27820.799992403332,0.0,0.0,0.0,0
22-1-2017 5:00,29527.05518769008,0.0,0.0,0.0,0
22-1-2017 6:00,29520.901235959685,0.0,0.0,0.0,0
22-1-2017 7:00,29070.22809290995,0.0,0.0,0.0,0
22-1-2017 8:00,25628.417421967475,0.0,0.0,0.0,0
22-1-2017 9:00,-27550.030409187028,0.0,0.0,0.0,0
22-1-2017 10:00,-8047.484686875778,0.0,0.0,0.0,0
22-1-2017 11:00,-40423.789472629316,0.0,0.0,0.0,0
22-1-2017 12:00,-30388.61418928297,0.0,0.0,0.0,0
22-1-2017 13:00,-3365.5249572291323,0.0,0.0,0.0,0
22-1-2017 14:00,-16975.69224371356,0.0,0.0,0.0,0
22-1-2017 15:00,-19338.7064133839,0.0,0.0,0.0,0
22-1-2017 16:00,-8707.24632757932,0.0,0.0,0.0,0
22-1-2017 17:00,5837.97158166022,0.0,0.0,0.0,0
22-1-2017 18:00,-19774.907754749183,0.0,0.0,0.0,0
22-1-2017 19:00,22436.024458522617,0.0,0.0,0.0,0
22-1-2017 20:00,10950.176647573644,0.0,0.0,0.0,0
22-1-2017 21:00,11997.799786433574,0.0,0.0,0.0,0
22-1-2017 22:00,25275.065475463693,0.0,0.0,0.0,0
22-1-2017 23:00,-109115.35608579192,0.0,0.0,0.0,0
23-1-2017 0:00,-76289.88232313123,0.0,0.0,0.0,0
23-1-2017 1:00,17287.828475685652,0.0,0.0,0.0,0
23-1-2017 2:00,7135.530043898954,0.0,0.0,0.0,0
23-1-2017 3:00,-5689.8897669480575,0.0,0.0,0.0,0
23-1-2017 4:00,6778.6687465547075,0.0,0.0,0.0,0
23-1-2017 5:00,7795.558324069909,0.0,0.0,0.0,0
23-1-2017 6:00,6611.777879399764,0.0,0.0,0.0,0
23-1-2017 7:00,4525.1128077589965,0.0,0.0,0.0,0
23-1-2017 8:00,14194.731580626401,0.0,0.0,0.0,0
23-1-2017 9:00,66273.60796083108,0.0,0.0,0.0,0
23-1-2017 10:00,-2731.5267052407216,0.0,0.0,0.0,0
23-1-2017 11:00,-22711.71022309229,0.0,0.0,0.0,0
23-1-2017 12:00,-13632.006164733582,0.0,0.0,0.0,0
23-1-2017 13:00,10356.607863993864,0.0,0.0,0.0,0
23-1-2017 14:00,-460.26863705628057,0.0,0.0,0.0,0
23-1-2017 15:00,-5352.806482036809,0.0,0.0,0.0,0
23-1-2017 16:00,102001.44182562327,0.0,0.0,0.0,0
23-1-2017 17:00,-10163.864046511022,0.0,0.0,0.0,0
23-1-2017 18:00,-47464.875262112226,0.0,0.0,0.0,0
23-1-2017 19:00,-3033.4766020185634,0.0,0.0,0.0,0
23-1-2017 20:00,45308.676202436625,0.0,0.0,0.0,0
23-1-2017 21:00,168305.09124211152,0.0,0.0,0.0,0
23-1-2017 22:00,-5616.697188670936,0.0,0.0,0.0,0
23-1-2017 23:00,-99412.26265431158,0.0,0.0,0.0,0
24-1-2017 0:00,-100394.01702804398,0.0,0.0,0.0,0
24-1-2017 1:00,-8771.332761514139,0.0,0.0,0.0,0
24-1-2017 2:00,-11662.73952300952,0.0,0.0,0.0,0
24-1-2017 3:00,-25366.424742012252,0.0,0.0,0.0,0
24-1-2017 4:00,17321.84975942177,0.0,0.0,0.0,0
24-1-2017 5:00,2626.572904137516,0.0,0.0,0.0,0
24-1-2017 6:00,1976.0851514996903,0.0,0.0,0.0,0
24-1-2017 7:00,1295.654135910685,0.0,0.0,0.0,0
24-1-2017 8:00,-423.7216627692178,0.0,0.0,0.0,0
24-1-2017 9:00,54903.03796800853,0.0,0.0,0.0,0
24-1-2017 10:00,868.284487007586,0.0,0.0,0.0,0
24-1-2017 11:00,-44044.32618948811,0.0,0.0,0.0,0
24-1-2017 12:00,-4258.351782663114,0.0,0.0,0.0,0
24-1-2017 13:00,-21795.90022719126,0.0,0.0,0.0,0
24-1-2017 14:00,-26767.473212736317,0.0,0.0,0.0,0
24-1-2017 15:00,-29496.222002956216,0.0,0.0,0.0,0
24-1-2017 16:00,9494.575124990391,0.0,0.0,0.0,0
24-1-2017 17:00,22560.86258649906,0.0,0.0,0.0,0
24-1-2017 18:00,251211.43660672283,0.0,0.0,0.0,0
24-1-2017 19:00,-952.1716362697698,0.0,0.0,0.0,0
24-1-2017 20:00,-14401.871566318536,0.0,0.0,0.0,0
24-1-2017 21:00,-12707.663938207086,0.0,0.0,0.0,0
24-1-2017 22:00,-82.06968404200597,0.0,0.0,0.0,0
24-1-2017 23:00,-102680.33224930757,0.0,0.0,0.0,0
25-1-2017 0:00,-92089.09795467296,0.0,0.0,0.0,0
25-1-2017 1:00,-5399.598935235532,0.0,0.0,0.0,0
25-1-2017 2:00,-9012.00274124492,0.0,0.0,0.0,0
25-1-2017 3:00,-21150.89208320871,0.0,0.0,0.0,0
25-1-2017 4:00,-6210.011828623239,0.0,0.0,0.0,0
25-1-2017 5:00,-3876.0564939545075,0.0,0.0,0.0,0
25-1-2017 6:00,-2230.2329318075717,0.0,0.0,0.0,0
25-1-2017 7:00,-1633.10253928374,0.0,0.0,0.0,0
25-1-2017 8:00,1502.4644425501465,0.0,0.0,0.0,0
25-1-2017 9:00,-11941.840032656568,0.0,0.0,0.0,0
25-1-2017 10:00,93526.68327473651,0.0,0.0,0.0,0
25-1-2017 11:00,10810.651042919882,0.0,0.0,0.0,0
25-1-2017 12:00,-39063.418598465665,0.0,0.0,0.0,0
25-1-2017 13:00,-24704.493366955212,0.0,0.0,0.0,0
25-1-2017 14:00,4977.46331229902,0.0,0.0,0.0,0
25-1-2017 15:00,-30112.420273866053,0.0,0.0,0.0,0
25-1-2017 16:00,103655.96370083891,0.0,0.0,0.0,0
25-1-2017 17:00,-11333.525216914953,0.0,0.0,0.0,0
25-1-2017 18:00,132961.5443262283,0.0,0.0,0.0,0
25-1-2017 19:00,-5803.70164473397,111474.35,357263.31,-134314.6,0
25-1-2017 20:00,17855.534865829846,-83949.42,161812.4,-329711.25,0
25-1-2017 21:00,16817.115832642172,53964.76,299655.3,-191725.78,0
25-1-2017 22:00,-3485.6076294180166,-22901.94,222601.13,-268405.0,0
25-1-2017 23:00,-95085.9476954813,6219.94,251522.91,-239083.03,0
26-1-2017 0:00,-83624.12060842896,-55630.81,189600.91,-300862.54,0
26-1-2017 1:00,-2038.9431934217646,-4143.7,240894.05,-249181.45,0
26-1-2017 2:00,10964.556790492956,14755.39,259589.59,-230078.81,0
26-1-2017 3:00,17021.108618847487,238.12,244869.41,-244393.18,0
26-1-2017 4:00,5438.954018097738,9694.56,254126.89,-234737.77,0
26-1-2017 5:00,9307.439479749097,-4334.61,239895.86,-248565.09,0
26-1-2017 6:00,10863.558740307722,6572.81,250604.09,-237458.47,0
26-1-2017 7:00,12274.794969056991,988.47,244818.88,-242841.94,0
26-1-2017 8:00,10309.185461458539,4447.31,248078.75,-239184.13,0
26-1-2017 9:00,-35023.41565931794,1388.69,244820.46,-242043.08,0
26-1-2017 10:00,32960.10263142423,-22466.41,220782.92,-265715.74,0
26-1-2017 11:00,-45436.51820682676,35570.75,278660.56,-207519.06,0
26-1-2017 12:00,-31500.944275785703,-49514.94,193460.95,-292490.83,0
26-1-2017 13:00,13135.207893014467,15454.45,258236.26,-227327.37,0
26-1-2017 14:00,-5716.493703437802,4136.57,246720.68,-238447.53,0
26-1-2017 15:00,-14399.154218373904,-7089.41,235298.64,-249477.46,0
26-1-2017 16:00,-11588.350525506345,-2682.66,239509.27,-244874.59,0
26-1-2017 17:00,-997.1493863067517,-3205.13,238791.48,-245201.74,0
26-1-2017 18:00,-18502.938040480327,3015.32,244816.12,-238785.48,0
26-1-2017 19:00,10594.446493422452,-11707.08,229904.29,-253318.45,0
26-1-2017 20:00,89347.05292618321,15077.91,256500.7,-226344.89,0
26-1-2017 21:00,-2275.2593706028056,40942.46,282241.26,-200356.34,0
26-1-2017 22:00,11123.188147093017,-36491.11,204637.57,-277619.8,0
26-1-2017 23:00,-69605.90869332754,25322.46,266286.48,-215641.56,0
27-1-2017 0:00,-64932.15934945174,-55575.14,185310.86,-296461.13,0
27-1-2017 1:00,6213.679829244538,2626.32,243320.63,-238068.0,0
27-1-2017 2:00,49720.866971202704,12350.62,252852.77,-228151.53,0
27-1-2017 3:00,-6139.19666200511,21295.79,261623.8,-219032.22,0
27-1-2017 4:00,6690.743826226819,-20894.19,219252.01,-261040.39,0
27-1-2017 5:00,7850.161340274484,15403.6,255368.5,-224561.29,0
27-1-2017 6:00,4392.47822465848,-5341.43,234433.68,-245116.54,0
27-1-2017 7:00,3468.92013258877,3677.54,243263.78,-235908.69,0
27-1-2017 8:00,1577.1339785135788,-761.61,238635.0,-240158.23,0
27-1-2017 9:00,-37814.69199017479,304.78,239512.28,-238902.73,0
27-1-2017 10:00,-28196.534190957253,-21847.77,217189.44,-260884.99,0
27-1-2017 11:00,-8145.209110516305,1144.02,239993.46,-237705.41,0
27-1-2017 12:00,23126.232918077643,-799.7,237862.99,-239462.39,0
27-1-2017 13:00,-23545.989998946443,15161.77,253644.26,-223320.72,0
27-1-2017 14:00,-16461.711894219177,-24232.15,214082.32,-262546.61,0
27-1-2017 15:00,136660.57863895973,6986.93,245115.61,-231141.75,0
27-1-2017 16:00,-9290.44235922594,75640.14,313794.12,-162513.83,0
27-1-2017 17:00,-4826.836709252799,-65905.33,172153.43,-303964.08,0
27-1-2017 18:00,22505.100893076866,32860.05,270780.11,-205060.0,0
27-1-2017 19:00,-3277.7616561629256,-5706.38,232029.97,-243442.72,0
27-1-2017 20:00,-3981.342889212887,-3198.56,234353.21,-240750.33,0
27-1-2017 21:00,-4416.5109127238975,249.09,237616.65,-237118.47,0
27-1-2017 22:00,11982.506204441153,-2747.27,234436.77,-239931.31,0
27-1-2017 23:00,-70088.18879062345,8969.66,245973.03,-228033.72,0
28-1-2017 0:00,-68208.97857021098,-45898.93,190999.65,-282797.51,0
28-1-2017 1:00,55332.03514474383,-3463.1,233259.1,-240185.31,0
28-1-2017 2:00,4143.082217314892,43559.91,280142.95,-193023.12,0
28-1-2017 3:00,72470.9958951142,-27941.38,208479.27,-264362.02,0
28-1-2017 4:00,13083.680196811227,55788.01,292152.72,-180576.69,0
28-1-2017 5:00,12585.6432973085,-33563.5,202642.89,-269769.89,0
28-1-2017 6:00,15355.531339571156,21824.79,257876.98,-214227.4,0
28-1-2017 7:00,14373.272866619147,-5620.92,230251.55,-241493.38,0
28-1-2017 8:00,17890.10400600387,7651.01,243348.58,-228046.56,0
28-1-2017 9:00,-34143.86925050039,3768.34,239287.75,-231751.07,0
28-1-2017 10:00,40351.19573349465,-24417.21,210940.97,-259775.39,0
28-1-2017 11:00,-38137.695591070325,40419.37,275650.75,-194812.01,0
28-1-2017 12:00,-24783.537788621365,-48816.19,186313.27,-283945.64,0
28-1-2017 13:00,-19944.71314722189,17792.67,252751.34,-217166.01,0
28-1-2017 14:00,-16202.842697067268,-16719.03,218079.74,-251517.8,0
28-1-2017 15:00,-26888.628471525517,3032.36,237653.99,-231589.28,0
28-1-2017 16:00,-8491.144967526756,-13184.86,221271.1,-247640.81,0
28-1-2017 17:00,6249.64874629214,6508.58,240788.46,-227771.3,0
28-1-2017 18:00,-32363.083841802756,2034.21,236138.14,-232069.72,0
28-1-2017 19:00,13959.462594914297,-19704.65,214238.27,-253647.57,0
28-1-2017 20:00,-2576.2402348469477,23323.3,257104.95,-210458.35,0
28-1-2017 21:00,-620.7549633337712,-15753.93,217861.18,-249369.05,0
28-1-2017 22:00,18654.950771624972,8599.8,242043.32,-224843.72,0
28-1-2017 23:00,-52955.333359759185,5986.45,239257.18,-227284.28,0
29-1-2017 0:00,8444.386755514388,-35785.67,197353.97,-268925.3,0
29-1-2017 1:00,18526.667422634728,31470.66,264460.94,-201519.62,0
29-1-2017 2:00,27305.816841725667,-7638.54,225180.9,-240457.98,0
29-1-2017 3:00,8883.720246439061,16930.94,249592.77,-215730.89,0
29-1-2017 4:00,22497.57244738229,-7981.63,224508.85,-240472.11,0
29-1-2017 5:00,21739.085824235633,14714.38,247044.41,-217615.66,0
29-1-2017 6:00,21081.24971428342,614.59,232773.82,-231544.63,0
29-1-2017 7:00,21432.985838044908,7611.99,239605.29,-224381.31,0
29-1-2017 8:00,21131.319248485364,4375.74,236200.7,-227449.23,0
29-1-2017 9:00,-23761.84690987457,5657.03,237315.13,-226001.07,0
29-1-2017 10:00,-21514.50634215714,-19866.65,211632.08,-251365.38,0
29-1-2017 11:00,-35045.535672783146,1472.2,232801.43,-229857.03,0
29-1-2017 12:00,-19917.193697534283,-17327.53,213848.75,-248503.8,0
29-1-2017 13:00,-18143.69116293313,3565.52,234573.07,-227442.03,0
29-1-2017 14:00,-11335.658032573041,-8332.74,222512.1,-239177.58,0
29-1-2017 15:00,-23673.61977989034,1398.36,232075.24,-229278.52,0
29-1-2017 16:00,-3230.9695215447136,-11612.9,218903.89,-242129.7,0
29-1-2017 17:00,45905.42340558447,8190.69,238540.99,-222159.61,0
29-1-2017 18:00,-29771.148223470434,22236.06,252436.52,-207964.4,0
29-1-2017 19:00,16947.554382121685,-34891.48,195175.01,-264957.97,0
29-1-2017 20:00,-1898.112861432639,32168.12,262100.71,-197764.47,0
29-1-2017 21:00,-1613.7779775600811,-21007.46,208773.19,-250788.11,0
29-1-2017 22:00,9873.663487335009,10355.07,239974.65,-219264.51,0
29-1-2017 23:00,-47765.93266822609,317.24,229771.57,-229137.09,0
30-1-2017 0:00,-45340.57746658819,-28629.92,200687.28,-257947.11,0
30-1-2017 1:00,-1403.6036361312727,-3013.97,226142.02,-232169.96,0
30-1-2017 2:00,-11271.919039432236,7486.21,236478.02,-221505.59,0
30-1-2017 3:00,-27300.892070953276,-9280.75,219551.43,-238112.92,0
30-1-2017 4:00,-13407.39018703638,-7922.2,220750.36,-236594.76,0
30-1-2017 5:00,-5888.911677276083,863.66,229373.42,-227646.1,0
30-1-2017 6:00,-10940.795465739422,-1592.99,226754.5,-229940.48,0
30-1-2017 7:00,-12450.732265498813,-4068.67,224117.4,-232254.74,0
30-1-2017 8:00,-16107.545672965636,-3082.3,224942.49,-231107.1,0
30-1-2017 9:00,49940.75861884095,-5573.8,222291.24,-233438.85,0
30-1-2017 10:00,-47664.974491648965,33186.6,260926.96,-194553.76,0
30-1-2017 11:00,128030.0434146185,-51454.43,176202.77,-279111.64,0
30-1-2017 12:00,60728.75091447001,104949.71,332829.19,-122929.78,0
30-1-2017 13:00,125698.09890546088,-40751.19,186990.73,-268493.11,0
30-1-2017 14:00,72996.56911503381,80880.94,308789.73,-147027.84,0
30-1-2017 15:00,37521.05538448814,-21539.64,206209.52,-249288.81,0
30-1-2017 16:00,-20116.638806376184,18371.15,246001.45,-209259.15,0
30-1-2017 17:00,-10933.849089217401,-27740.92,199747.16,-255229.01,0
30-1-2017 18:00,-56421.48951199946,8936.39,236268.47,-218395.69,0
30-1-2017 19:00,-10065.045390533873,-34419.27,192804.18,-261642.73,0
30-1-2017 20:00,-29537.875533729955,20429.54,247501.28,-206642.19,0
30-1-2017 21:00,-25807.995203370938,-24389.1,202553.69,-251331.89,0
30-1-2017 22:00,-9719.08495478725,3418.17,230202.89,-223366.55,0
30-1-2017 23:00,-34150.32031492282,-2257.25,224371.74,-228886.25,0
31-1-2017 0:00,-48393.79679389314,-15764.35,210719.16,-242247.85,0
31-1-2017 1:00,-9152.082022836705,-12731.01,213607.89,-239069.92,0
31-1-2017 2:00,4819.3255287333595,9131.2,235313.46,-217051.06,0
31-1-2017 3:00,7757.213838240823,196.25,226222.25,-225829.76,0
31-1-2017 4:00,900.0241838503389,4344.32,230214.84,-221526.21,0
31-1-2017 5:00,3096.1458330723253,-2511.26,223203.58,-228226.1,0
31-1-2017 6:00,6654.032372652611,2781.41,228341.11,-222778.3,0
31-1-2017 7:00,7845.418520004954,1713.74,227118.43,-223690.95,0
31-1-2017 8:00,7451.824165263428,2336.38,227586.65,-222913.88,0
31-1-2017 9:00,10183.23712732337,1659.77,226755.8,-223436.25,0
31-1-2017 10:00,-10686.979963994138,3473.14,228415.79,-221469.5,0
31-1-2017 11:00,-20938.71512345348,-9415.45,215375.63,-234206.53,0
31-1-2017 12:00,-4004.3924016195706,-5395.17,219243.86,-230034.2,0
31-1-2017 13:00,-231.09604936591495,3549.69,228035.45,-220936.08,0
31-1-2017 14:00,31615.05414429279,-1218.27,223114.69,-225551.23,0
31-1-2017 15:00,-15464.948664608222,18492.98,242685.82,-205699.87,0
31-1-2017 16:00,7433.226216626088,-22639.85,201414.07,-246693.76,0
31-1-2017 17:00,20533.463522401267,17781.66,241694.08,-206130.77,0
31-1-2017 18:00,-28629.21489552118,858.68,224619.4,-222902.03,0
31-1-2017 19:00,17013.513807581923,-19500.61,204118.74,-243119.96,0
31-1-2017 20:00,-5326.686169491892,23644.98,247128.67,-199838.71,0
31-1-2017 21:00,-2851.145969737554,-17932.3,205410.29,-241274.88,0
31-1-2017 22:00,11052.002595965565,8595.14,231789.82,-214599.53,0
31-1-2017 23:00,-16195.412435313623,2162.8,225207.29,-220881.7,0
