Time,Actual,Forecasts,Upper Interval,Lower Interval,Is Anomalies
1-1-2017 0:00,354.7193744794929,0.0,0.0,0.0,0
1-1-2017 1:00,581.8869500240878,0.0,0.0,0.0,0
1-1-2017 2:00,550.6066669825293,0.0,0.0,0.0,0
1-1-2017 3:00,582.366112372503,0.0,0.0,0.0,0
1-1-2017 4:00,571.2522376252925,0.0,0.0,0.0,0
1-1-2017 5:00,602.1012526881109,0.0,0.0,0.0,0
1-1-2017 6:00,537.2841807873529,0.0,0.0,0.0,0
1-1-2017 7:00,344.57887837690305,0.0,0.0,0.0,0
1-1-2017 8:00,111.01891386510238,0.0,0.0,0.0,0
1-1-2017 9:00,-509.6741787188448,0.0,0.0,0.0,0
1-1-2017 10:00,-885.5153903022003,0.0,0.0,0.0,0
1-1-2017 11:00,-974.6742727588198,0.0,0.0,0.0,0
1-1-2017 12:00,-1199.3346810373375,0.0,0.0,0.0,0
1-1-2017 13:00,-885.017554978853,0.0,0.0,0.0,0
1-1-2017 14:00,-994.6754231478108,0.0,0.0,0.0,0
1-1-2017 15:00,-856.0388532352513,0.0,0.0,0.0,0
1-1-2017 16:00,-879.0471444073955,0.0,0.0,0.0,0
1-1-2017 17:00,-798.3955977840999,0.0,0.0,0.0,0
1-1-2017 18:00,-256.1019992195422,0.0,0.0,0.0,0
1-1-2017 19:00,-57.63788572345766,0.0,0.0,0.0,0
1-1-2017 20:00,202.25325158631722,0.0,0.0,0.0,0
1-1-2017 21:00,-40.91330664541488,0.0,0.0,0.0,0
1-1-2017 22:00,126.78909216670445,0.0,0.0,0.0,0
1-1-2017 23:00,265.53259719611583,0.0,0.0,0.0,0
2-1-2017 0:00,210.1043689925075,0.0,0.0,0.0,0
2-1-2017 1:00,125.82815762094265,0.0,0.0,0.0,0
2-1-2017 2:00,81.30217079970316,0.0,0.0,0.0,0
2-1-2017 3:00,-49.75162458232808,0.0,0.0,0.0,0
2-1-2017 4:00,-136.73494228903246,0.0,0.0,0.0,0
2-1-2017 5:00,-204.95245418618333,0.0,0.0,0.0,0
2-1-2017 6:00,-305.83542704526417,0.0,0.0,0.0,0
2-1-2017 7:00,-392.36312386817826,0.0,0.0,0.0,0
2-1-2017 8:00,-180.19761039175,0.0,0.0,0.0,0
2-1-2017 9:00,238.73979691908244,0.0,0.0,0.0,0
2-1-2017 10:00,834.0386205745749,0.0,0.0,0.0,0
2-1-2017 11:00,608.0016405209999,0.0,0.0,0.0,0
2-1-2017 12:00,788.7907175259788,0.0,0.0,0.0,0
2-1-2017 13:00,629.9382205007669,0.0,0.0,0.0,0
2-1-2017 14:00,800.4458741068947,0.0,0.0,0.0,0
2-1-2017 15:00,768.7754341420518,0.0,0.0,0.0,0
2-1-2017 16:00,427.145410646503,0.0,0.0,0.0,0
2-1-2017 17:00,344.03783642566304,0.0,0.0,0.0,0
2-1-2017 18:00,45.471935295378444,0.0,0.0,0.0,0
2-1-2017 19:00,241.6228808176893,0.0,0.0,0.0,0
2-1-2017 20:00,175.2575786979628,0.0,0.0,0.0,0
2-1-2017 21:00,91.96898115510794,0.0,0.0,0.0,0
2-1-2017 22:00,-232.45989936856677,0.0,0.0,0.0,0
2-1-2017 23:00,-550.5302167209634,0.0,0.0,0.0,0
3-1-2017 0:00,-448.03555563773443,0.0,0.0,0.0,0
3-1-2017 1:00,-543.833036840862,0.0,0.0,0.0,0
3-1-2017 2:00,-588.162210357184,0.0,0.0,0.0,0
3-1-2017 3:00,-583.9567294266221,0.0,0.0,0.0,0
3-1-2017 4:00,-565.156772011339,0.0,0.0,0.0,0
3-1-2017 5:00,-552.7278416169302,0.0,0.0,0.0,0
3-1-2017 6:00,-423.31374618280734,0.0,0.0,0.0,0
3-1-2017 7:00,-224.09017404203541,0.0,0.0,0.0,0
3-1-2017 8:00,-105.12551920122633,0.0,0.0,0.0,0
3-1-2017 9:00,40.9367791646082,0.0,0.0,0.0,0
3-1-2017 10:00,291.0701180255169,0.0,0.0,0.0,0
3-1-2017 11:00,438.99952034155604,0.0,0.0,0.0,0
3-1-2017 12:00,837.1825625966012,0.0,0.0,0.0,0
3-1-2017 13:00,576.9712417449327,0.0,0.0,0.0,0
3-1-2017 14:00,682.0652163833893,0.0,0.0,0.0,0
3-1-2017 15:00,608.5085657983855,0.0,0.0,0.0,0
3-1-2017 16:00,561.0117147170467,0.0,0.0,0.0,0
3-1-2017 17:00,336.64533533101894,0.0,0.0,0.0,0
3-1-2017 18:00,270.6102501848418,0.0,0.0,0.0,0
3-1-2017 19:00,-234.9081363853852,0.0,0.0,0.0,0
3-1-2017 20:00,17.31395794662194,0.0,0.0,0.0,0
3-1-2017 21:00,-72.36546228843281,0.0,0.0,0.0,0
3-1-2017 22:00,-33.68247542979316,0.0,0.0,0.0,0
3-1-2017 23:00,-57.05346844589121,0.0,0.0,0.0,0
4-1-2017 0:00,-335.5627713577155,0.0,0.0,0.0,0
4-1-2017 1:00,-489.1743330292443,0.0,0.0,0.0,0
4-1-2017 2:00,-512.9395038774887,0.0,0.0,0.0,0
4-1-2017 3:00,-490.42755727117265,0.0,0.0,0.0,0
4-1-2017 4:00,-447.2971191997849,0.0,0.0,0.0,0
4-1-2017 5:00,-441.7285734056477,0.0,0.0,0.0,0
4-1-2017 6:00,-408.58423657015237,0.0,0.0,0.0,0
4-1-2017 7:00,-241.55637041960108,0.0,0.0,0.0,0
4-1-2017 8:00,75.85045083167961,0.0,0.0,0.0,0
4-1-2017 9:00,172.27417905061156,0.0,0.0,0.0,0
4-1-2017 10:00,227.59852224028873,0.0,0.0,0.0,0
4-1-2017 11:00,289.1607960492952,0.0,0.0,0.0,0
4-1-2017 12:00,76.14429267775813,0.0,0.0,0.0,0
4-1-2017 13:00,162.43038418330207,0.0,0.0,0.0,0
4-1-2017 14:00,261.9869160377548,0.0,0.0,0.0,0
4-1-2017 15:00,463.8502910162565,0.0,0.0,0.0,0
4-1-2017 16:00,430.08238214747325,0.0,0.0,0.0,0
4-1-2017 17:00,257.6407679607778,0.0,0.0,0.0,0
4-1-2017 18:00,250.93006916322884,0.0,0.0,0.0,0
4-1-2017 19:00,513.993633494772,0.0,0.0,0.0,0
4-1-2017 20:00,5.054407272821209,0.0,0.0,0.0,0
4-1-2017 21:00,-65.28531545650958,0.0,0.0,0.0,0
4-1-2017 22:00,-141.9954386364475,0.0,0.0,0.0,0
4-1-2017 23:00,-49.23208473713885,0.0,0.0,0.0,0
5-1-2017 0:00,-282.82032906490804,0.0,0.0,0.0,0
5-1-2017 1:00,-318.9941044063594,0.0,0.0,0.0,0
5-1-2017 2:00,-287.70340578804644,0.0,0.0,0.0,0
5-1-2017 3:00,-284.2631267074971,0.0,0.0,0.0,0
5-1-2017 4:00,-278.60800123299305,0.0,0.0,0.0,0
5-1-2017 5:00,-249.982369699831,0.0,0.0,0.0,0
5-1-2017 6:00,-181.1103211236641,0.0,0.0,0.0,0
5-1-2017 7:00,-49.944601121132564,0.0,0.0,0.0,0
5-1-2017 8:00,118.77794638282239,0.0,0.0,0.0,0
5-1-2017 9:00,377.6882788555945,0.0,0.0,0.0,0
5-1-2017 10:00,233.17012466308643,0.0,0.0,0.0,0
5-1-2017 11:00,365.8917682541037,0.0,0.0,0.0,0
5-1-2017 12:00,369.82221754502916,0.0,0.0,0.0,0
5-1-2017 13:00,202.1131890959814,0.0,0.0,0.0,0
5-1-2017 14:00,-251.07025414537338,0.0,0.0,0.0,0
5-1-2017 15:00,-386.50938591516774,0.0,0.0,0.0,0
5-1-2017 16:00,-10.861410072339822,0.0,0.0,0.0,0
5-1-2017 17:00,97.64958506039238,0.0,0.0,0.0,0
5-1-2017 18:00,-45.45888326843442,0.0,0.0,0.0,0
5-1-2017 19:00,-158.19384087635535,0.0,0.0,0.0,0
5-1-2017 20:00,-146.77486049349636,0.0,0.0,0.0,0
5-1-2017 21:00,53.77705704262917,0.0,0.0,0.0,0
5-1-2017 22:00,63.86049759443449,0.0,0.0,0.0,0
5-1-2017 23:00,-35.69512782052834,0.0,0.0,0.0,0
6-1-2017 0:00,-86.2777506987486,0.0,0.0,0.0,0
6-1-2017 1:00,-45.79015758499099,0.0,0.0,0.0,0
6-1-2017 2:00,-39.78817788936476,0.0,0.0,0.0,0
6-1-2017 3:00,-19.977944850856602,0.0,0.0,0.0,0
6-1-2017 4:00,-6.814602737656969,0.0,0.0,0.0,0
6-1-2017 5:00,-10.01573627220705,0.0,0.0,0.0,0
6-1-2017 6:00,-0.34088978908766876,0.0,0.0,0.0,0
6-1-2017 7:00,63.38715416493051,0.0,0.0,0.0,0
6-1-2017 8:00,-81.00180803604007,0.0,0.0,0.0,0
6-1-2017 9:00,-124.31992865719894,0.0,0.0,0.0,0
6-1-2017 10:00,16.111352967436233,0.0,0.0,0.0,0
6-1-2017 11:00,203.2970933099582,0.0,0.0,0.0,0
6-1-2017 12:00,46.26518692770014,0.0,0.0,0.0,0
6-1-2017 13:00,-236.42407720046572,0.0,0.0,0.0,0
6-1-2017 14:00,-91.35133174891598,0.0,0.0,0.0,0
6-1-2017 15:00,206.55188302480883,0.0,0.0,0.0,0
6-1-2017 16:00,-32.11301704429479,0.0,0.0,0.0,0
6-1-2017 17:00,19.53525164511393,0.0,0.0,0.0,0
6-1-2017 18:00,-184.19059994391046,0.0,0.0,0.0,0
6-1-2017 19:00,-147.36446354569216,0.0,0.0,0.0,0
6-1-2017 20:00,-82.44892110998853,0.0,0.0,0.0,0
6-1-2017 21:00,148.0059884427983,0.0,0.0,0.0,0
6-1-2017 22:00,225.86402272003124,0.0,0.0,0.0,0
6-1-2017 23:00,172.38722093070282,0.0,0.0,0.0,0
7-1-2017 0:00,9.476978674254497,0.0,0.0,0.0,0
7-1-2017 1:00,-25.092707484740004,0.0,0.0,0.0,0
7-1-2017 2:00,-6.518094439759352,0.0,0.0,0.0,0
7-1-2017 3:00,24.55344482874716,0.0,0.0,0.0,0
7-1-2017 4:00,20.898641434040655,0.0,0.0,0.0,0
7-1-2017 5:00,21.636008912161287,0.0,0.0,0.0,0
7-1-2017 6:00,-0.8810806173823948,0.0,0.0,0.0,0
7-1-2017 7:00,1.751067431555839,0.0,0.0,0.0,0
7-1-2017 8:00,-52.017624330906074,0.0,0.0,0.0,0
7-1-2017 9:00,11.781467215179873,0.0,0.0,0.0,0
7-1-2017 10:00,42.75931155420676,0.0,0.0,0.0,0
7-1-2017 11:00,146.83627554548048,0.0,0.0,0.0,0
7-1-2017 12:00,-5.350859612711247,0.0,0.0,0.0,0
7-1-2017 13:00,304.4553891305918,0.0,0.0,0.0,0
7-1-2017 14:00,-5.269928174367124,0.0,0.0,0.0,0
7-1-2017 15:00,-334.63861830653536,0.0,0.0,0.0,0
7-1-2017 16:00,-245.462103696766,0.0,0.0,0.0,0
7-1-2017 17:00,150.3005627004518,0.0,0.0,0.0,0
7-1-2017 18:00,4.4644520023632595,0.0,0.0,0.0,0
7-1-2017 19:00,-6.394085143897428,0.0,0.0,0.0,0
7-1-2017 20:00,-137.39774820596654,0.0,0.0,0.0,0
7-1-2017 21:00,-110.61939941490141,0.0,0.0,0.0,0
7-1-2017 22:00,-12.962588417666666,0.0,0.0,0.0,0
7-1-2017 23:00,137.31361641321382,0.0,0.0,0.0,0
8-1-2017 0:00,247.41993777311245,0.0,0.0,0.0,0
8-1-2017 1:00,298.0297402553538,0.0,0.0,0.0,0
8-1-2017 2:00,369.3237545636757,0.0,0.0,0.0,0
8-1-2017 3:00,416.34336797616925,0.0,0.0,0.0,0
8-1-2017 4:00,483.2472141711305,0.0,0.0,0.0,0
8-1-2017 5:00,508.8345331963578,0.0,0.0,0.0,0
8-1-2017 6:00,515.3869581885879,0.0,0.0,0.0,0
8-1-2017 7:00,348.5544485868088,0.0,0.0,0.0,0
8-1-2017 8:00,208.7072655172185,0.0,0.0,0.0,0
8-1-2017 9:00,-273.716983773892,0.0,0.0,0.0,0
8-1-2017 10:00,-709.663198598801,0.0,0.0,0.0,0
8-1-2017 11:00,-827.605632837101,0.0,0.0,0.0,0
8-1-2017 12:00,-871.868618649555,0.0,0.0,0.0,0
8-1-2017 13:00,-644.3415434033948,0.0,0.0,0.0,0
8-1-2017 14:00,-624.3896098334737,0.0,0.0,0.0,0
8-1-2017 15:00,-790.7548912401467,0.0,0.0,0.0,0
8-1-2017 16:00,-773.511927816083,0.0,0.0,0.0,0
8-1-2017 17:00,-631.8066624625135,0.0,0.0,0.0,0
8-1-2017 18:00,-232.06483102112452,0.0,0.0,0.0,0
8-1-2017 19:00,161.4888776695118,0.0,0.0,0.0,0
8-1-2017 20:00,125.08292849104646,0.0,0.0,0.0,0
8-1-2017 21:00,72.08870821135929,0.0,0.0,0.0,0
8-1-2017 22:00,71.16530720296873,0.0,0.0,0.0,0
8-1-2017 23:00,155.7955299284315,0.0,0.0,0.0,0
9-1-2017 0:00,254.3794261790497,0.0,0.0,0.0,0
9-1-2017 1:00,257.3661654205712,0.0,0.0,0.0,0
9-1-2017 2:00,246.81702911027946,0.0,0.0,0.0,0
9-1-2017 3:00,182.68216478480417,0.0,0.0,0.0,0
9-1-2017 4:00,121.67787459329497,0.0,0.0,0.0,0
9-1-2017 5:00,96.6648157379932,0.0,0.0,0.0,0
9-1-2017 6:00,17.876425824360467,0.0,0.0,0.0,0
9-1-2017 7:00,-115.07333575544271,0.0,0.0,0.0,0
9-1-2017 8:00,-197.41160445946866,0.0,0.0,0.0,0
9-1-2017 9:00,115.092406899254,0.0,0.0,0.0,0
9-1-2017 10:00,303.34406501521516,0.0,0.0,0.0,0
9-1-2017 11:00,200.7141646521477,0.0,0.0,0.0,0
9-1-2017 12:00,208.88726029023792,0.0,0.0,0.0,0
9-1-2017 13:00,161.20477999153263,0.0,0.0,0.0,0
9-1-2017 14:00,363.3935823886104,0.0,0.0,0.0,0
9-1-2017 15:00,374.46132765971015,0.0,0.0,0.0,0
9-1-2017 16:00,381.4445137146695,0.0,0.0,0.0,0
9-1-2017 17:00,240.17145585716344,0.0,0.0,0.0,0
9-1-2017 18:00,-24.01969272939732,0.0,0.0,0.0,0
9-1-2017 19:00,-52.229256774806345,0.0,0.0,0.0,0
9-1-2017 20:00,-184.0230106426111,0.0,0.0,0.0,0
9-1-2017 21:00,3.049998728877199,0.0,0.0,0.0,0
9-1-2017 22:00,-183.15672725667855,0.0,0.0,0.0,0
9-1-2017 23:00,-121.49559960817396,0.0,0.0,0.0,0
10-1-2017 0:00,-209.57188548416025,0.0,0.0,0.0,0
10-1-2017 1:00,-176.49328536182975,0.0,0.0,0.0,0
10-1-2017 2:00,-122.44055254339673,0.0,0.0,0.0,0
10-1-2017 3:00,-108.80897332616951,0.0,0.0,0.0,0
10-1-2017 4:00,-118.50619505298482,0.0,0.0,0.0,0
10-1-2017 5:00,-129.51029918174572,0.0,0.0,0.0,0
10-1-2017 6:00,-108.67510694180919,0.0,0.0,0.0,0
10-1-2017 7:00,-52.26203772156987,0.0,0.0,0.0,0
10-1-2017 8:00,-120.60619074633041,0.0,0.0,0.0,0
10-1-2017 9:00,127.59327844412519,0.0,0.0,0.0,0
10-1-2017 10:00,124.04021160083266,0.0,0.0,0.0,0
10-1-2017 11:00,9.113748042203497,0.0,0.0,0.0,0
10-1-2017 12:00,96.22280383052066,0.0,0.0,0.0,0
10-1-2017 13:00,192.61686044440285,0.0,0.0,0.0,0
10-1-2017 14:00,71.40100535793454,0.0,0.0,0.0,0
10-1-2017 15:00,371.27220699518966,0.0,0.0,0.0,0
10-1-2017 16:00,223.21584364661612,0.0,0.0,0.0,0
10-1-2017 17:00,195.73579142113795,0.0,0.0,0.0,0
10-1-2017 18:00,140.1950112868958,0.0,0.0,0.0,0
10-1-2017 19:00,-118.67504327541792,0.0,0.0,0.0,0
10-1-2017 20:00,-135.7262851902251,0.0,0.0,0.0,0
10-1-2017 21:00,-16.603748016376812,0.0,0.0,0.0,0
10-1-2017 22:00,68.29468380189883,0.0,0.0,0.0,0
10-1-2017 23:00,-53.45873757394338,0.0,0.0,0.0,0
11-1-2017 0:00,-94.64637898620231,0.0,0.0,0.0,0
11-1-2017 1:00,-142.7567742881688,0.0,0.0,0.0,0
11-1-2017 2:00,-117.64302864611636,0.0,0.0,0.0,0
11-1-2017 3:00,-105.22586219129062,0.0,0.0,0.0,0
11-1-2017 4:00,-72.53067994561025,0.0,0.0,0.0,0
11-1-2017 5:00,-95.87881894873863,0.0,0.0,0.0,0
11-1-2017 6:00,-101.06303415614184,0.0,0.0,0.0,0
11-1-2017 7:00,-195.21207663405198,0.0,0.0,0.0,0
11-1-2017 8:00,-176.4870564777366,0.0,0.0,0.0,0
11-1-2017 9:00,150.28153124268556,0.0,0.0,0.0,0
11-1-2017 10:00,158.24781343291215,0.0,0.0,0.0,0
11-1-2017 11:00,236.37886067149566,0.0,0.0,0.0,0
11-1-2017 12:00,95.25795060281416,0.0,0.0,0.0,0
11-1-2017 13:00,-99.8717673898791,0.0,0.0,0.0,0
11-1-2017 14:00,215.56740852094572,0.0,0.0,0.0,0
11-1-2017 15:00,275.05175500519454,0.0,0.0,0.0,0
11-1-2017 16:00,6.689127606317015,0.0,0.0,0.0,0
11-1-2017 17:00,-69.37379969502535,0.0,0.0,0.0,0
11-1-2017 18:00,44.31990791516046,0.0,0.0,0.0,0
11-1-2017 19:00,-92.68367801179375,0.0,0.0,0.0,0
11-1-2017 20:00,-15.555448821342452,0.0,0.0,0.0,0
11-1-2017 21:00,-22.81872189919477,0.0,0.0,0.0,0
11-1-2017 22:00,-42.67934285781166,0.0,0.0,0.0,0
11-1-2017 23:00,-122.43152383872484,0.0,0.0,0.0,0
12-1-2017 0:00,-70.29473136797924,0.0,0.0,0.0,0
12-1-2017 1:00,-32.81497387959098,0.0,0.0,0.0,0
12-1-2017 2:00,-33.491067199267036,0.0,0.0,0.0,0
12-1-2017 3:00,-15.889165292191592,0.0,0.0,0.0,0
12-1-2017 4:00,-6.182643812908736,0.0,0.0,0.0,0
12-1-2017 5:00,-4.9150218579902685,0.0,0.0,0.0,0
12-1-2017 6:00,23.66115131968172,0.0,0.0,0.0,0
12-1-2017 7:00,106.21963697484262,0.0,0.0,0.0,0
12-1-2017 8:00,21.373470143453687,0.0,0.0,0.0,0
12-1-2017 9:00,-30.43923580970568,0.0,0.0,0.0,0
12-1-2017 10:00,-121.06405812788898,0.0,0.0,0.0,0
12-1-2017 11:00,-199.2359536340232,0.0,0.0,0.0,0
12-1-2017 12:00,427.99271689836496,0.0,0.0,0.0,0
12-1-2017 13:00,257.0584052458971,0.0,0.0,0.0,0
12-1-2017 14:00,162.88179310081387,0.0,0.0,0.0,0
12-1-2017 15:00,-104.59153462114273,0.0,0.0,0.0,0
12-1-2017 16:00,73.61903709312537,0.0,0.0,0.0,0
12-1-2017 17:00,-134.6661721655405,0.0,0.0,0.0,0
12-1-2017 18:00,11.492616307612025,0.0,0.0,0.0,0
12-1-2017 19:00,-349.4125751024435,0.0,0.0,0.0,0
12-1-2017 20:00,-194.55294892519146,0.0,0.0,0.0,0
12-1-2017 21:00,-252.0399127141145,0.0,0.0,0.0,0
12-1-2017 22:00,-80.03469512200763,0.0,0.0,0.0,0
12-1-2017 23:00,3.739255619624373,0.0,0.0,0.0,0
13-1-2017 0:00,65.21537330098931,0.0,0.0,0.0,0
13-1-2017 1:00,99.1923544913343,0.0,0.0,0.0,0
13-1-2017 2:00,89.83349312153086,0.0,0.0,0.0,0
13-1-2017 3:00,115.00720139245709,0.0,0.0,0.0,0
13-1-2017 4:00,126.74219151425814,0.0,0.0,0.0,0
13-1-2017 5:00,133.04149222833257,0.0,0.0,0.0,0
13-1-2017 6:00,152.5739715921893,0.0,0.0,0.0,0
13-1-2017 7:00,185.05045325537367,0.0,0.0,0.0,0
13-1-2017 8:00,192.07356731123264,0.0,0.0,0.0,0
13-1-2017 9:00,-39.03910291437683,0.0,0.0,0.0,0
13-1-2017 10:00,-171.1733980304184,0.0,0.0,0.0,0
13-1-2017 11:00,-13.226604570716972,0.0,0.0,0.0,0
13-1-2017 12:00,-112.98672172670558,0.0,0.0,0.0,0
13-1-2017 13:00,-325.09172718665695,0.0,0.0,0.0,0
13-1-2017 14:00,-61.71022753535408,0.0,0.0,0.0,0
13-1-2017 15:00,-182.15732961122467,0.0,0.0,0.0,0
13-1-2017 16:00,101.80216139920162,0.0,0.0,0.0,0
13-1-2017 17:00,158.89508834877142,0.0,0.0,0.0,0
13-1-2017 18:00,-85.63062414954925,0.0,0.0,0.0,0
13-1-2017 19:00,-52.742302133179464,0.0,0.0,0.0,0
13-1-2017 20:00,-106.31616005960245,0.0,0.0,0.0,0
13-1-2017 21:00,-86.60257697600696,0.0,0.0,0.0,0
13-1-2017 22:00,-5.14036950734112,0.0,0.0,0.0,0
13-1-2017 23:00,80.46086428267108,0.0,0.0,0.0,0
14-1-2017 0:00,247.95238720235488,0.0,0.0,0.0,0
14-1-2017 1:00,354.4524951558492,0.0,0.0,0.0,0
14-1-2017 2:00,382.3551715010028,0.0,0.0,0.0,0
14-1-2017 3:00,435.1622249161219,0.0,0.0,0.0,0
14-1-2017 4:00,466.57538319244895,0.0,0.0,0.0,0
14-1-2017 5:00,491.34676130541925,0.0,0.0,0.0,0
14-1-2017 6:00,499.02002962863,0.0,0.0,0.0,0
14-1-2017 7:00,409.0830401017072,0.0,0.0,0.0,0
14-1-2017 8:00,111.68332705691591,0.0,0.0,0.0,0
14-1-2017 9:00,-229.70154288510366,0.0,0.0,0.0,0
14-1-2017 10:00,-640.0839534431991,0.0,0.0,0.0,0
14-1-2017 11:00,-832.8417707408478,0.0,0.0,0.0,0
14-1-2017 12:00,-868.4845475825564,0.0,0.0,0.0,0
14-1-2017 13:00,-536.1806557326393,0.0,0.0,0.0,0
14-1-2017 14:00,-521.0845121925972,0.0,0.0,0.0,0
14-1-2017 15:00,-640.8520801201009,0.0,0.0,0.0,0
14-1-2017 16:00,-445.45032449547625,0.0,0.0,0.0,0
14-1-2017 17:00,-285.62238883878035,0.0,0.0,0.0,0
14-1-2017 18:00,-158.15107238453447,0.0,0.0,0.0,0
14-1-2017 19:00,-182.471030651006,0.0,0.0,0.0,0
14-1-2017 20:00,-107.99975545004668,0.0,0.0,0.0,0
14-1-2017 21:00,120.6052359097971,0.0,0.0,0.0,0
14-1-2017 22:00,157.74599478877803,0.0,0.0,0.0,0
14-1-2017 23:00,351.28886426777194,0.0,0.0,0.0,0
15-1-2017 0:00,531.2904397616046,0.0,0.0,0.0,0
15-1-2017 1:00,697.6700462158724,0.0,0.0,0.0,0
15-1-2017 2:00,732.7406320136076,0.0,0.0,0.0,0
15-1-2017 3:00,768.2774023105444,0.0,0.0,0.0,0
15-1-2017 4:00,775.9795938270161,0.0,0.0,0.0,0
15-1-2017 5:00,807.893125207099,0.0,0.0,0.0,0
15-1-2017 6:00,751.0472583578835,0.0,0.0,0.0,0
15-1-2017 7:00,595.5599589792901,0.0,0.0,0.0,0
15-1-2017 8:00,339.0005801722855,0.0,0.0,0.0,0
15-1-2017 9:00,-408.7589122500277,0.0,0.0,0.0,0
15-1-2017 10:00,-855.7616314100796,0.0,0.0,0.0,0
15-1-2017 11:00,-1155.486252624982,0.0,0.0,0.0,0
15-1-2017 12:00,-1328.0238823123125,0.0,0.0,0.0,0
15-1-2017 13:00,-935.2352780061522,0.0,0.0,0.0,0
15-1-2017 14:00,-904.2886754309945,0.0,0.0,0.0,0
15-1-2017 15:00,-917.840894063756,0.0,0.0,0.0,0
15-1-2017 16:00,-661.9886739145375,0.0,0.0,0.0,0
15-1-2017 17:00,-552.6325778401997,0.0,0.0,0.0,0
15-1-2017 18:00,-179.3710807228715,0.0,0.0,0.0,0
15-1-2017 19:00,197.61119870829953,0.0,0.0,0.0,0
15-1-2017 20:00,205.70812501712567,0.0,0.0,0.0,0
15-1-2017 21:00,33.91272413461593,0.0,0.0,0.0,0
15-1-2017 22:00,121.56269122152548,0.0,0.0,0.0,0
15-1-2017 23:00,269.73785318711407,0.0,0.0,0.0,0
16-1-2017 0:00,417.34013805270934,0.0,0.0,0.0,0
16-1-2017 1:00,374.37616415493835,0.0,0.0,0.0,0
16-1-2017 2:00,366.7015805524427,0.0,0.0,0.0,0
16-1-2017 3:00,309.474988878384,0.0,0.0,0.0,0
16-1-2017 4:00,256.2159173568484,0.0,0.0,0.0,0
16-1-2017 5:00,205.3779957860654,0.0,0.0,0.0,0
16-1-2017 6:00,125.44938754644363,0.0,0.0,0.0,0
16-1-2017 7:00,31.088904400013234,0.0,0.0,0.0,0
16-1-2017 8:00,33.486985914627894,0.0,0.0,0.0,0
16-1-2017 9:00,35.47454086931293,0.0,0.0,0.0,0
16-1-2017 10:00,-105.22678068268488,0.0,0.0,0.0,0
16-1-2017 11:00,268.0635003951702,0.0,0.0,0.0,0
16-1-2017 12:00,36.5527240722281,0.0,0.0,0.0,0
16-1-2017 13:00,121.20281311098188,0.0,0.0,0.0,0
16-1-2017 14:00,64.52664699760408,0.0,0.0,0.0,0
16-1-2017 15:00,-73.67345006406549,0.0,0.0,0.0,0
16-1-2017 16:00,57.83578882023494,0.0,0.0,0.0,0
16-1-2017 17:00,-14.393534970750352,0.0,0.0,0.0,0
16-1-2017 18:00,-18.935437473304773,0.0,0.0,0.0,0
16-1-2017 19:00,-102.04601849412961,0.0,0.0,0.0,0
16-1-2017 20:00,319.5214607729258,0.0,0.0,0.0,0
16-1-2017 21:00,20.993337913522737,0.0,0.0,0.0,0
16-1-2017 22:00,43.28581096790322,0.0,0.0,0.0,0
16-1-2017 23:00,-150.19343682037174,0.0,0.0,0.0,0
17-1-2017 0:00,-106.89714482347131,0.0,0.0,0.0,0
17-1-2017 1:00,-64.82802596717147,0.0,0.0,0.0,0
17-1-2017 2:00,-60.31110586378736,0.0,0.0,0.0,0
17-1-2017 3:00,-80.88438640273034,0.0,0.0,0.0,0
17-1-2017 4:00,-78.56289945446952,0.0,0.0,0.0,0
17-1-2017 5:00,-71.5106428127774,0.0,0.0,0.0,0
17-1-2017 6:00,-67.87036127946476,0.0,0.0,0.0,0
17-1-2017 7:00,38.144193571442884,0.0,0.0,0.0,0
17-1-2017 8:00,28.387957172852566,0.0,0.0,0.0,0
17-1-2017 9:00,71.010061695059,0.0,0.0,0.0,0
17-1-2017 10:00,200.72585691899167,0.0,0.0,0.0,0
17-1-2017 11:00,-260.07324054251785,0.0,0.0,0.0,0
17-1-2017 12:00,-141.64144433319507,0.0,0.0,0.0,0
17-1-2017 13:00,119.49178751056161,0.0,0.0,0.0,0
17-1-2017 14:00,-123.56548921894137,0.0,0.0,0.0,0
17-1-2017 15:00,161.6481933628911,0.0,0.0,0.0,0
17-1-2017 16:00,338.2009047187162,0.0,0.0,0.0,0
17-1-2017 17:00,281.41708461379676,0.0,0.0,0.0,0
17-1-2017 18:00,183.09270604274752,0.0,0.0,0.0,0
17-1-2017 19:00,36.39881549363008,0.0,0.0,0.0,0
17-1-2017 20:00,60.41639864261606,0.0,0.0,0.0,0
17-1-2017 21:00,92.92097065601138,0.0,0.0,0.0,0
17-1-2017 22:00,-132.62649338875372,0.0,0.0,0.0,0
17-1-2017 23:00,-64.9525939975083,0.0,0.0,0.0,0
18-1-2017 0:00,-222.28061205943186,0.0,0.0,0.0,0
18-1-2017 1:00,-188.27222477827127,0.0,0.0,0.0,0
18-1-2017 2:00,-222.3639585042979,0.0,0.0,0.0,0
18-1-2017 3:00,-259.28486081939036,0.0,0.0,0.0,0
18-1-2017 4:00,-279.3133283579573,0.0,0.0,0.0,0
18-1-2017 5:00,-276.2066413761713,0.0,0.0,0.0,0
18-1-2017 6:00,-244.2866885520325,0.0,0.0,0.0,0
18-1-2017 7:00,-164.65281855619833,0.0,0.0,0.0,0
18-1-2017 8:00,-114.58380279545963,0.0,0.0,0.0,0
18-1-2017 9:00,14.296710350919966,0.0,0.0,0.0,0
18-1-2017 10:00,144.03024366427462,0.0,0.0,0.0,0
18-1-2017 11:00,484.32469468436966,0.0,0.0,0.0,0
18-1-2017 12:00,357.6426443487685,0.0,0.0,0.0,0
18-1-2017 13:00,258.61387282972964,0.0,0.0,0.0,0
18-1-2017 14:00,255.4600694133169,0.0,0.0,0.0,0
18-1-2017 15:00,282.8884645153521,0.0,0.0,0.0,0
18-1-2017 16:00,470.5179411498639,0.0,0.0,0.0,0
18-1-2017 17:00,424.8237215553727,0.0,0.0,0.0,0
18-1-2017 18:00,195.02228773108527,0.0,0.0,0.0,0
18-1-2017 19:00,53.55479858931949,0.0,0.0,0.0,0
18-1-2017 20:00,-217.59969801503075,0.0,0.0,0.0,0
18-1-2017 21:00,-83.43776649660003,0.0,0.0,0.0,0
18-1-2017 22:00,-149.42041825319166,0.0,0.0,0.0,0
18-1-2017 23:00,32.17007529715829,0.0,0.0,0.0,0
19-1-2017 0:00,191.01299129643894,0.0,0.0,0.0,0
19-1-2017 1:00,-348.8770991105248,0.0,0.0,0.0,0
19-1-2017 2:00,-346.4452327789454,0.0,0.0,0.0,0
19-1-2017 3:00,-334.4915029831718,0.0,0.0,0.0,0
19-1-2017 4:00,-325.6607199638188,0.0,0.0,0.0,0
19-1-2017 5:00,-305.8843021074281,0.0,0.0,0.0,0
19-1-2017 6:00,-287.02937745795316,0.0,0.0,0.0,0
19-1-2017 7:00,-158.54771551594968,0.0,0.0,0.0,0
19-1-2017 8:00,-87.94497079464008,0.0,0.0,0.0,0
19-1-2017 9:00,-63.19185236662179,0.0,0.0,0.0,0
19-1-2017 10:00,208.33181861386538,0.0,0.0,0.0,0
19-1-2017 11:00,406.53221769327774,0.0,0.0,0.0,0
19-1-2017 12:00,614.0387203904638,0.0,0.0,0.0,0
19-1-2017 13:00,142.2974594575121,0.0,0.0,0.0,0
19-1-2017 14:00,270.4166433030705,0.0,0.0,0.0,0
19-1-2017 15:00,-141.820735125812,0.0,0.0,0.0,0
19-1-2017 16:00,236.77938026857782,0.0,0.0,0.0,0
19-1-2017 17:00,115.24050566313781,0.0,0.0,0.0,0
19-1-2017 18:00,174.4977610642336,0.0,0.0,0.0,0
19-1-2017 19:00,-58.21199055259058,0.0,0.0,0.0,0
19-1-2017 20:00,-26.027230792687533,0.0,0.0,0.0,0
19-1-2017 21:00,-91.21127536831682,0.0,0.0,0.0,0
19-1-2017 22:00,236.51094463602612,0.0,0.0,0.0,0
19-1-2017 23:00,8.718091818242101,0.0,0.0,0.0,0
20-1-2017 0:00,-240.85799864851242,0.0,0.0,0.0,0
20-1-2017 1:00,-211.62308661466795,0.0,0.0,0.0,0
20-1-2017 2:00,-231.36414009655255,0.0,0.0,0.0,0
20-1-2017 3:00,-237.42229806098112,0.0,0.0,0.0,0
20-1-2017 4:00,-224.76968573279555,0.0,0.0,0.0,0
20-1-2017 5:00,-229.4439718381409,0.0,0.0,0.0,0
20-1-2017 6:00,-175.9945101996709,0.0,0.0,0.0,0
20-1-2017 7:00,-208.79378398028894,0.0,0.0,0.0,0
20-1-2017 8:00,-169.48603796719817,0.0,0.0,0.0,0
20-1-2017 9:00,-44.688631169044584,0.0,0.0,0.0,0
20-1-2017 10:00,24.416867595625263,0.0,0.0,0.0,0
20-1-2017 11:00,253.7449048514054,0.0,0.0,0.0,0
20-1-2017 12:00,332.6316506984281,0.0,0.0,0.0,0
20-1-2017 13:00,62.724562943793444,0.0,0.0,0.0,0
20-1-2017 14:00,100.32339664355322,0.0,0.0,0.0,0
20-1-2017 15:00,259.68690727598323,0.0,0.0,0.0,0
20-1-2017 16:00,450.1639355465977,0.0,0.0,0.0,0
20-1-2017 17:00,520.5966503259333,0.0,0.0,0.0,0
20-1-2017 18:00,152.52883934813644,0.0,0.0,0.0,0
20-1-2017 19:00,-10.138865849481135,0.0,0.0,0.0,0
20-1-2017 20:00,-49.69054083105948,0.0,0.0,0.0,0
20-1-2017 21:00,36.13983920526971,0.0,0.0,0.0,0
20-1-2017 22:00,-54.07739911970202,0.0,0.0,0.0,0
20-1-2017 23:00,-78.05792839587048,0.0,0.0,0.0,0
21-1-2017 0:00,-171.63735541890856,0.0,0.0,0.0,0
21-1-2017 1:00,-149.43851067909463,0.0,0.0,0.0,0
21-1-2017 2:00,-59.243553709280604,0.0,0.0,0.0,0
21-1-2017 3:00,-37.73466916874804,0.0,0.0,0.0,0
21-1-2017 4:00,-2.9177619985389356,0.0,0.0,0.0,0
21-1-2017 5:00,31.9361817799645,0.0,0.0,0.0,0
21-1-2017 6:00,75.60911425301492,0.0,0.0,0.0,0
21-1-2017 7:00,-8.654717869975002,0.0,0.0,0.0,0
21-1-2017 8:00,74.19440681514652,0.0,0.0,0.0,0
21-1-2017 9:00,41.87815906491414,0.0,0.0,0.0,0
21-1-2017 10:00,336.40030726410237,0.0,0.0,0.0,0
21-1-2017 11:00,399.1908043465851,0.0,0.0,0.0,0
21-1-2017 12:00,278.0226149937812,0.0,0.0,0.0,0
21-1-2017 13:00,-409.75642225416095,0.0,0.0,0.0,0
21-1-2017 14:00,-1090.4340613718243,0.0,0.0,0.0,0
21-1-2017 15:00,-574.5857843497051,0.0,0.0,0.0,0
21-1-2017 16:00,-318.93875542217324,0.0,0.0,0.0,0
21-1-2017 17:00,-342.4217986632857,0.0,0.0,0.0,0
21-1-2017 18:00,-116.42202342519977,0.0,0.0,0.0,0
21-1-2017 19:00,321.04495322103844,0.0,0.0,0.0,0
21-1-2017 20:00,133.0494789226293,0.0,0.0,0.0,0
21-1-2017 21:00,257.2108523270099,0.0,0.0,0.0,0
21-1-2017 22:00,266.722329120483,0.0,0.0,0.0,0
21-1-2017 23:00,326.6422968336915,0.0,0.0,0.0,0
22-1-2017 0:00,329.9092244875028,0.0,0.0,0.0,0
22-1-2017 1:00,469.8474227775282,0.0,0.0,0.0,0
22-1-2017 2:00,482.5497396082483,0.0,0.0,0.0,0
22-1-2017 3:00,532.8469654125859,0.0,0.0,0.0,0
22-1-2017 4:00,580.7080523798311,0.0,0.0,0.0,0
22-1-2017 5:00,630.070615642916,0.0,0.0,0.0,0
22-1-2017 6:00,624.2520230131836,0.0,0.0,0.0,0
22-1-2017 7:00,414.75731370455037,0.0,0.0,0.0,0
22-1-2017 8:00,354.9929848746135,0.0,0.0,0.0,0
22-1-2017 9:00,-314.65153019938555,0.0,0.0,0.0,0
22-1-2017 10:00,-982.6571347284196,0.0,0.0,0.0,0
22-1-2017 11:00,-1169.5985325283157,0.0,0.0,0.0,0
22-1-2017 12:00,-1101.912842167892,0.0,0.0,0.0,0
22-1-2017 13:00,-954.6343393345405,0.0,0.0,0.0,0
22-1-2017 14:00,-1113.464803563973,0.0,0.0,0.0,0
22-1-2017 15:00,-1297.7629386282283,0.0,0.0,0.0,0
22-1-2017 16:00,-924.6504801776364,0.0,0.0,0.0,0
22-1-2017 17:00,-765.4446306679179,0.0,0.0,0.0,0
22-1-2017 18:00,-246.5458107608124,0.0,0.0,0.0,0
22-1-2017 19:00,162.6173246358294,0.0,0.0,0.0,0
22-1-2017 20:00,33.76962518673554,0.0,0.0,0.0,0
22-1-2017 21:00,-38.667486767286846,0.0,0.0,0.0,0
22-1-2017 22:00,52.62406164711774,0.0,0.0,0.0,0
22-1-2017 23:00,-89.89270506871344,0.0,0.0,0.0,0
23-1-2017 0:00,-159.80740434884206,0.0,0.0,0.0,0
23-1-2017 1:00,-371.76419082621874,0.0,0.0,0.0,0
23-1-2017 2:00,-616.0088524522066,0.0,0.0,0.0,0
23-1-2017 3:00,-827.7676237016774,0.0,0.0,0.0,0
23-1-2017 4:00,-1061.3600147878258,0.0,0.0,0.0,0
23-1-2017 5:00,-1163.2638501478227,0.0,0.0,0.0,0
23-1-2017 6:00,-1266.598985988,0.0,0.0,0.0,0
23-1-2017 7:00,-1418.0803111592736,0.0,0.0,0.0,0
23-1-2017 8:00,-1367.1838321812643,0.0,0.0,0.0,0
23-1-2017 9:00,1337.4493548102237,0.0,0.0,0.0,0
23-1-2017 10:00,3818.165108298411,0.0,0.0,0.0,0
23-1-2017 11:00,3369.7109263615807,0.0,0.0,0.0,0
23-1-2017 12:00,3286.239607180676,0.0,0.0,0.0,0
23-1-2017 13:00,3740.644215168903,0.0,0.0,0.0,0
23-1-2017 14:00,3615.8594909012836,0.0,0.0,0.0,0
23-1-2017 15:00,3665.723508824236,0.0,0.0,0.0,0
23-1-2017 16:00,-69.33160462797923,0.0,0.0,0.0,0
23-1-2017 17:00,-827.0371519001815,0.0,0.0,0.0,0
23-1-2017 18:00,-999.6195768568105,0.0,0.0,0.0,0
23-1-2017 19:00,-991.824460415562,0.0,0.0,0.0,0
23-1-2017 20:00,-1099.4585627211377,0.0,0.0,0.0,0
23-1-2017 21:00,-1059.4685866625732,0.0,0.0,0.0,0
23-1-2017 22:00,-985.3292501571136,0.0,0.0,0.0,0
23-1-2017 23:00,-981.5750348318606,0.0,0.0,0.0,0
24-1-2017 0:00,-997.2436445758058,0.0,0.0,0.0,0
24-1-2017 1:00,-872.8108520434193,0.0,0.0,0.0,0
24-1-2017 2:00,-756.0079283489486,0.0,0.0,0.0,0
24-1-2017 3:00,-631.2481328750623,0.0,0.0,0.0,0
24-1-2017 4:00,-541.7110108370161,0.0,0.0,0.0,0
24-1-2017 5:00,-486.2501095241437,0.0,0.0,0.0,0
24-1-2017 6:00,-443.00065327881475,0.0,0.0,0.0,0
24-1-2017 7:00,-280.80837696477647,0.0,0.0,0.0,0
24-1-2017 8:00,-143.5108728308728,0.0,0.0,0.0,0
24-1-2017 9:00,-53.79370517436337,0.0,0.0,0.0,0
24-1-2017 10:00,283.08949653691343,0.0,0.0,0.0,0
24-1-2017 11:00,588.3986206690156,0.0,0.0,0.0,0
24-1-2017 12:00,649.6863821526504,0.0,0.0,0.0,0
24-1-2017 13:00,333.95581336715986,0.0,0.0,0.0,0
24-1-2017 14:00,254.83554713275862,0.0,0.0,0.0,0
24-1-2017 15:00,312.95043611432584,0.0,0.0,0.0,0
24-1-2017 16:00,395.076436808587,0.0,0.0,0.0,0
24-1-2017 17:00,236.1339688698131,0.0,0.0,0.0,0
24-1-2017 18:00,11.57477516480094,0.0,0.0,0.0,0
24-1-2017 19:00,-64.09369092655515,0.0,0.0,0.0,0
24-1-2017 20:00,-60.37975966582371,0.0,0.0,0.0,0
24-1-2017 21:00,-20.31197182273445,0.0,0.0,0.0,0
24-1-2017 22:00,-31.794021250396327,0.0,0.0,0.0,0
24-1-2017 23:00,-105.8779979082351,0.0,0.0,0.0,0
25-1-2017 0:00,-285.6496921401731,0.0,0.0,0.0,0
25-1-2017 1:00,-270.64502947424535,0.0,0.0,0.0,0
25-1-2017 2:00,-245.5822293355377,0.0,0.0,0.0,0
25-1-2017 3:00,-249.81157601451605,0.0,0.0,0.0,0
25-1-2017 4:00,-227.9531720651844,0.0,0.0,0.0,0
25-1-2017 5:00,-205.33956064604763,0.0,0.0,0.0,0
25-1-2017 6:00,-174.40753888181825,0.0,0.0,0.0,0
25-1-2017 7:00,-92.66551737160125,0.0,0.0,0.0,0
25-1-2017 8:00,103.64915562906617,0.0,0.0,0.0,0
25-1-2017 9:00,27.661403701978088,0.0,0.0,0.0,0
25-1-2017 10:00,-31.429340943802345,0.0,0.0,0.0,0
25-1-2017 11:00,98.71169467708478,0.0,0.0,0.0,0
25-1-2017 12:00,387.0271422451119,0.0,0.0,0.0,0
25-1-2017 13:00,-283.2882476288987,0.0,0.0,0.0,0
25-1-2017 14:00,208.91629985511918,0.0,0.0,0.0,0
25-1-2017 15:00,28.522415580498546,0.0,0.0,0.0,0
25-1-2017 16:00,431.00832339945555,0.0,0.0,0.0,0
25-1-2017 17:00,402.03570012322234,0.0,0.0,0.0,0
25-1-2017 18:00,332.63650299894016,0.0,0.0,0.0,0
25-1-2017 19:00,32.140981802954684,225.89,702.17,-250.39,0
25-1-2017 20:00,-49.95052594203116,-68.4,407.74,-544.54,0
25-1-2017 21:00,81.47914079452858,-103.36,372.38,-579.1,0
25-1-2017 22:00,4.010609756738177,32.96,508.53,-442.61,0
25-1-2017 23:00,73.36334543879957,-65.86,409.32,-541.04,0
26-1-2017 0:00,139.2618802973434,14.59,489.51,-460.32,0
26-1-2017 1:00,161.35907422227183,62.14,536.76,-412.49,0
26-1-2017 2:00,194.57962602352245,67.69,541.99,-406.6,0
26-1-2017 3:00,239.67569957033538,89.27,563.28,-384.74,0
26-1-2017 4:00,314.03865374799807,118.42,592.19,-355.35,0
26-1-2017 5:00,370.6270827018493,171.49,645.12,-302.14,0
26-1-2017 6:00,419.77794261027884,200.15,673.65,-273.35,0
26-1-2017 7:00,378.2958542060828,222.29,695.72,-251.14,0
26-1-2017 8:00,386.9470506261539,155.96,629.16,-317.25,0
26-1-2017 9:00,-355.29643721872117,154.46,627.62,-318.69,1
26-1-2017 10:00,-989.1037684737987,-579.95,-105.47,-1054.44,0
26-1-2017 11:00,-1022.2578649917984,-1057.35,-582.18,-1532.52,0
26-1-2017 12:00,-802.9028016676154,-946.26,-471.47,-1421.05,0
26-1-2017 13:00,-705.8085425409711,-684.02,-209.48,-1158.57,0
26-1-2017 14:00,-972.0571402222138,-585.36,-111.2,-1059.52,0
26-1-2017 15:00,-982.163439618115,-819.31,-344.58,-1294.04,0
26-1-2017 16:00,-646.9718195558232,-735.43,-260.91,-1209.94,0
26-1-2017 17:00,-419.82487053139994,-365.81,108.38,-839.99,0
26-1-2017 18:00,70.73985716548214,-169.12,304.7,-642.94,0
26-1-2017 19:00,335.33156763465286,295.13,768.94,-178.68,0
26-1-2017 20:00,491.9757114237775,469.41,942.84,-4.02,0
26-1-2017 21:00,333.3117749331725,567.92,1040.97,94.86,0
26-1-2017 22:00,365.0273234493575,212.55,721.95,-296.86,0
26-1-2017 23:00,119.25467729073966,407.4,880.06,-65.26,0
27-1-2017 0:00,135.3992106403257,142.06,614.88,-330.77,0
27-1-2017 1:00,119.44693797428363,191.39,663.83,-281.06,0
27-1-2017 2:00,115.34324358810682,109.46,617.82,-398.9,0
27-1-2017 3:00,24.71273951074022,154.69,626.43,-317.05,0
27-1-2017 4:00,-17.023887057388038,61.42,532.89,-410.05,0
27-1-2017 5:00,-62.707443515455,34.04,505.18,-437.09,0
27-1-2017 6:00,-95.99454840945737,-4.06,466.77,-474.88,0
27-1-2017 7:00,-97.00989219256553,-26.54,443.97,-497.04,0
27-1-2017 8:00,-100.98131781759048,-18.23,451.94,-488.39,0
27-1-2017 9:00,-176.18085792416196,-17.88,451.96,-487.72,0
27-1-2017 10:00,97.59235205719278,-85.39,384.24,-555.02,0
27-1-2017 11:00,423.2102512460351,199.82,669.29,-269.65,0
27-1-2017 12:00,425.70205817210217,463.74,933.16,-5.68,0
27-1-2017 13:00,246.76554316233342,394.4,863.46,-74.66,0
27-1-2017 14:00,253.5333771787623,120.81,625.18,-383.56,0
27-1-2017 15:00,287.23423952451185,226.9,695.38,-241.58,0
27-1-2017 16:00,379.5995219418446,242.86,710.99,-225.28,0
27-1-2017 17:00,273.29662425397055,312.18,780.07,-155.71,0
27-1-2017 18:00,95.33585775906204,175.64,643.17,-291.9,0
27-1-2017 19:00,8.055063594178137,8.29,475.51,-458.93,0
27-1-2017 20:00,159.49512261820064,-52.33,414.52,-519.18,0
27-1-2017 21:00,31.793457198802116,105.75,572.52,-361.02,0
27-1-2017 22:00,67.07000118915403,-51.71,414.74,-518.16,0
27-1-2017 23:00,411.35888911004895,4.49,470.67,-461.68,0
28-1-2017 0:00,-131.0136631291316,326.72,793.58,-140.14,0
28-1-2017 1:00,115.67386025005499,-273.07,194.74,-740.89,0
28-1-2017 2:00,72.32518231265021,62.75,531.15,-405.65,0
28-1-2017 3:00,240.48736324730362,-30.65,437.39,-498.69,0
28-1-2017 4:00,245.22122396331565,137.93,606.07,-330.21,0
28-1-2017 5:00,195.1249373675637,105.06,572.92,-362.79,0
28-1-2017 6:00,236.179122945362,46.4,513.95,-421.14,0
28-1-2017 7:00,316.83003545524525,84.86,552.27,-382.56,0
28-1-2017 8:00,267.2154994570283,145.05,612.45,-322.34,0
28-1-2017 9:00,59.5885339127567,70.72,537.85,-396.41,0
28-1-2017 10:00,-367.3190573060451,-132.8,333.98,-599.57,0
28-1-2017 11:00,-830.5805048469499,-514.05,-47.29,-980.81,0
28-1-2017 12:00,-805.9532967555856,-877.27,-410.25,-1344.29,0
28-1-2017 13:00,-590.0960123930154,-742.18,-275.48,-1208.87,0
28-1-2017 14:00,-812.4171731701615,-383.54,117.78,-884.86,0
28-1-2017 15:00,-746.0545755740084,-720.66,-253.94,-1187.39,0
28-1-2017 16:00,-345.96078718128456,-622.78,-121.16,-1124.39,0
28-1-2017 17:00,-315.1166189911619,-139.4,362.3,-641.09,0
28-1-2017 18:00,-262.4559670875642,-184.98,281.15,-651.12,0
28-1-2017 19:00,-98.13104239673817,-117.62,348.2,-583.45,0
28-1-2017 20:00,50.41315535194826,44.6,510.07,-420.88,0
28-1-2017 21:00,121.3534831855709,166.35,631.48,-298.78,0
28-1-2017 22:00,255.01387518880892,210.31,675.11,-254.48,0
28-1-2017 23:00,453.2271497279355,322.99,787.45,-141.48,0
29-1-2017 0:00,680.8503644387083,479.74,943.96,15.52,0
29-1-2017 1:00,598.5293664503743,645.92,1110.03,181.8,0
29-1-2017 2:00,692.9373875489923,498.82,962.61,35.04,0
29-1-2017 3:00,695.0639360829152,575.99,1039.65,112.32,0
29-1-2017 4:00,753.5931301050759,526.54,989.95,63.13,0
29-1-2017 5:00,777.1427845126243,549.88,1013.26,86.51,0
29-1-2017 6:00,738.896931703209,526.43,989.77,63.09,0
29-1-2017 7:00,636.8520594721085,449.53,912.8,-13.74,0
29-1-2017 8:00,474.6223720667235,322.52,785.66,-140.62,0
29-1-2017 9:00,-403.49898172511246,151.85,614.79,-311.09,1
29-1-2017 10:00,-1211.158619889434,-698.05,-233.61,-1162.5,1
29-1-2017 11:00,-1362.680659905448,-1272.84,-770.83,-1774.85,0
29-1-2017 12:00,-1313.6292963941514,-1142.34,-640.65,-1644.03,0
29-1-2017 13:00,-945.6529862179543,-1158.59,-693.61,-1623.57,0
29-1-2017 14:00,-1147.3179153473889,-740.3,-275.38,-1205.22,0
29-1-2017 15:00,-1115.2483560595447,-996.0,-493.95,-1498.05,0
29-1-2017 16:00,-644.3772581440635,-822.55,-357.19,-1287.91,0
29-1-2017 17:00,-381.2634849943804,-318.01,147.2,-783.21,0
29-1-2017 18:00,2.1911243892848233,-107.92,356.98,-572.82,0
29-1-2017 19:00,187.9384672659378,249.3,713.93,-215.34,0
29-1-2017 20:00,303.7935030694041,215.49,716.56,-285.58,0
29-1-2017 21:00,122.67587480590328,277.54,778.29,-223.22,0
29-1-2017 22:00,179.18428795816158,236.48,700.78,-227.82,0
29-1-2017 23:00,306.78612225165466,315.68,779.67,-148.31,0
30-1-2017 0:00,330.63676891611794,416.42,880.08,-47.23,0
30-1-2017 1:00,337.4817451984238,402.98,866.35,-60.39,0
30-1-2017 2:00,316.91261705056354,390.2,853.27,-72.86,0
30-1-2017 3:00,246.64694315446377,351.38,814.15,-111.38,0
30-1-2017 4:00,200.4894432211513,269.82,732.32,-192.68,0
30-1-2017 5:00,178.6291550001165,223.3,685.5,-238.89,0
30-1-2017 6:00,111.10753508659332,198.02,659.9,-263.87,0
30-1-2017 7:00,53.725213299190045,125.96,587.56,-335.63,0
30-1-2017 8:00,-108.18289673712547,75.33,536.63,-385.98,0
30-1-2017 9:00,-7.67998360493948,-76.71,384.46,-537.89,0
30-1-2017 10:00,13.550940122470365,52.48,513.36,-408.39,0
30-1-2017 11:00,-63.85544641980482,53.87,514.43,-406.69,0
30-1-2017 12:00,-914.1770410498345,-24.09,436.22,-484.41,1
30-1-2017 13:00,-121.11018212846284,-1020.92,-521.44,-1520.41,1
30-1-2017 14:00,701.6250663478295,115.39,582.57,-351.8,1
30-1-2017 15:00,907.0465705179886,768.54,1237.31,299.77,0
30-1-2017 16:00,494.07010815807826,816.87,1285.42,348.33,0
30-1-2017 17:00,489.07760487351607,351.64,820.46,-117.18,0
30-1-2017 18:00,142.80677899770717,397.53,866.13,-71.06,0
30-1-2017 19:00,-51.81203413912408,25.97,494.61,-442.67,0
30-1-2017 20:00,-232.287189868322,-107.88,360.47,-576.23,0
30-1-2017 21:00,107.55155713844943,-255.13,212.97,-723.24,0
30-1-2017 22:00,-77.64392289592615,113.02,581.55,-355.51,0
30-1-2017 23:00,-141.36323307598195,-133.57,334.84,-601.98,0
31-1-2017 0:00,-246.3219604082442,-150.26,317.82,-618.35,0
31-1-2017 1:00,-313.4428801455292,-239.12,228.69,-706.94,0
31-1-2017 2:00,-348.41102783009865,-274.07,193.45,-741.59,0
31-1-2017 3:00,-363.42079444645265,-282.79,184.44,-750.02,0
31-1-2017 4:00,-372.63481162503535,-274.88,192.06,-741.82,0
31-1-2017 5:00,-378.84881133447243,-263.51,203.16,-730.18,0
31-1-2017 6:00,-354.6299672119226,-249.53,216.89,-715.96,0
31-1-2017 7:00,-206.6654035152651,-206.42,259.75,-672.58,0
31-1-2017 8:00,-127.31760114214921,-50.1,415.74,-515.95,0
31-1-2017 9:00,176.31402247618144,11.81,477.37,-453.75,0
31-1-2017 10:00,15.402946139846335,301.13,766.52,-164.26,0
31-1-2017 11:00,257.6096511158339,85.91,551.44,-379.63,0
31-1-2017 12:00,610.9525363890025,352.13,817.51,-113.25,0
31-1-2017 13:00,227.62495248220011,633.89,1099.32,168.46,0
31-1-2017 14:00,180.15538699087028,180.04,646.08,-286.0,0
31-1-2017 15:00,-158.77615553000442,195.52,661.25,-270.2,0
31-1-2017 16:00,285.53833183197503,-143.99,322.11,-610.1,0
31-1-2017 17:00,474.64236196103366,346.14,812.95,-120.67,0
31-1-2017 18:00,256.71891067361685,432.73,899.31,-33.85,0
31-1-2017 19:00,36.511636518178875,179.63,646.07,-286.81,0
31-1-2017 20:00,-7.216015748807422,-6.08,460.16,-472.32,0
31-1-2017 21:00,-162.62463765973735,-19.25,446.67,-485.18,0
31-1-2017 22:00,-277.660928336868,-165.29,300.43,-631.02,0
31-1-2017 23:00,-540.598300446592,-241.95,223.53,-707.43,0
