Time,Actual,Forecasts,Upper Interval,Lower Interval,Is Anomalies
1-1-2017 0:00,2.063401332932335E7,0.0,0.0,0.0,0
1-1-2017 1:00,3.617957167563899E7,0.0,0.0,0.0,0
1-1-2017 2:00,3.440491177780348E7,0.0,0.0,0.0,0
1-1-2017 3:00,1.0583953276798412E7,0.0,0.0,0.0,0
1-1-2017 4:00,3.903229776152894E7,0.0,0.0,0.0,0
1-1-2017 5:00,3.857479629823798E7,0.0,0.0,0.0,0
1-1-2017 6:00,3.3850051247617304E7,0.0,0.0,0.0,0
1-1-2017 7:00,2.1360005193420857E7,0.0,0.0,0.0,0
1-1-2017 8:00,1863526.168025583,0.0,0.0,0.0,0
1-1-2017 9:00,-4.356501722337549E7,0.0,0.0,0.0,0
1-1-2017 10:00,-8.672697823674542E7,0.0,0.0,0.0,0
1-1-2017 11:00,-8.205592364643583E7,0.0,0.0,0.0,0
1-1-2017 12:00,-8.709752186083752E7,0.0,0.0,0.0,0
1-1-2017 13:00,-6.484010880037503E7,0.0,0.0,0.0,0
1-1-2017 14:00,-8.060930891208209E7,0.0,0.0,0.0,0
1-1-2017 15:00,-7.922968571586694E7,0.0,0.0,0.0,0
1-1-2017 16:00,-7.715918235456401E7,0.0,0.0,0.0,0
1-1-2017 17:00,2.8872703517862797E8,0.0,0.0,0.0,0
1-1-2017 18:00,4.0493813194680184E7,0.0,0.0,0.0,0
1-1-2017 19:00,-5969862.60894236,0.0,0.0,0.0,0
1-1-2017 20:00,-2868991.5963265747,0.0,0.0,0.0,0
1-1-2017 21:00,-8081752.347409561,0.0,0.0,0.0,0
1-1-2017 22:00,-9289724.497390911,0.0,0.0,0.0,0
1-1-2017 23:00,-4.606139469808884E7,0.0,0.0,0.0,0
2-1-2017 0:00,-7422606.026773512,0.0,0.0,0.0,0
2-1-2017 1:00,-1.2445111537103921E7,0.0,0.0,0.0,0
2-1-2017 2:00,-2.334993917383401E7,0.0,0.0,0.0,0
2-1-2017 3:00,-5.0771534634292334E7,0.0,0.0,0.0,0
2-1-2017 4:00,-2.828526963529092E7,0.0,0.0,0.0,0
2-1-2017 5:00,-3.2243344673056126E7,0.0,0.0,0.0,0
2-1-2017 6:00,-3.2907893726255953E7,0.0,0.0,0.0,0
2-1-2017 7:00,-2.877347906571576E7,0.0,0.0,0.0,0
2-1-2017 8:00,-1.696305269116944E7,0.0,0.0,0.0,0
2-1-2017 9:00,4.045433039595491E7,0.0,0.0,0.0,0
2-1-2017 10:00,9.349173508421439E7,0.0,0.0,0.0,0
2-1-2017 11:00,4.874716947985634E7,0.0,0.0,0.0,0
2-1-2017 12:00,7.742319065482572E7,0.0,0.0,0.0,0
2-1-2017 13:00,9.228660099925429E7,0.0,0.0,0.0,0
2-1-2017 14:00,8.914260652131745E7,0.0,0.0,0.0,0
2-1-2017 15:00,7.603277353960669E7,0.0,0.0,0.0,0
2-1-2017 16:00,5.501781861153093E7,0.0,0.0,0.0,0
2-1-2017 17:00,-3.465237263392869E7,0.0,0.0,0.0,0
2-1-2017 18:00,-1490333.2733952403,0.0,0.0,0.0,0
2-1-2017 19:00,3579108.2626945972,0.0,0.0,0.0,0
2-1-2017 20:00,-4238252.50102514,0.0,0.0,0.0,0
2-1-2017 21:00,-1.1525127414891988E7,0.0,0.0,0.0,0
2-1-2017 22:00,-1.38189991502631E7,0.0,0.0,0.0,0
2-1-2017 23:00,-5.5458993932285696E7,0.0,0.0,0.0,0
3-1-2017 0:00,-2.990199759042415E7,0.0,0.0,0.0,0
3-1-2017 1:00,-3.575799732783869E7,0.0,0.0,0.0,0
3-1-2017 2:00,-4.08723197739014E7,0.0,0.0,0.0,0
3-1-2017 3:00,-6.4631052524251044E7,0.0,0.0,0.0,0
3-1-2017 4:00,-3.528098056032738E7,0.0,0.0,0.0,0
3-1-2017 5:00,-3.469281920782477E7,0.0,0.0,0.0,0
3-1-2017 6:00,-2.8632754058861792E7,0.0,0.0,0.0,0
3-1-2017 7:00,-1.697670173348394E7,0.0,0.0,0.0,0
3-1-2017 8:00,-3554948.9988949895,0.0,0.0,0.0,0
3-1-2017 9:00,2.5583494751340985E7,0.0,0.0,0.0,0
3-1-2017 10:00,4.657725653667915E7,0.0,0.0,0.0,0
3-1-2017 11:00,5.271976945310265E7,0.0,0.0,0.0,0
3-1-2017 12:00,5.117915820289233E7,0.0,0.0,0.0,0
3-1-2017 13:00,2.886412268128383E7,0.0,0.0,0.0,0
3-1-2017 14:00,3.463039824711409E7,0.0,0.0,0.0,0
3-1-2017 15:00,3.3112858597474188E7,0.0,0.0,0.0,0
3-1-2017 16:00,2.7321153830669463E7,0.0,0.0,0.0,0
3-1-2017 17:00,-4.104233745483965E7,0.0,0.0,0.0,0
3-1-2017 18:00,-282602.81122273207,0.0,0.0,0.0,0
3-1-2017 19:00,-1.247729981664893E7,0.0,0.0,0.0,0
3-1-2017 20:00,-4865903.67793262,0.0,0.0,0.0,0
3-1-2017 21:00,-7656944.399394959,0.0,0.0,0.0,0
3-1-2017 22:00,-1016519.9174174368,0.0,0.0,0.0,0
3-1-2017 23:00,-6.117987823802644E7,0.0,0.0,0.0,0
4-1-2017 0:00,-2.608486836288023E7,0.0,0.0,0.0,0
4-1-2017 1:00,-2.8934408865041047E7,0.0,0.0,0.0,0
4-1-2017 2:00,-2.9079361568098545E7,0.0,0.0,0.0,0
4-1-2017 3:00,1.3106190299399835E8,0.0,0.0,0.0,0
4-1-2017 4:00,-2.6238251497306764E7,0.0,0.0,0.0,0
4-1-2017 5:00,-2.6416265485169977E7,0.0,0.0,0.0,0
4-1-2017 6:00,-2.3771029624677867E7,0.0,0.0,0.0,0
4-1-2017 7:00,-1.8522198716397047E7,0.0,0.0,0.0,0
4-1-2017 8:00,-1.2637213693700194E7,0.0,0.0,0.0,0
4-1-2017 9:00,7949367.708523601,0.0,0.0,0.0,0
4-1-2017 10:00,1.3940184225211412E7,0.0,0.0,0.0,0
4-1-2017 11:00,2.511901795668739E7,0.0,0.0,0.0,0
4-1-2017 12:00,2.336798215556836E7,0.0,0.0,0.0,0
4-1-2017 13:00,5081250.200521618,0.0,0.0,0.0,0
4-1-2017 14:00,1.4670123872717798E7,0.0,0.0,0.0,0
4-1-2017 15:00,2.210310322774768E7,0.0,0.0,0.0,0
4-1-2017 16:00,1.6806382714869857E7,0.0,0.0,0.0,0
4-1-2017 17:00,-4.1341938545578405E7,0.0,0.0,0.0,0
4-1-2017 18:00,565326.7362322509,0.0,0.0,0.0,0
4-1-2017 19:00,2719558.578600526,0.0,0.0,0.0,0
4-1-2017 20:00,1.036217343906343E7,0.0,0.0,0.0,0
4-1-2017 21:00,5897006.584145725,0.0,0.0,0.0,0
4-1-2017 22:00,-6989844.340020418,0.0,0.0,0.0,0
4-1-2017 23:00,8.874489622729197E7,0.0,0.0,0.0,0
5-1-2017 0:00,-1.9747850967769593E7,0.0,0.0,0.0,0
5-1-2017 1:00,-1.2599601005114198E7,0.0,0.0,0.0,0
5-1-2017 2:00,-2.643769007560405E7,0.0,0.0,0.0,0
5-1-2017 3:00,-4.047404630149819E7,0.0,0.0,0.0,0
5-1-2017 4:00,-1.7915971961725056E7,0.0,0.0,0.0,0
5-1-2017 5:00,-1.464709788738662E7,0.0,0.0,0.0,0
5-1-2017 6:00,-1.3410914622797817E7,0.0,0.0,0.0,0
5-1-2017 7:00,-8302062.77794224,0.0,0.0,0.0,0
5-1-2017 8:00,5237.2465342879295,0.0,0.0,0.0,0
5-1-2017 9:00,9040632.31984374,0.0,0.0,0.0,0
5-1-2017 10:00,1.1179359918845028E7,0.0,0.0,0.0,0
5-1-2017 11:00,2.2010839726337463E7,0.0,0.0,0.0,0
5-1-2017 12:00,1.4285269895273536E7,0.0,0.0,0.0,0
5-1-2017 13:00,-2694757.7404162884,0.0,0.0,0.0,0
5-1-2017 14:00,2942294.470940888,0.0,0.0,0.0,0
5-1-2017 15:00,1.1387121143435568E7,0.0,0.0,0.0,0
5-1-2017 16:00,6798964.807926267,0.0,0.0,0.0,0
5-1-2017 17:00,-4.410959218548283E7,0.0,0.0,0.0,0
5-1-2017 18:00,-1.2568377783500016E7,0.0,0.0,0.0,0
5-1-2017 19:00,-2166406.7326737046,0.0,0.0,0.0,0
5-1-2017 20:00,-1.1267804309800655E7,0.0,0.0,0.0,0
5-1-2017 21:00,-3153287.993020594,0.0,0.0,0.0,0
5-1-2017 22:00,-6533580.9969035685,0.0,0.0,0.0,0
5-1-2017 23:00,9.314793366475695E7,0.0,0.0,0.0,0
6-1-2017 0:00,-2483369.270519376,0.0,0.0,0.0,0
6-1-2017 1:00,-9072263.658518448,0.0,0.0,0.0,0
6-1-2017 2:00,-3291913.02876842,0.0,0.0,0.0,0
6-1-2017 3:00,-1.9644200514157504E7,0.0,0.0,0.0,0
6-1-2017 4:00,-3357490.7044792473,0.0,0.0,0.0,0
6-1-2017 5:00,-611164.3738999963,0.0,0.0,0.0,0
6-1-2017 6:00,-671797.972330153,0.0,0.0,0.0,0
6-1-2017 7:00,-443409.63602152467,0.0,0.0,0.0,0
6-1-2017 8:00,1332028.9186808765,0.0,0.0,0.0,0
6-1-2017 9:00,-7724823.460811287,0.0,0.0,0.0,0
6-1-2017 10:00,-8760180.419904262,0.0,0.0,0.0,0
6-1-2017 11:00,-3171121.7665700167,0.0,0.0,0.0,0
6-1-2017 12:00,-3390464.271656409,0.0,0.0,0.0,0
6-1-2017 13:00,-2013195.6918050349,0.0,0.0,0.0,0
6-1-2017 14:00,4942641.055007994,0.0,0.0,0.0,0
6-1-2017 15:00,1.1025612052305013E7,0.0,0.0,0.0,0
6-1-2017 16:00,1.1656924588495508E7,0.0,0.0,0.0,0
6-1-2017 17:00,-3.1096726954592183E7,0.0,0.0,0.0,0
6-1-2017 18:00,-8258674.911099896,0.0,0.0,0.0,0
6-1-2017 19:00,-173601.8419214487,0.0,0.0,0.0,0
6-1-2017 20:00,-209855.04863888025,0.0,0.0,0.0,0
6-1-2017 21:00,9726627.044200927,0.0,0.0,0.0,0
6-1-2017 22:00,1.3403201254690424E7,0.0,0.0,0.0,0
6-1-2017 23:00,2905689.8019147366,0.0,0.0,0.0,0
7-1-2017 0:00,9545271.625663593,0.0,0.0,0.0,0
7-1-2017 1:00,3695153.402498901,0.0,0.0,0.0,0
7-1-2017 2:00,2483001.3279776275,0.0,0.0,0.0,0
7-1-2017 3:00,-8507951.761417553,0.0,0.0,0.0,0
7-1-2017 4:00,1.2924631092125535E7,0.0,0.0,0.0,0
7-1-2017 5:00,1.3889544669915676E7,0.0,0.0,0.0,0
7-1-2017 6:00,1.2659858929436535E7,0.0,0.0,0.0,0
7-1-2017 7:00,1.1700823866504073E7,0.0,0.0,0.0,0
7-1-2017 8:00,8869351.67073825,0.0,0.0,0.0,0
7-1-2017 9:00,-4514020.1128885,0.0,0.0,0.0,0
7-1-2017 10:00,-9918611.280199647,0.0,0.0,0.0,0
7-1-2017 11:00,-8577484.40114744,0.0,0.0,0.0,0
7-1-2017 12:00,-1.2599302200380132E7,0.0,0.0,0.0,0
7-1-2017 13:00,-8219.732998803258,0.0,0.0,0.0,0
7-1-2017 14:00,-1.649454015874122E7,0.0,0.0,0.0,0
7-1-2017 15:00,-2.0738726484653056E7,0.0,0.0,0.0,0
7-1-2017 16:00,-1.6141225124013603E7,0.0,0.0,0.0,0
7-1-2017 17:00,-5.363820282224247E7,0.0,0.0,0.0,0
7-1-2017 18:00,-1.4597939692703262E7,0.0,0.0,0.0,0
7-1-2017 19:00,4480040.136450335,0.0,0.0,0.0,0
7-1-2017 20:00,3921077.3517654836,0.0,0.0,0.0,0
7-1-2017 21:00,3150518.173993483,0.0,0.0,0.0,0
7-1-2017 22:00,8012864.168192759,0.0,0.0,0.0,0
7-1-2017 23:00,6.618197309031811E7,0.0,0.0,0.0,0
8-1-2017 0:00,2.7533920792429432E7,0.0,0.0,0.0,0
8-1-2017 1:00,2.5052050036451086E7,0.0,0.0,0.0,0
8-1-2017 2:00,2.5890015580010414E7,0.0,0.0,0.0,0
8-1-2017 3:00,1.4683826648961082E7,0.0,0.0,0.0,0
8-1-2017 4:00,3.5097760487857774E7,0.0,0.0,0.0,0
8-1-2017 5:00,4.0393809128483474E7,0.0,0.0,0.0,0
8-1-2017 6:00,3.806962190158011E7,0.0,0.0,0.0,0
8-1-2017 7:00,3.1759086336415485E7,0.0,0.0,0.0,0
8-1-2017 8:00,1.7361952087190285E7,0.0,0.0,0.0,0
8-1-2017 9:00,-1.8316129995061576E7,0.0,0.0,0.0,0
8-1-2017 10:00,-6.234227148475295E7,0.0,0.0,0.0,0
8-1-2017 11:00,-7.240850076414488E7,0.0,0.0,0.0,0
8-1-2017 12:00,-5.964872608168602E7,0.0,0.0,0.0,0
8-1-2017 13:00,-3.5685262622738674E7,0.0,0.0,0.0,0
8-1-2017 14:00,-5.731246430700041E7,0.0,0.0,0.0,0
8-1-2017 15:00,-5.111094395208509E7,0.0,0.0,0.0,0
8-1-2017 16:00,-4.224457835574704E7,0.0,0.0,0.0,0
8-1-2017 17:00,-6.708861216686526E7,0.0,0.0,0.0,0
8-1-2017 18:00,-9730526.839027353,0.0,0.0,0.0,0
8-1-2017 19:00,1.909623076203713E7,0.0,0.0,0.0,0
8-1-2017 20:00,1.9742971121320575E7,0.0,0.0,0.0,0
8-1-2017 21:00,1.7274758998601496E7,0.0,0.0,0.0,0
8-1-2017 22:00,1.9440166114955574E7,0.0,0.0,0.0,0
8-1-2017 23:00,-4.490014728957297E7,0.0,0.0,0.0,0
9-1-2017 0:00,1.7277825169345856E7,0.0,0.0,0.0,0
9-1-2017 1:00,1.5458772998837173E7,0.0,0.0,0.0,0
9-1-2017 2:00,9798761.628760457,0.0,0.0,0.0,0
9-1-2017 3:00,-7083950.925659776,0.0,0.0,0.0,0
9-1-2017 4:00,4423908.465122074,0.0,0.0,0.0,0
9-1-2017 5:00,2456626.4828837663,0.0,0.0,0.0,0
9-1-2017 6:00,-1662523.4761434048,0.0,0.0,0.0,0
9-1-2017 7:00,-6100545.693814501,0.0,0.0,0.0,0
9-1-2017 8:00,-2747978.556773305,0.0,0.0,0.0,0
9-1-2017 9:00,1.2679912088285089E7,0.0,0.0,0.0,0
9-1-2017 10:00,3.657691358003181E7,0.0,0.0,0.0,0
9-1-2017 11:00,4.5488994686014175E7,0.0,0.0,0.0,0
9-1-2017 12:00,3.774120271398294E7,0.0,0.0,0.0,0
9-1-2017 13:00,1.8206120976294547E7,0.0,0.0,0.0,0
9-1-2017 14:00,2.3691056955311745E7,0.0,0.0,0.0,0
9-1-2017 15:00,4.146534718285248E7,0.0,0.0,0.0,0
9-1-2017 16:00,2.5812615648233205E7,0.0,0.0,0.0,0
9-1-2017 17:00,-1.118971441482395E7,0.0,0.0,0.0,0
9-1-2017 18:00,-3824282.097736925,0.0,0.0,0.0,0
9-1-2017 19:00,-6870958.047663838,0.0,0.0,0.0,0
9-1-2017 20:00,-3760899.1273143888,0.0,0.0,0.0,0
9-1-2017 21:00,900291.8178373575,0.0,0.0,0.0,0
9-1-2017 22:00,-834069.4306886792,0.0,0.0,0.0,0
9-1-2017 23:00,-7.396797797890608E7,0.0,0.0,0.0,0
10-1-2017 0:00,-6857668.8417159915,0.0,0.0,0.0,0
10-1-2017 1:00,-7986889.463635445,0.0,0.0,0.0,0
10-1-2017 2:00,5.534267389648005E7,0.0,0.0,0.0,0
10-1-2017 3:00,-2.5174382135543704E7,0.0,0.0,0.0,0
10-1-2017 4:00,-9842229.941216096,0.0,0.0,0.0,0
10-1-2017 5:00,-9726915.897673756,0.0,0.0,0.0,0
10-1-2017 6:00,-7776341.5805564225,0.0,0.0,0.0,0
10-1-2017 7:00,-4543057.665060431,0.0,0.0,0.0,0
10-1-2017 8:00,-2490299.05211094,0.0,0.0,0.0,0
10-1-2017 9:00,5486097.451398253,0.0,0.0,0.0,0
10-1-2017 10:00,5737072.394726604,0.0,0.0,0.0,0
10-1-2017 11:00,1.1172307122185588E7,0.0,0.0,0.0,0
10-1-2017 12:00,8414457.59611401,0.0,0.0,0.0,0
10-1-2017 13:00,-155751.00474727154,0.0,0.0,0.0,0
10-1-2017 14:00,8797023.477873802,0.0,0.0,0.0,0
10-1-2017 15:00,1.2049640840847373E7,0.0,0.0,0.0,0
10-1-2017 16:00,1.3514256287312686E7,0.0,0.0,0.0,0
10-1-2017 17:00,-1.1010367242064998E7,0.0,0.0,0.0,0
10-1-2017 18:00,3678958.488683343,0.0,0.0,0.0,0
10-1-2017 19:00,157391.49128767848,0.0,0.0,0.0,0
10-1-2017 20:00,-3194862.3915326893,0.0,0.0,0.0,0
10-1-2017 21:00,3277853.9085284024,0.0,0.0,0.0,0
10-1-2017 22:00,8631735.956512958,0.0,0.0,0.0,0
10-1-2017 23:00,-3.90026952176345E7,0.0,0.0,0.0,0
11-1-2017 0:00,6456307.971340269,0.0,0.0,0.0,0
11-1-2017 1:00,3062166.996474728,0.0,0.0,0.0,0
11-1-2017 2:00,-669681.9347529709,0.0,0.0,0.0,0
11-1-2017 3:00,-1.0608943285915643E7,0.0,0.0,0.0,0
11-1-2017 4:00,3410474.506183654,0.0,0.0,0.0,0
11-1-2017 5:00,-3401529.5322476625,0.0,0.0,0.0,0
11-1-2017 6:00,-3633235.446740076,0.0,0.0,0.0,0
11-1-2017 7:00,-2140435.2956377864,0.0,0.0,0.0,0
11-1-2017 8:00,-2474181.164340839,0.0,0.0,0.0,0
11-1-2017 9:00,-1.5518675260431156E7,0.0,0.0,0.0,0
11-1-2017 10:00,1.3655026632471442E7,0.0,0.0,0.0,0
11-1-2017 11:00,1.5913809289399832E7,0.0,0.0,0.0,0
11-1-2017 12:00,-1081523.7327193618,0.0,0.0,0.0,0
11-1-2017 13:00,-5121693.644997403,0.0,0.0,0.0,0
11-1-2017 14:00,1.695859632298377E7,0.0,0.0,0.0,0
11-1-2017 15:00,8520755.453146413,0.0,0.0,0.0,0
11-1-2017 16:00,6546465.708425373,0.0,0.0,0.0,0
11-1-2017 17:00,-1.3906265874069288E7,0.0,0.0,0.0,0
11-1-2017 18:00,-3710136.556456104,0.0,0.0,0.0,0
11-1-2017 19:00,-969180.2526018769,0.0,0.0,0.0,0
11-1-2017 20:00,4615334.88012664,0.0,0.0,0.0,0
11-1-2017 21:00,1108200.4566634,0.0,0.0,0.0,0
11-1-2017 22:00,-2041195.3215674013,0.0,0.0,0.0,0
11-1-2017 23:00,-7.613847986437087E7,0.0,0.0,0.0,0
12-1-2017 0:00,1179576.2836626917,0.0,0.0,0.0,0
12-1-2017 1:00,5273602.887439519,0.0,0.0,0.0,0
12-1-2017 2:00,-171697.85354292393,0.0,0.0,0.0,0
12-1-2017 3:00,8.789785003774399E7,0.0,0.0,0.0,0
12-1-2017 4:00,3586530.330446869,0.0,0.0,0.0,0
12-1-2017 5:00,753467.7837374955,0.0,0.0,0.0,0
12-1-2017 6:00,2906101.301330939,0.0,0.0,0.0,0
12-1-2017 7:00,2584224.5293510407,0.0,0.0,0.0,0
12-1-2017 8:00,932421.9903069735,0.0,0.0,0.0,0
12-1-2017 9:00,-5424189.807120815,0.0,0.0,0.0,0
12-1-2017 10:00,-1.0592268920461833E7,0.0,0.0,0.0,0
12-1-2017 11:00,1957843.1301178783,0.0,0.0,0.0,0
12-1-2017 12:00,-8430924.853866845,0.0,0.0,0.0,0
12-1-2017 13:00,-7092339.376606524,0.0,0.0,0.0,0
12-1-2017 14:00,1.433886792768979E7,0.0,0.0,0.0,0
12-1-2017 15:00,-1.3531072834003434E7,0.0,0.0,0.0,0
12-1-2017 16:00,-5520952.621400893,0.0,0.0,0.0,0
12-1-2017 17:00,-1.6008525938262492E7,0.0,0.0,0.0,0
12-1-2017 18:00,6990389.874965608,0.0,0.0,0.0,0
12-1-2017 19:00,-142671.11780682206,0.0,0.0,0.0,0
12-1-2017 20:00,-1.007944819740595E7,0.0,0.0,0.0,0
12-1-2017 21:00,-9400733.289149418,0.0,0.0,0.0,0
12-1-2017 22:00,-3582734.506738797,0.0,0.0,0.0,0
12-1-2017 23:00,1.4754214078658521E7,0.0,0.0,0.0,0
13-1-2017 0:00,3726158.5626076907,0.0,0.0,0.0,0
13-1-2017 1:00,5763580.857420534,0.0,0.0,0.0,0
13-1-2017 2:00,4781295.4490771,0.0,0.0,0.0,0
13-1-2017 3:00,390895.62520727515,0.0,0.0,0.0,0
13-1-2017 4:00,1.4791078786966234E7,0.0,0.0,0.0,0
13-1-2017 5:00,1.4965039121830478E7,0.0,0.0,0.0,0
13-1-2017 6:00,1.5161268291361436E7,0.0,0.0,0.0,0
13-1-2017 7:00,1.198039806947656E7,0.0,0.0,0.0,0
13-1-2017 8:00,8369166.9432686865,0.0,0.0,0.0,0
13-1-2017 9:00,-4936896.323858991,0.0,0.0,0.0,0
13-1-2017 10:00,-2.3055851031490147E7,0.0,0.0,0.0,0
13-1-2017 11:00,-1.797607444530545E7,0.0,0.0,0.0,0
13-1-2017 12:00,-2.0913334669202194E7,0.0,0.0,0.0,0
13-1-2017 13:00,-1.9175633164409384E7,0.0,0.0,0.0,0
13-1-2017 14:00,-2.334136531580372E7,0.0,0.0,0.0,0
13-1-2017 15:00,-3.576833318135871E7,0.0,0.0,0.0,0
13-1-2017 16:00,425135.27849300206,0.0,0.0,0.0,0
13-1-2017 17:00,-1.3646846190850362E7,0.0,0.0,0.0,0
13-1-2017 18:00,-1.6040076670122221E7,0.0,0.0,0.0,0
13-1-2017 19:00,-1.4329016265960753E7,0.0,0.0,0.0,0
13-1-2017 20:00,-1.6613816794327036E7,0.0,0.0,0.0,0
13-1-2017 21:00,-1.0243076590685338E7,0.0,0.0,0.0,0
13-1-2017 22:00,-1.2302164014971182E7,0.0,0.0,0.0,0
13-1-2017 23:00,2.46285503361289E8,0.0,0.0,0.0,0
14-1-2017 0:00,1.3863279563101754E7,0.0,0.0,0.0,0
14-1-2017 1:00,1.847291239013377E7,0.0,0.0,0.0,0
14-1-2017 2:00,1.6479329747610852E7,0.0,0.0,0.0,0
14-1-2017 3:00,1.2216463542770907E7,0.0,0.0,0.0,0
14-1-2017 4:00,2.4756862721703723E7,0.0,0.0,0.0,0
14-1-2017 5:00,2.7571821228522003E7,0.0,0.0,0.0,0
14-1-2017 6:00,2.820365461861907E7,0.0,0.0,0.0,0
14-1-2017 7:00,2.2306251072453707E7,0.0,0.0,0.0,0
14-1-2017 8:00,1.0131162857457846E7,0.0,0.0,0.0,0
14-1-2017 9:00,-2.416437571775838E7,0.0,0.0,0.0,0
14-1-2017 10:00,-4.980944122390476E7,0.0,0.0,0.0,0
14-1-2017 11:00,-5.554737984535852E7,0.0,0.0,0.0,0
14-1-2017 12:00,-5.777876814625746E7,0.0,0.0,0.0,0
14-1-2017 13:00,-3.753144027074942E7,0.0,0.0,0.0,0
14-1-2017 14:00,-5.240385771486862E7,0.0,0.0,0.0,0
14-1-2017 15:00,-4.8839561997634724E7,0.0,0.0,0.0,0
14-1-2017 16:00,-3.646184351871734E7,0.0,0.0,0.0,0
14-1-2017 17:00,-3.2734127008544274E7,0.0,0.0,0.0,0
14-1-2017 18:00,-1.1767852167559773E7,0.0,0.0,0.0,0
14-1-2017 19:00,6539879.7531141415,0.0,0.0,0.0,0
14-1-2017 20:00,1.0623511888325162E7,0.0,0.0,0.0,0
14-1-2017 21:00,1.1586955391335823E7,0.0,0.0,0.0,0
14-1-2017 22:00,1.4282382641643375E7,0.0,0.0,0.0,0
14-1-2017 23:00,-5.474621841606976E7,0.0,0.0,0.0,0
15-1-2017 0:00,4.21341010365279E7,0.0,0.0,0.0,0
15-1-2017 1:00,4.850012611063421E7,0.0,0.0,0.0,0
15-1-2017 2:00,4.9759893408786945E7,0.0,0.0,0.0,0
15-1-2017 3:00,4.502302965783201E7,0.0,0.0,0.0,0
15-1-2017 4:00,5.568504516860141E7,0.0,0.0,0.0,0
15-1-2017 5:00,5.546011712388553E7,0.0,0.0,0.0,0
15-1-2017 6:00,5.273871293106055E7,0.0,0.0,0.0,0
15-1-2017 7:00,4.298485487022393E7,0.0,0.0,0.0,0
15-1-2017 8:00,2.496632667604933E7,0.0,0.0,0.0,0
15-1-2017 9:00,-1.5068181411340736E7,0.0,0.0,0.0,0
15-1-2017 10:00,-5.467446606312963E7,0.0,0.0,0.0,0
15-1-2017 11:00,-6.187959251934911E7,0.0,0.0,0.0,0
15-1-2017 12:00,-6.693715134437755E7,0.0,0.0,0.0,0
15-1-2017 13:00,-5.147735762869149E7,0.0,0.0,0.0,0
15-1-2017 14:00,-6.450135943607277E7,0.0,0.0,0.0,0
15-1-2017 15:00,-6.205590916658724E7,0.0,0.0,0.0,0
15-1-2017 16:00,-4.635669681210035E7,0.0,0.0,0.0,0
15-1-2017 17:00,-3.1659010697500594E7,0.0,0.0,0.0,0
15-1-2017 18:00,-1.0002581821349435E7,0.0,0.0,0.0,0
15-1-2017 19:00,8091267.379169367,0.0,0.0,0.0,0
15-1-2017 20:00,1.5042622541290142E7,0.0,0.0,0.0,0
15-1-2017 21:00,1.3313155722231552E7,0.0,0.0,0.0,0
15-1-2017 22:00,2.0600277987916425E7,0.0,0.0,0.0,0
15-1-2017 23:00,-5.87031130529862E7,0.0,0.0,0.0,0
16-1-2017 0:00,2.6562671681180254E7,0.0,0.0,0.0,0
16-1-2017 1:00,2.888614335407026E7,0.0,0.0,0.0,0
16-1-2017 2:00,2.7047140224608064E7,0.0,0.0,0.0,0
16-1-2017 3:00,1.7981710539247543E7,0.0,0.0,0.0,0
16-1-2017 4:00,2.017723214168848E7,0.0,0.0,0.0,0
16-1-2017 5:00,1.7347979979994908E7,0.0,0.0,0.0,0
16-1-2017 6:00,1.4385107178804308E7,0.0,0.0,0.0,0
16-1-2017 7:00,8241603.682966888,0.0,0.0,0.0,0
16-1-2017 8:00,4885675.599284008,0.0,0.0,0.0,0
16-1-2017 9:00,933565.1555074006,0.0,0.0,0.0,0
16-1-2017 10:00,-382643.4594577551,0.0,0.0,0.0,0
16-1-2017 11:00,3989620.8320233226,0.0,0.0,0.0,0
16-1-2017 12:00,7168436.545331672,0.0,0.0,0.0,0
16-1-2017 13:00,-2333701.7207235694,0.0,0.0,0.0,0
16-1-2017 14:00,9928727.836713701,0.0,0.0,0.0,0
16-1-2017 15:00,-561843.1234684289,0.0,0.0,0.0,0
16-1-2017 16:00,1.2313668420035213E7,0.0,0.0,0.0,0
16-1-2017 17:00,1.1979739275150537E7,0.0,0.0,0.0,0
16-1-2017 18:00,7394334.142557219,0.0,0.0,0.0,0
16-1-2017 19:00,4416309.810038835,0.0,0.0,0.0,0
16-1-2017 20:00,2659391.506187275,0.0,0.0,0.0,0
16-1-2017 21:00,758982.2049216926,0.0,0.0,0.0,0
16-1-2017 22:00,-928163.7549627721,0.0,0.0,0.0,0
16-1-2017 23:00,-2.0126688440001458E7,0.0,0.0,0.0,0
17-1-2017 0:00,-3360855.525212854,0.0,0.0,0.0,0
17-1-2017 1:00,85007.88814646006,0.0,0.0,0.0,0
17-1-2017 2:00,-1525795.4972450286,0.0,0.0,0.0,0
17-1-2017 3:00,-2733159.0953255147,0.0,0.0,0.0,0
17-1-2017 4:00,2498935.3686655313,0.0,0.0,0.0,0
17-1-2017 5:00,3776333.089482665,0.0,0.0,0.0,0
17-1-2017 6:00,3823648.749414861,0.0,0.0,0.0,0
17-1-2017 7:00,3637724.4247704595,0.0,0.0,0.0,0
17-1-2017 8:00,6138370.307773113,0.0,0.0,0.0,0
17-1-2017 9:00,-822942.8223861307,0.0,0.0,0.0,0
17-1-2017 10:00,-1.4974673453985423E7,0.0,0.0,0.0,0
17-1-2017 11:00,-1.4240646388261706E7,0.0,0.0,0.0,0
17-1-2017 12:00,-6450569.700074464,0.0,0.0,0.0,0
17-1-2017 13:00,-1.510902549468425E7,0.0,0.0,0.0,0
17-1-2017 14:00,-1.334998835924162E7,0.0,0.0,0.0,0
17-1-2017 15:00,-6887905.805904701,0.0,0.0,0.0,0
17-1-2017 16:00,9372147.375531644,0.0,0.0,0.0,0
17-1-2017 17:00,5582246.080302849,0.0,0.0,0.0,0
17-1-2017 18:00,-1443209.4818946123,0.0,0.0,0.0,0
17-1-2017 19:00,-1213208.4067841023,0.0,0.0,0.0,0
17-1-2017 20:00,-808508.2459419668,0.0,0.0,0.0,0
17-1-2017 21:00,2803786.971450031,0.0,0.0,0.0,0
17-1-2017 22:00,-3693111.472011596,0.0,0.0,0.0,0
17-1-2017 23:00,5.636709406080578E7,0.0,0.0,0.0,0
18-1-2017 0:00,7294160.822591573,0.0,0.0,0.0,0
18-1-2017 1:00,-2742974.395098537,0.0,0.0,0.0,0
18-1-2017 2:00,-1.2580807823955595E7,0.0,0.0,0.0,0
18-1-2017 3:00,-1.927595316137871E7,0.0,0.0,0.0,0
18-1-2017 4:00,-1.6937448548724294E7,0.0,0.0,0.0,0
18-1-2017 5:00,-1.770209358255236E7,0.0,0.0,0.0,0
18-1-2017 6:00,-1.5666499813130528E7,0.0,0.0,0.0,0
18-1-2017 7:00,-1.41945359910205E7,0.0,0.0,0.0,0
18-1-2017 8:00,-7918381.090560645,0.0,0.0,0.0,0
18-1-2017 9:00,3313322.060237646,0.0,0.0,0.0,0
18-1-2017 10:00,7444131.098243892,0.0,0.0,0.0,0
18-1-2017 11:00,1.0374030422262967E7,0.0,0.0,0.0,0
18-1-2017 12:00,2.1269291513382465E7,0.0,0.0,0.0,0
18-1-2017 13:00,8664348.944874018,0.0,0.0,0.0,0
18-1-2017 14:00,9252620.53256762,0.0,0.0,0.0,0
18-1-2017 15:00,2.0877173270245284E7,0.0,0.0,0.0,0
18-1-2017 16:00,2.1715012062416166E7,0.0,0.0,0.0,0
18-1-2017 17:00,2.3019331155749023E7,0.0,0.0,0.0,0
18-1-2017 18:00,1.6575432741487175E7,0.0,0.0,0.0,0
18-1-2017 19:00,6146806.546770602,0.0,0.0,0.0,0
18-1-2017 20:00,-5765247.548495591,0.0,0.0,0.0,0
18-1-2017 21:00,-4030472.5429683626,0.0,0.0,0.0,0
18-1-2017 22:00,-1.0727267371296674E7,0.0,0.0,0.0,0
18-1-2017 23:00,8.802198038702375E7,0.0,0.0,0.0,0
19-1-2017 0:00,-2.2960483828699067E7,0.0,0.0,0.0,0
19-1-2017 1:00,-2.326718915334606E7,0.0,0.0,0.0,0
19-1-2017 2:00,-2.468893250157605E7,0.0,0.0,0.0,0
19-1-2017 3:00,-2.5389695444249243E7,0.0,0.0,0.0,0
19-1-2017 4:00,-2.0788210207820997E7,0.0,0.0,0.0,0
19-1-2017 5:00,-1.9814609568321273E7,0.0,0.0,0.0,0
19-1-2017 6:00,-1.6676157431436792E7,0.0,0.0,0.0,0
19-1-2017 7:00,-1.2625649137484103E7,0.0,0.0,0.0,0
19-1-2017 8:00,-4875027.774478823,0.0,0.0,0.0,0
19-1-2017 9:00,-675523.5992119014,0.0,0.0,0.0,0
19-1-2017 10:00,9845578.287145495,0.0,0.0,0.0,0
19-1-2017 11:00,1.549217768820548E7,0.0,0.0,0.0,0
19-1-2017 12:00,1.6642567131002724E7,0.0,0.0,0.0,0
19-1-2017 13:00,-2169422.497177273,0.0,0.0,0.0,0
19-1-2017 14:00,1720353.4369945228,0.0,0.0,0.0,0
19-1-2017 15:00,3547520.833240062,0.0,0.0,0.0,0
19-1-2017 16:00,9292130.006835014,0.0,0.0,0.0,0
19-1-2017 17:00,3606495.5242836475,0.0,0.0,0.0,0
19-1-2017 18:00,3928402.9735114574,0.0,0.0,0.0,0
19-1-2017 19:00,4092114.218105614,0.0,0.0,0.0,0
19-1-2017 20:00,-9094749.344130993,0.0,0.0,0.0,0
19-1-2017 21:00,-1.8038465240128964E7,0.0,0.0,0.0,0
19-1-2017 22:00,-255828.8234744966,0.0,0.0,0.0,0
19-1-2017 23:00,8.02630250801984E7,0.0,0.0,0.0,0
20-1-2017 0:00,-1.4368204513183475E7,0.0,0.0,0.0,0
20-1-2017 1:00,-1.571993506187886E7,0.0,0.0,0.0,0
20-1-2017 2:00,-1.871944748657331E7,0.0,0.0,0.0,0
20-1-2017 3:00,-2.119947195158808E7,0.0,0.0,0.0,0
20-1-2017 4:00,-1.3194493229889989E7,0.0,0.0,0.0,0
20-1-2017 5:00,-1.5198357110178947E7,0.0,0.0,0.0,0
20-1-2017 6:00,-1.3168809498948276E7,0.0,0.0,0.0,0
20-1-2017 7:00,-1.1244624461474404E7,0.0,0.0,0.0,0
20-1-2017 8:00,-2423458.854245037,0.0,0.0,0.0,0
20-1-2017 9:00,3151756.413189292,0.0,0.0,0.0,0
20-1-2017 10:00,4202627.971248478,0.0,0.0,0.0,0
20-1-2017 11:00,1.0127661832700014E7,0.0,0.0,0.0,0
20-1-2017 12:00,1.5913648320525795E7,0.0,0.0,0.0,0
20-1-2017 13:00,1.3680167236481994E7,0.0,0.0,0.0,0
20-1-2017 14:00,1.0109617180939585E7,0.0,0.0,0.0,0
20-1-2017 15:00,8731412.14956066,0.0,0.0,0.0,0
20-1-2017 16:00,1.8853137182278574E7,0.0,0.0,0.0,0
20-1-2017 17:00,1.233684114743495E7,0.0,0.0,0.0,0
20-1-2017 18:00,3284193.593744427,0.0,0.0,0.0,0
20-1-2017 19:00,-3811249.7815574557,0.0,0.0,0.0,0
20-1-2017 20:00,-6603821.669971272,0.0,0.0,0.0,0
20-1-2017 21:00,-9568396.155260801,0.0,0.0,0.0,0
20-1-2017 22:00,-1.3612593683449224E7,0.0,0.0,0.0,0
20-1-2017 23:00,6.6628452215750545E7,0.0,0.0,0.0,0
21-1-2017 0:00,-6162213.045116156,0.0,0.0,0.0,0
21-1-2017 1:00,-8186054.863062382,0.0,0.0,0.0,0
21-1-2017 2:00,-7954071.549423784,0.0,0.0,0.0,0
21-1-2017 3:00,-8525084.02198261,0.0,0.0,0.0,0
21-1-2017 4:00,-4780178.8065736145,0.0,0.0,0.0,0
21-1-2017 5:00,-2415212.719473198,0.0,0.0,0.0,0
21-1-2017 6:00,-2378795.216718316,0.0,0.0,0.0,0
21-1-2017 7:00,-34595.45070490241,0.0,0.0,0.0,0
21-1-2017 8:00,3361413.39576672,0.0,0.0,0.0,0
21-1-2017 9:00,-6204406.298625067,0.0,0.0,0.0,0
21-1-2017 10:00,-9643369.248069227,0.0,0.0,0.0,0
21-1-2017 11:00,-7613325.185431257,0.0,0.0,0.0,0
21-1-2017 12:00,-7480699.191782132,0.0,0.0,0.0,0
21-1-2017 13:00,-1105170.5402182788,0.0,0.0,0.0,0
21-1-2017 14:00,-4669167.004003346,0.0,0.0,0.0,0
21-1-2017 15:00,-1.3878402721535131E7,0.0,0.0,0.0,0
21-1-2017 16:00,-2894207.106420845,0.0,0.0,0.0,0
21-1-2017 17:00,-703223.9848732501,0.0,0.0,0.0,0
21-1-2017 18:00,1194735.6372014284,0.0,0.0,0.0,0
21-1-2017 19:00,5535664.302320614,0.0,0.0,0.0,0
21-1-2017 20:00,4147330.1480466425,0.0,0.0,0.0,0
21-1-2017 21:00,5282886.966230065,0.0,0.0,0.0,0
21-1-2017 22:00,4167585.4105640054,0.0,0.0,0.0,0
21-1-2017 23:00,2932880.4226558805,0.0,0.0,0.0,0
22-1-2017 0:00,1.1646626908801347E7,0.0,0.0,0.0,0
22-1-2017 1:00,1.5555443800463974E7,0.0,0.0,0.0,0
22-1-2017 2:00,1.8551372598948836E7,0.0,0.0,0.0,0
22-1-2017 3:00,2.5750281037251845E7,0.0,0.0,0.0,0
22-1-2017 4:00,2.8660076000068203E7,0.0,0.0,0.0,0
22-1-2017 5:00,3.584658100188655E7,0.0,0.0,0.0,0
22-1-2017 6:00,3.561803094818753E7,0.0,0.0,0.0,0
22-1-2017 7:00,4.638571707030618E7,0.0,0.0,0.0,0
22-1-2017 8:00,2.563715074296643E7,0.0,0.0,0.0,0
22-1-2017 9:00,-1.4286778083733827E7,0.0,0.0,0.0,0
22-1-2017 10:00,-5.111287317260681E7,0.0,0.0,0.0,0
22-1-2017 11:00,-6.600558875037688E7,0.0,0.0,0.0,0
22-1-2017 12:00,-5.942663775328778E7,0.0,0.0,0.0,0
22-1-2017 13:00,-4.979739843548186E7,0.0,0.0,0.0,0
22-1-2017 14:00,-6.738076080653878E7,0.0,0.0,0.0,0
22-1-2017 15:00,-6.905726318650316E7,0.0,0.0,0.0,0
22-1-2017 16:00,-4.451292353781679E7,0.0,0.0,0.0,0
22-1-2017 17:00,-3.2376600636864908E7,0.0,0.0,0.0,0
22-1-2017 18:00,-1.2883209182812773E7,0.0,0.0,0.0,0
22-1-2017 19:00,1.0243423697139218E7,0.0,0.0,0.0,0
22-1-2017 20:00,1.3383257549237743E7,0.0,0.0,0.0,0
22-1-2017 21:00,3708396.250243053,0.0,0.0,0.0,0
22-1-2017 22:00,1.075722805578816E7,0.0,0.0,0.0,0
22-1-2017 23:00,-7.269647922366723E7,0.0,0.0,0.0,0
23-1-2017 0:00,-1.6868556217317328E7,0.0,0.0,0.0,0
23-1-2017 1:00,-2.9893100427655354E7,0.0,0.0,0.0,0
23-1-2017 2:00,-4.522895962593369E7,0.0,0.0,0.0,0
23-1-2017 3:00,-5.8498146598378405E7,0.0,0.0,0.0,0
23-1-2017 4:00,-7.118778918961744E7,0.0,0.0,0.0,0
23-1-2017 5:00,-7.407252065269455E7,0.0,0.0,0.0,0
23-1-2017 6:00,-7.958633462246092E7,0.0,0.0,0.0,0
23-1-2017 7:00,-8.820582641076234E7,0.0,0.0,0.0,0
23-1-2017 8:00,-8.55665512084389E7,0.0,0.0,0.0,0
23-1-2017 9:00,8.716097403531694E7,0.0,0.0,0.0,0
23-1-2017 10:00,2.4473809235232145E8,0.0,0.0,0.0,0
23-1-2017 11:00,2.025547743994498E8,0.0,0.0,0.0,0
23-1-2017 12:00,2.088589575352852E8,0.0,0.0,0.0,0
23-1-2017 13:00,2.3468217452618062E8,0.0,0.0,0.0,0
23-1-2017 14:00,2.3231526824469942E8,0.0,0.0,0.0,0
23-1-2017 15:00,2.3713134552914998E8,0.0,0.0,0.0,0
23-1-2017 16:00,7231455.85784027,0.0,0.0,0.0,0
23-1-2017 17:00,-2.994514170028153E7,0.0,0.0,0.0,0
23-1-2017 18:00,-5.9454553342730016E7,0.0,0.0,0.0,0
23-1-2017 19:00,-7.149573371038726E7,0.0,0.0,0.0,0
23-1-2017 20:00,-6.6022034564358205E7,0.0,0.0,0.0,0
23-1-2017 21:00,-6.258227592554641E7,0.0,0.0,0.0,0
23-1-2017 22:00,-5.896566320332345E7,0.0,0.0,0.0,0
23-1-2017 23:00,-1.0742258934885943E8,0.0,0.0,0.0,0
24-1-2017 0:00,-5.706419166683841E7,0.0,0.0,0.0,0
24-1-2017 1:00,-5.725750688300696E7,0.0,0.0,0.0,0
24-1-2017 2:00,-4.893077535187842E7,0.0,0.0,0.0,0
24-1-2017 3:00,-4.404729878890063E7,0.0,0.0,0.0,0
24-1-2017 4:00,-3.1033849866276577E7,0.0,0.0,0.0,0
24-1-2017 5:00,-2.8577333111403257E7,0.0,0.0,0.0,0
24-1-2017 6:00,-2.4156774554391116E7,0.0,0.0,0.0,0
24-1-2017 7:00,-1.760567964289069E7,0.0,0.0,0.0,0
24-1-2017 8:00,-5980142.970682085,0.0,0.0,0.0,0
24-1-2017 9:00,-731751.5732608736,0.0,0.0,0.0,0
24-1-2017 10:00,2.4395459818953753E7,0.0,0.0,0.0,0
24-1-2017 11:00,3.5837843000312924E7,0.0,0.0,0.0,0
24-1-2017 12:00,2.6634927904227316E7,0.0,0.0,0.0,0
24-1-2017 13:00,-5712893.909841716,0.0,0.0,0.0,0
24-1-2017 14:00,2805204.8501987457,0.0,0.0,0.0,0
24-1-2017 15:00,296375.1210102141,0.0,0.0,0.0,0
24-1-2017 16:00,2.833507202164507E7,0.0,0.0,0.0,0
24-1-2017 17:00,1.7413793789913356E7,0.0,0.0,0.0,0
24-1-2017 18:00,1912914.6464281082,0.0,0.0,0.0,0
24-1-2017 19:00,-5310680.406788141,0.0,0.0,0.0,0
24-1-2017 20:00,-5080137.214778364,0.0,0.0,0.0,0
24-1-2017 21:00,3715997.2792301476,0.0,0.0,0.0,0
24-1-2017 22:00,-8283693.462409288,0.0,0.0,0.0,0
24-1-2017 23:00,1.4504631091543388E8,0.0,0.0,0.0,0
25-1-2017 0:00,-2.5712707117414206E7,0.0,0.0,0.0,0
25-1-2017 1:00,-2.8176179950182527E7,0.0,0.0,0.0,0
25-1-2017 2:00,-3.0599433200416416E7,0.0,0.0,0.0,0
25-1-2017 3:00,-3.2221643992785454E7,0.0,0.0,0.0,0
25-1-2017 4:00,-2.8607256121127814E7,0.0,0.0,0.0,0
25-1-2017 5:00,-3.0245835866281986E7,0.0,0.0,0.0,0
25-1-2017 6:00,-2.6461004480469257E7,0.0,0.0,0.0,0
25-1-2017 7:00,-2.075032831392628E7,0.0,0.0,0.0,0
25-1-2017 8:00,-1.2302829186591864E7,0.0,0.0,0.0,0
25-1-2017 9:00,-3874983.2381331623,0.0,0.0,0.0,0
25-1-2017 10:00,3014543.6508415043,0.0,0.0,0.0,0
25-1-2017 11:00,2118816.447981596,0.0,0.0,0.0,0
25-1-2017 12:00,1.8630122051524878E7,0.0,0.0,0.0,0
25-1-2017 13:00,3234054.6959241033,0.0,0.0,0.0,0
25-1-2017 14:00,1.3214227250919074E7,0.0,0.0,0.0,0
25-1-2017 15:00,5.730488293152422E7,0.0,0.0,0.0,0
25-1-2017 16:00,2.7387093984584153E7,0.0,0.0,0.0,0
25-1-2017 17:00,2.2789460411934257E7,0.0,0.0,0.0,0
25-1-2017 18:00,4.527362368010396E7,0.0,0.0,0.0,0
25-1-2017 19:00,6306938.9877996445,8.6322166864507699E17,2.5602043486914304E18,-8.3376101140127642E17,0
25-1-2017 20:00,16799.94226101041,8.2340036537333402E17,2.442070444200514E18,-7.9526971345384627E17,0
25-1-2017 21:00,-3088562.0104494393,8.611469664615616E17,2.5540053400625449E18,-8.317114071394217E17,0
25-1-2017 22:00,-5288961.816527516,8.7690334362001818E17,2.6007249821778842E18,-8.4691829493784806E17,0
25-1-2017 23:00,1.8272742034118623E7,8.9555189205939354E17,2.6560240541615324E18,-8.6492027004274586E17,0
26-1-2017 0:00,3484235.170904726,8.4519083375616512E17,2.5066507959220111E18,-8.1626912840968141E17,0
26-1-2017 1:00,5977097.393759206,8.0978000471906048E17,2.4016232447779036E18,-7.8206323533978291E17,0
26-1-2017 2:00,1.5034076313018292E7,8.003124323197143E17,2.3735370301207276E18,-7.7291216548129971E17,0
26-1-2017 3:00,1.2977720017511964E7,7.9276838518835866E17,2.3511581854797199E18,-7.6562141510300314E17,0
26-1-2017 4:00,1.4776401646889895E7,7.9778353898732518E17,2.366026214380715E18,-7.7045913640606541E17,0
26-1-2017 5:00,2.2184757302091226E7,7.818000607914263E17,2.3186175696943037E18,-7.5501744811145139E17,0
26-1-2017 6:00,2.0932907017548054E7,7.6280818734638874E17,2.26228922034391808E18,-7.3667284565114086E17,0
26-1-2017 7:00,2.1994959417666063E7,7.5117145899231539E17,2.2277738615290455E18,-7.2543094354441498E17,0
26-1-2017 8:00,1.8600520716343418E7,7.4372659099774003E17,2.20569134050685542E18,-7.1823815851137562E17,0
26-1-2017 9:00,-1.741397240223605E7,7.3664331397337523E17,2.18467976482517632E18,-7.1139313687842611E17,0
26-1-2017 10:00,-5.4751305847464144E7,7.3897175354890342E17,2.19156223198192973E18,-7.1361872488412314E17,0
26-1-2017 11:00,-6.808697332289197E7,8.1695804658730598E17,2.4228192793142344E18,-7.8890318613962266E17,0
26-1-2017 12:00,-5.618010588122402E7,9.0821629230390682E17,2.6934587737021501E18,-8.7702618909433677E17,0
26-1-2017 13:00,-5.019919598658109E7,8.8524025254516429E17,2.6253247835149855E18,-8.548442784246569E17,0
26-1-2017 14:00,-6.3757999372059956E7,8.4894134309966771E17,2.517685567159721E18,-8.1980288096038605E17,0
26-1-2017 15:00,-6.145507134340434E7,9.0794201315037261E17,2.6927230938185272E18,-8.7683906751778253E17,0
26-1-2017 16:00,-4.08482288683702E7,1.00974514068441984E18,2.9946904498967828E18,-9.7520016852794342E17,0
26-1-2017 17:00,-3.577363715961671E7,1.01305491803482163E18,3.0045016402655155E18,-9.7839180419587251E17,0
26-1-2017 18:00,-6944910.550167814,1.01786035079825357E18,3.0187559892244936E18,-9.8303528762798694E17,0
26-1-2017 19:00,1.6234935952110752E7,9.2741498502611558E17,2.7504793616857457E18,-8.9564939163351475E17,0
26-1-2017 20:00,2.752113803610894E7,8.2064668032577638E17,2.4338000635545272E18,-7.9250670290297523E17,0
26-1-2017 21:00,2.7310572556524202E7,7.46606369460768E17,2.21420410094873677E18,-7.2099136202720102E17,0
26-1-2017 22:00,2.6008319023504734E7,7.0252357618730342E17,2.08346355458517581E18,-6.7841640221056922E17,0
26-1-2017 23:00,-4.0085732561772004E7,7.0623727271729715E17,2.09447522787790592E18,-6.8200068244331213E17,0
27-1-2017 0:00,1.90092754644199E7,7.2556167771235149E17,2.15173170715446605E18,-7.0060835172976333E17,0
27-1-2017 1:00,1.2321056436672822E7,7.4199343259694234E17,2.20047274103818752E18,-7.1648587584430336E17,0
27-1-2017 2:00,1.3194825389200434E7,7.3675322820965325E17,2.18492685873929984E18,-7.114204023199936E17,0
27-1-2017 3:00,6101466.774332389,7.1236954034740326E17,2.11260624333658701E18,-6.8786716264178074E17,0
27-1-2017 4:00,551484.3059390187,6.6956929521794598E17,1.98567236848431309E18,-6.465337780484215E17,0
27-1-2017 5:00,-1182217.1894325614,6.911609461483945E17,2.04969682918496179E18,-6.6737493688817306E17,0
27-1-2017 6:00,-3555105.055260107,7.1190228838457677E17,2.11120009164829235E18,-6.8739551487913933E17,0
27-1-2017 7:00,-7704049.177600294,7.1273937241029606E17,2.11367601415342054E18,-6.8819726933282867E17,0
27-1-2017 8:00,-198414.5236132443,7.0615249129174246E17,2.09413642490446694E18,-6.8183144232098227E17,0
27-1-2017 9:00,8192261.263646349,6.9131246705878477E17,2.05012085951180288E18,-6.674959253942336E17,0
27-1-2017 10:00,2.1279955070520014E7,6.7342191850838323E17,1.99705850843057434E18,-6.5021467141380813E17,0
27-1-2017 11:00,2.1171073948828876E7,6.4121791210591091E17,1.90154972640324813E18,-6.1911390219142669E17,0
27-1-2017 12:00,1.6521035514925912E7,6.1176111982644365E17,1.81419033464626995E18,-5.9066809499338278E17,0
27-1-2017 13:00,3346167.9029236883,6.039415788448855E17,1.7909968080901847E18,-5.8311365040041395E17,0
27-1-2017 14:00,1.6556103040082127E7,6.188761177775831E17,1.83527646378666342E18,-5.9752422823149747E17,0
27-1-2017 15:00,2.151603376989931E7,6.2810338937228109E17,1.86263977724771661E18,-6.0643299850315469E17,0
27-1-2017 16:00,3.3521861967055827E7,6.1672035807774451E17,1.82888193850850714E18,-5.954412223530185E17,0
27-1-2017 17:00,2.640040572617498E7,5.853769169438615E17,1.73593204385448397E18,-5.6517820996676134E17,0
27-1-2017 18:00,1.0189351485865265E7,5.5647568225703168E17,1.65022255397742285E18,-5.3727118946335962E17,0
27-1-2017 19:00,7377785.058640853,5.692416530494921E17,1.68807128610486272E18,-5.4958798000587878E17,0
27-1-2017 20:00,5077708.118089989,5.9254296179052493E17,1.75716471113970253E18,-5.7207878755865293E17,0
27-1-2017 21:00,-8992264.117916316,6.0635788504262259E17,1.79812760575954739E18,-5.8541183567430259E17,0
27-1-2017 22:00,5590185.248053938,6.1219630825329062E17,1.81543406201652326E18,-5.9104144550994214E17,0
27-1-2017 23:00,-3.5868344747214496E7,5.9744983766240845E17,1.77169902486831795E18,-5.7679934954350131E17,0
28-1-2017 0:00,6404135.434314325,6.2141600531700429E17,1.84276641005887155E18,-5.9993439942486323E17,0
28-1-2017 1:00,2.3071205584185585E7,6.0130411718423296E17,1.78311682532234394E18,-5.8050859095387827E17,0
28-1-2017 2:00,1.3800937758201659E7,5.7391652518785242E17,1.70189145590126592E18,-5.5405840552556147E17,0
28-1-2017 3:00,2.671241348219186E7,5.4594083606392512E17,1.61892745167291187E18,-5.2704577954506189E17,0
28-1-2017 4:00,2.5012389461850524E7,5.0514875866063578E17,1.49795931528015027E18,-4.8766179795887885E17,0
28-1-2017 5:00,2.185950182372482E7,5.0496820598478093E17,1.49742267517972224E18,-4.8748626321016051E17,0
28-1-2017 6:00,2.2729326504431665E7,5.1521175479446605E17,1.52779719822419866E18,-4.9737368863526682E17,0
28-1-2017 7:00,2.066197783161378E7,5.1144657069645222E17,1.51663121886634957E18,-4.9373807747344512E17,0
28-1-2017 8:00,1.5194153372890994E7,5.098216611915383E17,1.51181106281573376E18,-4.9216774043265754E17,0
28-1-2017 9:00,-1.454367742323102E7,5.112008804102103E17,1.5158975176191063E18,-4.9349575679868582E17,0
28-1-2017 10:00,-3.2804262898101002E7,5.328863453214455E17,1.58019080977042586E18,-5.1441811912753498E17,0
28-1-2017 11:00,-3.9771177659900874E7,5.7379336246054963E17,1.70148382821162701E18,-5.53897103290528E17,0
28-1-2017 12:00,-4.963739954322001E7,5.8979823433377574E17,1.74893984308469606E18,-5.6934337441714522E17,0
28-1-2017 13:00,-4.56995737751448E7,5.8233498421862298E17,1.72681412678331853E18,-5.6214415834607296E17,0
28-1-2017 14:00,-5.124787523862648E7,5.8001809849209754E17,1.71995011973228646E18,-5.5991392274809178E17,0
28-1-2017 15:00,-5.878004766092503E7,5.9889742562522726E17,1.77594911988945587E18,-5.781542686390016E17,0
28-1-2017 16:00,-2.670285675191337E7,6.3774535707074982E17,1.89116986496192922E18,-6.1567915082042995E17,0
28-1-2017 17:00,-1.7129922349772118E7,6.037973087856311E17,1.79048634555646874E18,-5.8289172798520691E17,0
28-1-2017 18:00,-8212867.667183921,6.020044240302121E17,1.78516109170958106E18,-5.8115224364915738E17,0
28-1-2017 19:00,163899.92980140448,5.751929315003607E17,1.70564802792154061E18,-5.5526216492081933E17,0
28-1-2017 20:00,1.2393345718414322E7,5.4771825278312576E17,1.62416981798243277E18,-5.287333124161815E17,0
28-1-2017 21:00,1.318528993393302E7,5.3252730811716429E17,1.5791179995234711E18,-5.1406338328914278E17,0
28-1-2017 22:00,1.6620910904517844E7,5.230390014528311E17,1.55097832929073306E18,-5.0490032638507098E17,0
28-1-2017 23:00,-2.9347718785117485E7,5.1358057543799411E17,1.52292818146299085E18,-4.9576703058700275E17,0
29-1-2017 0:00,2.4425221537373066E7,5.3427730248226688E17,1.58428718645868134E18,-5.1573258149414797E17,0
29-1-2017 1:00,4.090355804692309E7,5.2242514611364454E17,1.54914338719778406E18,-5.042930949704951E17,0
29-1-2017 2:00,5.108218317448804E7,4.8645929071502554E17,1.4424923584295895E18,-4.6957377699953882E17,0
29-1-2017 3:00,5.332031015939691E7,4.3884501816406221E17,1.30130025147173478E18,-4.2361021514361037E17,0
29-1-2017 4:00,5.885950756361252E7,3.8185620358743168E17,1.13231348710966669E18,-3.6860107993480346E17,0
29-1-2017 5:00,5.384332097943842E7,3.7850088174616883E17,1.12237380018481818E18,-3.6537203669248077E17,0
29-1-2017 6:00,5.0610264893385425E7,3.9450978290711539E17,1.1698541059943273E18,-3.8083454018009677E17,0
29-1-2017 7:00,4.215273834554987E7,4.1597487665152E17,1.23351416362428339E18,-4.0156441032124352E17,0
29-1-2017 8:00,2.9319572659577213E7,4.3456493867290342E17,1.28864376979037466E18,-4.1951389244456806E17,0
29-1-2017 9:00,-1.806052386773266E7,4.6437143641685542E17,1.37702839895702528E18,-4.4828552612331456E17,0
29-1-2017 10:00,-5.6733537249514565E7,5.1157755496216678E17,1.51698275723691904E18,-4.9382764731258573E17,0
29-1-2017 11:00,-8.069534211659145E7,5.2583550023145574E17,1.55923708341529139E18,-5.0756608295238003E17,0
29-1-2017 12:00,-7.200131488449511E7,4.6469452133009178E17,1.37793656787639373E18,-4.4854752521621043E17,0
29-1-2017 13:00,-6.114654665927168E7,4.1806898668057779E17,1.23968685323865805E18,-4.0354887987750272E17,0
29-1-2017 14:00,-7.472296820632268E7,4.5667559525699174E17,1.35417294552966554E18,-4.4082175501568243E17,0
29-1-2017 15:00,-7.573616119366626E7,5.1555229344593766E17,1.52879862680174029E18,-4.9769403990986509E17,0
29-1-2017 16:00,-4.3906816784844466E7,5.7464299109375846E17,1.70406141709606349E18,-5.5477543490854669E17,0
29-1-2017 17:00,-3.1817495636293106E7,6.2741222627216141E17,1.8605348589155241E18,-6.0571040637120141E17,0
29-1-2017 18:00,-1.2266668227419034E7,6.8234722331536666E17,2.02343273948210765E18,-6.5873829285137459E17,0
29-1-2017 19:00,9945812.512766771,6.8500490791516826E17,2.03129742685529728E18,-6.6128761102496128E17,0
29-1-2017 20:00,1.3466860589534141E7,6.0555488105503654E17,1.79568080628538214E18,-5.8457104417530918E17,0
29-1-2017 21:00,2.359627290626923E7,5.6763095423534502E17,1.68321698722703104E18,-5.4795507875634138E17,0
29-1-2017 22:00,1.7593326337315023E7,5.3171760555490867E17,1.57671884743301171E18,-5.132836363231945E17,0
29-1-2017 23:00,-2.5128525730840743E7,5.366106404500105E17,1.59122490047629875E18,-5.1800361957627814E17,0
30-1-2017 0:00,2.930344130533558E7,5.876356497562121E17,1.74251103563436698E18,-5.6723973612194317E17,0
30-1-2017 1:00,2.2489843002028883E7,5.4564358612737203E17,1.61799760297225933E18,-5.2671043071751539E17,0
30-1-2017 2:00,2.2548837040111348E7,5.345861232301161E17,1.58520632059772109E18,-5.1603407413748928E17,0
30-1-2017 3:00,1.967683610354981E7,5.0814821974670682E17,1.5068066141695657E18,-4.9051017467615232E17,0
30-1-2017 4:00,1.0147977422367632E7,4.8316648043110554E17,1.43272526290589901E18,-4.6639230204368819E17,0
30-1-2017 5:00,9789432.557874665,5.2197093645048346E17,1.54778613174809754E18,-5.0384425884713088E17,0
30-1-2017 6:00,7186320.567826971,5.4699164630633498E17,1.62197620777687142E18,-5.2799291516420186E17,0
30-1-2017 7:00,790296.8284668773,5.5064572303906598E17,1.6328078697871063E18,-5.3151642370897472E17,0
30-1-2017 8:00,-788298.5022252351,5.5511511048124454E17,1.64605625616839066E18,-5.3582603520590195E17,0
30-1-2017 9:00,-8810904.917337477,5.5712493694947776E17,1.65201170273855693E18,-5.3776182883960179E17,0
30-1-2017 10:00,-4.0940195055090085E7,5.6996535291913856E17,1.69008222903138176E18,-5.501515231931049E17,0
30-1-2017 11:00,3.2261711827775836E7,5.9072872225213696E17,1.75164692452206259E18,-5.7018948001778893E17,0
30-1-2017 12:00,-2590743.998963654,4.9852333579899136E17,1.47822416200601728E18,-4.8117749040803482E17,0
30-1-2017 13:00,3.697098419027263E7,5.1234628979189466E17,1.51921064109046067E18,-4.9451806150667162E17,0
30-1-2017 14:00,3.570495428900468E7,4.350415464830112E17,1.28997862559034778E18,-4.1989553262432576E17,0
30-1-2017 15:00,2.234031154096219E7,3.7061690306414899E17,1.09894602622538726E18,-3.5771222009708941E17,0
30-1-2017 16:00,1.8100683837066934E7,3.9894511592526515E17,1.1829411827952343E18,-3.8505095094470426E17,0
30-1-2017 17:00,1.3681798277919978E7,4.1818064954970662E17,1.23997492990546432E18,-4.0361363080605133E17,0
30-1-2017 18:00,3025213.9399638176,4.3850791150372454E17,1.3002461594994775E18,-4.2323033649202867E17,0
30-1-2017 19:00,-814434.6850936264,4.5278665854117158E17,1.34258022485397581E18,-4.370069077716329E17,0
30-1-2017 20:00,-7823949.1673421115,4.5975277243044966E17,1.36323206092070374E18,-4.4372651605980454E17,0
30-1-2017 21:00,-5265814.668577284,4.6598833222904832E17,1.3817177467700951E18,-4.4974108231199885E17,0
30-1-2017 22:00,-5916892.438671857,4.6371188134383219E17,1.37496450198866534E18,-4.4754073930100122E17,0
30-1-2017 23:00,2447526.004412234,4.602039250898752E17,1.36455986770825267E18,-4.441520175285024E17,0
31-1-2017 0:00,-1.209648038876544E7,4.4477449240565312E17,1.31880598168783206E18,-4.2925699687652595E17,0
31-1-2017 1:00,-2.2198004109559163E7,4.542726997729879E17,1.34696708725121126E18,-4.3842168770523571E17,0
31-1-2017 2:00,-2.140380375558947E7,4.6577849974421094E17,1.38108070728101914E18,-4.495237077925975E17,0
31-1-2017 3:00,-1.9078167768251717E7,4.6566154138786496E17,1.38073141146158925E18,-4.4940832868585946E17,0
31-1-2017 4:00,-2.4579613537144557E7,4.6160859241310246E17,1.36871152335857152E18,-4.4549433853236672E17,0
31-1-2017 5:00,-2.4178096461104646E7,4.6283938124096627E17,1.37236090468105472E18,-4.4668214219912256E17,0
31-1-2017 6:00,-2.092036804429534E7,4.6687618214183283E17,1.38433015200055654E18,-4.5057778771689088E17,0
31-1-2017 7:00,-1.257017893294321E7,4.6848137104806477E17,1.38908812286307814E18,-4.5212538076694886E17,0
31-1-2017 8:00,-8512737.886117965,4.6314810247038579E17,1.37327087868392192E18,-4.4697467374315046E17,0
31-1-2017 9:00,6494840.750202626,4.5490128908017946E17,1.34881511993482189E18,-4.3901254177446323E17,0
31-1-2017 10:00,1.8307446192032725E7,4.2601670281958758E17,1.26316495484097229E18,-4.111315492017975E17,0
31-1-2017 11:00,6216754.780394852,3.8941011779497856E17,1.15462022761954202E18,-3.757999920295849E17,0
31-1-2017 12:00,1.4418236040373057E7,3.9365657908442995E17,1.16720837280211558E18,-3.7989521463325568E17,0
31-1-2017 13:00,-1.129661544276756E7,3.8818678654840947E17,1.15098844134214272E18,-3.746148682453239E17,0
31-1-2017 14:00,5700932.265357792,4.1235905235980275E17,1.22265362552409318E18,-3.9793552080448781E17,0
31-1-2017 15:00,-9168851.209773362,4.1329286351955597E17,1.22542085541917901E18,-3.9883512838006733E17,0
31-1-2017 16:00,1.5515531058607668E7,4.1813634624187763E17,1.23977875865953126E18,-4.03506066175776E17,0
31-1-2017 17:00,2.916846584893605E7,3.9110714839044326E17,1.15963336171218483E18,-3.7741906493129856E17,0
31-1-2017 18:00,9767881.731323183,3.3383516372377395E17,9.8981870850174374E17,-3.2214838105419597E17,0
31-1-2017 19:00,-1358070.9928659797,3.4456325403370931E17,1.0216246610570199E18,-3.3249815298960141E17,0
31-1-2017 20:00,-6748951.408018827,3.6854773303066266E17,1.09273397986585779E18,-3.5563851380453261E17,0
31-1-2017 21:00,-5106395.32344234,3.808680457432992E17,1.12925912648347763E18,-3.6752303499687936E17,0
31-1-2017 22:00,-1.0958706477407843E7,3.8245292630849946E17,1.13395570494888653E18,-3.6904985233188774E17,0
31-1-2017 23:00,859380.294185549,3.8153845328386854E17,1.13124211388810304E18,-3.6816520732036608E17,0
