Time,Actual,Forecasts,Upper Interval,Lower Interval,Is Anomalies
1-1-2017 0:00,44180.636637536634,0.0,0.0,0.0,0
1-1-2017 1:00,116599.03445889539,0.0,0.0,0.0,0
1-1-2017 2:00,142679.6344843972,0.0,0.0,0.0,0
1-1-2017 3:00,132652.11594596197,0.0,0.0,0.0,0
1-1-2017 4:00,156872.1769399625,0.0,0.0,0.0,0
1-1-2017 5:00,165980.69475460832,0.0,0.0,0.0,0
1-1-2017 6:00,157895.18036551052,0.0,0.0,0.0,0
1-1-2017 7:00,113564.77941586619,0.0,0.0,0.0,0
1-1-2017 8:00,53868.37959580147,0.0,0.0,0.0,0
1-1-2017 9:00,-106882.43699595495,0.0,0.0,0.0,0
1-1-2017 10:00,-270446.5636561555,0.0,0.0,0.0,0
1-1-2017 11:00,-248478.6248910416,0.0,0.0,0.0,0
1-1-2017 12:00,-262997.78143249685,0.0,0.0,0.0,0
1-1-2017 13:00,-167473.8020993311,0.0,0.0,0.0,0
1-1-2017 14:00,-282842.746584056,0.0,0.0,0.0,0
1-1-2017 15:00,-293330.7381974046,0.0,0.0,0.0,0
1-1-2017 16:00,-277820.6544993165,0.0,0.0,0.0,0
1-1-2017 17:00,-105295.3641427327,0.0,0.0,0.0,0
1-1-2017 18:00,-70026.59386567742,0.0,0.0,0.0,0
1-1-2017 19:00,28080.992588773195,0.0,0.0,0.0,0
1-1-2017 20:00,36214.38213604101,0.0,0.0,0.0,0
1-1-2017 21:00,44008.05721302872,0.0,0.0,0.0,0
1-1-2017 22:00,19589.261768411787,0.0,0.0,0.0,0
1-1-2017 23:00,30057.632215277757,0.0,0.0,0.0,0
2-1-2017 0:00,48415.12683096406,0.0,0.0,0.0,0
2-1-2017 1:00,-1905.7174686208018,0.0,0.0,0.0,0
2-1-2017 2:00,-55478.73523933464,0.0,0.0,0.0,0
2-1-2017 3:00,-104436.84556847595,0.0,0.0,0.0,0
2-1-2017 4:00,-116174.96231515694,0.0,0.0,0.0,0
2-1-2017 5:00,-130937.22091509541,0.0,0.0,0.0,0
2-1-2017 6:00,-139162.3903663936,0.0,0.0,0.0,0
2-1-2017 7:00,-130411.94730875839,0.0,0.0,0.0,0
2-1-2017 8:00,-82802.4212110315,0.0,0.0,0.0,0
2-1-2017 9:00,127298.4118832011,0.0,0.0,0.0,0
2-1-2017 10:00,322652.978384375,0.0,0.0,0.0,0
2-1-2017 11:00,169088.34912807366,0.0,0.0,0.0,0
2-1-2017 12:00,285301.6170704918,0.0,0.0,0.0,0
2-1-2017 13:00,325252.0013470738,0.0,0.0,0.0,0
2-1-2017 14:00,323020.8661771881,0.0,0.0,0.0,0
2-1-2017 15:00,279241.1455773654,0.0,0.0,0.0,0
2-1-2017 16:00,208125.8544147286,0.0,0.0,0.0,0
2-1-2017 17:00,99927.57715343882,0.0,0.0,0.0,0
2-1-2017 18:00,18984.989646519418,0.0,0.0,0.0,0
2-1-2017 19:00,-17015.291613009176,0.0,0.0,0.0,0
2-1-2017 20:00,-56282.65925056534,0.0,0.0,0.0,0
2-1-2017 21:00,-83523.83763309114,0.0,0.0,0.0,0
2-1-2017 22:00,-94047.61361562228,0.0,0.0,0.0,0
2-1-2017 23:00,-127267.45646003704,0.0,0.0,0.0,0
3-1-2017 0:00,-155936.96534999122,0.0,0.0,0.0,0
3-1-2017 1:00,-143172.9126207562,0.0,0.0,0.0,0
3-1-2017 2:00,-110435.40903792228,0.0,0.0,0.0,0
3-1-2017 3:00,-173294.25200800615,0.0,0.0,0.0,0
3-1-2017 4:00,-159978.49150044902,0.0,0.0,0.0,0
3-1-2017 5:00,-147400.08260934532,0.0,0.0,0.0,0
3-1-2017 6:00,-133163.04321721743,0.0,0.0,0.0,0
3-1-2017 7:00,-82051.37364488037,0.0,0.0,0.0,0
3-1-2017 8:00,-20428.939121939708,0.0,0.0,0.0,0
3-1-2017 9:00,47055.20568912919,0.0,0.0,0.0,0
3-1-2017 10:00,135704.91815253976,0.0,0.0,0.0,0
3-1-2017 11:00,164510.9536756851,0.0,0.0,0.0,0
3-1-2017 12:00,150070.05890283873,0.0,0.0,0.0,0
3-1-2017 13:00,77601.73469115724,0.0,0.0,0.0,0
3-1-2017 14:00,108289.3054044306,0.0,0.0,0.0,0
3-1-2017 15:00,102641.6523864544,0.0,0.0,0.0,0
3-1-2017 16:00,78609.45474738663,0.0,0.0,0.0,0
3-1-2017 17:00,60715.02341616165,0.0,0.0,0.0,0
3-1-2017 18:00,71801.77167320566,0.0,0.0,0.0,0
3-1-2017 19:00,-18147.526659875875,0.0,0.0,0.0,0
3-1-2017 20:00,4970.679158170009,0.0,0.0,0.0,0
3-1-2017 21:00,1687.6139148970833,0.0,0.0,0.0,0
3-1-2017 22:00,25479.837419212097,0.0,0.0,0.0,0
3-1-2017 23:00,-26186.908691722434,0.0,0.0,0.0,0
4-1-2017 0:00,-47758.311062556575,0.0,0.0,0.0,0
4-1-2017 1:00,-49454.03424253338,0.0,0.0,0.0,0
4-1-2017 2:00,-92466.5122441831,0.0,0.0,0.0,0
4-1-2017 3:00,-84939.84079324105,0.0,0.0,0.0,0
4-1-2017 4:00,-54894.19907227252,0.0,0.0,0.0,0
4-1-2017 5:00,-93661.36751957505,0.0,0.0,0.0,0
4-1-2017 6:00,-78178.41411346965,0.0,0.0,0.0,0
4-1-2017 7:00,-67606.07977828162,0.0,0.0,0.0,0
4-1-2017 8:00,-74363.56858197798,0.0,0.0,0.0,0
4-1-2017 9:00,43542.10073785414,0.0,0.0,0.0,0
4-1-2017 10:00,80499.81428911362,0.0,0.0,0.0,0
4-1-2017 11:00,105789.78971731791,0.0,0.0,0.0,0
4-1-2017 12:00,104916.1673548196,0.0,0.0,0.0,0
4-1-2017 13:00,29307.417785353726,0.0,0.0,0.0,0
4-1-2017 14:00,68139.4175122648,0.0,0.0,0.0,0
4-1-2017 15:00,99378.21520661376,0.0,0.0,0.0,0
4-1-2017 16:00,77128.23690631427,0.0,0.0,0.0,0
4-1-2017 17:00,42059.81651576911,0.0,0.0,0.0,0
4-1-2017 18:00,33099.15554739209,0.0,0.0,0.0,0
4-1-2017 19:00,5502.779290076811,0.0,0.0,0.0,0
4-1-2017 20:00,31969.91771304421,0.0,0.0,0.0,0
4-1-2017 21:00,-21743.13608490827,0.0,0.0,0.0,0
4-1-2017 22:00,-45457.459487939836,0.0,0.0,0.0,0
4-1-2017 23:00,-37144.89525958733,0.0,0.0,0.0,0
5-1-2017 0:00,-99675.61750549439,0.0,0.0,0.0,0
5-1-2017 1:00,-92132.71164494794,0.0,0.0,0.0,0
5-1-2017 2:00,-83919.09628134663,0.0,0.0,0.0,0
5-1-2017 3:00,-42860.005459643784,0.0,0.0,0.0,0
5-1-2017 4:00,-50412.94474351243,0.0,0.0,0.0,0
5-1-2017 5:00,-44677.714743397315,0.0,0.0,0.0,0
5-1-2017 6:00,-39174.93153749034,0.0,0.0,0.0,0
5-1-2017 7:00,-10006.238136122003,0.0,0.0,0.0,0
5-1-2017 8:00,11594.444036873872,0.0,0.0,0.0,0
5-1-2017 9:00,44152.276918766554,0.0,0.0,0.0,0
5-1-2017 10:00,49945.60659577139,0.0,0.0,0.0,0
5-1-2017 11:00,85320.99696693104,0.0,0.0,0.0,0
5-1-2017 12:00,53588.18205267703,0.0,0.0,0.0,0
5-1-2017 13:00,-8958.002572723199,0.0,0.0,0.0,0
5-1-2017 14:00,34273.96646967635,0.0,0.0,0.0,0
5-1-2017 15:00,59373.87517820066,0.0,0.0,0.0,0
5-1-2017 16:00,34503.52631615533,0.0,0.0,0.0,0
5-1-2017 17:00,16803.423497170326,0.0,0.0,0.0,0
5-1-2017 18:00,-16507.5200657479,0.0,0.0,0.0,0
5-1-2017 19:00,-13723.445421001525,0.0,0.0,0.0,0
5-1-2017 20:00,-45736.565566817415,0.0,0.0,0.0,0
5-1-2017 21:00,-27327.25564444816,0.0,0.0,0.0,0
5-1-2017 22:00,-37937.28659360815,0.0,0.0,0.0,0
5-1-2017 23:00,8491.987335249723,0.0,0.0,0.0,0
6-1-2017 0:00,-39818.07412993017,0.0,0.0,0.0,0
6-1-2017 1:00,-42925.3295358796,0.0,0.0,0.0,0
6-1-2017 2:00,-24213.21250086883,0.0,0.0,0.0,0
6-1-2017 3:00,15721.14548964583,0.0,0.0,0.0,0
6-1-2017 4:00,-16581.04446778266,0.0,0.0,0.0,0
6-1-2017 5:00,8158.3441089976695,0.0,0.0,0.0,0
6-1-2017 6:00,8788.71214374277,0.0,0.0,0.0,0
6-1-2017 7:00,7727.520868768741,0.0,0.0,0.0,0
6-1-2017 8:00,17368.94392547838,0.0,0.0,0.0,0
6-1-2017 9:00,-17959.25390765333,0.0,0.0,0.0,0
6-1-2017 10:00,-21482.541811978386,0.0,0.0,0.0,0
6-1-2017 11:00,-10352.935037511459,0.0,0.0,0.0,0
6-1-2017 12:00,-13430.990480547596,0.0,0.0,0.0,0
6-1-2017 13:00,-26608.73696083651,0.0,0.0,0.0,0
6-1-2017 14:00,1537.9669613812584,0.0,0.0,0.0,0
6-1-2017 15:00,37315.5500372611,0.0,0.0,0.0,0
6-1-2017 16:00,37723.37719929882,0.0,0.0,0.0,0
6-1-2017 17:00,28366.912232690433,0.0,0.0,0.0,0
6-1-2017 18:00,-15081.801578777202,0.0,0.0,0.0,0
6-1-2017 19:00,-21826.60012614436,0.0,0.0,0.0,0
6-1-2017 20:00,-21821.22969751648,0.0,0.0,0.0,0
6-1-2017 21:00,19518.561380808882,0.0,0.0,0.0,0
6-1-2017 22:00,20297.19138728187,0.0,0.0,0.0,0
6-1-2017 23:00,-18328.557504304394,0.0,0.0,0.0,0
7-1-2017 0:00,4320.626232827373,0.0,0.0,0.0,0
7-1-2017 1:00,-12075.434717919503,0.0,0.0,0.0,0
7-1-2017 2:00,9260.859710199293,0.0,0.0,0.0,0
7-1-2017 3:00,67618.2705912242,0.0,0.0,0.0,0
7-1-2017 4:00,67129.94358997256,0.0,0.0,0.0,0
7-1-2017 5:00,75890.6720982322,0.0,0.0,0.0,0
7-1-2017 6:00,65955.68631662946,0.0,0.0,0.0,0
7-1-2017 7:00,63717.14725063194,0.0,0.0,0.0,0
7-1-2017 8:00,30124.558076374233,0.0,0.0,0.0,0
7-1-2017 9:00,-38080.49169762147,0.0,0.0,0.0,0
7-1-2017 10:00,-59543.516035811685,0.0,0.0,0.0,0
7-1-2017 11:00,-45221.46171057288,0.0,0.0,0.0,0
7-1-2017 12:00,-61568.50653492613,0.0,0.0,0.0,0
7-1-2017 13:00,-13414.222796122951,0.0,0.0,0.0,0
7-1-2017 14:00,-84004.32192010555,0.0,0.0,0.0,0
7-1-2017 15:00,-74527.52240288886,0.0,0.0,0.0,0
7-1-2017 16:00,-59085.72197571094,0.0,0.0,0.0,0
7-1-2017 17:00,-60425.11000379606,0.0,0.0,0.0,0
7-1-2017 18:00,-39419.094977666566,0.0,0.0,0.0,0
7-1-2017 19:00,5646.292841823248,0.0,0.0,0.0,0
7-1-2017 20:00,5862.623403865437,0.0,0.0,0.0,0
7-1-2017 21:00,11577.653690153733,0.0,0.0,0.0,0
7-1-2017 22:00,32039.37038996257,0.0,0.0,0.0,0
7-1-2017 23:00,103100.24441563513,0.0,0.0,0.0,0
8-1-2017 0:00,109316.54909278144,0.0,0.0,0.0,0
8-1-2017 1:00,91174.29649425461,0.0,0.0,0.0,0
8-1-2017 2:00,119369.64221249887,0.0,0.0,0.0,0
8-1-2017 3:00,104990.29988105147,0.0,0.0,0.0,0
8-1-2017 4:00,107532.55219498312,0.0,0.0,0.0,0
8-1-2017 5:00,127558.33767196751,0.0,0.0,0.0,0
8-1-2017 6:00,123548.01511126227,0.0,0.0,0.0,0
8-1-2017 7:00,99780.39678498701,0.0,0.0,0.0,0
8-1-2017 8:00,54625.74391050747,0.0,0.0,0.0,0
8-1-2017 9:00,-75812.84924153966,0.0,0.0,0.0,0
8-1-2017 10:00,-240015.85964513512,0.0,0.0,0.0,0
8-1-2017 11:00,-276411.1174006647,0.0,0.0,0.0,0
8-1-2017 12:00,-228725.4612378754,0.0,0.0,0.0,0
8-1-2017 13:00,-139259.43361463235,0.0,0.0,0.0,0
8-1-2017 14:00,-215159.44211946748,0.0,0.0,0.0,0
8-1-2017 15:00,-196665.99249556626,0.0,0.0,0.0,0
8-1-2017 16:00,-163908.85519609464,0.0,0.0,0.0,0
8-1-2017 17:00,-143527.40781178122,0.0,0.0,0.0,0
8-1-2017 18:00,-34255.75547417917,0.0,0.0,0.0,0
8-1-2017 19:00,50034.53839219909,0.0,0.0,0.0,0
8-1-2017 20:00,48410.808767687005,0.0,0.0,0.0,0
8-1-2017 21:00,42714.17902867502,0.0,0.0,0.0,0
8-1-2017 22:00,47925.034557293635,0.0,0.0,0.0,0
8-1-2017 23:00,35957.43363569898,0.0,0.0,0.0,0
9-1-2017 0:00,48775.361388333666,0.0,0.0,0.0,0
9-1-2017 1:00,43937.560953266744,0.0,0.0,0.0,0
9-1-2017 2:00,36070.25177287613,0.0,0.0,0.0,0
9-1-2017 3:00,-6951.149959803617,0.0,0.0,0.0,0
9-1-2017 4:00,-23624.781006576843,0.0,0.0,0.0,0
9-1-2017 5:00,-28145.279921874346,0.0,0.0,0.0,0
9-1-2017 6:00,-43127.960622688755,0.0,0.0,0.0,0
9-1-2017 7:00,-58421.26694441284,0.0,0.0,0.0,0
9-1-2017 8:00,-46034.892254284874,0.0,0.0,0.0,0
9-1-2017 9:00,28002.83344858163,0.0,0.0,0.0,0
9-1-2017 10:00,116324.78447376541,0.0,0.0,0.0,0
9-1-2017 11:00,150802.72213165206,0.0,0.0,0.0,0
9-1-2017 12:00,122176.61677576869,0.0,0.0,0.0,0
9-1-2017 13:00,56696.77396451449,0.0,0.0,0.0,0
9-1-2017 14:00,87601.66175988957,0.0,0.0,0.0,0
9-1-2017 15:00,113353.77717153821,0.0,0.0,0.0,0
9-1-2017 16:00,82332.7338407383,0.0,0.0,0.0,0
9-1-2017 17:00,42809.813143169275,0.0,0.0,0.0,0
9-1-2017 18:00,23633.249297962757,0.0,0.0,0.0,0
9-1-2017 19:00,-19609.95807341917,0.0,0.0,0.0,0
9-1-2017 20:00,982.864830865874,0.0,0.0,0.0,0
9-1-2017 21:00,11374.449131867033,0.0,0.0,0.0,0
9-1-2017 22:00,21128.29215519037,0.0,0.0,0.0,0
9-1-2017 23:00,-16441.59504777682,0.0,0.0,0.0,0
10-1-2017 0:00,1163.525028460892,0.0,0.0,0.0,0
10-1-2017 1:00,-35643.6340957674,0.0,0.0,0.0,0
10-1-2017 2:00,-69963.81398542615,0.0,0.0,0.0,0
10-1-2017 3:00,-9915.859292424284,0.0,0.0,0.0,0
10-1-2017 4:00,-43198.95049153245,0.0,0.0,0.0,0
10-1-2017 5:00,-29645.026318055112,0.0,0.0,0.0,0
10-1-2017 6:00,-31373.88246278523,0.0,0.0,0.0,0
10-1-2017 7:00,-18718.755715558946,0.0,0.0,0.0,0
10-1-2017 8:00,-10196.580298421206,0.0,0.0,0.0,0
10-1-2017 9:00,19163.243532389635,0.0,0.0,0.0,0
10-1-2017 10:00,21122.805081490078,0.0,0.0,0.0,0
10-1-2017 11:00,38515.76379431237,0.0,0.0,0.0,0
10-1-2017 12:00,4002.5485964857507,0.0,0.0,0.0,0
10-1-2017 13:00,-23333.454339743243,0.0,0.0,0.0,0
10-1-2017 14:00,24968.263233206933,0.0,0.0,0.0,0
10-1-2017 15:00,36937.13035753672,0.0,0.0,0.0,0
10-1-2017 16:00,31652.52320875984,0.0,0.0,0.0,0
10-1-2017 17:00,37061.65012916579,0.0,0.0,0.0,0
10-1-2017 18:00,20207.633467996493,0.0,0.0,0.0,0
10-1-2017 19:00,-16911.559688258916,0.0,0.0,0.0,0
10-1-2017 20:00,-40400.70027015725,0.0,0.0,0.0,0
10-1-2017 21:00,-9771.35882865393,0.0,0.0,0.0,0
10-1-2017 22:00,11967.189491369645,0.0,0.0,0.0,0
10-1-2017 23:00,-9839.829445988813,0.0,0.0,0.0,0
11-1-2017 0:00,-1324.7363402370247,0.0,0.0,0.0,0
11-1-2017 1:00,-3049.51080348494,0.0,0.0,0.0,0
11-1-2017 2:00,-1697.41805227031,0.0,0.0,0.0,0
11-1-2017 3:00,4002.2164165547583,0.0,0.0,0.0,0
11-1-2017 4:00,-5400.679431587516,0.0,0.0,0.0,0
11-1-2017 5:00,-34355.51046991366,0.0,0.0,0.0,0
11-1-2017 6:00,-29815.450359138136,0.0,0.0,0.0,0
11-1-2017 7:00,-37944.7987662119,0.0,0.0,0.0,0
11-1-2017 8:00,-19811.350845315028,0.0,0.0,0.0,0
11-1-2017 9:00,-94078.31551241805,0.0,0.0,0.0,0
11-1-2017 10:00,-5586.072779892944,0.0,0.0,0.0,0
11-1-2017 11:00,32649.077647372847,0.0,0.0,0.0,0
11-1-2017 12:00,-15831.136732889456,0.0,0.0,0.0,0
11-1-2017 13:00,-26334.608177641465,0.0,0.0,0.0,0
11-1-2017 14:00,59949.47078933555,0.0,0.0,0.0,0
11-1-2017 15:00,23140.62124279776,0.0,0.0,0.0,0
11-1-2017 16:00,10313.458592478768,0.0,0.0,0.0,0
11-1-2017 17:00,-10139.40871144412,0.0,0.0,0.0,0
11-1-2017 18:00,36347.23996911978,0.0,0.0,0.0,0
11-1-2017 19:00,28505.53780763189,0.0,0.0,0.0,0
11-1-2017 20:00,52855.31051919126,0.0,0.0,0.0,0
11-1-2017 21:00,35512.28783446376,0.0,0.0,0.0,0
11-1-2017 22:00,24103.13752251072,0.0,0.0,0.0,0
11-1-2017 23:00,10347.4229220837,0.0,0.0,0.0,0
12-1-2017 0:00,45612.915128672554,0.0,0.0,0.0,0
12-1-2017 1:00,14023.687886945903,0.0,0.0,0.0,0
12-1-2017 2:00,-28682.28416042484,0.0,0.0,0.0,0
12-1-2017 3:00,3248.432644764427,0.0,0.0,0.0,0
12-1-2017 4:00,14462.820387985616,0.0,0.0,0.0,0
12-1-2017 5:00,-18544.11765895656,0.0,0.0,0.0,0
12-1-2017 6:00,-2059.8330894876854,0.0,0.0,0.0,0
12-1-2017 7:00,5608.052826579951,0.0,0.0,0.0,0
12-1-2017 8:00,-10413.057271322294,0.0,0.0,0.0,0
12-1-2017 9:00,-11723.391506320913,0.0,0.0,0.0,0
12-1-2017 10:00,-8890.644672426104,0.0,0.0,0.0,0
12-1-2017 11:00,1440.3103872280917,0.0,0.0,0.0,0
12-1-2017 12:00,-44587.36025752482,0.0,0.0,0.0,0
12-1-2017 13:00,-31669.674474333704,0.0,0.0,0.0,0
12-1-2017 14:00,52019.671623135975,0.0,0.0,0.0,0
12-1-2017 15:00,-38800.378857802716,0.0,0.0,0.0,0
12-1-2017 16:00,-7189.32336859894,0.0,0.0,0.0,0
12-1-2017 17:00,-11007.075581171666,0.0,0.0,0.0,0
12-1-2017 18:00,-3727.3722431956558,0.0,0.0,0.0,0
12-1-2017 19:00,-36268.65774318518,0.0,0.0,0.0,0
12-1-2017 20:00,-50198.30607143743,0.0,0.0,0.0,0
12-1-2017 21:00,-46951.42007673456,0.0,0.0,0.0,0
12-1-2017 22:00,-26380.80255825608,0.0,0.0,0.0,0
12-1-2017 23:00,-18705.98635934334,0.0,0.0,0.0,0
13-1-2017 0:00,4685.041410490754,0.0,0.0,0.0,0
13-1-2017 1:00,14413.560457284504,0.0,0.0,0.0,0
13-1-2017 2:00,25463.472678327176,0.0,0.0,0.0,0
13-1-2017 3:00,50749.88088687981,0.0,0.0,0.0,0
13-1-2017 4:00,80954.19305432582,0.0,0.0,0.0,0
13-1-2017 5:00,84602.87242869462,0.0,0.0,0.0,0
13-1-2017 6:00,84182.04588678357,0.0,0.0,0.0,0
13-1-2017 7:00,75356.85194523621,0.0,0.0,0.0,0
13-1-2017 8:00,64570.49964777846,0.0,0.0,0.0,0
13-1-2017 9:00,26384.513967355946,0.0,0.0,0.0,0
13-1-2017 10:00,-80741.1545154266,0.0,0.0,0.0,0
13-1-2017 11:00,-67505.43424143095,0.0,0.0,0.0,0
13-1-2017 12:00,-72926.9505687214,0.0,0.0,0.0,0
13-1-2017 13:00,-66451.85988046153,0.0,0.0,0.0,0
13-1-2017 14:00,-67805.73897537315,0.0,0.0,0.0,0
13-1-2017 15:00,-107382.67271358718,0.0,0.0,0.0,0
13-1-2017 16:00,29244.46172757022,0.0,0.0,0.0,0
13-1-2017 17:00,4657.422369526816,0.0,0.0,0.0,0
13-1-2017 18:00,-22763.661871905788,0.0,0.0,0.0,0
13-1-2017 19:00,-17078.84803080611,0.0,0.0,0.0,0
13-1-2017 20:00,-26507.784719278978,0.0,0.0,0.0,0
13-1-2017 21:00,-12364.669881828653,0.0,0.0,0.0,0
13-1-2017 22:00,-12928.671115133446,0.0,0.0,0.0,0
13-1-2017 23:00,107360.33930090396,0.0,0.0,0.0,0
14-1-2017 0:00,74549.56271801773,0.0,0.0,0.0,0
14-1-2017 1:00,103874.89564237086,0.0,0.0,0.0,0
14-1-2017 2:00,120720.58394153602,0.0,0.0,0.0,0
14-1-2017 3:00,101373.97261036915,0.0,0.0,0.0,0
14-1-2017 4:00,104151.68810949364,0.0,0.0,0.0,0
14-1-2017 5:00,116108.4941752833,0.0,0.0,0.0,0
14-1-2017 6:00,118152.06959431863,0.0,0.0,0.0,0
14-1-2017 7:00,98249.01497508294,0.0,0.0,0.0,0
14-1-2017 8:00,55872.21239838051,0.0,0.0,0.0,0
14-1-2017 9:00,-72324.27393935871,0.0,0.0,0.0,0
14-1-2017 10:00,-171758.83406671364,0.0,0.0,0.0,0
14-1-2017 11:00,-197744.4585081926,0.0,0.0,0.0,0
14-1-2017 12:00,-204670.49015849284,0.0,0.0,0.0,0
14-1-2017 13:00,-134002.8921952418,0.0,0.0,0.0,0
14-1-2017 14:00,-190295.41249615152,0.0,0.0,0.0,0
14-1-2017 15:00,-177591.7558539603,0.0,0.0,0.0,0
14-1-2017 16:00,-141652.50456475478,0.0,0.0,0.0,0
14-1-2017 17:00,-112569.0128431608,0.0,0.0,0.0,0
14-1-2017 18:00,-57998.792704656604,0.0,0.0,0.0,0
14-1-2017 19:00,6544.145664504496,0.0,0.0,0.0,0
14-1-2017 20:00,22387.151373861096,0.0,0.0,0.0,0
14-1-2017 21:00,29496.712722692464,0.0,0.0,0.0,0
14-1-2017 22:00,37065.330382646,0.0,0.0,0.0,0
14-1-2017 23:00,60597.86902791567,0.0,0.0,0.0,0
15-1-2017 0:00,145114.3300480168,0.0,0.0,0.0,0
15-1-2017 1:00,169615.6291216556,0.0,0.0,0.0,0
15-1-2017 2:00,203492.42577066945,0.0,0.0,0.0,0
15-1-2017 3:00,185188.72717150958,0.0,0.0,0.0,0
15-1-2017 4:00,189169.44630969648,0.0,0.0,0.0,0
15-1-2017 5:00,196602.54297380504,0.0,0.0,0.0,0
15-1-2017 6:00,173331.89426068487,0.0,0.0,0.0,0
15-1-2017 7:00,128986.76133307215,0.0,0.0,0.0,0
15-1-2017 8:00,69944.63084643631,0.0,0.0,0.0,0
15-1-2017 9:00,-79926.00102405611,0.0,0.0,0.0,0
15-1-2017 10:00,-222245.66352795358,0.0,0.0,0.0,0
15-1-2017 11:00,-245695.14341687754,0.0,0.0,0.0,0
15-1-2017 12:00,-260444.24112215784,0.0,0.0,0.0,0
15-1-2017 13:00,-198014.01515437546,0.0,0.0,0.0,0
15-1-2017 14:00,-247430.63593174308,0.0,0.0,0.0,0
15-1-2017 15:00,-231896.44817960623,0.0,0.0,0.0,0
15-1-2017 16:00,-178767.46036830978,0.0,0.0,0.0,0
15-1-2017 17:00,-113118.24147907921,0.0,0.0,0.0,0
15-1-2017 18:00,-44963.270872639114,0.0,0.0,0.0,0
15-1-2017 19:00,17428.765731097985,0.0,0.0,0.0,0
15-1-2017 20:00,38402.537544798746,0.0,0.0,0.0,0
15-1-2017 21:00,35958.991150827234,0.0,0.0,0.0,0
15-1-2017 22:00,61087.18401781737,0.0,0.0,0.0,0
15-1-2017 23:00,54435.96720609756,0.0,0.0,0.0,0
16-1-2017 0:00,94654.20214296447,0.0,0.0,0.0,0
16-1-2017 1:00,105690.2469841672,0.0,0.0,0.0,0
16-1-2017 2:00,106069.33160130813,0.0,0.0,0.0,0
16-1-2017 3:00,59436.02535243338,0.0,0.0,0.0,0
16-1-2017 4:00,36419.789613063505,0.0,0.0,0.0,0
16-1-2017 5:00,29935.982492805633,0.0,0.0,0.0,0
16-1-2017 6:00,19920.115264844673,0.0,0.0,0.0,0
16-1-2017 7:00,3835.486109621357,0.0,0.0,0.0,0
16-1-2017 8:00,-1940.7702061813325,0.0,0.0,0.0,0
16-1-2017 9:00,-5980.747457692225,0.0,0.0,0.0,0
16-1-2017 10:00,-7727.973028390203,0.0,0.0,0.0,0
16-1-2017 11:00,11823.920944983256,0.0,0.0,0.0,0
16-1-2017 12:00,35734.166494465084,0.0,0.0,0.0,0
16-1-2017 13:00,5.463553315144964,0.0,0.0,0.0,0
16-1-2017 14:00,14371.535386025731,0.0,0.0,0.0,0
16-1-2017 15:00,12516.577334644506,0.0,0.0,0.0,0
16-1-2017 16:00,42701.28046668542,0.0,0.0,0.0,0
16-1-2017 17:00,52844.19486347813,0.0,0.0,0.0,0
16-1-2017 18:00,28702.874277779774,0.0,0.0,0.0,0
16-1-2017 19:00,-10776.97393567313,0.0,0.0,0.0,0
16-1-2017 20:00,6864.160930605605,0.0,0.0,0.0,0
16-1-2017 21:00,1740.3314300326165,0.0,0.0,0.0,0
16-1-2017 22:00,-10442.03284185502,0.0,0.0,0.0,0
16-1-2017 23:00,-22564.52745647868,0.0,0.0,0.0,0
17-1-2017 0:00,-14422.180948760652,0.0,0.0,0.0,0
17-1-2017 1:00,-901.1610950439353,0.0,0.0,0.0,0
17-1-2017 2:00,11245.63073517417,0.0,0.0,0.0,0
17-1-2017 3:00,24834.346081534517,0.0,0.0,0.0,0
17-1-2017 4:00,-5697.627335877041,0.0,0.0,0.0,0
17-1-2017 5:00,14924.82416587905,0.0,0.0,0.0,0
17-1-2017 6:00,15788.870829457417,0.0,0.0,0.0,0
17-1-2017 7:00,3676.615010200301,0.0,0.0,0.0,0
17-1-2017 8:00,34809.77242880745,0.0,0.0,0.0,0
17-1-2017 9:00,-3068.3943141864147,0.0,0.0,0.0,0
17-1-2017 10:00,-51825.689254638564,0.0,0.0,0.0,0
17-1-2017 11:00,-50539.20772192167,0.0,0.0,0.0,0
17-1-2017 12:00,-39209.60522063158,0.0,0.0,0.0,0
17-1-2017 13:00,-52084.686571255734,0.0,0.0,0.0,0
17-1-2017 14:00,-37925.91162900883,0.0,0.0,0.0,0
17-1-2017 15:00,-12841.534984450147,0.0,0.0,0.0,0
17-1-2017 16:00,31613.151412239473,0.0,0.0,0.0,0
17-1-2017 17:00,32911.60335138935,0.0,0.0,0.0,0
17-1-2017 18:00,10478.343608347583,0.0,0.0,0.0,0
17-1-2017 19:00,588.94334193127,0.0,0.0,0.0,0
17-1-2017 20:00,11344.88402501482,0.0,0.0,0.0,0
17-1-2017 21:00,19169.777731644863,0.0,0.0,0.0,0
17-1-2017 22:00,-2004.917391954339,0.0,0.0,0.0,0
17-1-2017 23:00,2714.876477684127,0.0,0.0,0.0,0
18-1-2017 0:00,-14722.542721771286,0.0,0.0,0.0,0
18-1-2017 1:00,-20632.209426739195,0.0,0.0,0.0,0
18-1-2017 2:00,-27089.417291741236,0.0,0.0,0.0,0
18-1-2017 3:00,-44600.61170852807,0.0,0.0,0.0,0
18-1-2017 4:00,-55420.26810552296,0.0,0.0,0.0,0
18-1-2017 5:00,-52308.576646553935,0.0,0.0,0.0,0
18-1-2017 6:00,-47365.47416263464,0.0,0.0,0.0,0
18-1-2017 7:00,-51321.42667549831,0.0,0.0,0.0,0
18-1-2017 8:00,-22089.000890191528,0.0,0.0,0.0,0
18-1-2017 9:00,23002.198249900597,0.0,0.0,0.0,0
18-1-2017 10:00,51052.762556429836,0.0,0.0,0.0,0
18-1-2017 11:00,69722.92433197564,0.0,0.0,0.0,0
18-1-2017 12:00,99637.98512004944,0.0,0.0,0.0,0
18-1-2017 13:00,36356.09961209586,0.0,0.0,0.0,0
18-1-2017 14:00,66118.48610436963,0.0,0.0,0.0,0
18-1-2017 15:00,69851.49018425879,0.0,0.0,0.0,0
18-1-2017 16:00,108942.00982280669,0.0,0.0,0.0,0
18-1-2017 17:00,106705.60155410378,0.0,0.0,0.0,0
18-1-2017 18:00,55434.54857774556,0.0,0.0,0.0,0
18-1-2017 19:00,24218.577430448146,0.0,0.0,0.0,0
18-1-2017 20:00,-3744.2417538574664,0.0,0.0,0.0,0
18-1-2017 21:00,6930.444329960272,0.0,0.0,0.0,0
18-1-2017 22:00,-22190.1062434623,0.0,0.0,0.0,0
18-1-2017 23:00,-11308.088386869757,0.0,0.0,0.0,0
19-1-2017 0:00,-64943.68784415425,0.0,0.0,0.0,0
19-1-2017 1:00,-66667.03211972659,0.0,0.0,0.0,0
19-1-2017 2:00,-66789.8906918685,0.0,0.0,0.0,0
19-1-2017 3:00,-82339.75588372233,0.0,0.0,0.0,0
19-1-2017 4:00,-65106.84617746773,0.0,0.0,0.0,0
19-1-2017 5:00,-80527.77875009528,0.0,0.0,0.0,0
19-1-2017 6:00,-59269.66443464486,0.0,0.0,0.0,0
19-1-2017 7:00,-30908.225592539296,0.0,0.0,0.0,0
19-1-2017 8:00,914.0866080428241,0.0,0.0,0.0,0
19-1-2017 9:00,18982.64861023298,0.0,0.0,0.0,0
19-1-2017 10:00,46781.44123148499,0.0,0.0,0.0,0
19-1-2017 11:00,63991.82231760083,0.0,0.0,0.0,0
19-1-2017 12:00,77128.85046019987,0.0,0.0,0.0,0
19-1-2017 13:00,17503.399066686863,0.0,0.0,0.0,0
19-1-2017 14:00,30368.28538075753,0.0,0.0,0.0,0
19-1-2017 15:00,35729.5051677468,0.0,0.0,0.0,0
19-1-2017 16:00,27116.065188603417,0.0,0.0,0.0,0
19-1-2017 17:00,27604.79483146913,0.0,0.0,0.0,0
19-1-2017 18:00,25438.95674121572,0.0,0.0,0.0,0
19-1-2017 19:00,2936.640778506815,0.0,0.0,0.0,0
19-1-2017 20:00,-24457.662207718357,0.0,0.0,0.0,0
19-1-2017 21:00,-60861.282537854684,0.0,0.0,0.0,0
19-1-2017 22:00,2406.118656887382,0.0,0.0,0.0,0
19-1-2017 23:00,-4825.292281577946,0.0,0.0,0.0,0
20-1-2017 0:00,-48652.34477870335,0.0,0.0,0.0,0
20-1-2017 1:00,-55666.488614789385,0.0,0.0,0.0,0
20-1-2017 2:00,-62413.589883980516,0.0,0.0,0.0,0
20-1-2017 3:00,-89583.1378408107,0.0,0.0,0.0,0
20-1-2017 4:00,8683.96490869025,0.0,0.0,0.0,0
20-1-2017 5:00,-17275.957932759076,0.0,0.0,0.0,0
20-1-2017 6:00,-6500.628023002879,0.0,0.0,0.0,0
20-1-2017 7:00,4191.2634967523045,0.0,0.0,0.0,0
20-1-2017 8:00,35737.52343529009,0.0,0.0,0.0,0
20-1-2017 9:00,49431.707528865605,0.0,0.0,0.0,0
20-1-2017 10:00,14823.525553518557,0.0,0.0,0.0,0
20-1-2017 11:00,35018.10303888266,0.0,0.0,0.0,0
20-1-2017 12:00,75131.72562468471,0.0,0.0,0.0,0
20-1-2017 13:00,26485.58102612832,0.0,0.0,0.0,0
20-1-2017 14:00,27666.919842511998,0.0,0.0,0.0,0
20-1-2017 15:00,50695.32801711757,0.0,0.0,0.0,0
20-1-2017 16:00,86350.78987895249,0.0,0.0,0.0,0
20-1-2017 17:00,65175.02423130185,0.0,0.0,0.0,0
20-1-2017 18:00,31210.22782506852,0.0,0.0,0.0,0
20-1-2017 19:00,-5164.572876319115,0.0,0.0,0.0,0
20-1-2017 20:00,-18140.359587731014,0.0,0.0,0.0,0
20-1-2017 21:00,-28862.43326835701,0.0,0.0,0.0,0
20-1-2017 22:00,-48756.470465520164,0.0,0.0,0.0,0
20-1-2017 23:00,-208.54035911354003,0.0,0.0,0.0,0
21-1-2017 0:00,-9614.296056149702,0.0,0.0,0.0,0
21-1-2017 1:00,-18231.779485770443,0.0,0.0,0.0,0
21-1-2017 2:00,-15809.363485031528,0.0,0.0,0.0,0
21-1-2017 3:00,-14457.204239859013,0.0,0.0,0.0,0
21-1-2017 4:00,-26063.511213309772,0.0,0.0,0.0,0
21-1-2017 5:00,-6316.771803759388,0.0,0.0,0.0,0
21-1-2017 6:00,-6379.243779875513,0.0,0.0,0.0,0
21-1-2017 7:00,11312.722263164178,0.0,0.0,0.0,0
21-1-2017 8:00,25743.361785292684,0.0,0.0,0.0,0
21-1-2017 9:00,-8645.821860739205,0.0,0.0,0.0,0
21-1-2017 10:00,-29790.14334291144,0.0,0.0,0.0,0
21-1-2017 11:00,-26694.024368525075,0.0,0.0,0.0,0
21-1-2017 12:00,-20448.6322497456,0.0,0.0,0.0,0
21-1-2017 13:00,-929.1386432354338,0.0,0.0,0.0,0
21-1-2017 14:00,-26723.955914429214,0.0,0.0,0.0,0
21-1-2017 15:00,-39790.11794209725,0.0,0.0,0.0,0
21-1-2017 16:00,-11363.801719906274,0.0,0.0,0.0,0
21-1-2017 17:00,-3330.2988259909325,0.0,0.0,0.0,0
21-1-2017 18:00,3373.5202838778496,0.0,0.0,0.0,0
21-1-2017 19:00,2303.352445498749,0.0,0.0,0.0,0
21-1-2017 20:00,-971.2303894126671,0.0,0.0,0.0,0
21-1-2017 21:00,6442.983003965812,0.0,0.0,0.0,0
21-1-2017 22:00,1240.9221012734342,0.0,0.0,0.0,0
21-1-2017 23:00,5171.587938928395,0.0,0.0,0.0,0
22-1-2017 0:00,41368.90562878718,0.0,0.0,0.0,0
22-1-2017 1:00,54924.44122769573,0.0,0.0,0.0,0
22-1-2017 2:00,68012.22653159744,0.0,0.0,0.0,0
22-1-2017 3:00,156810.3171236288,0.0,0.0,0.0,0
22-1-2017 4:00,144570.11914715113,0.0,0.0,0.0,0
22-1-2017 5:00,176383.3998630112,0.0,0.0,0.0,0
22-1-2017 6:00,179681.95203772304,0.0,0.0,0.0,0
22-1-2017 7:00,173498.2850394125,0.0,0.0,0.0,0
22-1-2017 8:00,60374.313561505405,0.0,0.0,0.0,0
22-1-2017 9:00,-89258.32460224954,0.0,0.0,0.0,0
22-1-2017 10:00,-211227.61106364802,0.0,0.0,0.0,0
22-1-2017 11:00,-260621.57406736648,0.0,0.0,0.0,0
22-1-2017 12:00,-239097.65742154128,0.0,0.0,0.0,0
22-1-2017 13:00,-195368.2244356739,0.0,0.0,0.0,0
22-1-2017 14:00,-262077.49374221842,0.0,0.0,0.0,0
22-1-2017 15:00,-258874.98943770502,0.0,0.0,0.0,0
22-1-2017 16:00,-177309.63578916944,0.0,0.0,0.0,0
22-1-2017 17:00,-130196.6059343213,0.0,0.0,0.0,0
22-1-2017 18:00,-52171.300455118064,0.0,0.0,0.0,0
22-1-2017 19:00,22122.21538337384,0.0,0.0,0.0,0
22-1-2017 20:00,35563.08168037399,0.0,0.0,0.0,0
22-1-2017 21:00,5650.405633902003,0.0,0.0,0.0,0
22-1-2017 22:00,30172.737943795917,0.0,0.0,0.0,0
22-1-2017 23:00,-29190.423465663567,0.0,0.0,0.0,0
23-1-2017 0:00,-58789.640512900136,0.0,0.0,0.0,0
23-1-2017 1:00,-109697.51048109261,0.0,0.0,0.0,0
23-1-2017 2:00,-166294.29046965856,0.0,0.0,0.0,0
23-1-2017 3:00,-243671.28312639892,0.0,0.0,0.0,0
23-1-2017 4:00,-307488.5727493888,0.0,0.0,0.0,0
23-1-2017 5:00,-316959.2553690552,0.0,0.0,0.0,0
23-1-2017 6:00,-334402.9336853514,0.0,0.0,0.0,0
23-1-2017 7:00,-359836.5982790004,0.0,0.0,0.0,0
23-1-2017 8:00,-341156.0153109309,0.0,0.0,0.0,0
23-1-2017 9:00,313704.72315314156,0.0,0.0,0.0,0
23-1-2017 10:00,907685.6027978939,0.0,0.0,0.0,0
23-1-2017 11:00,760015.1489014474,0.0,0.0,0.0,0
23-1-2017 12:00,782003.8511596955,0.0,0.0,0.0,0
23-1-2017 13:00,879414.599747415,0.0,0.0,0.0,0
23-1-2017 14:00,868696.074628015,0.0,0.0,0.0,0
23-1-2017 15:00,896798.4414872047,0.0,0.0,0.0,0
23-1-2017 16:00,28156.307450154447,0.0,0.0,0.0,0
23-1-2017 17:00,-144492.7312019756,0.0,0.0,0.0,0
23-1-2017 18:00,-221534.6348213486,0.0,0.0,0.0,0
23-1-2017 19:00,-273899.0104466565,0.0,0.0,0.0,0
23-1-2017 20:00,-264155.76015841565,0.0,0.0,0.0,0
23-1-2017 21:00,-249152.75414968363,0.0,0.0,0.0,0
23-1-2017 22:00,-240341.90931733605,0.0,0.0,0.0,0
23-1-2017 23:00,-252218.1686640426,0.0,0.0,0.0,0
24-1-2017 0:00,-232859.88113850728,0.0,0.0,0.0,0
24-1-2017 1:00,-234071.82666044385,0.0,0.0,0.0,0
24-1-2017 2:00,-209667.27192812046,0.0,0.0,0.0,0
24-1-2017 3:00,-213728.12782027537,0.0,0.0,0.0,0
24-1-2017 4:00,-77885.97241908195,0.0,0.0,0.0,0
24-1-2017 5:00,-92289.24895504786,0.0,0.0,0.0,0
24-1-2017 6:00,-66448.96834312507,0.0,0.0,0.0,0
24-1-2017 7:00,-36815.26649390289,0.0,0.0,0.0,0
24-1-2017 8:00,11633.604958352633,0.0,0.0,0.0,0
24-1-2017 9:00,31492.812936047674,0.0,0.0,0.0,0
24-1-2017 10:00,137254.68906321656,0.0,0.0,0.0,0
24-1-2017 11:00,176162.93465030752,0.0,0.0,0.0,0
24-1-2017 12:00,110381.78289724374,0.0,0.0,0.0,0
24-1-2017 13:00,-7193.147908749292,0.0,0.0,0.0,0
24-1-2017 14:00,14927.66616342985,0.0,0.0,0.0,0
24-1-2017 15:00,31293.140581730986,0.0,0.0,0.0,0
24-1-2017 16:00,96410.10487083485,0.0,0.0,0.0,0
24-1-2017 17:00,66948.24414256727,0.0,0.0,0.0,0
24-1-2017 18:00,37690.15785545844,0.0,0.0,0.0,0
24-1-2017 19:00,-14799.410141383414,0.0,0.0,0.0,0
24-1-2017 20:00,-7921.4767696359195,0.0,0.0,0.0,0
24-1-2017 21:00,9155.48404173972,0.0,0.0,0.0,0
24-1-2017 22:00,-14419.516341907729,0.0,0.0,0.0,0
24-1-2017 23:00,17481.708635690156,0.0,0.0,0.0,0
25-1-2017 0:00,-63148.34700445115,0.0,0.0,0.0,0
25-1-2017 1:00,-78001.0071884013,0.0,0.0,0.0,0
25-1-2017 2:00,-87398.13684345793,0.0,0.0,0.0,0
25-1-2017 3:00,-96725.57507929683,0.0,0.0,0.0,0
25-1-2017 4:00,-107631.38893931144,0.0,0.0,0.0,0
25-1-2017 5:00,-95804.02614523761,0.0,0.0,0.0,0
25-1-2017 6:00,-77998.20335875679,0.0,0.0,0.0,0
25-1-2017 7:00,-47592.434456518735,0.0,0.0,0.0,0
25-1-2017 8:00,-21277.92390993249,0.0,0.0,0.0,0
25-1-2017 9:00,1192.6886162740411,0.0,0.0,0.0,0
25-1-2017 10:00,36538.66306189704,0.0,0.0,0.0,0
25-1-2017 11:00,42275.03996856371,0.0,0.0,0.0,0
25-1-2017 12:00,83498.17604022613,0.0,0.0,0.0,0
25-1-2017 13:00,42781.19802399038,0.0,0.0,0.0,0
25-1-2017 14:00,73727.25347121875,0.0,0.0,0.0,0
25-1-2017 15:00,80224.51763210166,0.0,0.0,0.0,0
25-1-2017 16:00,114646.95792514586,0.0,0.0,0.0,0
25-1-2017 17:00,100474.62435638963,0.0,0.0,0.0,0
25-1-2017 18:00,71307.29463719344,0.0,0.0,0.0,0
25-1-2017 19:00,138270.7410932486,59701.7,173461.0,-54057.61,0
25-1-2017 20:00,15027.754372933588,133479.49,247316.75,19642.23,1
25-1-2017 21:00,-1286.1991744750994,-14195.23,99941.98,-128332.44,0
25-1-2017 22:00,-5667.891484081454,-16974.15,97072.28,-131020.58,0
25-1-2017 23:00,25086.251107856922,-17241.15,96714.29,-131196.6,0
26-1-2017 0:00,19566.1642802353,26343.85,140253.47,-87565.76,0
26-1-2017 1:00,25063.77132180205,-7118.04,106698.07,-120934.15,0
26-1-2017 2:00,34560.678789200145,28933.98,142684.55,-84816.59,0
26-1-2017 3:00,46651.25840846344,44971.38,158628.45,-68685.68,0
26-1-2017 4:00,54703.00003187597,57155.04,170718.03,-56407.95,0
26-1-2017 5:00,68043.34042283252,50492.79,163962.06,-62976.49,0
26-1-2017 6:00,73067.87473979889,61531.74,174915.85,-51852.38,0
26-1-2017 7:00,85068.45111196348,55975.91,169270.24,-57318.42,0
26-1-2017 8:00,75305.82911109022,66586.82,179811.55,-46637.92,0
26-1-2017 9:00,-62245.6419573905,56067.85,169201.72,-57066.02,1
26-1-2017 10:00,-211934.2556160147,-85359.95,28068.22,-198788.11,1
26-1-2017 11:00,-257110.45953510265,-219246.05,-105473.73,-333018.37,0
26-1-2017 12:00,-213006.3389300885,-236507.16,-122789.88,-350224.45,0
26-1-2017 13:00,-189434.60879968607,-185775.89,-72135.9,-299415.87,0
26-1-2017 14:00,-239920.60444277106,-181399.51,-67852.02,-294947.0,0
26-1-2017 15:00,-242724.47117748513,-223829.14,-110282.95,-337375.32,0
26-1-2017 16:00,-160777.5878544126,-182863.13,-69399.86,-296326.4,0
26-1-2017 17:00,-141065.6001516877,-78976.88,34407.75,-192361.5,0
26-1-2017 18:00,-26485.36133618164,-89637.69,23761.05,-203036.42,0
26-1-2017 19:00,42103.43265033321,12389.09,125804.02,-101025.83,0
26-1-2017 20:00,91135.6413854222,60064.79,173411.52,-53281.95,0
26-1-2017 21:00,92760.6702735335,97086.84,210367.96,-16194.28,0
26-1-2017 22:00,84385.59485072352,75999.31,189189.68,-37191.06,0
26-1-2017 23:00,52897.2959206003,81248.79,194350.32,-31852.73,0
27-1-2017 0:00,72754.35571234644,38693.93,151726.33,-74338.48,0
27-1-2017 1:00,42184.44376723154,60047.8,173021.08,-52925.48,0
27-1-2017 2:00,67685.10214488552,14485.63,127377.35,-98406.09,0
27-1-2017 3:00,36897.96340705239,51637.96,164516.22,-61240.31,0
27-1-2017 4:00,4943.546345388575,14939.75,127734.02,-97854.52,0
27-1-2017 5:00,-1920.2106022968073,149.09,112856.33,-112558.14,0
27-1-2017 6:00,-55439.5496903694,-2718.34,109899.51,-115336.2,0
27-1-2017 7:00,-61693.497097163694,-52266.37,60337.32,-164870.06,0
27-1-2017 8:00,-24950.532894381904,-60186.13,52330.77,-172703.03,0
27-1-2017 9:00,12987.344175773847,-19472.25,92989.1,-131933.59,0
27-1-2017 10:00,63775.9283040202,15678.15,128079.08,-96722.78,0
27-1-2017 11:00,69234.25945029524,61893.3,174267.65,-50481.05,0
27-1-2017 12:00,57842.76047977881,70267.59,182555.29,-42020.11,0
27-1-2017 13:00,6698.72171450028,64409.72,176613.1,-47793.66,0
27-1-2017 14:00,54747.03793878283,4946.61,117151.91,-107258.68,0
27-1-2017 15:00,66698.2732661526,59139.48,171322.88,-53043.91,0
27-1-2017 16:00,106875.5800858605,46569.85,158667.14,-65527.44,0
27-1-2017 17:00,97416.18165173114,82047.4,194153.34,-30058.53,0
27-1-2017 18:00,40775.80159360403,66244.06,178269.0,-45780.87,0
27-1-2017 19:00,4053.4086138759158,29535.61,141490.66,-82419.44,0
27-1-2017 20:00,12818.208307666297,771.56,112656.96,-111113.85,0
27-1-2017 21:00,-36298.586081199406,21331.38,133133.49,-90470.72,0
27-1-2017 22:00,18953.981149977888,-48049.41,63754.6,-159853.43,0
27-1-2017 23:00,53608.22646498389,13604.53,125440.66,-98231.6,0
28-1-2017 0:00,-20276.101356711297,43863.02,155655.35,-67929.3,0
28-1-2017 1:00,32713.830225220474,-34111.07,77703.16,-145925.29,0
28-1-2017 2:00,20681.96202685876,38972.25,150818.19,-72873.69,0
28-1-2017 3:00,131324.01744565764,33578.48,145347.43,-78190.46,0
28-1-2017 4:00,126276.20560223731,146268.11,258198.19,34338.03,0
28-1-2017 5:00,117238.16407635092,99878.74,211733.86,-11976.38,0
28-1-2017 6:00,136433.5543436805,104352.97,216130.28,-7424.33,0
28-1-2017 7:00,110428.68775695132,115994.54,227713.04,4276.04,0
28-1-2017 8:00,25956.512762412254,93222.67,204857.06,-18411.71,0
28-1-2017 9:00,-77044.29616668748,-13123.48,98543.59,-124790.56,0
28-1-2017 10:00,-145800.93206778524,-102853.3,8834.08,-214540.69,0
28-1-2017 11:00,-170294.07367236156,-152478.0,-40827.89,-264128.11,0
28-1-2017 12:00,-200063.77003462327,-167829.01,-56255.83,-279402.19,0
28-1-2017 13:00,-183798.78948778065,-195826.88,-84311.6,-307342.15,0
28-1-2017 14:00,-202027.02318832843,-157468.31,-46033.15,-268903.48,0
28-1-2017 15:00,-210333.68759107206,-163732.5,-52330.34,-275134.66,0
28-1-2017 16:00,-111191.4407886652,-159298.09,-47924.23,-270671.95,0
28-1-2017 17:00,-81770.09569976275,-51132.41,60217.23,-162482.05,0
28-1-2017 18:00,-31137.62497163695,-41895.35,69395.12,-153185.81,0
28-1-2017 19:00,-17399.270382966817,-9888.01,101321.93,-121097.95,0
28-1-2017 20:00,26852.524804166023,-8852.91,102274.95,-119980.77,0
28-1-2017 21:00,41790.63614253522,44441.06,155518.97,-66636.86,0
28-1-2017 22:00,57940.405205344694,37455.73,148450.75,-73539.3,0
28-1-2017 23:00,78837.94394312493,54191.53,165114.92,-56731.86,0
29-1-2017 0:00,95688.81768563346,71185.34,182041.44,-39670.76,0
29-1-2017 1:00,162879.08745116708,89020.94,199810.16,-21768.28,0
29-1-2017 2:00,179168.457333345,152200.67,263046.47,41354.88,0
29-1-2017 3:00,177458.83156533111,158160.75,268942.75,47378.75,0
29-1-2017 4:00,185241.03168612262,152066.01,262775.61,41356.4,0
29-1-2017 5:00,183514.88449963424,160039.7,270695.18,49384.22,0
29-1-2017 6:00,154006.45303996466,158482.93,269070.68,47895.19,0
29-1-2017 7:00,130779.9368049053,114373.71,224880.71,3866.72,0
29-1-2017 8:00,96599.65214465,91649.74,202082.29,-18782.82,0
29-1-2017 9:00,-73899.84442134816,62173.77,172525.67,-48178.13,1
29-1-2017 10:00,-222180.24693062797,-115871.32,-5129.71,-226612.94,0
29-1-2017 11:00,-305184.6078648936,-242226.36,-131284.45,-353168.27,0
29-1-2017 12:00,-273633.53819773847,-294317.54,-183359.25,-405275.84,0
29-1-2017 13:00,-228533.79131295317,-240973.84,-130085.57,-351862.11,0
29-1-2017 14:00,-276769.88791250985,-206732.07,-95920.81,-317543.33,0
29-1-2017 15:00,-270319.19501954585,-247001.03,-136150.37,-357851.68,0
29-1-2017 16:00,-167622.24127040463,-203429.17,-92645.88,-314212.45,0
29-1-2017 17:00,-118429.60144293355,-74356.73,36378.09,-185091.56,0
29-1-2017 18:00,-35361.338713018195,-56028.65,54675.27,-166732.56,0
29-1-2017 19:00,19766.477530897188,-1587.74,109046.45,-112221.93,0
29-1-2017 20:00,45934.93229821947,38306.46,148871.95,-72259.02,0
29-1-2017 21:00,85652.72610608424,53897.99,164385.21,-56589.24,0
29-1-2017 22:00,63917.53989390269,76587.23,187019.98,-33845.53,0
29-1-2017 23:00,88938.73494783393,51186.68,161543.83,-59170.47,0
30-1-2017 0:00,121076.23025685787,82074.27,192387.66,-28239.12,0
30-1-2017 1:00,95355.42826862587,109042.71,219314.14,-1228.73,0
30-1-2017 2:00,82769.66849930951,74533.27,184730.69,-35664.16,0
30-1-2017 3:00,34997.89087310876,60382.55,170502.74,-49737.64,0
30-1-2017 4:00,956.7511825218098,18099.68,128157.26,-91957.89,0
30-1-2017 5:00,825.2379857002525,-11379.48,98606.85,-121365.81,0
30-1-2017 6:00,-2599.063293575833,-12397.38,97514.32,-122309.08,0
30-1-2017 7:00,-16901.00558185065,-11667.71,98168.36,-121503.78,0
30-1-2017 8:00,-11479.806434599333,-26381.92,83376.65,-136140.49,0
30-1-2017 9:00,-35609.92072316405,-9010.55,100675.71,-118696.81,0
30-1-2017 10:00,-146470.05720969883,-27813.52,81812.69,-137439.72,1
30-1-2017 11:00,92465.96389574581,-145449.34,-35552.6,-255346.07,1
30-1-2017 12:00,1000.9637804371887,134644.98,245842.59,23447.38,1
30-1-2017 13:00,132400.68644598208,-12579.59,98961.93,-124121.12,1
30-1-2017 14:00,124522.74346134032,129874.56,241826.48,17922.64,0
30-1-2017 15:00,99614.53207637824,104733.38,216607.24,-7140.48,0
30-1-2017 16:00,78897.95690328395,118293.02,230088.88,6497.17,0
30-1-2017 17:00,59420.19363673724,49262.45,161016.5,-62491.59,0
30-1-2017 18:00,34159.48409808532,54701.03,166379.11,-56977.05,0
30-1-2017 19:00,-15346.805960144731,5881.66,117491.83,-105728.52,0
30-1-2017 20:00,-21844.49333480472,-47641.0,63901.89,-159183.89,0
30-1-2017 21:00,-11370.051609913586,-41773.8,69707.47,-153255.07,0
30-1-2017 22:00,-21012.863329337735,-11341.69,100084.33,-122767.72,0
30-1-2017 23:00,-29677.21590318036,-17964.47,93386.28,-129315.22,0
31-1-2017 0:00,-43604.334824838385,-19038.18,92238.5,-130314.85,0
31-1-2017 1:00,-72859.3881249245,-24038.0,87175.99,-135251.99,0
31-1-2017 2:00,-79591.22710382362,-58311.85,52882.32,-169506.01,0
31-1-2017 3:00,-73951.21614629973,-74006.98,37121.28,-185135.24,0
31-1-2017 4:00,-90595.07573591825,-71197.57,39853.73,-182248.86,0
31-1-2017 5:00,-95168.7489296174,-91267.35,19716.07,-202250.77,0
31-1-2017 6:00,-73268.26401504455,-90586.12,20321.15,-201493.4,0
31-1-2017 7:00,-51207.1353550863,-53542.14,57296.22,-164380.5,0
31-1-2017 8:00,-10212.245398879866,-25801.83,84960.48,-136564.14,0
31-1-2017 9:00,25356.85399046843,11674.68,122366.54,-99017.18,0
31-1-2017 10:00,64987.02664770896,42209.18,152829.46,-68411.11,0
31-1-2017 11:00,26964.232913893647,75090.69,185647.34,-35465.96,0
31-1-2017 12:00,38914.87613715138,18806.18,129342.58,-91730.23,0
31-1-2017 13:00,-50502.35108455026,32516.97,142987.57,-77953.62,0
31-1-2017 14:00,21006.423877716763,-67030.66,43526.81,-177588.13,0
31-1-2017 15:00,-4646.577453177539,19652.18,130317.07,-91012.71,0
31-1-2017 16:00,74221.5576345002,-20853.94,89749.48,-131457.36,0
31-1-2017 17:00,114751.10444915551,74650.53,185390.35,-36089.29,0
31-1-2017 18:00,45138.015817155945,107386.91,218088.32,-3314.5,0
31-1-2017 19:00,14963.470276457374,48335.08,159052.37,-62382.22,0
31-1-2017 20:00,-748.9584205076098,11509.7,122178.32,-99158.92,0
31-1-2017 21:00,-4298.7800855170935,8008.98,118606.1,-102588.13,0
31-1-2017 22:00,-28158.941060009645,-14500.26,96025.85,-125026.38,0
31-1-2017 23:00,-99460.34500945185,-59307.93,51148.0,-169763.86,0
