Time,Actual,Forecasts,Upper Interval,Lower Interval,Is Anomalies
1-1-2017 0:00,5591185.444217186,0.0,0.0,0.0,0
1-1-2017 1:00,-507481.63524906465,0.0,0.0,0.0,0
1-1-2017 2:00,-505766.84058341157,0.0,0.0,0.0,0
1-1-2017 3:00,-472149.3562320471,0.0,0.0,0.0,0
1-1-2017 4:00,-436903.51510536735,0.0,0.0,0.0,0
1-1-2017 5:00,-405688.58686308126,0.0,0.0,0.0,0
1-1-2017 6:00,-552102.4758175472,0.0,0.0,0.0,0
1-1-2017 7:00,-367242.8896246568,0.0,0.0,0.0,0
1-1-2017 8:00,-358734.4144156615,0.0,0.0,0.0,0
1-1-2017 9:00,-357083.3970432694,0.0,0.0,0.0,0
1-1-2017 10:00,-750960.4062808238,0.0,0.0,0.0,0
1-1-2017 11:00,-576226.7301190629,0.0,0.0,0.0,0
1-1-2017 12:00,-453411.29856024473,0.0,0.0,0.0,0
1-1-2017 13:00,-685836.0451596216,0.0,0.0,0.0,0
1-1-2017 14:00,-858517.170272938,0.0,0.0,0.0,0
1-1-2017 15:00,-566863.7679390844,0.0,0.0,0.0,0
1-1-2017 16:00,-886755.2462575381,0.0,0.0,0.0,0
1-1-2017 17:00,-772320.4988499681,0.0,0.0,0.0,0
1-1-2017 18:00,-594002.2028409927,0.0,0.0,0.0,0
1-1-2017 19:00,-368941.3272676149,0.0,0.0,0.0,0
1-1-2017 20:00,-713307.1303921837,0.0,0.0,0.0,0
1-1-2017 21:00,-354378.3158719951,0.0,0.0,0.0,0
1-1-2017 22:00,-483247.74359313364,0.0,0.0,0.0,0
1-1-2017 23:00,4897142.288039862,0.0,0.0,0.0,0
2-1-2017 0:00,4559025.502137495,0.0,0.0,0.0,0
2-1-2017 1:00,-303527.02994662203,0.0,0.0,0.0,0
2-1-2017 2:00,-320519.95582032966,0.0,0.0,0.0,0
2-1-2017 3:00,-335645.6560373944,0.0,0.0,0.0,0
2-1-2017 4:00,-344688.10155012197,0.0,0.0,0.0,0
2-1-2017 5:00,-339524.7117872781,0.0,0.0,0.0,0
2-1-2017 6:00,-491291.30065988866,0.0,0.0,0.0,0
2-1-2017 7:00,-313366.8212574104,0.0,0.0,0.0,0
2-1-2017 8:00,-299892.6604168186,0.0,0.0,0.0,0
2-1-2017 9:00,-256007.22873055757,0.0,0.0,0.0,0
2-1-2017 10:00,-545353.1777295676,0.0,0.0,0.0,0
2-1-2017 11:00,-390716.5434414801,0.0,0.0,0.0,0
2-1-2017 12:00,-235804.18768193416,0.0,0.0,0.0,0
2-1-2017 13:00,-443331.79747808346,0.0,0.0,0.0,0
2-1-2017 14:00,-603572.3753663609,0.0,0.0,0.0,0
2-1-2017 15:00,-310228.8826816917,0.0,0.0,0.0,0
2-1-2017 16:00,11631.216262775764,0.0,0.0,0.0,0
2-1-2017 17:00,60591.007085195975,0.0,0.0,0.0,0
2-1-2017 18:00,-515619.43707850965,0.0,0.0,0.0,0
2-1-2017 19:00,-373918.1145602902,0.0,0.0,0.0,0
2-1-2017 20:00,-722917.7737564167,0.0,0.0,0.0,0
2-1-2017 21:00,-368668.77084901946,0.0,0.0,0.0,0
2-1-2017 22:00,186302.97591849172,0.0,0.0,0.0,0
2-1-2017 23:00,3497102.9194946596,0.0,0.0,0.0,0
3-1-2017 0:00,3119537.2115411633,0.0,0.0,0.0,0
3-1-2017 1:00,-396917.5599876163,0.0,0.0,0.0,0
3-1-2017 2:00,-408518.9432274799,0.0,0.0,0.0,0
3-1-2017 3:00,-411508.07483976916,0.0,0.0,0.0,0
3-1-2017 4:00,-410193.81412004476,0.0,0.0,0.0,0
3-1-2017 5:00,-385547.63251443364,0.0,0.0,0.0,0
3-1-2017 6:00,176732.7190170209,0.0,0.0,0.0,0
3-1-2017 7:00,-339497.6081225344,0.0,0.0,0.0,0
3-1-2017 8:00,-306546.5614019676,0.0,0.0,0.0,0
3-1-2017 9:00,-246926.980676861,0.0,0.0,0.0,0
3-1-2017 10:00,165716.84021307994,0.0,0.0,0.0,0
3-1-2017 11:00,-334669.9477220993,0.0,0.0,0.0,0
3-1-2017 12:00,-190755.9781114189,0.0,0.0,0.0,0
3-1-2017 13:00,-421322.05880505324,0.0,0.0,0.0,0
3-1-2017 14:00,120954.01283099642,0.0,0.0,0.0,0
3-1-2017 15:00,402161.208165769,0.0,0.0,0.0,0
3-1-2017 16:00,-621078.043777162,0.0,0.0,0.0,0
3-1-2017 17:00,-563508.758323931,0.0,0.0,0.0,0
3-1-2017 18:00,-435546.9414443564,0.0,0.0,0.0,0
3-1-2017 19:00,-321002.7302610535,0.0,0.0,0.0,0
3-1-2017 20:00,117595.89619150409,0.0,0.0,0.0,0
3-1-2017 21:00,-271071.204165883,0.0,0.0,0.0,0
3-1-2017 22:00,-380167.56938810425,0.0,0.0,0.0,0
3-1-2017 23:00,2296515.2196528534,0.0,0.0,0.0,0
4-1-2017 0:00,1920228.3831698452,0.0,0.0,0.0,0
4-1-2017 1:00,-283386.28619256406,0.0,0.0,0.0,0
4-1-2017 2:00,-293820.8851875515,0.0,0.0,0.0,0
4-1-2017 3:00,-300631.00658403337,0.0,0.0,0.0,0
4-1-2017 4:00,-308408.8719331451,0.0,0.0,0.0,0
4-1-2017 5:00,-305386.60254958656,0.0,0.0,0.0,0
4-1-2017 6:00,-437658.3346788869,0.0,0.0,0.0,0
4-1-2017 7:00,-274265.99258866865,0.0,0.0,0.0,0
4-1-2017 8:00,-265211.46421631955,0.0,0.0,0.0,0
4-1-2017 9:00,-233128.43336514386,0.0,0.0,0.0,0
4-1-2017 10:00,162271.63282074296,0.0,0.0,0.0,0
4-1-2017 11:00,393697.6680692921,0.0,0.0,0.0,0
4-1-2017 12:00,-192943.8430618982,0.0,0.0,0.0,0
4-1-2017 13:00,969881.7406721751,0.0,0.0,0.0,0
4-1-2017 14:00,167916.2971577436,0.0,0.0,0.0,0
4-1-2017 15:00,-282517.2895321883,0.0,0.0,0.0,0
4-1-2017 16:00,98260.81850367447,0.0,0.0,0.0,0
4-1-2017 17:00,185961.4443438904,0.0,0.0,0.0,0
4-1-2017 18:00,-399986.45197708067,0.0,0.0,0.0,0
4-1-2017 19:00,-227909.02006023403,0.0,0.0,0.0,0
4-1-2017 20:00,-511682.1358905323,0.0,0.0,0.0,0
4-1-2017 21:00,-197928.14548680888,0.0,0.0,0.0,0
4-1-2017 22:00,-270409.71121252165,0.0,0.0,0.0,0
4-1-2017 23:00,1087113.5547794667,0.0,0.0,0.0,0
5-1-2017 0:00,725258.7912531884,0.0,0.0,0.0,0
5-1-2017 1:00,-126348.26897491355,0.0,0.0,0.0,0
5-1-2017 2:00,-103960.58675708703,0.0,0.0,0.0,0
5-1-2017 3:00,-106116.9909698235,0.0,0.0,0.0,0
5-1-2017 4:00,-103415.38862132811,0.0,0.0,0.0,0
5-1-2017 5:00,-94634.7181659799,0.0,0.0,0.0,0
5-1-2017 6:00,-217546.42066219286,0.0,0.0,0.0,0
5-1-2017 7:00,-84662.0700958815,0.0,0.0,0.0,0
5-1-2017 8:00,-60028.18082543067,0.0,0.0,0.0,0
5-1-2017 9:00,-45000.070485634846,0.0,0.0,0.0,0
5-1-2017 10:00,-314334.7163448523,0.0,0.0,0.0,0
5-1-2017 11:00,-125200.20525362514,0.0,0.0,0.0,0
5-1-2017 12:00,-52011.91446773609,0.0,0.0,0.0,0
5-1-2017 13:00,-265789.9428719565,0.0,0.0,0.0,0
5-1-2017 14:00,1006975.6618971308,0.0,0.0,0.0,0
5-1-2017 15:00,-147781.1933835063,0.0,0.0,0.0,0
5-1-2017 16:00,-431326.8741130748,0.0,0.0,0.0,0
5-1-2017 17:00,-396831.9725515198,0.0,0.0,0.0,0
5-1-2017 18:00,1156526.7932613175,0.0,0.0,0.0,0
5-1-2017 19:00,-99969.67953829878,0.0,0.0,0.0,0
5-1-2017 20:00,368594.54689854063,0.0,0.0,0.0,0
5-1-2017 21:00,-46020.58387997671,0.0,0.0,0.0,0
5-1-2017 22:00,-115919.59538551111,0.0,0.0,0.0,0
5-1-2017 23:00,-114678.67771882156,0.0,0.0,0.0,0
6-1-2017 0:00,-511063.019828295,0.0,0.0,0.0,0
6-1-2017 1:00,-21406.333502264926,0.0,0.0,0.0,0
6-1-2017 2:00,-12529.846136334178,0.0,0.0,0.0,0
6-1-2017 3:00,439.51089028530987,0.0,0.0,0.0,0
6-1-2017 4:00,6160.249307151767,0.0,0.0,0.0,0
6-1-2017 5:00,11444.857170665171,0.0,0.0,0.0,0
6-1-2017 6:00,-98520.3528000575,0.0,0.0,0.0,0
6-1-2017 7:00,27943.408131734875,0.0,0.0,0.0,0
6-1-2017 8:00,32055.47056669253,0.0,0.0,0.0,0
6-1-2017 9:00,36923.35587492044,0.0,0.0,0.0,0
6-1-2017 10:00,439435.6639193271,0.0,0.0,0.0,0
6-1-2017 11:00,-44425.541362853284,0.0,0.0,0.0,0
6-1-2017 12:00,48064.525148448825,0.0,0.0,0.0,0
6-1-2017 13:00,-152101.2083583407,0.0,0.0,0.0,0
6-1-2017 14:00,-245003.59588877176,0.0,0.0,0.0,0
6-1-2017 15:00,-25350.71524880192,0.0,0.0,0.0,0
6-1-2017 16:00,411208.86312276626,0.0,0.0,0.0,0
6-1-2017 17:00,453014.0376084447,0.0,0.0,0.0,0
6-1-2017 18:00,-110013.83987629256,0.0,0.0,0.0,0
6-1-2017 19:00,36478.53335212864,0.0,0.0,0.0,0
6-1-2017 20:00,507274.7681311348,0.0,0.0,0.0,0
6-1-2017 21:00,85865.8887415271,0.0,0.0,0.0,0
6-1-2017 22:00,22172.996740127157,0.0,0.0,0.0,0
6-1-2017 23:00,-1260156.1615613485,0.0,0.0,0.0,0
7-1-2017 0:00,-1711026.518620962,0.0,0.0,0.0,0
7-1-2017 1:00,109879.41071109567,0.0,0.0,0.0,0
7-1-2017 2:00,121692.17967702652,0.0,0.0,0.0,0
7-1-2017 3:00,123052.74439489772,0.0,0.0,0.0,0
7-1-2017 4:00,119325.56008431123,0.0,0.0,0.0,0
7-1-2017 5:00,112528.3591438731,0.0,0.0,0.0,0
7-1-2017 6:00,697756.595486524,0.0,0.0,0.0,0
7-1-2017 7:00,107130.43497669912,0.0,0.0,0.0,0
7-1-2017 8:00,94194.64876906527,0.0,0.0,0.0,0
7-1-2017 9:00,66450.11948676658,0.0,0.0,0.0,0
7-1-2017 10:00,-97353.58240803896,0.0,0.0,0.0,0
7-1-2017 11:00,-11788.60790646309,0.0,0.0,0.0,0
7-1-2017 12:00,68897.12048741564,0.0,0.0,0.0,0
7-1-2017 13:00,631091.066355664,0.0,0.0,0.0,0
7-1-2017 14:00,-182095.62899667816,0.0,0.0,0.0,0
7-1-2017 15:00,697196.2020415056,0.0,0.0,0.0,0
7-1-2017 16:00,-271118.5671044069,0.0,0.0,0.0,0
7-1-2017 17:00,1188866.6284496603,0.0,0.0,0.0,0
7-1-2017 18:00,-36557.144188386446,0.0,0.0,0.0,0
7-1-2017 19:00,113784.22505254898,0.0,0.0,0.0,0
7-1-2017 20:00,-62030.351841801545,0.0,0.0,0.0,0
7-1-2017 21:00,175453.76424079802,0.0,0.0,0.0,0
7-1-2017 22:00,131695.20741454372,0.0,0.0,0.0,0
7-1-2017 23:00,-2407459.8911840855,0.0,0.0,0.0,0
8-1-2017 0:00,-2221555.0875228285,0.0,0.0,0.0,0
8-1-2017 1:00,282249.5417400907,0.0,0.0,0.0,0
8-1-2017 2:00,285438.4192308552,0.0,0.0,0.0,0
8-1-2017 3:00,289788.11856481177,0.0,0.0,0.0,0
8-1-2017 4:00,291806.1994747189,0.0,0.0,0.0,0
8-1-2017 5:00,296775.6077746168,0.0,0.0,0.0,0
8-1-2017 6:00,201505.8484749287,0.0,0.0,0.0,0
8-1-2017 7:00,298061.9603415035,0.0,0.0,0.0,0
8-1-2017 8:00,295951.5593092954,0.0,0.0,0.0,0
8-1-2017 9:00,234567.51121294295,0.0,0.0,0.0,0
8-1-2017 10:00,-69899.60105446356,0.0,0.0,0.0,0
8-1-2017 11:00,811791.0827974799,0.0,0.0,0.0,0
8-1-2017 12:00,176046.7726405464,0.0,0.0,0.0,0
8-1-2017 13:00,62203.90963677151,0.0,0.0,0.0,0
8-1-2017 14:00,-32132.08178454303,0.0,0.0,0.0,0
8-1-2017 15:00,139089.61140479337,0.0,0.0,0.0,0
8-1-2017 16:00,-105777.26888852876,0.0,0.0,0.0,0
8-1-2017 17:00,-39968.20117580981,0.0,0.0,0.0,0
8-1-2017 18:00,882114.6621230975,0.0,0.0,0.0,0
8-1-2017 19:00,364393.27806920867,0.0,0.0,0.0,0
8-1-2017 20:00,210013.20019416307,0.0,0.0,0.0,0
8-1-2017 21:00,420579.7298151076,0.0,0.0,0.0,0
8-1-2017 22:00,384182.2657320412,0.0,0.0,0.0,0
8-1-2017 23:00,-3476297.3455956997,0.0,0.0,0.0,0
9-1-2017 0:00,-4064014.56364553,0.0,0.0,0.0,0
9-1-2017 1:00,448040.528532083,0.0,0.0,0.0,0
9-1-2017 2:00,445068.9775315132,0.0,0.0,0.0,0
9-1-2017 3:00,419558.2744653875,0.0,0.0,0.0,0
9-1-2017 4:00,397681.04881936254,0.0,0.0,0.0,0
9-1-2017 5:00,372798.6552481622,0.0,0.0,0.0,0
9-1-2017 6:00,255409.72919470118,0.0,0.0,0.0,0
9-1-2017 7:00,313857.3940708827,0.0,0.0,0.0,0
9-1-2017 8:00,288823.0688473068,0.0,0.0,0.0,0
9-1-2017 9:00,268712.9242491822,0.0,0.0,0.0,0
9-1-2017 10:00,23153.406412182434,0.0,0.0,0.0,0
9-1-2017 11:00,214770.76441750093,0.0,0.0,0.0,0
9-1-2017 12:00,274523.8805127628,0.0,0.0,0.0,0
9-1-2017 13:00,128356.8625081128,0.0,0.0,0.0,0
9-1-2017 14:00,759608.148888974,0.0,0.0,0.0,0
9-1-2017 15:00,253313.57810061122,0.0,0.0,0.0,0
9-1-2017 16:00,2115021.2765057525,0.0,0.0,0.0,0
9-1-2017 17:00,21849.239250709652,0.0,0.0,0.0,0
9-1-2017 18:00,179490.211360157,0.0,0.0,0.0,0
9-1-2017 19:00,334455.8381724831,0.0,0.0,0.0,0
9-1-2017 20:00,1591152.4634777815,0.0,0.0,0.0,0
9-1-2017 21:00,388225.08456855617,0.0,0.0,0.0,0
9-1-2017 22:00,363809.9693035114,0.0,0.0,0.0,0
9-1-2017 23:00,-4797510.128678508,0.0,0.0,0.0,0
10-1-2017 0:00,-5351922.814829919,0.0,0.0,0.0,0
10-1-2017 1:00,416550.4862552412,0.0,0.0,0.0,0
10-1-2017 2:00,440411.941097441,0.0,0.0,0.0,0
10-1-2017 3:00,453387.16248297656,0.0,0.0,0.0,0
10-1-2017 4:00,453270.96692583367,0.0,0.0,0.0,0
10-1-2017 5:00,449181.4853938798,0.0,0.0,0.0,0
10-1-2017 6:00,363240.078875124,0.0,0.0,0.0,0
10-1-2017 7:00,442086.7974869494,0.0,0.0,0.0,0
10-1-2017 8:00,436457.4290387621,0.0,0.0,0.0,0
10-1-2017 9:00,423742.2930687524,0.0,0.0,0.0,0
10-1-2017 10:00,188932.3043606687,0.0,0.0,0.0,0
10-1-2017 11:00,388730.63693508855,0.0,0.0,0.0,0
10-1-2017 12:00,459215.0856547194,0.0,0.0,0.0,0
10-1-2017 13:00,1045476.8931861038,0.0,0.0,0.0,0
10-1-2017 14:00,278768.2217588129,0.0,0.0,0.0,0
10-1-2017 15:00,423295.80923455115,0.0,0.0,0.0,0
10-1-2017 16:00,229019.21348567208,0.0,0.0,0.0,0
10-1-2017 17:00,224569.41522608334,0.0,0.0,0.0,0
10-1-2017 18:00,400601.75632406457,0.0,0.0,0.0,0
10-1-2017 19:00,1251159.143253697,0.0,0.0,0.0,0
10-1-2017 20:00,419163.1824942293,0.0,0.0,0.0,0
10-1-2017 21:00,593654.9128227755,0.0,0.0,0.0,0
10-1-2017 22:00,586710.1624343691,0.0,0.0,0.0,0
10-1-2017 23:00,-5684963.792052007,0.0,0.0,0.0,0
11-1-2017 0:00,-6375912.4565031985,0.0,0.0,0.0,0
11-1-2017 1:00,605699.0944406237,0.0,0.0,0.0,0
11-1-2017 2:00,620684.9560767098,0.0,0.0,0.0,0
11-1-2017 3:00,600658.862865023,0.0,0.0,0.0,0
11-1-2017 4:00,588827.2146545202,0.0,0.0,0.0,0
11-1-2017 5:00,554862.5747048443,0.0,0.0,0.0,0
11-1-2017 6:00,457804.66726382566,0.0,0.0,0.0,0
11-1-2017 7:00,488005.82895920565,0.0,0.0,0.0,0
11-1-2017 8:00,460172.2566343173,0.0,0.0,0.0,0
11-1-2017 9:00,377018.83395608485,0.0,0.0,0.0,0
11-1-2017 10:00,877745.3899333494,0.0,0.0,0.0,0
11-1-2017 11:00,390227.2626333032,0.0,0.0,0.0,0
11-1-2017 12:00,438202.0095337351,0.0,0.0,0.0,0
11-1-2017 13:00,325351.1789654542,0.0,0.0,0.0,0
11-1-2017 14:00,1006598.9760943118,0.0,0.0,0.0,0
11-1-2017 15:00,423426.58819845144,0.0,0.0,0.0,0
11-1-2017 16:00,1629669.4398688418,0.0,0.0,0.0,0
11-1-2017 17:00,238180.53499472607,0.0,0.0,0.0,0
11-1-2017 18:00,1095255.7194712602,0.0,0.0,0.0,0
11-1-2017 19:00,550989.511400467,0.0,0.0,0.0,0
11-1-2017 20:00,465250.6994585018,0.0,0.0,0.0,0
11-1-2017 21:00,623695.9150920005,0.0,0.0,0.0,0
11-1-2017 22:00,620041.6227945704,0.0,0.0,0.0,0
11-1-2017 23:00,-6752229.454981824,0.0,0.0,0.0,0
12-1-2017 0:00,-7549692.59451846,0.0,0.0,0.0,0
12-1-2017 1:00,712412.538649034,0.0,0.0,0.0,0
12-1-2017 2:00,706152.8194440128,0.0,0.0,0.0,0
12-1-2017 3:00,711527.7240001109,0.0,0.0,0.0,0
12-1-2017 4:00,710312.7349678059,0.0,0.0,0.0,0
12-1-2017 5:00,693331.576363116,0.0,0.0,0.0,0
12-1-2017 6:00,618795.1077625422,0.0,0.0,0.0,0
12-1-2017 7:00,673400.223274066,0.0,0.0,0.0,0
12-1-2017 8:00,660961.5178050657,0.0,0.0,0.0,0
12-1-2017 9:00,582809.5228153622,0.0,0.0,0.0,0
12-1-2017 10:00,1096380.563673705,0.0,0.0,0.0,0
12-1-2017 11:00,591906.4666949222,0.0,0.0,0.0,0
12-1-2017 12:00,634028.3119718852,0.0,0.0,0.0,0
12-1-2017 13:00,547271.6710062234,0.0,0.0,0.0,0
12-1-2017 14:00,516634.27439351304,0.0,0.0,0.0,0
12-1-2017 15:00,616518.9788283384,0.0,0.0,0.0,0
12-1-2017 16:00,448160.5723326192,0.0,0.0,0.0,0
12-1-2017 17:00,454356.78801418573,0.0,0.0,0.0,0
12-1-2017 18:00,605328.4430394818,0.0,0.0,0.0,0
12-1-2017 19:00,761848.1020477908,0.0,0.0,0.0,0
12-1-2017 20:00,675886.921002856,0.0,0.0,0.0,0
12-1-2017 21:00,844337.650359559,0.0,0.0,0.0,0
12-1-2017 22:00,844054.7984274453,0.0,0.0,0.0,0
12-1-2017 23:00,-7666034.97036463,0.0,0.0,0.0,0
13-1-2017 0:00,-8611161.182712367,0.0,0.0,0.0,0
13-1-2017 1:00,845439.9422973817,0.0,0.0,0.0,0
13-1-2017 2:00,875239.7918698385,0.0,0.0,0.0,0
13-1-2017 3:00,869231.7638123062,0.0,0.0,0.0,0
13-1-2017 4:00,858359.1400623033,0.0,0.0,0.0,0
13-1-2017 5:00,826286.8569330836,0.0,0.0,0.0,0
13-1-2017 6:00,743786.7113034385,0.0,0.0,0.0,0
13-1-2017 7:00,767569.2179574409,0.0,0.0,0.0,0
13-1-2017 8:00,737420.776670664,0.0,0.0,0.0,0
13-1-2017 9:00,1337383.1743498542,0.0,0.0,0.0,0
13-1-2017 10:00,1134417.832581955,0.0,0.0,0.0,0
13-1-2017 11:00,609578.3384171155,0.0,0.0,0.0,0
13-1-2017 12:00,671818.5845632893,0.0,0.0,0.0,0
13-1-2017 13:00,582302.6625295646,0.0,0.0,0.0,0
13-1-2017 14:00,552178.3315046048,0.0,0.0,0.0,0
13-1-2017 15:00,694529.1775994338,0.0,0.0,0.0,0
13-1-2017 16:00,496317.29394972906,0.0,0.0,0.0,0
13-1-2017 17:00,503259.19208531897,0.0,0.0,0.0,0
13-1-2017 18:00,658060.1795577181,0.0,0.0,0.0,0
13-1-2017 19:00,836177.5167170614,0.0,0.0,0.0,0
13-1-2017 20:00,784076.1376410882,0.0,0.0,0.0,0
13-1-2017 21:00,908882.7810119445,0.0,0.0,0.0,0
13-1-2017 22:00,924898.8550819182,0.0,0.0,0.0,0
13-1-2017 23:00,-8652910.729089065,0.0,0.0,0.0,0
14-1-2017 0:00,-9178089.441093516,0.0,0.0,0.0,0
14-1-2017 1:00,938272.3504364506,0.0,0.0,0.0,0
14-1-2017 2:00,964131.5047858673,0.0,0.0,0.0,0
14-1-2017 3:00,947535.2685568256,0.0,0.0,0.0,0
14-1-2017 4:00,929082.2678778602,0.0,0.0,0.0,0
14-1-2017 5:00,893151.6742374247,0.0,0.0,0.0,0
14-1-2017 6:00,812759.8704890131,0.0,0.0,0.0,0
14-1-2017 7:00,811006.3733292253,0.0,0.0,0.0,0
14-1-2017 8:00,762062.7951720915,0.0,0.0,0.0,0
14-1-2017 9:00,621344.7674077228,0.0,0.0,0.0,0
14-1-2017 10:00,1112230.8176975467,0.0,0.0,0.0,0
14-1-2017 11:00,555220.4197553493,0.0,0.0,0.0,0
14-1-2017 12:00,1286274.79903002,0.0,0.0,0.0,0
14-1-2017 13:00,534592.4161314062,0.0,0.0,0.0,0
14-1-2017 14:00,509103.911727667,0.0,0.0,0.0,0
14-1-2017 15:00,574094.7055450827,0.0,0.0,0.0,0
14-1-2017 16:00,437460.5538441943,0.0,0.0,0.0,0
14-1-2017 17:00,1866386.911975078,0.0,0.0,0.0,0
14-1-2017 18:00,634193.8385418076,0.0,0.0,0.0,0
14-1-2017 19:00,817546.3065042051,0.0,0.0,0.0,0
14-1-2017 20:00,800273.674687845,0.0,0.0,0.0,0
14-1-2017 21:00,907811.7452714007,0.0,0.0,0.0,0
14-1-2017 22:00,953573.0450030157,0.0,0.0,0.0,0
14-1-2017 23:00,-9159071.823408121,0.0,0.0,0.0,0
15-1-2017 0:00,-9797313.525959158,0.0,0.0,0.0,0
15-1-2017 1:00,981903.2539741718,0.0,0.0,0.0,0
15-1-2017 2:00,1022139.494983697,0.0,0.0,0.0,0
15-1-2017 3:00,1010973.3224662949,0.0,0.0,0.0,0
15-1-2017 4:00,1003469.3186303873,0.0,0.0,0.0,0
15-1-2017 5:00,973745.3357483076,0.0,0.0,0.0,0
15-1-2017 6:00,901171.2651507019,0.0,0.0,0.0,0
15-1-2017 7:00,897698.3799472699,0.0,0.0,0.0,0
15-1-2017 8:00,858144.3206899246,0.0,0.0,0.0,0
15-1-2017 9:00,701176.5273584675,0.0,0.0,0.0,0
15-1-2017 10:00,490479.74021486973,0.0,0.0,0.0,0
15-1-2017 11:00,637009.2290041688,0.0,0.0,0.0,0
15-1-2017 12:00,1363661.3219161911,0.0,0.0,0.0,0
15-1-2017 13:00,624438.2539095681,0.0,0.0,0.0,0
15-1-2017 14:00,642382.981883929,0.0,0.0,0.0,0
15-1-2017 15:00,692592.0291808108,0.0,0.0,0.0,0
15-1-2017 16:00,1248543.2302930972,0.0,0.0,0.0,0
15-1-2017 17:00,547945.4880884546,0.0,0.0,0.0,0
15-1-2017 18:00,732157.4434186941,0.0,0.0,0.0,0
15-1-2017 19:00,921560.3908455538,0.0,0.0,0.0,0
15-1-2017 20:00,892346.1049502142,0.0,0.0,0.0,0
15-1-2017 21:00,978155.7477313576,0.0,0.0,0.0,0
15-1-2017 22:00,1017459.2811674998,0.0,0.0,0.0,0
15-1-2017 23:00,-9589689.073440902,0.0,0.0,0.0,0
16-1-2017 0:00,-1.0410065098495642E7,0.0,0.0,0.0,0
16-1-2017 1:00,1018104.3507589826,0.0,0.0,0.0,0
16-1-2017 2:00,1037499.2693465479,0.0,0.0,0.0,0
16-1-2017 3:00,1009474.6914587165,0.0,0.0,0.0,0
16-1-2017 4:00,984010.4326821223,0.0,0.0,0.0,0
16-1-2017 5:00,946982.5600698175,0.0,0.0,0.0,0
16-1-2017 6:00,865951.6921344355,0.0,0.0,0.0,0
16-1-2017 7:00,841545.2527464163,0.0,0.0,0.0,0
16-1-2017 8:00,803213.666247917,0.0,0.0,0.0,0
16-1-2017 9:00,674984.9651340493,0.0,0.0,0.0,0
16-1-2017 10:00,1216445.366781673,0.0,0.0,0.0,0
16-1-2017 11:00,1408262.8985271123,0.0,0.0,0.0,0
16-1-2017 12:00,723393.3113011296,0.0,0.0,0.0,0
16-1-2017 13:00,669513.6351864556,0.0,0.0,0.0,0
16-1-2017 14:00,674671.6325388749,0.0,0.0,0.0,0
16-1-2017 15:00,725205.5603151808,0.0,0.0,0.0,0
16-1-2017 16:00,602794.2484890333,0.0,0.0,0.0,0
16-1-2017 17:00,1309569.9432573027,0.0,0.0,0.0,0
16-1-2017 18:00,1424530.8946594908,0.0,0.0,0.0,0
16-1-2017 19:00,1576964.8954977181,0.0,0.0,0.0,0
16-1-2017 20:00,894985.1494703044,0.0,0.0,0.0,0
16-1-2017 21:00,970112.6305520413,0.0,0.0,0.0,0
16-1-2017 22:00,1003634.3242417742,0.0,0.0,0.0,0
16-1-2017 23:00,-1.015642183001483E7,0.0,0.0,0.0,0
17-1-2017 0:00,-1.108498970102421E7,0.0,0.0,0.0,0
17-1-2017 1:00,1021735.5046990479,0.0,0.0,0.0,0
17-1-2017 2:00,1067647.6580119894,0.0,0.0,0.0,0
17-1-2017 3:00,1055825.581901065,0.0,0.0,0.0,0
17-1-2017 4:00,1048342.8945728326,0.0,0.0,0.0,0
17-1-2017 5:00,1019581.7630329385,0.0,0.0,0.0,0
17-1-2017 6:00,975582.2585624167,0.0,0.0,0.0,0
17-1-2017 7:00,959599.0060538726,0.0,0.0,0.0,0
17-1-2017 8:00,934835.6633782818,0.0,0.0,0.0,0
17-1-2017 9:00,792165.9459578055,0.0,0.0,0.0,0
17-1-2017 10:00,672411.8876010777,0.0,0.0,0.0,0
17-1-2017 11:00,813945.1835070839,0.0,0.0,0.0,0
17-1-2017 12:00,859529.3573475233,0.0,0.0,0.0,0
17-1-2017 13:00,801023.8051591602,0.0,0.0,0.0,0
17-1-2017 14:00,803131.0839239998,0.0,0.0,0.0,0
17-1-2017 15:00,853912.8742140923,0.0,0.0,0.0,0
17-1-2017 16:00,748422.0413816201,0.0,0.0,0.0,0
17-1-2017 17:00,746294.4090049306,0.0,0.0,0.0,0
17-1-2017 18:00,833045.1823611959,0.0,0.0,0.0,0
17-1-2017 19:00,998718.8059425271,0.0,0.0,0.0,0
17-1-2017 20:00,1019804.4691147766,0.0,0.0,0.0,0
17-1-2017 21:00,1778883.3787340256,0.0,0.0,0.0,0
17-1-2017 22:00,1101884.632354519,0.0,0.0,0.0,0
17-1-2017 23:00,-1.0597422891873118E7,0.0,0.0,0.0,0
18-1-2017 0:00,-1.0688573347720679E7,0.0,0.0,0.0,0
18-1-2017 1:00,1702473.3561021294,0.0,0.0,0.0,0
18-1-2017 2:00,1020944.6724590501,0.0,0.0,0.0,0
18-1-2017 3:00,1002984.0590926968,0.0,0.0,0.0,0
18-1-2017 4:00,980817.7049895746,0.0,0.0,0.0,0
18-1-2017 5:00,452341.50689998025,0.0,0.0,0.0,0
18-1-2017 6:00,-86708.56571307546,0.0,0.0,0.0,0
18-1-2017 7:00,-603688.2696511999,0.0,0.0,0.0,0
18-1-2017 8:00,-1129468.402842225,0.0,0.0,0.0,0
18-1-2017 9:00,-3142547.1159402304,0.0,0.0,0.0,0
18-1-2017 10:00,-5128270.680415187,0.0,0.0,0.0,0
18-1-2017 11:00,-6833209.3918237025,0.0,0.0,0.0,0
18-1-2017 12:00,-8685110.439048458,0.0,0.0,0.0,0
18-1-2017 13:00,-1.052283936088635E7,0.0,0.0,0.0,0
18-1-2017 14:00,-1.2264019697357938E7,0.0,0.0,0.0,0
18-1-2017 15:00,-1.3324435077681601E7,0.0,0.0,0.0,0
18-1-2017 16:00,-1.5830354298175456E7,0.0,0.0,0.0,0
18-1-2017 17:00,-1.5259775485499412E7,0.0,0.0,0.0,0
18-1-2017 18:00,-1.7361752383735567E7,0.0,0.0,0.0,0
18-1-2017 19:00,-1.799384496468723E7,0.0,0.0,0.0,0
18-1-2017 20:00,-1.8783494227960013E7,0.0,0.0,0.0,0
18-1-2017 21:00,-1.8821175523760542E7,0.0,0.0,0.0,0
18-1-2017 22:00,-1.888264118348435E7,0.0,0.0,0.0,0
18-1-2017 23:00,1.864056892503568E8,0.0,0.0,0.0,0
19-1-2017 0:00,1.9481270289323077E8,0.0,0.0,0.0,0
19-1-2017 1:00,-1.890762223298368E7,0.0,0.0,0.0,0
19-1-2017 2:00,-1.872159054171959E7,0.0,0.0,0.0,0
19-1-2017 3:00,-1.8532484180478185E7,0.0,0.0,0.0,0
19-1-2017 4:00,-1.83392568069135E7,0.0,0.0,0.0,0
19-1-2017 5:00,-1.733776178675791E7,0.0,0.0,0.0,0
19-1-2017 6:00,-1.634696871271861E7,0.0,0.0,0.0,0
19-1-2017 7:00,-1.5320717167386433E7,0.0,0.0,0.0,0
19-1-2017 8:00,-1.4326069600393012E7,0.0,0.0,0.0,0
19-1-2017 9:00,-1.25269210534014E7,0.0,0.0,0.0,0
19-1-2017 10:00,-1.068790231010393E7,0.0,0.0,0.0,0
19-1-2017 11:00,-8606968.584936313,0.0,0.0,0.0,0
19-1-2017 12:00,-6632512.61933561,0.0,0.0,0.0,0
19-1-2017 13:00,-4383678.469003782,0.0,0.0,0.0,0
19-1-2017 14:00,-2740023.2488925494,0.0,0.0,0.0,0
19-1-2017 15:00,-1814547.4780107182,0.0,0.0,0.0,0
19-1-2017 16:00,-254731.8999520921,0.0,0.0,0.0,0
19-1-2017 17:00,672000.6790812559,0.0,0.0,0.0,0
19-1-2017 18:00,306284.4905572565,0.0,0.0,0.0,0
19-1-2017 19:00,642304.313103721,0.0,0.0,0.0,0
19-1-2017 20:00,887688.9914170093,0.0,0.0,0.0,0
19-1-2017 21:00,922653.9245651322,0.0,0.0,0.0,0
19-1-2017 22:00,983884.3861978234,0.0,0.0,0.0,0
19-1-2017 23:00,-9711256.597191453,0.0,0.0,0.0,0
20-1-2017 0:00,-9964333.400895117,0.0,0.0,0.0,0
20-1-2017 1:00,918402.7735155206,0.0,0.0,0.0,0
20-1-2017 2:00,944187.8203491353,0.0,0.0,0.0,0
20-1-2017 3:00,940529.9268606575,0.0,0.0,0.0,0
20-1-2017 4:00,939404.9320866121,0.0,0.0,0.0,0
20-1-2017 5:00,910404.1573114342,0.0,0.0,0.0,0
20-1-2017 6:00,876555.5448271272,0.0,0.0,0.0,0
20-1-2017 7:00,857087.133431863,0.0,0.0,0.0,0
20-1-2017 8:00,825833.454611991,0.0,0.0,0.0,0
20-1-2017 9:00,1367776.5508645803,0.0,0.0,0.0,0
20-1-2017 10:00,569671.6819083906,0.0,0.0,0.0,0
20-1-2017 11:00,711363.8136260557,0.0,0.0,0.0,0
20-1-2017 12:00,725497.6220261352,0.0,0.0,0.0,0
20-1-2017 13:00,666644.6796470663,0.0,0.0,0.0,0
20-1-2017 14:00,698848.2314604986,0.0,0.0,0.0,0
20-1-2017 15:00,717150.0986672047,0.0,0.0,0.0,0
20-1-2017 16:00,1396155.7741440749,0.0,0.0,0.0,0
20-1-2017 17:00,671304.3990187211,0.0,0.0,0.0,0
20-1-2017 18:00,741187.7896908687,0.0,0.0,0.0,0
20-1-2017 19:00,877406.7212533278,0.0,0.0,0.0,0
20-1-2017 20:00,867663.0766705639,0.0,0.0,0.0,0
20-1-2017 21:00,921488.6110718395,0.0,0.0,0.0,0
20-1-2017 22:00,963843.6164764285,0.0,0.0,0.0,0
20-1-2017 23:00,-9220751.571727866,0.0,0.0,0.0,0
21-1-2017 0:00,-9548534.169593789,0.0,0.0,0.0,0
21-1-2017 1:00,905888.1152837401,0.0,0.0,0.0,0
21-1-2017 2:00,934590.9875286749,0.0,0.0,0.0,0
21-1-2017 3:00,919866.7791521085,0.0,0.0,0.0,0
21-1-2017 4:00,912257.2691503513,0.0,0.0,0.0,0
21-1-2017 5:00,875571.3434864834,0.0,0.0,0.0,0
21-1-2017 6:00,836013.6485206526,0.0,0.0,0.0,0
21-1-2017 7:00,806552.3678183232,0.0,0.0,0.0,0
21-1-2017 8:00,783200.730605532,0.0,0.0,0.0,0
21-1-2017 9:00,598662.9876911526,0.0,0.0,0.0,0
21-1-2017 10:00,547026.6246679605,0.0,0.0,0.0,0
21-1-2017 11:00,1334953.77112233,0.0,0.0,0.0,0
21-1-2017 12:00,652751.010508441,0.0,0.0,0.0,0
21-1-2017 13:00,552291.4480865905,0.0,0.0,0.0,0
21-1-2017 14:00,575410.1642703408,0.0,0.0,0.0,0
21-1-2017 15:00,1293811.8004700385,0.0,0.0,0.0,0
21-1-2017 16:00,570718.2509395774,0.0,0.0,0.0,0
21-1-2017 17:00,550608.6700002031,0.0,0.0,0.0,0
21-1-2017 18:00,1307124.0782131788,0.0,0.0,0.0,0
21-1-2017 19:00,765755.9792977998,0.0,0.0,0.0,0
21-1-2017 20:00,779350.5923251503,0.0,0.0,0.0,0
21-1-2017 21:00,814292.3042590359,0.0,0.0,0.0,0
21-1-2017 22:00,854314.0519546703,0.0,0.0,0.0,0
21-1-2017 23:00,-8816998.452545498,0.0,0.0,0.0,0
22-1-2017 0:00,-8481919.116871718,0.0,0.0,0.0,0
22-1-2017 1:00,886694.5165304722,0.0,0.0,0.0,0
22-1-2017 2:00,870275.4067449109,0.0,0.0,0.0,0
22-1-2017 3:00,881565.0435074642,0.0,0.0,0.0,0
22-1-2017 4:00,880398.7893856501,0.0,0.0,0.0,0
22-1-2017 5:00,865648.4258679526,0.0,0.0,0.0,0
22-1-2017 6:00,842232.7061053782,0.0,0.0,0.0,0
22-1-2017 7:00,813638.0136865381,0.0,0.0,0.0,0
22-1-2017 8:00,781857.4877854758,0.0,0.0,0.0,0
22-1-2017 9:00,569263.7460658496,0.0,0.0,0.0,0
22-1-2017 10:00,1182362.2534019232,0.0,0.0,0.0,0
22-1-2017 11:00,566934.5712982134,0.0,0.0,0.0,0
22-1-2017 12:00,581600.4810959437,0.0,0.0,0.0,0
22-1-2017 13:00,516547.6309922361,0.0,0.0,0.0,0
22-1-2017 14:00,574366.0563069759,0.0,0.0,0.0,0
22-1-2017 15:00,565067.9214674826,0.0,0.0,0.0,0
22-1-2017 16:00,577330.0615076239,0.0,0.0,0.0,0
22-1-2017 17:00,564851.0570829491,0.0,0.0,0.0,0
22-1-2017 18:00,638773.3549196782,0.0,0.0,0.0,0
22-1-2017 19:00,828223.9788124402,0.0,0.0,0.0,0
22-1-2017 20:00,843719.7894686186,0.0,0.0,0.0,0
22-1-2017 21:00,872993.5750920353,0.0,0.0,0.0,0
22-1-2017 22:00,920102.340223935,0.0,0.0,0.0,0
22-1-2017 23:00,-8153373.261740396,0.0,0.0,0.0,0
23-1-2017 0:00,-8718557.217973808,0.0,0.0,0.0,0
23-1-2017 1:00,870754.9610822888,0.0,0.0,0.0,0
23-1-2017 2:00,890304.0963954782,0.0,0.0,0.0,0
23-1-2017 3:00,868514.1054263982,0.0,0.0,0.0,0
23-1-2017 4:00,849023.3824156922,0.0,0.0,0.0,0
23-1-2017 5:00,817213.3858697767,0.0,0.0,0.0,0
23-1-2017 6:00,782832.5261360706,0.0,0.0,0.0,0
23-1-2017 7:00,762225.9482303525,0.0,0.0,0.0,0
23-1-2017 8:00,731147.659870652,0.0,0.0,0.0,0
23-1-2017 9:00,660353.39358121,0.0,0.0,0.0,0
23-1-2017 10:00,728802.2826438515,0.0,0.0,0.0,0
23-1-2017 11:00,764413.4533493635,0.0,0.0,0.0,0
23-1-2017 12:00,769039.6649260151,0.0,0.0,0.0,0
23-1-2017 13:00,707091.879695225,0.0,0.0,0.0,0
23-1-2017 14:00,781841.5366957294,0.0,0.0,0.0,0
23-1-2017 15:00,768479.4433718196,0.0,0.0,0.0,0
23-1-2017 16:00,669240.0679364123,0.0,0.0,0.0,0
23-1-2017 17:00,602193.0510032342,0.0,0.0,0.0,0
23-1-2017 18:00,596052.1794405135,0.0,0.0,0.0,0
23-1-2017 19:00,744179.6713474556,0.0,0.0,0.0,0
23-1-2017 20:00,737644.6348385001,0.0,0.0,0.0,0
23-1-2017 21:00,761157.928247792,0.0,0.0,0.0,0
23-1-2017 22:00,778911.7173737903,0.0,0.0,0.0,0
23-1-2017 23:00,-7683208.285496871,0.0,0.0,0.0,0
24-1-2017 0:00,-8425988.107079642,0.0,0.0,0.0,0
24-1-2017 1:00,749251.0941483581,0.0,0.0,0.0,0
24-1-2017 2:00,774392.1810782941,0.0,0.0,0.0,0
24-1-2017 3:00,766811.2688955765,0.0,0.0,0.0,0
24-1-2017 4:00,763397.6710976278,0.0,0.0,0.0,0
24-1-2017 5:00,740065.0405798939,0.0,0.0,0.0,0
24-1-2017 6:00,714579.1199314551,0.0,0.0,0.0,0
24-1-2017 7:00,693259.2965823954,0.0,0.0,0.0,0
24-1-2017 8:00,661988.8958075927,0.0,0.0,0.0,0
24-1-2017 9:00,1894282.0505078086,0.0,0.0,0.0,0
24-1-2017 10:00,487876.5665978563,0.0,0.0,0.0,0
24-1-2017 11:00,575486.0554134292,0.0,0.0,0.0,0
24-1-2017 12:00,597497.6040698404,0.0,0.0,0.0,0
24-1-2017 13:00,478152.6344630508,0.0,0.0,0.0,0
24-1-2017 14:00,574318.9039004024,0.0,0.0,0.0,0
24-1-2017 15:00,567367.8128431591,0.0,0.0,0.0,0
24-1-2017 16:00,602054.0159782679,0.0,0.0,0.0,0
24-1-2017 17:00,574737.8960301883,0.0,0.0,0.0,0
24-1-2017 18:00,548910.9745616189,0.0,0.0,0.0,0
24-1-2017 19:00,707219.1237717506,0.0,0.0,0.0,0
24-1-2017 20:00,702549.7293866712,0.0,0.0,0.0,0
24-1-2017 21:00,737123.419206436,0.0,0.0,0.0,0
24-1-2017 22:00,766001.641196743,0.0,0.0,0.0,0
24-1-2017 23:00,-7053366.993710037,0.0,0.0,0.0,0
25-1-2017 0:00,-7975692.341771956,0.0,0.0,0.0,0
25-1-2017 1:00,772221.6495098496,0.0,0.0,0.0,0
25-1-2017 2:00,798409.9559384356,0.0,0.0,0.0,0
25-1-2017 3:00,784958.2504239839,0.0,0.0,0.0,0
25-1-2017 4:00,777523.6589823433,0.0,0.0,0.0,0
25-1-2017 5:00,753742.9951061378,0.0,0.0,0.0,0
25-1-2017 6:00,736380.9541563139,0.0,0.0,0.0,0
25-1-2017 7:00,705608.7507127272,0.0,0.0,0.0,0
25-1-2017 8:00,682930.3028716373,0.0,0.0,0.0,0
25-1-2017 9:00,474701.01361832675,0.0,0.0,0.0,0
25-1-2017 10:00,490294.6325672768,0.0,0.0,0.0,0
25-1-2017 11:00,532679.3653244069,0.0,0.0,0.0,0
25-1-2017 12:00,581836.5168920743,0.0,0.0,0.0,0
25-1-2017 13:00,431326.7357342817,0.0,0.0,0.0,0
25-1-2017 14:00,542320.7104334771,0.0,0.0,0.0,0
25-1-2017 15:00,514251.6744678969,0.0,0.0,0.0,0
25-1-2017 16:00,594754.5626414254,0.0,0.0,0.0,0
25-1-2017 17:00,530755.0997673718,0.0,0.0,0.0,0
25-1-2017 18:00,1204544.658481882,0.0,0.0,0.0,0
25-1-2017 19:00,645598.5456306365,2.5700551639634304E18,7.5748277015912305E18,-2.4347173736643702E18,0
25-1-2017 20:00,615258.2140048665,1.4844139014672003E19,4.404642061989311E19,-1.4358142590549115E19,0
25-1-2017 21:00,652435.5274287949,5.5658528673906524E18,1.6468336885985282E19,-5.3366311512039793E18,0
25-1-2017 22:00,656301.7759552579,2.4568476829982584E16,7.2552688914791424E16,-2.3415735254826264E16,0
25-1-2017 23:00,-6568146.687315795,5.8427838774141952E17,1.7366910238892073E18,-5.6813424840636838E17,0
26-1-2017 0:00,-7357089.093535518,2.0022900882926424E19,5.888730881665943E19,-1.8841507050806596E19,0
26-1-2017 1:00,664518.1162260531,4.8524706380442778E18,1.4279545410645123E19,-4.5746041345565686E18,0
26-1-2017 2:00,630396.0882430385,4.2593362934614292E18,1.2588293226930127E19,-4.0696206400072694E18,0
26-1-2017 3:00,616076.5260911797,9.1078383164744038E17,2.6909979009778319E18,-8.6943023768295142E17,0
26-1-2017 4:00,589002.5868113138,3.8663634095242998E18,1.1410371027538858E19,-3.6776442084902615E18,0
26-1-2017 5:00,564113.5804226084,3.4588254500157614E18,1.0215153968084658E19,-3.2975030680531364E18,0
26-1-2017 6:00,537299.5542932464,1.067774808108073E19,3.174871594683944E19,-1.0393219784677986E19,0
26-1-2017 7:00,501759.3314823396,2.6459593437818051E18,7.8059024401670011E18,-2.513983752603392E18,0
26-1-2017 8:00,468184.7187397105,3.905506680853826E18,1.1520754268758555E19,-3.7097409070509041E18,0
26-1-2017 9:00,213451.55816254346,-2.1514471770702528E17,2.04051949441405504E17,-6.3434138485545626E17,0
26-1-2017 10:00,1612514.6033465695,6.6761386023040205E18,1.9830686934731096E19,-6.4784097301230612E18,0
26-1-2017 11:00,211644.47949132434,697400.25,1.64490419E7,-1.505424141E7,0
26-1-2017 12:00,223287.1416439567,3.2001195661040932E18,9.440983267970458E18,-3.0407441357622738E18,0
26-1-2017 13:00,1535783.6837933226,610734.39,1.633674567E7,-1.511527688E7,0
26-1-2017 14:00,924147.6137743864,-3.39033351979968E16,3.1554031234759656E16,-9.936070163075328E16,0
26-1-2017 15:00,893250.0413792701,6.4261035006083441E18,1.905656320133796E19,-6.2043562001212744E18,0
26-1-2017 16:00,281191.88755080756,346741.38,1.603487537E7,-1.534139261E7,0
26-1-2017 17:00,257717.4151966633,6.8440844642194125E18,2.023523833041214E19,-6.5470694019733176E18,0
26-1-2017 18:00,961146.7828903828,1.55505821380542771E18,4.6095157658638024E18,-1.49939933825294746E18,0
26-1-2017 19:00,433085.29094080307,5.8951329758897603E18,1.7440275432389945E19,-5.6500094806104269E18,0
26-1-2017 20:00,440460.549512638,-451641.18,1.518633927E7,-1.608962163E7,0
26-1-2017 21:00,468565.93987462716,6.3313256274574554E17,1.77742741791686144E18,-5.111622924253705E17,0
26-1-2017 22:00,506401.539479742,1.28905333998074982E18,3.6704725025104282E18,-1.09236582254892902E18,0
26-1-2017 23:00,-5773445.203301312,-2.0709329020699704E16,1.9665308325996184E16,-6.10839663673956E16,0
27-1-2017 0:00,-6707523.031767732,7.4520375725438444E18,2.197584674390738E19,-7.0717715988196946E18,0
27-1-2017 1:00,568727.3923198599,1.03980342117323674E18,3.0701083989023549E18,-9.9050155655588224E17,0
27-1-2017 2:00,612654.0957714999,4.139564722135401E19,1.2203400452769425E20,-3.924271008498625E19,0
27-1-2017 3:00,618879.4528284896,5.9535957586436608E18,1.7624908064034034E19,-5.7177165467467141E18,0
27-1-2017 4:00,624496.384837965,4.0827862400425441E18,1.2040496673563111E19,-3.8749241934780262E18,0
27-1-2017 5:00,611861.1680358001,8.3962827395501491E17,2.4751146049029519E18,-7.9585805699292237E17,0
27-1-2017 6:00,592768.058825941,1.381847790316005E19,4.104684366091266E19,-1.3409887854592565E19,0
27-1-2017 7:00,572239.6049261051,3.09559787720657E18,9.1394387602646968E18,-2.9482430058515579E18,0
27-1-2017 8:00,563141.7555603278,6.0755996802420593E18,1.7925895696716739E19,-5.7746963362326221E18,0
27-1-2017 9:00,334827.10966088664,4.4774720620860384E16,1.32105356562613248E17,-4.2555915320892496E16,0
27-1-2017 10:00,404900.2293248115,1.15144453036054496E17,3.358088526359815E17,-1.05519946563872544E17,0
27-1-2017 11:00,418526.447102013,-305261.62,1.515555063E7,-1.576607387E7,0
27-1-2017 12:00,438016.34808443324,9.41341594071654E15,2.781315665568696E16,-8.986324774253884E15,0
27-1-2017 13:00,287822.932550738,6.0989557566235423E18,1.7921715517203018E19,-5.7238040039559373E18,0
27-1-2017 14:00,431914.1568234507,5.2161724395380828E18,1.5428724186357088E19,-4.9963793072809236E18,0
27-1-2017 15:00,397854.84700857813,-3.7040323419844813E17,3.5148393753831258E17,-1.09229040593520896E18,0
27-1-2017 16:00,512498.30042077554,338005.82,1.573746108E7,-1.506144944E7,0
27-1-2017 17:00,463597.3242101101,-297310.12,1.509027352E7,-1.568489375E7,0
27-1-2017 18:00,351890.4365066084,144709.53,1.552047528E7,-1.523105621E7,0
27-1-2017 19:00,491196.9012195861,2.9609093011517716E18,8.6100354286068931E18,-2.6882168263033508E18,0
27-1-2017 20:00,1185199.2057499178,7.2557519689663959E18,2.1474120353382523E19,-6.9626164154497372E18,0
27-1-2017 21:00,500665.38853287476,344481.83,1.575727856E7,-1.50683149E7,0
27-1-2017 22:00,522979.6116689305,5.0054746563097661E18,1.4771303178877733E19,-4.7603538662582026E18,0
27-1-2017 23:00,-4821635.658169838,146393.3,1.550742788E7,-1.521464127E7,0
28-1-2017 0:00,-5962197.476430663,2.7237299583025372E18,8.0419670839294566E18,-2.5945071673243837E18,0
28-1-2017 1:00,561357.3169114946,3.8886699073955E18,1.149596192264789E19,-3.7186221078568909E18,0
28-1-2017 2:00,577160.3967263346,2.09974795146087014E18,6.1989364087814103E18,-1.99944050585967104E18,0
28-1-2017 3:00,592762.8479207174,3.6758953857263288E18,1.0843348946987209E19,-3.4915581755345531E18,0
28-1-2017 4:00,588654.9261382471,8.4197157679270994E18,2.475242562437736E19,-7.9129940885231636E18,0
28-1-2017 5:00,570944.0104057579,1.79096068001265696E17,5.2858170125054157E17,-1.70389565248010272E17,0
28-1-2017 6:00,564197.5795985367,9.0817105053855662E18,2.682651753426881E19,-8.6630965234976788E18,0
28-1-2017 7:00,549404.8953709651,1.7777748945668694E19,5.278075152394099E19,-1.7225253632603607E19,0
28-1-2017 8:00,535679.9101432331,4.9606357816906732E18,1.4591325335432008E19,-4.6700537720506634E18,0
28-1-2017 9:00,299254.8243169572,3.2974623117675172E18,9.744015389444866E18,-3.1490907659098348E18,0
28-1-2017 10:00,340145.2931219401,3.4900451133027881E18,1.0310367704311177E19,-3.330277477705602E18,0
28-1-2017 11:00,326328.61719274824,7.2376062845625836E18,2.14804628696619E19,-7.0052503005367357E18,0
28-1-2017 12:00,343235.7716661156,4.9457733286248663E18,1.4550447867619906E19,-4.658901210370174E18,0
28-1-2017 13:00,209336.58143985487,5.1216398128731116E18,1.5102561835742589E19,-4.8592822099963679E18,0
28-1-2017 14:00,345130.282994712,5.3015017589045289E18,1.5730594547544785E19,-5.1275910297357292E18,0
28-1-2017 15:00,284974.86875057896,1.66090666289540198E18,4.9123755709524562E18,-1.59056224516165325E18,0
28-1-2017 16:00,425385.78409697977,1.63578107436713088E17,4.8287896416074285E17,-1.55722749287316736E17,0
28-1-2017 17:00,383096.12228902045,5.2971385465432965E18,1.5715480667295384E19,-5.1212035742087926E18,0
28-1-2017 18:00,305012.1174475244,2.007927539867753E19,5.9861606260674716E19,-1.9703055463319675E19,0
28-1-2017 19:00,458455.6969079371,3.7252650890631803E18,1.101208635235609E19,-3.5615561742297324E18,0
28-1-2017 20:00,420770.9254816426,5.6686684507397294E18,1.6674757548268364E19,-5.337420646788908E18,0
28-1-2017 21:00,459811.10401517036,1.3325178094913933E19,3.902766454403872E19,-1.2377308354210861E19,0
28-1-2017 22:00,468833.85172272497,1.30746379093326259E18,3.8627820124682824E18,-1.24785443060175795E18,0
28-1-2017 23:00,-3950334.704133197,2.9416797096118712E18,8.681204852301015E18,-2.7978454330772746E18,0
29-1-2017 0:00,-5202461.181147873,4.0226132119661353E18,1.1881880708227117E19,-3.8366542842948465E18,0
29-1-2017 1:00,559263.3155824905,9.6530394133585818E17,2.8480418583110769E18,-9.1743397563936102E17,0
29-1-2017 2:00,571977.4058941702,1.9152228381999575E19,5.653114281647022E19,-1.8226686052471083E19,0
29-1-2017 3:00,562652.9853595861,5.073261600040022E18,1.4922043558522446E19,-4.7755203584424038E18,0
29-1-2017 4:00,563970.5875158759,1.3806268153755542E19,4.0764870096099656E19,-1.3152333788588577E19,0
29-1-2017 5:00,549008.3466695605,1.511243720447597E19,4.473229690989662E19,-1.4507422500944687E19,0
29-1-2017 6:00,545979.8480814758,5.1277682148415212E18,1.5152435096395878E19,-4.8968986667128392E18,0
29-1-2017 7:00,516124.09835071716,4.4490770891312855E18,1.313390466291011E19,-4.2357504846475407E18,0
29-1-2017 8:00,506123.2020855793,8.5204916738689362E18,2.5232976822058824E19,-8.1919934743209544E18,0
29-1-2017 9:00,221961.148132066,7.1244553101942456E18,2.117681401203449E19,-6.9279033916460032E18,0
29-1-2017 10:00,263065.31780407456,6.9290037821008773E18,2.0467296176278774E19,-6.6092886120770212E18,0
29-1-2017 11:00,221156.81989445677,5.3285978825791857E18,1.580844374019096E19,-5.1512479750325924E18,0
29-1-2017 12:00,243515.45958473888,5.0664125329997271E18,1.499039045433869E19,-4.8575653883392369E18,0
29-1-2017 13:00,89738.39457085432,1.0638932487942373E19,3.1564351250596684E19,-1.0286486274711941E19,0
29-1-2017 14:00,237723.6733127977,2.78160280568546176E17,8.2236638931239603E17,-2.66045828175303872E17,0
29-1-2017 15:00,177141.01454434605,1.24303204920080432E17,3.6705981515931066E17,-1.1845340531914984E17,0
29-1-2017 16:00,350577.98020901193,2.8080622860148188E18,8.3151817133457469E18,-2.6990571413161119E18,0
29-1-2017 17:00,319654.1832512611,9.773358061635383E18,2.884152381804502E19,-9.294807694774256E18,0
29-1-2017 18:00,217153.4717192733,1.29444738259697E19,3.829506159246811E19,-1.240611394052871E19,0
29-1-2017 19:00,378534.97765379114,6.7791328692476969E18,2.014660528679538E19,-6.588339548299989E18,0
29-1-2017 20:00,319982.29199754086,1.6698212260949719E18,4.9299718420032655E18,-1.59032938981332224E18,0
29-1-2017 21:00,350727.4208494436,1.2728721599020536E19,3.756811455842997E19,-1.2110671360388907E19,0
29-1-2017 22:00,357136.28293711005,1.068869257030564E19,3.156625459813901E19,-1.0188869457527736E19,0
29-1-2017 23:00,-3165077.0391273545,6.9033660277616527E18,2.04094752597914E19,-6.6027432042680965E18,0
30-1-2017 0:00,-4404951.485569544,1.401159089066196E19,4.150128348778672E19,-1.3478101706462808E19,0
30-1-2017 1:00,381380.11080540426,3.9384922889335204E18,1.1654644727872719E19,-3.7776601500056801E18,0
30-1-2017 2:00,382964.7010264349,8.8304547318340096E18,2.6069234044826124E19,-8.4083245811581071E18,0
30-1-2017 3:00,358214.31800840475,1.0514151816771133E19,3.076590980798029E19,-9.737606174438027E18,0
30-1-2017 4:00,346203.8091526613,4.876637869781118E19,1.422186756502161E20,-4.468591825459375E19,0
30-1-2017 5:00,329350.5255384919,8.9189090302889308E18,2.6328435784358904E19,-8.4906177237810442E18,0
30-1-2017 6:00,326180.4537532828,4.3698208413003909E18,1.2908154279252734E19,-4.1685125966519532E18,0
30-1-2017 7:00,295203.3021515519,5.1878671607922831E18,1.5248369690203939E19,-4.8726353686193746E18,0
30-1-2017 8:00,277352.09852480434,3.6267005791709614E18,1.0710614165294453E19,-3.457213006952533E18,0
30-1-2017 9:00,744622.9460215631,6.5203667148892851E17,1.90583682401282534E18,-6.0176348103496858E17,0
30-1-2017 10:00,120780.62477095472,1.2812509634350658E19,3.792614849286298E19,-1.2301129224161677E19,0
30-1-2017 11:00,892832.9971205646,5.2417602505449421E18,1.5497791307451785E19,-5.0142708063619021E18,0
30-1-2017 12:00,829442.5720609056,6.1093558160935813E18,1.812918565484656E19,-5.9104740226593997E18,0
30-1-2017 13:00,-9156.064071964007,2.54056930963661E18,7.5148811896362281E18,-2.43374257036301E18,0
30-1-2017 14:00,294158.48194306553,1.2896983702218875E19,3.828566754628788E19,-1.2491700141850137E19,0
30-1-2017 15:00,179746.67837617244,7.3187811509755302E17,2.16162408776189082E18,-6.9786785756678515E17,0
30-1-2017 16:00,303248.4446065577,6.1629021680761016E18,1.8174988661040935E19,-5.8491843248887337E18,0
30-1-2017 17:00,245514.50065035408,-7.3686874924890496E16,7.0084264960596352E16,-2.17458014810377376E17,0
30-1-2017 18:00,73713.7464795036,1.94411933778608947E18,5.7461039057376461E18,-1.85786523016546765E18,0
30-1-2017 19:00,219959.08227363945,1.52911953465249434E18,4.5210969950653025E18,-1.46285792576031437E18,0
30-1-2017 20:00,131351.58625590877,7.036495647884841E17,2.07880329190016538E18,-6.7150416232319744E17,0
30-1-2017 21:00,204802.7834788324,1.9669594014742752E16,5.8152254270587792E16,-1.8813066241102304E16,0
30-1-2017 22:00,200442.8214896363,1.3131280948343607E19,3.8869088141110436E19,-1.260652624442323E19,0
30-1-2017 23:00,-2196468.8461835273,8.4528210430455337E18,2.4809415870297055E19,-7.9037737842059899E18,0
31-1-2017 0:00,-3554433.498470509,5.6762976299781837E18,1.680653486278743E19,-5.4539396028310651E18,0
31-1-2017 1:00,260496.92533902952,5.0927556560538276E18,1.5029243597823482E19,-4.8437322857158287E18,0
31-1-2017 2:00,270954.48325941595,3.200456055944342E18,9.450780919274959E18,-3.0498688073862753E18,0
31-1-2017 3:00,273046.82554794406,1.0794495697599164E19,3.197964457482935E19,-1.0390653179631026E19,0
31-1-2017 4:00,272403.64984967787,3.4432483616128128E18,1.0174787855972403E19,-3.2882911327467781E18,0
31-1-2017 5:00,263656.47679809824,1.1058044399181302E19,3.2551477016697725E19,-1.0435388218335123E19,0
31-1-2017 6:00,272986.52514620847,4.4098151027015188E18,1.3077759452069085E19,-4.2581292466660506E18,0
31-1-2017 7:00,265748.9046935471,1.33004627193634458E18,3.7059684611756923E18,-1.04587591730300365E18,0
31-1-2017 8:00,264585.96672523173,6.169284970540544E18,1.823968528076787E19,-5.901115339686785E18,0
31-1-2017 9:00,41937.950283501734,1.376918320269218E19,4.0477681152490365E19,-1.2939314747106011E19,0
31-1-2017 10:00,164603.57321458502,3.2216738773672627E17,9.323245623140352E17,-2.87989786840582784E17,0
31-1-2017 11:00,131373.19092773105,9.153431428044287E18,2.698727891575407E19,-8.6804160596655012E18,0
31-1-2017 12:00,173586.41622243988,1.80455865503327949E18,5.3321687664412508E18,-1.72305145637469235E18,0
31-1-2017 13:00,646818.8291070407,3.630620288793746E19,1.0658576669853875E20,-3.3973360922663846E19,0
31-1-2017 14:00,137004.2825316122,5.1712790943356088E18,1.5270640767849112E19,-4.9280825791778959E18,0
31-1-2017 15:00,43772.03430273355,7.6061013119337042E18,2.248051178749462E19,-7.2683091636272189E18,0
31-1-2017 16:00,246491.61325134733,5.861904269215063E18,1.735417365147276E19,-5.6303651130426399E18,0
31-1-2017 17:00,186322.37352980144,8.6501574858019707E18,2.5518638415006314E19,-8.2183234434023782E18,0
31-1-2017 18:00,-41618.372046801145,5.0573615933564119E18,1.4923697640108261E19,-4.8089744533954406E18,0
31-1-2017 19:00,72989.16907156224,4.1496187864497521E18,1.2282492885095264E19,-3.9832553121957632E18,0
31-1-2017 20:00,-11866.311843039177,5.8388601056300861E18,1.7207202389079441E19,-5.5294821778192722E18,0
31-1-2017 21:00,24944.31322321942,1.2196488119673795E19,3.6117312898572915E19,-1.172433665922533E19,0
31-1-2017 22:00,11090.508301800292,5.0815498701488988E18,1.5010279106488846E19,-4.8471793661910508E18,0
31-1-2017 23:00,-1300279.2238354227,2.895976940477676E18,8.5507868024001106E18,-2.758832921444759E18,0
