Time,Actual,Forecasts,Upper Interval,Lower Interval,Is Anomalies
1-1-2017 0:00,253.15343861786607,0.0,0.0,0.0,0
1-1-2017 1:00,424.0049894828328,0.0,0.0,0.0,0
1-1-2017 2:00,471.6493045072227,0.0,0.0,0.0,0
1-1-2017 3:00,478.327283555538,0.0,0.0,0.0,0
1-1-2017 4:00,518.9221312466263,0.0,0.0,0.0,0
1-1-2017 5:00,435.8764459078159,0.0,0.0,0.0,0
1-1-2017 6:00,496.63251492778363,0.0,0.0,0.0,0
1-1-2017 7:00,390.0823123675341,0.0,0.0,0.0,0
1-1-2017 8:00,157.40051408735212,0.0,0.0,0.0,0
1-1-2017 9:00,-379.46193198563356,0.0,0.0,0.0,0
1-1-2017 10:00,-882.710492074089,0.0,0.0,0.0,0
1-1-2017 11:00,-804.1679715991916,0.0,0.0,0.0,0
1-1-2017 12:00,-912.1994126271733,0.0,0.0,0.0,0
1-1-2017 13:00,-646.6790176631571,0.0,0.0,0.0,0
1-1-2017 14:00,-920.2756709347972,0.0,0.0,0.0,0
1-1-2017 15:00,-844.7739489107045,0.0,0.0,0.0,0
1-1-2017 16:00,-761.9797251892663,0.0,0.0,0.0,0
1-1-2017 17:00,-570.5240787043934,0.0,0.0,0.0,0
1-1-2017 18:00,-254.67474996402933,0.0,0.0,0.0,0
1-1-2017 19:00,-21.407133134863216,0.0,0.0,0.0,0
1-1-2017 20:00,133.57735152097814,0.0,0.0,0.0,0
1-1-2017 21:00,20.246639395101056,0.0,0.0,0.0,0
1-1-2017 22:00,91.12409176595156,0.0,0.0,0.0,0
1-1-2017 23:00,136.01939150372402,0.0,0.0,0.0,0
2-1-2017 0:00,164.158347020782,0.0,0.0,0.0,0
2-1-2017 1:00,88.62614414069435,0.0,0.0,0.0,0
2-1-2017 2:00,4.05330362551922,0.0,0.0,0.0,0
2-1-2017 3:00,-71.65948157710545,0.0,0.0,0.0,0
2-1-2017 4:00,-155.2375649519854,0.0,0.0,0.0,0
2-1-2017 5:00,-307.50907760977907,0.0,0.0,0.0,0
2-1-2017 6:00,-269.066519844436,0.0,0.0,0.0,0
2-1-2017 7:00,-269.4679746345955,0.0,0.0,0.0,0
2-1-2017 8:00,-192.64624352145665,0.0,0.0,0.0,0
2-1-2017 9:00,337.1377652164001,0.0,0.0,0.0,0
2-1-2017 10:00,775.1751816288297,0.0,0.0,0.0,0
2-1-2017 11:00,286.06821471083276,0.0,0.0,0.0,0
2-1-2017 12:00,750.6622936950032,0.0,0.0,0.0,0
2-1-2017 13:00,973.9640218656166,0.0,0.0,0.0,0
2-1-2017 14:00,900.6747991123509,0.0,0.0,0.0,0
2-1-2017 15:00,767.6536265605189,0.0,0.0,0.0,0
2-1-2017 16:00,511.65608346053864,0.0,0.0,0.0,0
2-1-2017 17:00,332.285741601424,0.0,0.0,0.0,0
2-1-2017 18:00,-11.31438378900225,0.0,0.0,0.0,0
2-1-2017 19:00,-96.27866747420808,0.0,0.0,0.0,0
2-1-2017 20:00,-124.33711651550675,0.0,0.0,0.0,0
2-1-2017 21:00,-68.70977995214162,0.0,0.0,0.0,0
2-1-2017 22:00,-136.56151736004426,0.0,0.0,0.0,0
2-1-2017 23:00,-297.82981536808256,0.0,0.0,0.0,0
3-1-2017 0:00,-367.91926671487477,0.0,0.0,0.0,0
3-1-2017 1:00,-447.7906344146088,0.0,0.0,0.0,0
3-1-2017 2:00,-463.5360415439409,0.0,0.0,0.0,0
3-1-2017 3:00,-461.8850020720972,0.0,0.0,0.0,0
3-1-2017 4:00,-427.19035457053496,0.0,0.0,0.0,0
3-1-2017 5:00,-497.3436848046299,0.0,0.0,0.0,0
3-1-2017 6:00,-363.1006285512301,0.0,0.0,0.0,0
3-1-2017 7:00,-285.3684685508724,0.0,0.0,0.0,0
3-1-2017 8:00,-85.78834102398514,0.0,0.0,0.0,0
3-1-2017 9:00,182.45551680705648,0.0,0.0,0.0,0
3-1-2017 10:00,445.6224933391038,0.0,0.0,0.0,0
3-1-2017 11:00,661.4396226469444,0.0,0.0,0.0,0
3-1-2017 12:00,511.9428052619983,0.0,0.0,0.0,0
3-1-2017 13:00,294.1824828670917,0.0,0.0,0.0,0
3-1-2017 14:00,401.0073068600823,0.0,0.0,0.0,0
3-1-2017 15:00,300.0998559602067,0.0,0.0,0.0,0
3-1-2017 16:00,313.39030400259367,0.0,0.0,0.0,0
3-1-2017 17:00,217.32452282484724,0.0,0.0,0.0,0
3-1-2017 18:00,192.61549232898642,0.0,0.0,0.0,0
3-1-2017 19:00,-182.53773489409286,0.0,0.0,0.0,0
3-1-2017 20:00,-184.64616065603514,0.0,0.0,0.0,0
3-1-2017 21:00,-159.90469813989466,0.0,0.0,0.0,0
3-1-2017 22:00,-71.14858172849858,0.0,0.0,0.0,0
3-1-2017 23:00,-44.22343388429567,0.0,0.0,0.0,0
4-1-2017 0:00,-245.50424849688625,0.0,0.0,0.0,0
4-1-2017 1:00,-272.67283639388666,0.0,0.0,0.0,0
4-1-2017 2:00,-271.6488655149965,0.0,0.0,0.0,0
4-1-2017 3:00,-260.20205674630506,0.0,0.0,0.0,0
4-1-2017 4:00,-261.8431388997101,0.0,0.0,0.0,0
4-1-2017 5:00,-335.0226351704446,0.0,0.0,0.0,0
4-1-2017 6:00,-242.3934288893247,0.0,0.0,0.0,0
4-1-2017 7:00,-171.03224300453803,0.0,0.0,0.0,0
4-1-2017 8:00,-95.77830796999069,0.0,0.0,0.0,0
4-1-2017 9:00,112.23589328543221,0.0,0.0,0.0,0
4-1-2017 10:00,179.25287411317572,0.0,0.0,0.0,0
4-1-2017 11:00,213.88454382293276,0.0,0.0,0.0,0
4-1-2017 12:00,239.82727424494965,0.0,0.0,0.0,0
4-1-2017 13:00,115.68748902167727,0.0,0.0,0.0,0
4-1-2017 14:00,253.31894749807907,0.0,0.0,0.0,0
4-1-2017 15:00,330.017805987316,0.0,0.0,0.0,0
4-1-2017 16:00,178.52844693404677,0.0,0.0,0.0,0
4-1-2017 17:00,217.10488306055777,0.0,0.0,0.0,0
4-1-2017 18:00,420.63460408215224,0.0,0.0,0.0,0
4-1-2017 19:00,-3.041715236345908,0.0,0.0,0.0,0
4-1-2017 20:00,-24.884266276475046,0.0,0.0,0.0,0
4-1-2017 21:00,43.39964459230555,0.0,0.0,0.0,0
4-1-2017 22:00,-17.552237274604522,0.0,0.0,0.0,0
4-1-2017 23:00,-197.16949567576603,0.0,0.0,0.0,0
5-1-2017 0:00,-277.7175256517603,0.0,0.0,0.0,0
5-1-2017 1:00,-265.5899604521103,0.0,0.0,0.0,0
5-1-2017 2:00,-251.89323827108,0.0,0.0,0.0,0
5-1-2017 3:00,-229.24728691162318,0.0,0.0,0.0,0
5-1-2017 4:00,-232.43642911406437,0.0,0.0,0.0,0
5-1-2017 5:00,441.4000001989202,0.0,0.0,0.0,0
5-1-2017 6:00,-208.8825518718836,0.0,0.0,0.0,0
5-1-2017 7:00,-148.12290684109985,0.0,0.0,0.0,0
5-1-2017 8:00,-83.77573103732425,0.0,0.0,0.0,0
5-1-2017 9:00,66.04880805798643,0.0,0.0,0.0,0
5-1-2017 10:00,142.30738603952,0.0,0.0,0.0,0
5-1-2017 11:00,159.5351890092877,0.0,0.0,0.0,0
5-1-2017 12:00,97.50906009636196,0.0,0.0,0.0,0
5-1-2017 13:00,-65.05909126267125,0.0,0.0,0.0,0
5-1-2017 14:00,57.96009838974669,0.0,0.0,0.0,0
5-1-2017 15:00,193.4363629607003,0.0,0.0,0.0,0
5-1-2017 16:00,157.05578291721417,0.0,0.0,0.0,0
5-1-2017 17:00,30.589473606688443,0.0,0.0,0.0,0
5-1-2017 18:00,-70.92701659555723,0.0,0.0,0.0,0
5-1-2017 19:00,529.2076251278604,0.0,0.0,0.0,0
5-1-2017 20:00,-230.61499805312178,0.0,0.0,0.0,0
5-1-2017 21:00,-62.3310778349869,0.0,0.0,0.0,0
5-1-2017 22:00,12.287540760668207,0.0,0.0,0.0,0
5-1-2017 23:00,-100.94362514498539,0.0,0.0,0.0,0
6-1-2017 0:00,-92.30267015267054,0.0,0.0,0.0,0
6-1-2017 1:00,-118.44695396072552,0.0,0.0,0.0,0
6-1-2017 2:00,-92.57737552028061,0.0,0.0,0.0,0
6-1-2017 3:00,-73.89859304121364,0.0,0.0,0.0,0
6-1-2017 4:00,-62.76838276226954,0.0,0.0,0.0,0
6-1-2017 5:00,-108.4268832162652,0.0,0.0,0.0,0
6-1-2017 6:00,-39.46587662725119,0.0,0.0,0.0,0
6-1-2017 7:00,-45.78729423758659,0.0,0.0,0.0,0
6-1-2017 8:00,-28.752257309722154,0.0,0.0,0.0,0
6-1-2017 9:00,-29.58944495558694,0.0,0.0,0.0,0
6-1-2017 10:00,-35.59964208907786,0.0,0.0,0.0,0
6-1-2017 11:00,125.54238098972496,0.0,0.0,0.0,0
6-1-2017 12:00,-27.210794368112374,0.0,0.0,0.0,0
6-1-2017 13:00,-102.92205528354134,0.0,0.0,0.0,0
6-1-2017 14:00,-37.840610377636494,0.0,0.0,0.0,0
6-1-2017 15:00,-17.39796989345041,0.0,0.0,0.0,0
6-1-2017 16:00,104.48157473847527,0.0,0.0,0.0,0
6-1-2017 17:00,-10.020527423133444,0.0,0.0,0.0,0
6-1-2017 18:00,20.080911974556102,0.0,0.0,0.0,0
6-1-2017 19:00,-120.15444952710232,0.0,0.0,0.0,0
6-1-2017 20:00,323.9342321407132,0.0,0.0,0.0,0
6-1-2017 21:00,305.2957310928864,0.0,0.0,0.0,0
6-1-2017 22:00,-2.6268129060385945,0.0,0.0,0.0,0
6-1-2017 23:00,224.99878606403695,0.0,0.0,0.0,0
7-1-2017 0:00,50.48705972917628,0.0,0.0,0.0,0
7-1-2017 1:00,2.7540553025608006,0.0,0.0,0.0,0
7-1-2017 2:00,9.76961839156479,0.0,0.0,0.0,0
7-1-2017 3:00,27.704360379386344,0.0,0.0,0.0,0
7-1-2017 4:00,49.46212339986232,0.0,0.0,0.0,0
7-1-2017 5:00,7.731332761960857,0.0,0.0,0.0,0
7-1-2017 6:00,78.73853759386611,0.0,0.0,0.0,0
7-1-2017 7:00,96.18665961137344,0.0,0.0,0.0,0
7-1-2017 8:00,70.38015993228896,0.0,0.0,0.0,0
7-1-2017 9:00,-41.44077884800981,0.0,0.0,0.0,0
7-1-2017 10:00,-120.61003833693155,0.0,0.0,0.0,0
7-1-2017 11:00,-197.98408238949946,0.0,0.0,0.0,0
7-1-2017 12:00,-150.59459143265371,0.0,0.0,0.0,0
7-1-2017 13:00,16.65152332890966,0.0,0.0,0.0,0
7-1-2017 14:00,-289.9342912783093,0.0,0.0,0.0,0
7-1-2017 15:00,-231.07478964750305,0.0,0.0,0.0,0
7-1-2017 16:00,-213.6079176442977,0.0,0.0,0.0,0
7-1-2017 17:00,-35.00256445895377,0.0,0.0,0.0,0
7-1-2017 18:00,-151.76994726329463,0.0,0.0,0.0,0
7-1-2017 19:00,0.19334172576668607,0.0,0.0,0.0,0
7-1-2017 20:00,68.39198195817744,0.0,0.0,0.0,0
7-1-2017 21:00,-94.30787053785912,0.0,0.0,0.0,0
7-1-2017 22:00,8.072081435604446,0.0,0.0,0.0,0
7-1-2017 23:00,195.99810384837792,0.0,0.0,0.0,0
8-1-2017 0:00,280.80735475331085,0.0,0.0,0.0,0
8-1-2017 1:00,314.66002854126907,0.0,0.0,0.0,0
8-1-2017 2:00,357.17597511196686,0.0,0.0,0.0,0
8-1-2017 3:00,390.6310754416777,0.0,0.0,0.0,0
8-1-2017 4:00,415.2504022573254,0.0,0.0,0.0,0
8-1-2017 5:00,415.88788779717424,0.0,0.0,0.0,0
8-1-2017 6:00,449.7718572336264,0.0,0.0,0.0,0
8-1-2017 7:00,387.83977471829326,0.0,0.0,0.0,0
8-1-2017 8:00,225.93199427157697,0.0,0.0,0.0,0
8-1-2017 9:00,-171.55429295558304,0.0,0.0,0.0,0
8-1-2017 10:00,-619.8542814674944,0.0,0.0,0.0,0
8-1-2017 11:00,-807.5060593189924,0.0,0.0,0.0,0
8-1-2017 12:00,-725.1255687150233,0.0,0.0,0.0,0
8-1-2017 13:00,-500.51165524949954,0.0,0.0,0.0,0
8-1-2017 14:00,-708.044306342874,0.0,0.0,0.0,0
8-1-2017 15:00,-651.5075205384796,0.0,0.0,0.0,0
8-1-2017 16:00,-569.443140407251,0.0,0.0,0.0,0
8-1-2017 17:00,-451.29022776099896,0.0,0.0,0.0,0
8-1-2017 18:00,-165.9163286534142,0.0,0.0,0.0,0
8-1-2017 19:00,-14.17540964822706,0.0,0.0,0.0,0
8-1-2017 20:00,97.7721686741844,0.0,0.0,0.0,0
8-1-2017 21:00,113.74770812538634,0.0,0.0,0.0,0
8-1-2017 22:00,136.13430167679894,0.0,0.0,0.0,0
8-1-2017 23:00,126.49489313783113,0.0,0.0,0.0,0
9-1-2017 0:00,173.93926688811814,0.0,0.0,0.0,0
9-1-2017 1:00,152.60854378508418,0.0,0.0,0.0,0
9-1-2017 2:00,106.82579873190957,0.0,0.0,0.0,0
9-1-2017 3:00,57.722182297942936,0.0,0.0,0.0,0
9-1-2017 4:00,-1.739644587840985,0.0,0.0,0.0,0
9-1-2017 5:00,-75.9249424624013,0.0,0.0,0.0,0
9-1-2017 6:00,-77.21526801356117,0.0,0.0,0.0,0
9-1-2017 7:00,-127.06048991382158,0.0,0.0,0.0,0
9-1-2017 8:00,-98.3924859802571,0.0,0.0,0.0,0
9-1-2017 9:00,118.48549999062857,0.0,0.0,0.0,0
9-1-2017 10:00,406.6148513083797,0.0,0.0,0.0,0
9-1-2017 11:00,574.6754085106047,0.0,0.0,0.0,0
9-1-2017 12:00,439.5369676143498,0.0,0.0,0.0,0
9-1-2017 13:00,151.80263568114924,0.0,0.0,0.0,0
9-1-2017 14:00,305.73710399893343,0.0,0.0,0.0,0
9-1-2017 15:00,348.2851298742312,0.0,0.0,0.0,0
9-1-2017 16:00,327.7547310016862,0.0,0.0,0.0,0
9-1-2017 17:00,160.90881024548503,0.0,0.0,0.0,0
9-1-2017 18:00,21.83759840163384,0.0,0.0,0.0,0
9-1-2017 19:00,63.36457451610249,0.0,0.0,0.0,0
9-1-2017 20:00,34.20951802167042,0.0,0.0,0.0,0
9-1-2017 21:00,-10.908285377924585,0.0,0.0,0.0,0
9-1-2017 22:00,-167.6275641141758,0.0,0.0,0.0,0
9-1-2017 23:00,-214.6449174704985,0.0,0.0,0.0,0
10-1-2017 0:00,-153.6438787886566,0.0,0.0,0.0,0
10-1-2017 1:00,-147.8382940776305,0.0,0.0,0.0,0
10-1-2017 2:00,-167.5120340127312,0.0,0.0,0.0,0
10-1-2017 3:00,-172.60382649457574,0.0,0.0,0.0,0
10-1-2017 4:00,-172.00305796336283,0.0,0.0,0.0,0
10-1-2017 5:00,-209.9010376532533,0.0,0.0,0.0,0
10-1-2017 6:00,-138.96053679132092,0.0,0.0,0.0,0
10-1-2017 7:00,-110.89755719530126,0.0,0.0,0.0,0
10-1-2017 8:00,-70.21901392026234,0.0,0.0,0.0,0
10-1-2017 9:00,35.09224878989107,0.0,0.0,0.0,0
10-1-2017 10:00,96.1476718238232,0.0,0.0,0.0,0
10-1-2017 11:00,97.40716286585689,0.0,0.0,0.0,0
10-1-2017 12:00,123.2604317216244,0.0,0.0,0.0,0
10-1-2017 13:00,47.992702990517955,0.0,0.0,0.0,0
10-1-2017 14:00,174.1932241880429,0.0,0.0,0.0,0
10-1-2017 15:00,166.36945665895564,0.0,0.0,0.0,0
10-1-2017 16:00,90.32705819661078,0.0,0.0,0.0,0
10-1-2017 17:00,225.75674300719038,0.0,0.0,0.0,0
10-1-2017 18:00,-25.812737302264395,0.0,0.0,0.0,0
10-1-2017 19:00,-108.06578969982229,0.0,0.0,0.0,0
10-1-2017 20:00,122.30641508823146,0.0,0.0,0.0,0
10-1-2017 21:00,58.64136249567946,0.0,0.0,0.0,0
10-1-2017 22:00,-41.16275888397604,0.0,0.0,0.0,0
10-1-2017 23:00,72.99294295072946,0.0,0.0,0.0,0
11-1-2017 0:00,-84.98642111866843,0.0,0.0,0.0,0
11-1-2017 1:00,-72.95811236404165,0.0,0.0,0.0,0
11-1-2017 2:00,-74.33643095152706,0.0,0.0,0.0,0
11-1-2017 3:00,-67.76998325170871,0.0,0.0,0.0,0
11-1-2017 4:00,-99.68343039890124,0.0,0.0,0.0,0
11-1-2017 5:00,-139.95845671630468,0.0,0.0,0.0,0
11-1-2017 6:00,-76.96149425346266,0.0,0.0,0.0,0
11-1-2017 7:00,-48.8562748025804,0.0,0.0,0.0,0
11-1-2017 8:00,-22.183153827484603,0.0,0.0,0.0,0
11-1-2017 9:00,-248.40080525322196,0.0,0.0,0.0,0
11-1-2017 10:00,112.28900462598881,0.0,0.0,0.0,0
11-1-2017 11:00,189.88574463692726,0.0,0.0,0.0,0
11-1-2017 12:00,88.77903837381541,0.0,0.0,0.0,0
11-1-2017 13:00,-58.76544644817159,0.0,0.0,0.0,0
11-1-2017 14:00,143.54776833611936,0.0,0.0,0.0,0
11-1-2017 15:00,172.92884810967212,0.0,0.0,0.0,0
11-1-2017 16:00,33.29436319499155,0.0,0.0,0.0,0
11-1-2017 17:00,51.69849618049034,0.0,0.0,0.0,0
11-1-2017 18:00,4.889590013569887,0.0,0.0,0.0,0
11-1-2017 19:00,2.3579224915406485,0.0,0.0,0.0,0
11-1-2017 20:00,-22.291198050365438,0.0,0.0,0.0,0
11-1-2017 21:00,8.546086945802017,0.0,0.0,0.0,0
11-1-2017 22:00,-69.07226494293332,0.0,0.0,0.0,0
11-1-2017 23:00,-89.23289578287608,0.0,0.0,0.0,0
12-1-2017 0:00,-32.30205046918968,0.0,0.0,0.0,0
12-1-2017 1:00,-27.856749394200733,0.0,0.0,0.0,0
12-1-2017 2:00,-10.745378357310074,0.0,0.0,0.0,0
12-1-2017 3:00,0.8835778009326987,0.0,0.0,0.0,0
12-1-2017 4:00,29.95997571904877,0.0,0.0,0.0,0
12-1-2017 5:00,-22.549206063192287,0.0,0.0,0.0,0
12-1-2017 6:00,28.50710916323328,0.0,0.0,0.0,0
12-1-2017 7:00,37.94732041630641,0.0,0.0,0.0,0
12-1-2017 8:00,32.11777103878808,0.0,0.0,0.0,0
12-1-2017 9:00,-9.670956530393369,0.0,0.0,0.0,0
12-1-2017 10:00,-93.72895121171268,0.0,0.0,0.0,0
12-1-2017 11:00,-66.38715363767687,0.0,0.0,0.0,0
12-1-2017 12:00,13.993973574523125,0.0,0.0,0.0,0
12-1-2017 13:00,0.8827557944448472,0.0,0.0,0.0,0
12-1-2017 14:00,167.40868729829026,0.0,0.0,0.0,0
12-1-2017 15:00,-25.05536249272791,0.0,0.0,0.0,0
12-1-2017 16:00,-55.512024825213985,0.0,0.0,0.0,0
12-1-2017 17:00,-50.18090876635961,0.0,0.0,0.0,0
12-1-2017 18:00,38.46329410768999,0.0,0.0,0.0,0
12-1-2017 19:00,-28.484922114639403,0.0,0.0,0.0,0
12-1-2017 20:00,-199.1033015623334,0.0,0.0,0.0,0
12-1-2017 21:00,-165.1566577079126,0.0,0.0,0.0,0
12-1-2017 22:00,94.59652656270327,0.0,0.0,0.0,0
12-1-2017 23:00,114.26532971654387,0.0,0.0,0.0,0
13-1-2017 0:00,67.52215108174573,0.0,0.0,0.0,0
13-1-2017 1:00,50.635571557112826,0.0,0.0,0.0,0
13-1-2017 2:00,59.03775929839594,0.0,0.0,0.0,0
13-1-2017 3:00,77.28035099507906,0.0,0.0,0.0,0
13-1-2017 4:00,78.30534579415234,0.0,0.0,0.0,0
13-1-2017 5:00,51.526093458171545,0.0,0.0,0.0,0
13-1-2017 6:00,85.08584635928014,0.0,0.0,0.0,0
13-1-2017 7:00,56.42388649386692,0.0,0.0,0.0,0
13-1-2017 8:00,34.01450384305599,0.0,0.0,0.0,0
13-1-2017 9:00,-43.83189727338845,0.0,0.0,0.0,0
13-1-2017 10:00,-179.4144169073179,0.0,0.0,0.0,0
13-1-2017 11:00,40.20571783773471,0.0,0.0,0.0,0
13-1-2017 12:00,-86.55204186683329,0.0,0.0,0.0,0
13-1-2017 13:00,-94.98391076878431,0.0,0.0,0.0,0
13-1-2017 14:00,-69.2191807091657,0.0,0.0,0.0,0
13-1-2017 15:00,-321.0422782285359,0.0,0.0,0.0,0
13-1-2017 16:00,161.4353966187267,0.0,0.0,0.0,0
13-1-2017 17:00,25.339798808454816,0.0,0.0,0.0,0
13-1-2017 18:00,-72.35658621900689,0.0,0.0,0.0,0
13-1-2017 19:00,-58.8448490775952,0.0,0.0,0.0,0
13-1-2017 20:00,-21.75598536703626,0.0,0.0,0.0,0
13-1-2017 21:00,-81.12153581688847,0.0,0.0,0.0,0
13-1-2017 22:00,50.402125547279184,0.0,0.0,0.0,0
13-1-2017 23:00,166.5993036291036,0.0,0.0,0.0,0
14-1-2017 0:00,249.66692603201648,0.0,0.0,0.0,0
14-1-2017 1:00,237.45726514072544,0.0,0.0,0.0,0
14-1-2017 2:00,287.5339566846162,0.0,0.0,0.0,0
14-1-2017 3:00,314.3298347788742,0.0,0.0,0.0,0
14-1-2017 4:00,351.022391229644,0.0,0.0,0.0,0
14-1-2017 5:00,351.1024588876203,0.0,0.0,0.0,0
14-1-2017 6:00,374.83199425436624,0.0,0.0,0.0,0
14-1-2017 7:00,334.58595647853895,0.0,0.0,0.0,0
14-1-2017 8:00,199.60280544460124,0.0,0.0,0.0,0
14-1-2017 9:00,-145.85117639480643,0.0,0.0,0.0,0
14-1-2017 10:00,-481.4102186433132,0.0,0.0,0.0,0
14-1-2017 11:00,-441.41496027753533,0.0,0.0,0.0,0
14-1-2017 12:00,-580.5679730800633,0.0,0.0,0.0,0
14-1-2017 13:00,-424.6070902544926,0.0,0.0,0.0,0
14-1-2017 14:00,-539.1967860451471,0.0,0.0,0.0,0
14-1-2017 15:00,-569.7961209285194,0.0,0.0,0.0,0
14-1-2017 16:00,-480.68749554970907,0.0,0.0,0.0,0
14-1-2017 17:00,-362.7824973023604,0.0,0.0,0.0,0
14-1-2017 18:00,-198.68152503242703,0.0,0.0,0.0,0
14-1-2017 19:00,-110.90357768568225,0.0,0.0,0.0,0
14-1-2017 20:00,-23.009883499299065,0.0,0.0,0.0,0
14-1-2017 21:00,20.98921957229186,0.0,0.0,0.0,0
14-1-2017 22:00,63.83515636847426,0.0,0.0,0.0,0
14-1-2017 23:00,201.09550162607297,0.0,0.0,0.0,0
15-1-2017 0:00,428.1756834075161,0.0,0.0,0.0,0
15-1-2017 1:00,519.4084622169477,0.0,0.0,0.0,0
15-1-2017 2:00,540.3451786308271,0.0,0.0,0.0,0
15-1-2017 3:00,550.1398641900407,0.0,0.0,0.0,0
15-1-2017 4:00,578.7164569314199,0.0,0.0,0.0,0
15-1-2017 5:00,561.4435422597744,0.0,0.0,0.0,0
15-1-2017 6:00,553.5705577685778,0.0,0.0,0.0,0
15-1-2017 7:00,477.6583093090561,0.0,0.0,0.0,0
15-1-2017 8:00,305.7892571187111,0.0,0.0,0.0,0
15-1-2017 9:00,-153.4163559150016,0.0,0.0,0.0,0
15-1-2017 10:00,-591.4558582021119,0.0,0.0,0.0,0
15-1-2017 11:00,-818.2594136396352,0.0,0.0,0.0,0
15-1-2017 12:00,-728.4716169641493,0.0,0.0,0.0,0
15-1-2017 13:00,-565.4426924273253,0.0,0.0,0.0,0
15-1-2017 14:00,-681.8115240845214,0.0,0.0,0.0,0
15-1-2017 15:00,-669.8618063481637,0.0,0.0,0.0,0
15-1-2017 16:00,-569.0967358892556,0.0,0.0,0.0,0
15-1-2017 17:00,-407.19241682130803,0.0,0.0,0.0,0
15-1-2017 18:00,-177.7053624910007,0.0,0.0,0.0,0
15-1-2017 19:00,-61.00321811795118,0.0,0.0,0.0,0
15-1-2017 20:00,24.163293365227844,0.0,0.0,0.0,0
15-1-2017 21:00,19.98126221731991,0.0,0.0,0.0,0
15-1-2017 22:00,100.26167159909687,0.0,0.0,0.0,0
15-1-2017 23:00,170.36738118604944,0.0,0.0,0.0,0
16-1-2017 0:00,256.63231949960243,0.0,0.0,0.0,0
16-1-2017 1:00,290.09381280602224,0.0,0.0,0.0,0
16-1-2017 2:00,257.2968288861564,0.0,0.0,0.0,0
16-1-2017 3:00,212.536596706591,0.0,0.0,0.0,0
16-1-2017 4:00,157.9418361168955,0.0,0.0,0.0,0
16-1-2017 5:00,108.24506263386718,0.0,0.0,0.0,0
16-1-2017 6:00,75.99868180296812,0.0,0.0,0.0,0
16-1-2017 7:00,8.62863748695338,0.0,0.0,0.0,0
16-1-2017 8:00,5.702098967402662,0.0,0.0,0.0,0
16-1-2017 9:00,39.69875211496651,0.0,0.0,0.0,0
16-1-2017 10:00,51.702569147045324,0.0,0.0,0.0,0
16-1-2017 11:00,56.71397926401437,0.0,0.0,0.0,0
16-1-2017 12:00,107.48636477530658,0.0,0.0,0.0,0
16-1-2017 13:00,80.56942870379862,0.0,0.0,0.0,0
16-1-2017 14:00,158.407558860476,0.0,0.0,0.0,0
16-1-2017 15:00,161.50242689697825,0.0,0.0,0.0,0
16-1-2017 16:00,161.0784572256009,0.0,0.0,0.0,0
16-1-2017 17:00,271.8998024713603,0.0,0.0,0.0,0
16-1-2017 18:00,201.68064421925396,0.0,0.0,0.0,0
16-1-2017 19:00,-8.072568584088003,0.0,0.0,0.0,0
16-1-2017 20:00,-115.54279400680912,0.0,0.0,0.0,0
16-1-2017 21:00,-146.790794952076,0.0,0.0,0.0,0
16-1-2017 22:00,-75.63758024677645,0.0,0.0,0.0,0
16-1-2017 23:00,-89.21817359254237,0.0,0.0,0.0,0
17-1-2017 0:00,-94.0301460089513,0.0,0.0,0.0,0
17-1-2017 1:00,-48.00720302196669,0.0,0.0,0.0,0
17-1-2017 2:00,-51.24515209200126,0.0,0.0,0.0,0
17-1-2017 3:00,-46.287566826768625,0.0,0.0,0.0,0
17-1-2017 4:00,-36.306431519647504,0.0,0.0,0.0,0
17-1-2017 5:00,-41.7208589352681,0.0,0.0,0.0,0
17-1-2017 6:00,-24.35443122707943,0.0,0.0,0.0,0
17-1-2017 7:00,-8.851008278525796,0.0,0.0,0.0,0
17-1-2017 8:00,22.416229993778643,0.0,0.0,0.0,0
17-1-2017 9:00,-3.1303977815759936,0.0,0.0,0.0,0
17-1-2017 10:00,-5.955780291943938,0.0,0.0,0.0,0
17-1-2017 11:00,71.68807651788029,0.0,0.0,0.0,0
17-1-2017 12:00,-2.1874679966567783,0.0,0.0,0.0,0
17-1-2017 13:00,-76.5983149404235,0.0,0.0,0.0,0
17-1-2017 14:00,19.988726766200216,0.0,0.0,0.0,0
17-1-2017 15:00,50.08069483891995,0.0,0.0,0.0,0
17-1-2017 16:00,147.82141967050825,0.0,0.0,0.0,0
17-1-2017 17:00,82.30875849738459,0.0,0.0,0.0,0
17-1-2017 18:00,13.042355066169648,0.0,0.0,0.0,0
17-1-2017 19:00,-124.18805528429994,0.0,0.0,0.0,0
17-1-2017 20:00,-17.096857983657856,0.0,0.0,0.0,0
17-1-2017 21:00,89.74996454374423,0.0,0.0,0.0,0
17-1-2017 22:00,55.82438538153292,0.0,0.0,0.0,0
17-1-2017 23:00,-89.79411008798479,0.0,0.0,0.0,0
18-1-2017 0:00,-31.623124811577327,0.0,0.0,0.0,0
18-1-2017 1:00,-61.29218917556568,0.0,0.0,0.0,0
18-1-2017 2:00,-62.6305381448376,0.0,0.0,0.0,0
18-1-2017 3:00,-65.1847162105712,0.0,0.0,0.0,0
18-1-2017 4:00,-73.80133350864571,0.0,0.0,0.0,0
18-1-2017 5:00,-79.15945184223165,0.0,0.0,0.0,0
18-1-2017 6:00,-62.205282575826004,0.0,0.0,0.0,0
18-1-2017 7:00,-37.5077155551669,0.0,0.0,0.0,0
18-1-2017 8:00,4.030323261555168,0.0,0.0,0.0,0
18-1-2017 9:00,88.33477240891034,0.0,0.0,0.0,0
18-1-2017 10:00,74.69572955793365,0.0,0.0,0.0,0
18-1-2017 11:00,20.89893164701016,0.0,0.0,0.0,0
18-1-2017 12:00,126.66471284668341,0.0,0.0,0.0,0
18-1-2017 13:00,3.7178279188333363,0.0,0.0,0.0,0
18-1-2017 14:00,112.66888027536993,0.0,0.0,0.0,0
18-1-2017 15:00,59.34513735256655,0.0,0.0,0.0,0
18-1-2017 16:00,214.62602611370085,0.0,0.0,0.0,0
18-1-2017 17:00,121.7844834862317,0.0,0.0,0.0,0
18-1-2017 18:00,36.72989624868296,0.0,0.0,0.0,0
18-1-2017 19:00,15.826507506714961,0.0,0.0,0.0,0
18-1-2017 20:00,8.92709189242396,0.0,0.0,0.0,0
18-1-2017 21:00,-51.514618221414594,0.0,0.0,0.0,0
18-1-2017 22:00,-51.66549707309514,0.0,0.0,0.0,0
18-1-2017 23:00,-158.98694400656314,0.0,0.0,0.0,0
19-1-2017 0:00,-62.10189536635403,0.0,0.0,0.0,0
19-1-2017 1:00,-75.59339738252152,0.0,0.0,0.0,0
19-1-2017 2:00,-79.13257655223583,0.0,0.0,0.0,0
19-1-2017 3:00,-76.28894825014231,0.0,0.0,0.0,0
19-1-2017 4:00,-72.68459296746528,0.0,0.0,0.0,0
19-1-2017 5:00,-78.24946443166891,0.0,0.0,0.0,0
19-1-2017 6:00,-71.36061581969875,0.0,0.0,0.0,0
19-1-2017 7:00,-44.872200121670176,0.0,0.0,0.0,0
19-1-2017 8:00,-33.346656155267965,0.0,0.0,0.0,0
19-1-2017 9:00,-25.013020869930187,0.0,0.0,0.0,0
19-1-2017 10:00,30.926524274639632,0.0,0.0,0.0,0
19-1-2017 11:00,-91.9686800208749,0.0,0.0,0.0,0
19-1-2017 12:00,9.37067522916459,0.0,0.0,0.0,0
19-1-2017 13:00,-220.34191754413314,0.0,0.0,0.0,0
19-1-2017 14:00,-71.60652439904698,0.0,0.0,0.0,0
19-1-2017 15:00,-42.46564817873718,0.0,0.0,0.0,0
19-1-2017 16:00,208.5943537661608,0.0,0.0,0.0,0
19-1-2017 17:00,473.36748161057835,0.0,0.0,0.0,0
19-1-2017 18:00,86.23826249292756,0.0,0.0,0.0,0
19-1-2017 19:00,421.6701203918335,0.0,0.0,0.0,0
19-1-2017 20:00,-86.69168310501732,0.0,0.0,0.0,0
19-1-2017 21:00,47.168463048674994,0.0,0.0,0.0,0
19-1-2017 22:00,639.9566175868106,0.0,0.0,0.0,0
19-1-2017 23:00,-235.46344773132205,0.0,0.0,0.0,0
20-1-2017 0:00,-37.55000264802561,0.0,0.0,0.0,0
20-1-2017 1:00,-137.40564331592554,0.0,0.0,0.0,0
20-1-2017 2:00,-144.8773536856363,0.0,0.0,0.0,0
20-1-2017 3:00,-148.99762001526915,0.0,0.0,0.0,0
20-1-2017 4:00,-98.86631387281318,0.0,0.0,0.0,0
20-1-2017 5:00,-130.45542972405588,0.0,0.0,0.0,0
20-1-2017 6:00,-110.3593930229431,0.0,0.0,0.0,0
20-1-2017 7:00,-106.70997419179002,0.0,0.0,0.0,0
20-1-2017 8:00,-71.26677061995133,0.0,0.0,0.0,0
20-1-2017 9:00,-16.881052387199816,0.0,0.0,0.0,0
20-1-2017 10:00,-68.52057787681383,0.0,0.0,0.0,0
20-1-2017 11:00,77.21815281334875,0.0,0.0,0.0,0
20-1-2017 12:00,-47.54657651597654,0.0,0.0,0.0,0
20-1-2017 13:00,9.304942469096659,0.0,0.0,0.0,0
20-1-2017 14:00,-105.27550399344909,0.0,0.0,0.0,0
20-1-2017 15:00,268.5198109737928,0.0,0.0,0.0,0
20-1-2017 16:00,243.0683207643831,0.0,0.0,0.0,0
20-1-2017 17:00,-9.496750992831721,0.0,0.0,0.0,0
20-1-2017 18:00,26.596527935896574,0.0,0.0,0.0,0
20-1-2017 19:00,-75.19126823574311,0.0,0.0,0.0,0
20-1-2017 20:00,182.05963967342564,0.0,0.0,0.0,0
20-1-2017 21:00,166.92450763553143,0.0,0.0,0.0,0
20-1-2017 22:00,84.8197422337696,0.0,0.0,0.0,0
20-1-2017 23:00,104.13910520125842,0.0,0.0,0.0,0
21-1-2017 0:00,-38.89100660207214,0.0,0.0,0.0,0
21-1-2017 1:00,-11.821344989563158,0.0,0.0,0.0,0
21-1-2017 2:00,-14.656145627128126,0.0,0.0,0.0,0
21-1-2017 3:00,13.489134343655223,0.0,0.0,0.0,0
21-1-2017 4:00,8.169667263751762,0.0,0.0,0.0,0
21-1-2017 5:00,25.07355199450876,0.0,0.0,0.0,0
21-1-2017 6:00,25.474021753803527,0.0,0.0,0.0,0
21-1-2017 7:00,35.08788242890989,0.0,0.0,0.0,0
21-1-2017 8:00,43.34218431701345,0.0,0.0,0.0,0
21-1-2017 9:00,-97.27381463171798,0.0,0.0,0.0,0
21-1-2017 10:00,-213.7749411731163,0.0,0.0,0.0,0
21-1-2017 11:00,-186.14480591487632,0.0,0.0,0.0,0
21-1-2017 12:00,-176.11615024116622,0.0,0.0,0.0,0
21-1-2017 13:00,-219.4262491461485,0.0,0.0,0.0,0
21-1-2017 14:00,-134.29826486475338,0.0,0.0,0.0,0
21-1-2017 15:00,-140.98424079900622,0.0,0.0,0.0,0
21-1-2017 16:00,-1.6542500995492446,0.0,0.0,0.0,0
21-1-2017 17:00,-145.5809301763221,0.0,0.0,0.0,0
21-1-2017 18:00,176.7214380808598,0.0,0.0,0.0,0
21-1-2017 19:00,254.54119306341113,0.0,0.0,0.0,0
21-1-2017 20:00,263.99201760333654,0.0,0.0,0.0,0
21-1-2017 21:00,-103.58439486649888,0.0,0.0,0.0,0
21-1-2017 22:00,-46.41516596498002,0.0,0.0,0.0,0
21-1-2017 23:00,241.9605395313081,0.0,0.0,0.0,0
22-1-2017 0:00,189.09910596094574,0.0,0.0,0.0,0
22-1-2017 1:00,236.00197744470574,0.0,0.0,0.0,0
22-1-2017 2:00,263.2787526788494,0.0,0.0,0.0,0
22-1-2017 3:00,332.1969943461256,0.0,0.0,0.0,0
22-1-2017 4:00,352.7627310168107,0.0,0.0,0.0,0
22-1-2017 5:00,390.3996717366301,0.0,0.0,0.0,0
22-1-2017 6:00,395.5218983440777,0.0,0.0,0.0,0
22-1-2017 7:00,357.90306319876845,0.0,0.0,0.0,0
22-1-2017 8:00,273.3302609441986,0.0,0.0,0.0,0
22-1-2017 9:00,-142.8261624969374,0.0,0.0,0.0,0
22-1-2017 10:00,-555.0893726938876,0.0,0.0,0.0,0
22-1-2017 11:00,-831.3972232679517,0.0,0.0,0.0,0
22-1-2017 12:00,-704.6322108464279,0.0,0.0,0.0,0
22-1-2017 13:00,-600.1878584915108,0.0,0.0,0.0,0
22-1-2017 14:00,-716.8268263672321,0.0,0.0,0.0,0
22-1-2017 15:00,-728.1205820087928,0.0,0.0,0.0,0
22-1-2017 16:00,-551.9820353767541,0.0,0.0,0.0,0
22-1-2017 17:00,-376.69996777249156,0.0,0.0,0.0,0
22-1-2017 18:00,-242.93342299143023,0.0,0.0,0.0,0
22-1-2017 19:00,-52.75282592713904,0.0,0.0,0.0,0
22-1-2017 20:00,33.52525989208823,0.0,0.0,0.0,0
22-1-2017 21:00,-14.996943282631264,0.0,0.0,0.0,0
22-1-2017 22:00,48.41845184554029,0.0,0.0,0.0,0
22-1-2017 23:00,-44.32407086441265,0.0,0.0,0.0,0
23-1-2017 0:00,-86.38841657625812,0.0,0.0,0.0,0
23-1-2017 1:00,-172.24790447955843,0.0,0.0,0.0,0
23-1-2017 2:00,-310.9351226320173,0.0,0.0,0.0,0
23-1-2017 3:00,-424.61948852655905,0.0,0.0,0.0,0
23-1-2017 4:00,-543.7801031000142,0.0,0.0,0.0,0
23-1-2017 5:00,-582.8272403117205,0.0,0.0,0.0,0
23-1-2017 6:00,-643.080390776709,0.0,0.0,0.0,0
23-1-2017 7:00,-699.8119013517244,0.0,0.0,0.0,0
23-1-2017 8:00,-725.881787358258,0.0,0.0,0.0,0
23-1-2017 9:00,772.8845986660758,0.0,0.0,0.0,0
23-1-2017 10:00,2140.2440283886544,0.0,0.0,0.0,0
23-1-2017 11:00,1610.7329155573666,0.0,0.0,0.0,0
23-1-2017 12:00,1741.5390083017842,0.0,0.0,0.0,0
23-1-2017 13:00,1952.0322791635158,0.0,0.0,0.0,0
23-1-2017 14:00,1940.910826377593,0.0,0.0,0.0,0
23-1-2017 15:00,1977.3137582756399,0.0,0.0,0.0,0
23-1-2017 16:00,93.2931809149959,0.0,0.0,0.0,0
23-1-2017 17:00,-466.51005293005005,0.0,0.0,0.0,0
23-1-2017 18:00,-850.4733807554533,0.0,0.0,0.0,0
23-1-2017 19:00,-572.0194380729065,0.0,0.0,0.0,0
23-1-2017 20:00,-288.8115874378616,0.0,0.0,0.0,0
23-1-2017 21:00,-347.10337846976677,0.0,0.0,0.0,0
23-1-2017 22:00,-551.7123355249039,0.0,0.0,0.0,0
23-1-2017 23:00,-420.7936048510601,0.0,0.0,0.0,0
24-1-2017 0:00,-441.32138111435074,0.0,0.0,0.0,0
24-1-2017 1:00,-516.9235068417179,0.0,0.0,0.0,0
24-1-2017 2:00,-328.3649968177858,0.0,0.0,0.0,0
24-1-2017 3:00,-381.4922487111521,0.0,0.0,0.0,0
24-1-2017 4:00,-261.5400826046848,0.0,0.0,0.0,0
24-1-2017 5:00,-239.94928068256013,0.0,0.0,0.0,0
24-1-2017 6:00,-203.36579115462678,0.0,0.0,0.0,0
24-1-2017 7:00,-157.55844037874544,0.0,0.0,0.0,0
24-1-2017 8:00,-48.863873356639715,0.0,0.0,0.0,0
24-1-2017 9:00,-29.861704894839704,0.0,0.0,0.0,0
24-1-2017 10:00,181.81322776630736,0.0,0.0,0.0,0
24-1-2017 11:00,22.611715696837564,0.0,0.0,0.0,0
24-1-2017 12:00,186.36175178319127,0.0,0.0,0.0,0
24-1-2017 13:00,3.2779408823082576,0.0,0.0,0.0,0
24-1-2017 14:00,-28.191997083245496,0.0,0.0,0.0,0
24-1-2017 15:00,144.04162208497974,0.0,0.0,0.0,0
24-1-2017 16:00,72.44577094815918,0.0,0.0,0.0,0
24-1-2017 17:00,63.716654848282815,0.0,0.0,0.0,0
24-1-2017 18:00,353.572873610894,0.0,0.0,0.0,0
24-1-2017 19:00,191.78891649739876,0.0,0.0,0.0,0
24-1-2017 20:00,-85.31471346603689,0.0,0.0,0.0,0
24-1-2017 21:00,117.3453155093548,0.0,0.0,0.0,0
24-1-2017 22:00,-167.2080600911786,0.0,0.0,0.0,0
24-1-2017 23:00,147.47185760437583,0.0,0.0,0.0,0
25-1-2017 0:00,-73.63941557244675,0.0,0.0,0.0,0
25-1-2017 1:00,-187.86340202020847,0.0,0.0,0.0,0
25-1-2017 2:00,-210.77838671621316,0.0,0.0,0.0,0
25-1-2017 3:00,-211.8277475047314,0.0,0.0,0.0,0
25-1-2017 4:00,-214.3341352113216,0.0,0.0,0.0,0
25-1-2017 5:00,-194.41636705309588,0.0,0.0,0.0,0
25-1-2017 6:00,-175.14721042997098,0.0,0.0,0.0,0
25-1-2017 7:00,-129.10327530456357,0.0,0.0,0.0,0
25-1-2017 8:00,-74.39653225518941,0.0,0.0,0.0,0
25-1-2017 9:00,-18.73640527844441,0.0,0.0,0.0,0
25-1-2017 10:00,8.146077217018956,0.0,0.0,0.0,0
25-1-2017 11:00,65.35621280511259,0.0,0.0,0.0,0
25-1-2017 12:00,308.1422391291476,0.0,0.0,0.0,0
25-1-2017 13:00,691.9289013181462,0.0,0.0,0.0,0
25-1-2017 14:00,-6.381966974541683,0.0,0.0,0.0,0
25-1-2017 15:00,-110.52010568364221,0.0,0.0,0.0,0
25-1-2017 16:00,155.508071761074,0.0,0.0,0.0,0
25-1-2017 17:00,334.63052047638416,0.0,0.0,0.0,0
25-1-2017 18:00,44.34373289702535,0.0,0.0,0.0,0
25-1-2017 19:00,21.581827785871837,37.11,410.54,-336.31,0
25-1-2017 20:00,90.38666902234036,18.25,391.36,-354.86,0
25-1-2017 21:00,181.82905188815994,75.31,448.16,-297.54,0
25-1-2017 22:00,-137.96475115949124,151.19,523.82,-221.44,0
25-1-2017 23:00,402.78034465605197,-113.88,259.16,-486.92,1
26-1-2017 0:00,17.41960186427559,333.72,708.73,-41.29,0
26-1-2017 1:00,69.17635535305794,14.9,390.45,-360.66,0
26-1-2017 2:00,123.39455266387381,57.64,432.9,-317.63,0
26-1-2017 3:00,178.97023693455583,102.43,477.42,-272.55,0
26-1-2017 4:00,224.18306026603113,148.39,523.12,-226.34,0
26-1-2017 5:00,285.8603172871758,185.82,560.29,-188.64,0
26-1-2017 6:00,304.37436700595697,236.93,611.17,-137.31,0
26-1-2017 7:00,307.97809180695276,252.4,626.37,-121.58,0
26-1-2017 8:00,277.3623040572447,255.53,629.22,-118.16,0
26-1-2017 9:00,-129.73288885024704,230.33,603.71,-143.06,0
26-1-2017 10:00,-570.4163630808922,-106.1,268.07,-480.27,1
26-1-2017 11:00,-886.412143719229,-470.48,-94.81,-846.15,1
26-1-2017 12:00,-612.2670759919808,-734.82,-358.03,-1111.61,0
26-1-2017 13:00,-588.5008393944103,-506.62,-130.01,-883.23,0
26-1-2017 14:00,-732.3540270005144,-487.51,-111.15,-863.87,0
26-1-2017 15:00,-718.2728508255826,-608.39,-231.85,-984.94,0
26-1-2017 16:00,-509.13493155743345,-597.68,-221.35,-974.02,0
26-1-2017 17:00,-373.3585442707422,-423.41,-47.31,-799.5,0
26-1-2017 18:00,-192.8677821431849,-310.55,65.26,-686.36,0
26-1-2017 19:00,44.35980169360721,-160.56,215.06,-536.18,0
26-1-2017 20:00,168.19829703052517,36.34,412.01,-339.32,0
26-1-2017 21:00,210.70226299075262,139.13,514.64,-236.37,0
26-1-2017 22:00,215.40479208800605,174.49,549.74,-200.75,0
26-1-2017 23:00,102.57242837608396,178.48,553.44,-196.48,0
27-1-2017 0:00,201.1585978088923,84.84,459.55,-289.87,0
27-1-2017 1:00,137.21915568169072,166.73,541.24,-207.79,0
27-1-2017 2:00,106.6735994467997,113.69,487.92,-260.53,0
27-1-2017 3:00,31.80739322415411,88.37,462.3,-285.55,0
27-1-2017 4:00,-18.21939364596892,26.26,399.91,-347.4,0
27-1-2017 5:00,-34.27172360756708,-15.25,358.12,-388.63,0
27-1-2017 6:00,-59.41185663879037,-28.58,344.5,-401.66,0
27-1-2017 7:00,-64.51855901415547,-49.46,323.34,-422.25,0
27-1-2017 8:00,-46.5770944148951,-53.71,318.79,-426.21,0
27-1-2017 9:00,81.85751431489098,-38.84,333.37,-411.04,0
27-1-2017 10:00,271.623099227033,67.74,439.77,-304.29,0
27-1-2017 11:00,387.5264182311612,225.31,597.38,-146.76,0
27-1-2017 12:00,280.87554323051813,321.83,693.82,-50.16,0
27-1-2017 13:00,90.99225363138748,233.27,604.99,-138.44,0
27-1-2017 14:00,51.84764610659454,75.6,447.19,-295.99,0
27-1-2017 15:00,367.94903656028623,43.13,414.44,-328.17,0
27-1-2017 16:00,440.2190455236821,305.57,677.44,-66.29,0
27-1-2017 17:00,259.14136518674786,365.96,737.68,-5.75,0
27-1-2017 18:00,519.1116708262145,215.47,586.99,-156.05,0
27-1-2017 19:00,-172.52808707323925,431.91,803.88,59.94,1
27-1-2017 20:00,-162.94276832006358,-142.15,232.44,-516.74,0
27-1-2017 21:00,-190.71961831738463,-134.28,240.03,-508.58,0
27-1-2017 22:00,-58.86264736517296,-157.32,216.72,-531.36,0
27-1-2017 23:00,32.125639105493065,-48.28,325.55,-422.11,0
28-1-2017 0:00,-78.72316952706069,26.94,400.53,-346.65,0
28-1-2017 1:00,79.39584087532148,-64.7,308.69,-438.1,0
28-1-2017 2:00,61.02117924029085,66.0,439.27,-307.27,0
28-1-2017 3:00,222.33773066988556,50.83,423.81,-322.15,0
28-1-2017 4:00,200.16586878897397,184.23,557.16,-188.7,0
28-1-2017 5:00,164.13241252847888,165.97,538.61,-206.68,0
28-1-2017 6:00,192.7065574310966,136.22,508.58,-236.13,0
28-1-2017 7:00,201.2278070145395,159.92,532.01,-212.18,0
28-1-2017 8:00,203.54490309793778,167.03,538.86,-204.79,0
28-1-2017 9:00,-19.232711487360007,169.02,540.58,-202.53,0
28-1-2017 10:00,-199.9201041493494,-15.19,356.36,-386.74,0
28-1-2017 11:00,-330.3997222196749,-164.58,206.96,-536.11,0
28-1-2017 12:00,-372.90857666512784,-272.65,98.82,-644.12,0
28-1-2017 13:00,-441.7263540462834,-308.06,63.21,-679.33,0
28-1-2017 14:00,-527.6473430750899,-365.4,5.72,-736.53,0
28-1-2017 15:00,-547.5606999279632,-437.18,-66.14,-808.23,0
28-1-2017 16:00,-367.48353221809225,-454.25,-83.39,-825.11,0
28-1-2017 17:00,-262.9381692290316,-304.7,65.94,-675.34,0
28-1-2017 18:00,-266.6612091280356,-218.04,152.34,-588.42,0
28-1-2017 19:00,-114.35102146892609,-221.24,148.88,-591.35,0
28-1-2017 20:00,-21.39159200468282,-94.95,274.98,-464.88,0
28-1-2017 21:00,61.553938262674706,-17.92,351.78,-387.61,0
28-1-2017 22:00,128.23898334076705,50.83,420.29,-318.64,0
28-1-2017 23:00,209.47155226494374,106.12,475.36,-263.12,0
29-1-2017 0:00,319.1813978379512,173.52,542.57,-195.52,0
29-1-2017 1:00,429.5819780747398,264.66,633.6,-104.27,0
29-1-2017 2:00,468.0413283443919,356.62,725.49,-12.25,0
29-1-2017 3:00,465.68375473104925,388.95,757.64,20.26,0
29-1-2017 4:00,535.000241383011,387.33,755.79,18.86,0
29-1-2017 5:00,553.1701956889833,445.54,813.9,77.18,0
29-1-2017 6:00,548.6631553908061,461.2,829.37,93.03,0
29-1-2017 7:00,471.3565784939521,457.92,825.88,89.96,0
29-1-2017 8:00,365.933527622383,393.66,761.35,25.97,0
29-1-2017 9:00,-109.41977835661692,305.83,673.26,-61.6,1
29-1-2017 10:00,-540.7944474902504,-90.04,278.43,-458.52,1
29-1-2017 11:00,-937.7613015325423,-449.11,-79.35,-818.86,1
29-1-2017 12:00,-735.0424343203184,-782.73,-411.45,-1154.01,0
29-1-2017 13:00,-685.6180560955522,-613.17,-242.14,-984.19,0
29-1-2017 14:00,-795.328783240425,-572.53,-201.74,-943.32,0
29-1-2017 15:00,-786.5502440119162,-665.87,-294.98,-1036.76,0
29-1-2017 16:00,-512.1602941147635,-659.63,-288.9,-1030.36,0
29-1-2017 17:00,-388.66652315360346,-428.97,-58.35,-799.6,0
29-1-2017 18:00,-265.23754394497325,-325.6,44.76,-695.97,0
29-1-2017 19:00,-47.15299752045394,-222.31,147.82,-592.44,0
29-1-2017 20:00,64.84495586170334,-39.87,330.22,-409.96,0
29-1-2017 21:00,144.64851925818857,53.76,423.67,-316.14,0
29-1-2017 22:00,188.5663314412409,120.51,490.21,-249.19,0
29-1-2017 23:00,157.58787579800764,157.3,526.76,-212.17,0
30-1-2017 0:00,235.99239515149975,131.43,500.63,-237.77,0
30-1-2017 1:00,186.33684112591186,197.09,566.11,-171.93,0
30-1-2017 2:00,141.52398738789577,155.6,524.36,-213.15,0
30-1-2017 3:00,71.10474828759993,118.16,486.65,-250.34,0
30-1-2017 4:00,5.861977442902571,59.28,427.53,-308.97,0
30-1-2017 5:00,-26.742318241475687,4.73,372.73,-363.27,0
30-1-2017 6:00,-91.13108387442162,-22.54,345.21,-390.29,0
30-1-2017 7:00,-76.68222755236525,-76.39,291.13,-443.92,0
30-1-2017 8:00,-170.29177222116778,-64.33,302.93,-431.59,0
30-1-2017 9:00,-183.38980419072823,-142.65,224.43,-509.73,0
30-1-2017 10:00,-366.2766851536612,-153.66,213.18,-520.5,0
30-1-2017 11:00,761.2124305279654,-306.85,60.06,-673.76,1
30-1-2017 12:00,120.04068845583924,633.12,1008.09,258.14,1
30-1-2017 13:00,397.5078268491677,99.1,475.7,-277.5,0
30-1-2017 14:00,428.19623158844024,328.92,705.9,-48.05,0
30-1-2017 15:00,669.4483765599314,354.63,731.41,-22.15,0
30-1-2017 16:00,565.4336214947618,555.68,932.9,178.46,0
30-1-2017 17:00,492.4841794330962,469.55,846.51,92.59,0
30-1-2017 18:00,252.8283762502872,409.2,785.9,32.51,0
30-1-2017 19:00,334.75793009888935,210.1,586.7,-166.51,0
30-1-2017 20:00,61.54998734648461,278.23,654.68,-98.22,0
30-1-2017 21:00,-94.25484990934206,51.56,428.09,-324.96,0
30-1-2017 22:00,-220.89407341410606,-77.56,298.86,-453.97,0
30-1-2017 23:00,-375.7217147684951,-182.64,193.66,-558.94,0
31-1-2017 0:00,-385.5530798630971,-311.16,65.14,-687.46,0
31-1-2017 1:00,-390.72407443321913,-319.53,56.55,-695.6,0
31-1-2017 2:00,-416.3084384610611,-324.03,51.82,-699.89,0
31-1-2017 3:00,-409.25864933046796,-345.54,30.11,-721.19,0
31-1-2017 4:00,-416.98974521032983,-339.91,35.51,-715.33,0
31-1-2017 5:00,-405.90041863229067,-346.58,28.63,-721.78,0
31-1-2017 6:00,-387.95303734723734,-337.57,37.4,-712.54,0
31-1-2017 7:00,-348.221350290956,-322.83,51.9,-697.56,0
31-1-2017 8:00,-213.49999124167744,-289.91,84.56,-664.39,0
31-1-2017 9:00,21.964403619569794,-177.87,196.39,-552.13,0
31-1-2017 10:00,327.1513020214652,17.87,392.15,-356.42,0
31-1-2017 11:00,375.62237862113807,271.52,646.22,-103.18,0
31-1-2017 12:00,278.6160184587884,312.04,686.56,-62.48,0
31-1-2017 13:00,-73.22659954466167,231.42,605.69,-142.85,0
31-1-2017 14:00,698.4184205134129,-60.96,313.7,-435.63,1
31-1-2017 15:00,20.131654662546225,579.34,957.75,200.93,1
31-1-2017 16:00,117.8986734769428,16.59,396.88,-363.7,0
31-1-2017 17:00,222.88175204984827,97.28,477.38,-282.83,0
31-1-2017 18:00,143.7969001329975,183.98,563.94,-195.97,0
31-1-2017 19:00,-82.63353349550994,118.74,498.45,-260.97,0
31-1-2017 20:00,-139.49236728366873,-68.08,311.65,-447.81,0
31-1-2017 21:00,-154.53931539768018,-115.01,264.49,-494.52,0
31-1-2017 22:00,15.740441045372563,-127.47,251.79,-506.73,0
31-1-2017 23:00,-280.0003703845391,12.99,392.14,-366.16,0
