Time,Actual,Forecasts,Upper Interval,Lower Interval,Is Anomalies
1-1-2017 0:00,77.67864895840717,0.0,0.0,0.0,0
1-1-2017 1:00,77.23072392316385,0.0,0.0,0.0,0
1-1-2017 2:00,97.12084484884576,0.0,0.0,0.0,0
1-1-2017 3:00,-37.25334399271378,0.0,0.0,0.0,0
1-1-2017 4:00,30.25466014507799,0.0,0.0,0.0,0
1-1-2017 5:00,123.41552480463486,0.0,0.0,0.0,0
1-1-2017 6:00,171.66059026344874,0.0,0.0,0.0,0
1-1-2017 7:00,107.74245023353569,0.0,0.0,0.0,0
1-1-2017 8:00,38.88108599533882,0.0,0.0,0.0,0
1-1-2017 9:00,-783.2059127428535,0.0,0.0,0.0,0
1-1-2017 10:00,-264.8514891494009,0.0,0.0,0.0,0
1-1-2017 11:00,-72.36458071186826,0.0,0.0,0.0,0
1-1-2017 12:00,-39.26752601703254,0.0,0.0,0.0,0
1-1-2017 13:00,50.23491771429178,0.0,0.0,0.0,0
1-1-2017 14:00,136.16982793449938,0.0,0.0,0.0,0
1-1-2017 15:00,75.7067586863252,0.0,0.0,0.0,0
1-1-2017 16:00,98.57948698009261,0.0,0.0,0.0,0
1-1-2017 17:00,76.58577747333038,0.0,0.0,0.0,0
1-1-2017 18:00,200.51255522417136,0.0,0.0,0.0,0
1-1-2017 19:00,277.10041584913586,0.0,0.0,0.0,0
1-1-2017 20:00,-325.80395463050087,0.0,0.0,0.0,0
1-1-2017 21:00,252.12963070558772,0.0,0.0,0.0,0
1-1-2017 22:00,-602.7208487810294,0.0,0.0,0.0,0
1-1-2017 23:00,-559.7780298039761,0.0,0.0,0.0,0
2-1-2017 0:00,85.9131317641527,0.0,0.0,0.0,0
2-1-2017 1:00,-24.30152229996395,0.0,0.0,0.0,0
2-1-2017 2:00,-9.751475218190876,0.0,0.0,0.0,0
2-1-2017 3:00,-45.85327241095058,0.0,0.0,0.0,0
2-1-2017 4:00,-8.892866964616246,0.0,0.0,0.0,0
2-1-2017 5:00,77.57296141561926,0.0,0.0,0.0,0
2-1-2017 6:00,104.54647214444117,0.0,0.0,0.0,0
2-1-2017 7:00,66.7259706744536,0.0,0.0,0.0,0
2-1-2017 8:00,22.672401012341425,0.0,0.0,0.0,0
2-1-2017 9:00,-652.5523477148986,0.0,0.0,0.0,0
2-1-2017 10:00,139.01476996459985,0.0,0.0,0.0,0
2-1-2017 11:00,231.05104732037353,0.0,0.0,0.0,0
2-1-2017 12:00,248.80528563125097,0.0,0.0,0.0,0
2-1-2017 13:00,286.1275620033481,0.0,0.0,0.0,0
2-1-2017 14:00,349.4247644218524,0.0,0.0,0.0,0
2-1-2017 15:00,315.809307393733,0.0,0.0,0.0,0
2-1-2017 16:00,254.72462685403048,0.0,0.0,0.0,0
2-1-2017 17:00,297.7152107622071,0.0,0.0,0.0,0
2-1-2017 18:00,191.06966429012687,0.0,0.0,0.0,0
2-1-2017 19:00,191.21360318246172,0.0,0.0,0.0,0
2-1-2017 20:00,-394.3423057400875,0.0,0.0,0.0,0
2-1-2017 21:00,154.94582542239255,0.0,0.0,0.0,0
2-1-2017 22:00,-648.6545095683744,0.0,0.0,0.0,0
2-1-2017 23:00,-612.1103528125924,0.0,0.0,0.0,0
3-1-2017 0:00,-23.828460547255986,0.0,0.0,0.0,0
3-1-2017 1:00,-91.60975801718462,0.0,0.0,0.0,0
3-1-2017 2:00,-64.78969915625896,0.0,0.0,0.0,0
3-1-2017 3:00,-113.1390190771574,0.0,0.0,0.0,0
3-1-2017 4:00,-21.358048425130505,0.0,0.0,0.0,0
3-1-2017 5:00,60.05851046297835,0.0,0.0,0.0,0
3-1-2017 6:00,92.46623324900315,0.0,0.0,0.0,0
3-1-2017 7:00,74.43890795380264,0.0,0.0,0.0,0
3-1-2017 8:00,52.56867048263632,0.0,0.0,0.0,0
3-1-2017 9:00,-743.393084105132,0.0,0.0,0.0,0
3-1-2017 10:00,-45.31267518194625,0.0,0.0,0.0,0
3-1-2017 11:00,191.2435682497105,0.0,0.0,0.0,0
3-1-2017 12:00,249.42558733427143,0.0,0.0,0.0,0
3-1-2017 13:00,235.28466932934543,0.0,0.0,0.0,0
3-1-2017 14:00,306.7211369283507,0.0,0.0,0.0,0
3-1-2017 15:00,264.6802651024901,0.0,0.0,0.0,0
3-1-2017 16:00,262.8078421202538,0.0,0.0,0.0,0
3-1-2017 17:00,213.5918955222337,0.0,0.0,0.0,0
3-1-2017 18:00,219.023200906096,0.0,0.0,0.0,0
3-1-2017 19:00,188.43721823710757,0.0,0.0,0.0,0
3-1-2017 20:00,-358.1362289570479,0.0,0.0,0.0,0
3-1-2017 21:00,166.3800571168831,0.0,0.0,0.0,0
3-1-2017 22:00,-589.0919992265483,0.0,0.0,0.0,0
3-1-2017 23:00,-562.4483705405528,0.0,0.0,0.0,0
4-1-2017 0:00,-14.037613426523308,0.0,0.0,0.0,0
4-1-2017 1:00,-79.96477262889175,0.0,0.0,0.0,0
4-1-2017 2:00,-34.29392031544148,0.0,0.0,0.0,0
4-1-2017 3:00,-85.84998129110659,0.0,0.0,0.0,0
4-1-2017 4:00,-6.82699538806844,0.0,0.0,0.0,0
4-1-2017 5:00,74.00186503675786,0.0,0.0,0.0,0
4-1-2017 6:00,110.54537090882968,0.0,0.0,0.0,0
4-1-2017 7:00,96.25278130940751,0.0,0.0,0.0,0
4-1-2017 8:00,48.8174355501784,0.0,0.0,0.0,0
4-1-2017 9:00,-784.2938677897308,0.0,0.0,0.0,0
4-1-2017 10:00,-54.63274842957787,0.0,0.0,0.0,0
4-1-2017 11:00,190.58088027124154,0.0,0.0,0.0,0
4-1-2017 12:00,216.99809932276526,0.0,0.0,0.0,0
4-1-2017 13:00,224.72841221180397,0.0,0.0,0.0,0
4-1-2017 14:00,255.9585702622984,0.0,0.0,0.0,0
4-1-2017 15:00,233.87670890968445,0.0,0.0,0.0,0
4-1-2017 16:00,228.24070221044235,0.0,0.0,0.0,0
4-1-2017 17:00,181.56857136933286,0.0,0.0,0.0,0
4-1-2017 18:00,202.73707487224533,0.0,0.0,0.0,0
4-1-2017 19:00,209.24037027864938,0.0,0.0,0.0,0
4-1-2017 20:00,-264.42141555039655,0.0,0.0,0.0,0
4-1-2017 21:00,293.27568891323915,0.0,0.0,0.0,0
4-1-2017 22:00,-552.6775807208824,0.0,0.0,0.0,0
4-1-2017 23:00,-521.133972042699,0.0,0.0,0.0,0
5-1-2017 0:00,-24.9738420180023,0.0,0.0,0.0,0
5-1-2017 1:00,-81.09004238437808,0.0,0.0,0.0,0
5-1-2017 2:00,-32.901576049970686,0.0,0.0,0.0,0
5-1-2017 3:00,-77.83755751197009,0.0,0.0,0.0,0
5-1-2017 4:00,-0.08405788600055075,0.0,0.0,0.0,0
5-1-2017 5:00,79.45275503201094,0.0,0.0,0.0,0
5-1-2017 6:00,109.0676949465975,0.0,0.0,0.0,0
5-1-2017 7:00,105.0661530108166,0.0,0.0,0.0,0
5-1-2017 8:00,50.00201093138776,0.0,0.0,0.0,0
5-1-2017 9:00,-843.0664643849879,0.0,0.0,0.0,0
5-1-2017 10:00,-8.178812613259424,0.0,0.0,0.0,0
5-1-2017 11:00,126.47802333133109,0.0,0.0,0.0,0
5-1-2017 12:00,164.17626432442637,0.0,0.0,0.0,0
5-1-2017 13:00,135.94884688288892,0.0,0.0,0.0,0
5-1-2017 14:00,171.08373416033112,0.0,0.0,0.0,0
5-1-2017 15:00,146.35192205642272,0.0,0.0,0.0,0
5-1-2017 16:00,159.11706909027362,0.0,0.0,0.0,0
5-1-2017 17:00,158.55428624865556,0.0,0.0,0.0,0
5-1-2017 18:00,148.0255201131987,0.0,0.0,0.0,0
5-1-2017 19:00,149.90448025012074,0.0,0.0,0.0,0
5-1-2017 20:00,-313.3792575586902,0.0,0.0,0.0,0
5-1-2017 21:00,164.67057751928564,0.0,0.0,0.0,0
5-1-2017 22:00,-512.8081994638542,0.0,0.0,0.0,0
5-1-2017 23:00,-435.94890485181105,0.0,0.0,0.0,0
6-1-2017 0:00,230.59306282437376,0.0,0.0,0.0,0
6-1-2017 1:00,38.484139839377804,0.0,0.0,0.0,0
6-1-2017 2:00,-4.253845060357321,0.0,0.0,0.0,0
6-1-2017 3:00,65.58690410810811,0.0,0.0,0.0,0
6-1-2017 4:00,57.80579977915272,0.0,0.0,0.0,0
6-1-2017 5:00,18.630801295695505,0.0,0.0,0.0,0
6-1-2017 6:00,-6.51902380953743,0.0,0.0,0.0,0
6-1-2017 7:00,-79.51064492460625,0.0,0.0,0.0,0
6-1-2017 8:00,-187.67448382591397,0.0,0.0,0.0,0
6-1-2017 9:00,-1188.1024955593962,0.0,0.0,0.0,0
6-1-2017 10:00,-420.6769441719815,0.0,0.0,0.0,0
6-1-2017 11:00,-401.71810550624684,0.0,0.0,0.0,0
6-1-2017 12:00,-488.31856266306943,0.0,0.0,0.0,0
6-1-2017 13:00,-559.8883205052633,0.0,0.0,0.0,0
6-1-2017 14:00,-603.4123927286373,0.0,0.0,0.0,0
6-1-2017 15:00,-615.2129436921507,0.0,0.0,0.0,0
6-1-2017 16:00,-668.6848824270955,0.0,0.0,0.0,0
6-1-2017 17:00,-741.9787235295895,0.0,0.0,0.0,0
6-1-2017 18:00,-798.7923148897951,0.0,0.0,0.0,0
6-1-2017 19:00,-829.6168386139102,0.0,0.0,0.0,0
6-1-2017 20:00,3983.6178512630363,0.0,0.0,0.0,0
6-1-2017 21:00,-1066.828190919646,0.0,0.0,0.0,0
6-1-2017 22:00,6154.909653647014,0.0,0.0,0.0,0
6-1-2017 23:00,5524.019514166188,0.0,0.0,0.0,0
7-1-2017 0:00,-746.747324030184,0.0,0.0,0.0,0
7-1-2017 1:00,-315.3925439905686,0.0,0.0,0.0,0
7-1-2017 2:00,-414.7305544812143,0.0,0.0,0.0,0
7-1-2017 3:00,-360.1666490390528,0.0,0.0,0.0,0
7-1-2017 4:00,-398.54243022835226,0.0,0.0,0.0,0
7-1-2017 5:00,-605.3775745125507,0.0,0.0,0.0,0
7-1-2017 6:00,-573.620499036876,0.0,0.0,0.0,0
7-1-2017 7:00,-524.2431008564962,0.0,0.0,0.0,0
7-1-2017 8:00,-519.3675381049462,0.0,0.0,0.0,0
7-1-2017 9:00,-1338.9363599224034,0.0,0.0,0.0,0
7-1-2017 10:00,-538.8712672129928,0.0,0.0,0.0,0
7-1-2017 11:00,-241.19878411980517,0.0,0.0,0.0,0
7-1-2017 12:00,-113.19629772023666,0.0,0.0,0.0,0
7-1-2017 13:00,-70.69472377701175,0.0,0.0,0.0,0
7-1-2017 14:00,-45.40408331512674,0.0,0.0,0.0,0
7-1-2017 15:00,16.620299047829462,0.0,0.0,0.0,0
7-1-2017 16:00,75.91811231388431,0.0,0.0,0.0,0
7-1-2017 17:00,86.38421167668457,0.0,0.0,0.0,0
7-1-2017 18:00,93.43679381790014,0.0,0.0,0.0,0
7-1-2017 19:00,95.98834611867971,0.0,0.0,0.0,0
7-1-2017 20:00,-260.07897643268404,0.0,0.0,0.0,0
7-1-2017 21:00,156.00836441064155,0.0,0.0,0.0,0
7-1-2017 22:00,-410.1584263017518,0.0,0.0,0.0,0
7-1-2017 23:00,-400.96925670430693,0.0,0.0,0.0,0
8-1-2017 0:00,-55.51615760209154,0.0,0.0,0.0,0
8-1-2017 1:00,29.37363298947014,0.0,0.0,0.0,0
8-1-2017 2:00,7.366904435248102,0.0,0.0,0.0,0
8-1-2017 3:00,559.675273678441,0.0,0.0,0.0,0
8-1-2017 4:00,209.72021138220123,0.0,0.0,0.0,0
8-1-2017 5:00,119.2138526884371,0.0,0.0,0.0,0
8-1-2017 6:00,187.92676013619496,0.0,0.0,0.0,0
8-1-2017 7:00,108.94372307189235,0.0,0.0,0.0,0
8-1-2017 8:00,55.79923293616855,0.0,0.0,0.0,0
8-1-2017 9:00,-940.4696807870222,0.0,0.0,0.0,0
8-1-2017 10:00,-165.80406366449608,0.0,0.0,0.0,0
8-1-2017 11:00,-21.776953052734825,0.0,0.0,0.0,0
8-1-2017 12:00,50.12945999434476,0.0,0.0,0.0,0
8-1-2017 13:00,119.40005653088247,0.0,0.0,0.0,0
8-1-2017 14:00,2.223100485920554,0.0,0.0,0.0,0
8-1-2017 15:00,-56.799893016759256,0.0,0.0,0.0,0
8-1-2017 16:00,-34.924831374405585,0.0,0.0,0.0,0
8-1-2017 17:00,-2.9924132942264805,0.0,0.0,0.0,0
8-1-2017 18:00,93.91272060049494,0.0,0.0,0.0,0
8-1-2017 19:00,142.10592346200622,0.0,0.0,0.0,0
8-1-2017 20:00,-235.8978369818309,0.0,0.0,0.0,0
8-1-2017 21:00,142.7734927155932,0.0,0.0,0.0,0
8-1-2017 22:00,-395.0888376871138,0.0,0.0,0.0,0
8-1-2017 23:00,-335.2512634226551,0.0,0.0,0.0,0
9-1-2017 0:00,71.28086856688867,0.0,0.0,0.0,0
9-1-2017 1:00,127.63226011882887,0.0,0.0,0.0,0
9-1-2017 2:00,-20.336596090537,0.0,0.0,0.0,0
9-1-2017 3:00,-95.48717263788092,0.0,0.0,0.0,0
9-1-2017 4:00,229.40173013569688,0.0,0.0,0.0,0
9-1-2017 5:00,317.0344434452546,0.0,0.0,0.0,0
9-1-2017 6:00,162.67346927798303,0.0,0.0,0.0,0
9-1-2017 7:00,135.95654971475415,0.0,0.0,0.0,0
9-1-2017 8:00,33.72855943751313,0.0,0.0,0.0,0
9-1-2017 9:00,-830.4181491283139,0.0,0.0,0.0,0
9-1-2017 10:00,-44.832942914136765,0.0,0.0,0.0,0
9-1-2017 11:00,337.2478598947333,0.0,0.0,0.0,0
9-1-2017 12:00,186.53726426785988,0.0,0.0,0.0,0
9-1-2017 13:00,206.35234042465652,0.0,0.0,0.0,0
9-1-2017 14:00,159.94324489979408,0.0,0.0,0.0,0
9-1-2017 15:00,162.39833255842427,0.0,0.0,0.0,0
9-1-2017 16:00,148.41553142672763,0.0,0.0,0.0,0
9-1-2017 17:00,205.23069622506523,0.0,0.0,0.0,0
9-1-2017 18:00,112.88480987407218,0.0,0.0,0.0,0
9-1-2017 19:00,79.3484097558736,0.0,0.0,0.0,0
9-1-2017 20:00,-232.15304212087858,0.0,0.0,0.0,0
9-1-2017 21:00,121.77175611660311,0.0,0.0,0.0,0
9-1-2017 22:00,-361.3821215978525,0.0,0.0,0.0,0
9-1-2017 23:00,-384.1221502878147,0.0,0.0,0.0,0
10-1-2017 0:00,-78.84264277396892,0.0,0.0,0.0,0
10-1-2017 1:00,-54.33119243790338,0.0,0.0,0.0,0
10-1-2017 2:00,-33.15031287953457,0.0,0.0,0.0,0
10-1-2017 3:00,-81.59267948729905,0.0,0.0,0.0,0
10-1-2017 4:00,4.299936836512643,0.0,0.0,0.0,0
10-1-2017 5:00,45.66985072895534,0.0,0.0,0.0,0
10-1-2017 6:00,25.908522291761074,0.0,0.0,0.0,0
10-1-2017 7:00,74.56290323370729,0.0,0.0,0.0,0
10-1-2017 8:00,26.06069999914257,0.0,0.0,0.0,0
10-1-2017 9:00,-874.405689348327,0.0,0.0,0.0,0
10-1-2017 10:00,85.04143226641168,0.0,0.0,0.0,0
10-1-2017 11:00,127.6568658777644,0.0,0.0,0.0,0
10-1-2017 12:00,89.62943863985242,0.0,0.0,0.0,0
10-1-2017 13:00,-3.27846060635261,0.0,0.0,0.0,0
10-1-2017 14:00,-20.70511108398557,0.0,0.0,0.0,0
10-1-2017 15:00,-70.84544989232575,0.0,0.0,0.0,0
10-1-2017 16:00,-110.16075487464582,0.0,0.0,0.0,0
10-1-2017 17:00,-219.1668841597741,0.0,0.0,0.0,0
10-1-2017 18:00,-398.1046542375335,0.0,0.0,0.0,0
10-1-2017 19:00,-569.2068718226869,0.0,0.0,0.0,0
10-1-2017 20:00,-970.2333998509157,0.0,0.0,0.0,0
10-1-2017 21:00,-773.1283101986282,0.0,0.0,0.0,0
10-1-2017 22:00,-1363.0011792534965,0.0,0.0,0.0,0
10-1-2017 23:00,-1068.8732571015807,0.0,0.0,0.0,0
11-1-2017 0:00,257.26528330882,0.0,0.0,0.0,0
11-1-2017 1:00,-23.880716188611586,0.0,0.0,0.0,0
11-1-2017 2:00,160.09239051986833,0.0,0.0,0.0,0
11-1-2017 3:00,42.47072523406041,0.0,0.0,0.0,0
11-1-2017 4:00,-456.8363964707453,0.0,0.0,0.0,0
11-1-2017 5:00,-677.2458949327904,0.0,0.0,0.0,0
11-1-2017 6:00,-662.0941905772797,0.0,0.0,0.0,0
11-1-2017 7:00,-526.2601950296053,0.0,0.0,0.0,0
11-1-2017 8:00,543.55170287906,0.0,0.0,0.0,0
11-1-2017 9:00,17853.986404146464,0.0,0.0,0.0,0
11-1-2017 10:00,2499.4527230640606,0.0,0.0,0.0,0
11-1-2017 11:00,-1013.1799306198061,0.0,0.0,0.0,0
11-1-2017 12:00,-1431.08690756646,0.0,0.0,0.0,0
11-1-2017 13:00,-1322.3188474150866,0.0,0.0,0.0,0
11-1-2017 14:00,-1311.5841180449102,0.0,0.0,0.0,0
11-1-2017 15:00,-1228.6209485196405,0.0,0.0,0.0,0
11-1-2017 16:00,-1180.3807795944897,0.0,0.0,0.0,0
11-1-2017 17:00,-1047.647451574168,0.0,0.0,0.0,0
11-1-2017 18:00,-893.3263539897778,0.0,0.0,0.0,0
11-1-2017 19:00,-838.3029266266869,0.0,0.0,0.0,0
11-1-2017 20:00,-952.023068391193,0.0,0.0,0.0,0
11-1-2017 21:00,-519.6550257513007,0.0,0.0,0.0,0
11-1-2017 22:00,-803.4527323598745,0.0,0.0,0.0,0
11-1-2017 23:00,-676.5827055793732,0.0,0.0,0.0,0
12-1-2017 0:00,-224.08097848571003,0.0,0.0,0.0,0
12-1-2017 1:00,513.0300828392495,0.0,0.0,0.0,0
12-1-2017 2:00,455.04992735373,0.0,0.0,0.0,0
12-1-2017 3:00,175.83347404576796,0.0,0.0,0.0,0
12-1-2017 4:00,204.28242433301114,0.0,0.0,0.0,0
12-1-2017 5:00,18.511577849148694,0.0,0.0,0.0,0
12-1-2017 6:00,-27.835620669965692,0.0,0.0,0.0,0
12-1-2017 7:00,22.646723463579292,0.0,0.0,0.0,0
12-1-2017 8:00,-42.32854350438379,0.0,0.0,0.0,0
12-1-2017 9:00,-951.5273737207061,0.0,0.0,0.0,0
12-1-2017 10:00,-22.786351044023036,0.0,0.0,0.0,0
12-1-2017 11:00,79.50841443311788,0.0,0.0,0.0,0
12-1-2017 12:00,128.007394233951,0.0,0.0,0.0,0
12-1-2017 13:00,66.64086313345092,0.0,0.0,0.0,0
12-1-2017 14:00,9.106421701985823,0.0,0.0,0.0,0
12-1-2017 15:00,84.06254891141327,0.0,0.0,0.0,0
12-1-2017 16:00,100.44089343005487,0.0,0.0,0.0,0
12-1-2017 17:00,109.54993993090284,0.0,0.0,0.0,0
12-1-2017 18:00,116.35616635251779,0.0,0.0,0.0,0
12-1-2017 19:00,125.58084012750453,0.0,0.0,0.0,0
12-1-2017 20:00,-159.01731390962743,0.0,0.0,0.0,0
12-1-2017 21:00,104.43269053320046,0.0,0.0,0.0,0
12-1-2017 22:00,-218.86783595249068,0.0,0.0,0.0,0
12-1-2017 23:00,-236.65368686681563,0.0,0.0,0.0,0
13-1-2017 0:00,45.733244586698106,0.0,0.0,0.0,0
13-1-2017 1:00,-44.25632463411364,0.0,0.0,0.0,0
13-1-2017 2:00,13.682566318204977,0.0,0.0,0.0,0
13-1-2017 3:00,-49.66636638007435,0.0,0.0,0.0,0
13-1-2017 4:00,58.928863137519215,0.0,0.0,0.0,0
13-1-2017 5:00,55.28092955616171,0.0,0.0,0.0,0
13-1-2017 6:00,29.089089086744707,0.0,0.0,0.0,0
13-1-2017 7:00,126.30759427724877,0.0,0.0,0.0,0
13-1-2017 8:00,52.64297490374645,0.0,0.0,0.0,0
13-1-2017 9:00,-858.9100643417944,0.0,0.0,0.0,0
13-1-2017 10:00,-45.93756016085217,0.0,0.0,0.0,0
13-1-2017 11:00,89.23140222246946,0.0,0.0,0.0,0
13-1-2017 12:00,186.26311651596188,0.0,0.0,0.0,0
13-1-2017 13:00,51.57299704538514,0.0,0.0,0.0,0
13-1-2017 14:00,-11.239612305925107,0.0,0.0,0.0,0
13-1-2017 15:00,-0.8695245305430035,0.0,0.0,0.0,0
13-1-2017 16:00,76.53285180157002,0.0,0.0,0.0,0
13-1-2017 17:00,52.832973326711794,0.0,0.0,0.0,0
13-1-2017 18:00,49.78968512931965,0.0,0.0,0.0,0
13-1-2017 19:00,46.01222647377108,0.0,0.0,0.0,0
13-1-2017 20:00,-118.08731867841766,0.0,0.0,0.0,0
13-1-2017 21:00,133.29763288684364,0.0,0.0,0.0,0
13-1-2017 22:00,-157.29041194471665,0.0,0.0,0.0,0
13-1-2017 23:00,-161.3768390226199,0.0,0.0,0.0,0
14-1-2017 0:00,86.08406395279621,0.0,0.0,0.0,0
14-1-2017 1:00,288.1083445711831,0.0,0.0,0.0,0
14-1-2017 2:00,168.6899893530857,0.0,0.0,0.0,0
14-1-2017 3:00,718.6379202034052,0.0,0.0,0.0,0
14-1-2017 4:00,141.2849742709983,0.0,0.0,0.0,0
14-1-2017 5:00,95.92091868352964,0.0,0.0,0.0,0
14-1-2017 6:00,-40.49670715435877,0.0,0.0,0.0,0
14-1-2017 7:00,15.832427407562136,0.0,0.0,0.0,0
14-1-2017 8:00,-41.87331869051843,0.0,0.0,0.0,0
14-1-2017 9:00,-957.3444711612688,0.0,0.0,0.0,0
14-1-2017 10:00,-222.17182947162814,0.0,0.0,0.0,0
14-1-2017 11:00,-60.58043099089298,0.0,0.0,0.0,0
14-1-2017 12:00,-30.145047520562912,0.0,0.0,0.0,0
14-1-2017 13:00,-59.059762896558766,0.0,0.0,0.0,0
14-1-2017 14:00,-187.12417355520682,0.0,0.0,0.0,0
14-1-2017 15:00,25.857930316862053,0.0,0.0,0.0,0
14-1-2017 16:00,-26.504683945192596,0.0,0.0,0.0,0
14-1-2017 17:00,101.70277729708619,0.0,0.0,0.0,0
14-1-2017 18:00,111.4557902926349,0.0,0.0,0.0,0
14-1-2017 19:00,142.41403918187154,0.0,0.0,0.0,0
14-1-2017 20:00,16.29799596102555,0.0,0.0,0.0,0
14-1-2017 21:00,237.63411894234946,0.0,0.0,0.0,0
14-1-2017 22:00,-42.20387707380684,0.0,0.0,0.0,0
14-1-2017 23:00,-47.08096419528931,0.0,0.0,0.0,0
15-1-2017 0:00,-120.53517566793062,0.0,0.0,0.0,0
15-1-2017 1:00,122.40041449579428,0.0,0.0,0.0,0
15-1-2017 2:00,137.78227281342004,0.0,0.0,0.0,0
15-1-2017 3:00,4.984526918477627,0.0,0.0,0.0,0
15-1-2017 4:00,87.18534303825743,0.0,0.0,0.0,0
15-1-2017 5:00,83.7930372653691,0.0,0.0,0.0,0
15-1-2017 6:00,23.67749787970115,0.0,0.0,0.0,0
15-1-2017 7:00,103.57662308188799,0.0,0.0,0.0,0
15-1-2017 8:00,42.7791115280786,0.0,0.0,0.0,0
15-1-2017 9:00,-860.338738895468,0.0,0.0,0.0,0
15-1-2017 10:00,-177.75553892250946,0.0,0.0,0.0,0
15-1-2017 11:00,-20.561283569740908,0.0,0.0,0.0,0
15-1-2017 12:00,-17.911810147953247,0.0,0.0,0.0,0
15-1-2017 13:00,-74.70886446422918,0.0,0.0,0.0,0
15-1-2017 14:00,-189.90281946507628,0.0,0.0,0.0,0
15-1-2017 15:00,-59.46644253118177,0.0,0.0,0.0,0
15-1-2017 16:00,-43.650432413139015,0.0,0.0,0.0,0
15-1-2017 17:00,-0.6099362250945433,0.0,0.0,0.0,0
15-1-2017 18:00,80.22507319202327,0.0,0.0,0.0,0
15-1-2017 19:00,101.16467004562594,0.0,0.0,0.0,0
15-1-2017 20:00,42.22776917570377,0.0,0.0,0.0,0
15-1-2017 21:00,147.76646984649688,0.0,0.0,0.0,0
15-1-2017 22:00,-139.45173714658256,0.0,0.0,0.0,0
15-1-2017 23:00,-142.5697441039714,0.0,0.0,0.0,0
16-1-2017 0:00,1318.3206701830027,0.0,0.0,0.0,0
16-1-2017 1:00,-8.681588931323517,0.0,0.0,0.0,0
16-1-2017 2:00,-2.978675901363772,0.0,0.0,0.0,0
16-1-2017 3:00,-60.44125736495721,0.0,0.0,0.0,0
16-1-2017 4:00,19.185872388828557,0.0,0.0,0.0,0
16-1-2017 5:00,-15.968714697134487,0.0,0.0,0.0,0
16-1-2017 6:00,-51.4461987582373,0.0,0.0,0.0,0
16-1-2017 7:00,7.554917005865036,0.0,0.0,0.0,0
16-1-2017 8:00,-12.04236008202372,0.0,0.0,0.0,0
16-1-2017 9:00,-831.1844305427175,0.0,0.0,0.0,0
16-1-2017 10:00,-88.87896947656236,0.0,0.0,0.0,0
16-1-2017 11:00,119.79984555811757,0.0,0.0,0.0,0
16-1-2017 12:00,132.2451117412412,0.0,0.0,0.0,0
16-1-2017 13:00,38.71210773071152,0.0,0.0,0.0,0
16-1-2017 14:00,-112.09500236630777,0.0,0.0,0.0,0
16-1-2017 15:00,36.14203687543886,0.0,0.0,0.0,0
16-1-2017 16:00,14.723581250015059,0.0,0.0,0.0,0
16-1-2017 17:00,59.948033248145634,0.0,0.0,0.0,0
16-1-2017 18:00,50.685959951153336,0.0,0.0,0.0,0
16-1-2017 19:00,65.66538853410066,0.0,0.0,0.0,0
16-1-2017 20:00,-32.85388621991933,0.0,0.0,0.0,0
16-1-2017 21:00,116.16266520969828,0.0,0.0,0.0,0
16-1-2017 22:00,91.26129298444414,0.0,0.0,0.0,0
16-1-2017 23:00,407.1694119358972,0.0,0.0,0.0,0
17-1-2017 0:00,-248.0185022727652,0.0,0.0,0.0,0
17-1-2017 1:00,31.54176636136458,0.0,0.0,0.0,0
17-1-2017 2:00,39.98611113016511,0.0,0.0,0.0,0
17-1-2017 3:00,-39.67092887557226,0.0,0.0,0.0,0
17-1-2017 4:00,45.67737362708658,0.0,0.0,0.0,0
17-1-2017 5:00,30.61185408756694,0.0,0.0,0.0,0
17-1-2017 6:00,-39.33622578945278,0.0,0.0,0.0,0
17-1-2017 7:00,40.172525704880286,0.0,0.0,0.0,0
17-1-2017 8:00,34.45112825122726,0.0,0.0,0.0,0
17-1-2017 9:00,-777.9503399171989,0.0,0.0,0.0,0
17-1-2017 10:00,-50.95562395007573,0.0,0.0,0.0,0
17-1-2017 11:00,141.72474457428768,0.0,0.0,0.0,0
17-1-2017 12:00,119.5327973265189,0.0,0.0,0.0,0
17-1-2017 13:00,28.907607781629395,0.0,0.0,0.0,0
17-1-2017 14:00,-105.55889325166856,0.0,0.0,0.0,0
17-1-2017 15:00,39.00257245782382,0.0,0.0,0.0,0
17-1-2017 16:00,62.191826368147645,0.0,0.0,0.0,0
17-1-2017 17:00,119.31673088068294,0.0,0.0,0.0,0
17-1-2017 18:00,75.98407157389897,0.0,0.0,0.0,0
17-1-2017 19:00,50.61995660137438,0.0,0.0,0.0,0
17-1-2017 20:00,40.67493267844054,0.0,0.0,0.0,0
17-1-2017 21:00,145.1583315477152,0.0,0.0,0.0,0
17-1-2017 22:00,6.0609320249945995,0.0,0.0,0.0,0
17-1-2017 23:00,-22.377685180002118,0.0,0.0,0.0,0
18-1-2017 0:00,-210.27215810948496,0.0,0.0,0.0,0
18-1-2017 1:00,-5.350332570310798,0.0,0.0,0.0,0
18-1-2017 2:00,40.184098496226625,0.0,0.0,0.0,0
18-1-2017 3:00,28.853648955088715,0.0,0.0,0.0,0
18-1-2017 4:00,93.13614206453838,0.0,0.0,0.0,0
18-1-2017 5:00,18.074493631245332,0.0,0.0,0.0,0
18-1-2017 6:00,-40.62763081751177,0.0,0.0,0.0,0
18-1-2017 7:00,45.10400474210587,0.0,0.0,0.0,0
18-1-2017 8:00,32.44290754791177,0.0,0.0,0.0,0
18-1-2017 9:00,-660.3638892747257,0.0,0.0,0.0,0
18-1-2017 10:00,-3.2178389761529615,0.0,0.0,0.0,0
18-1-2017 11:00,115.19138828002099,0.0,0.0,0.0,0
18-1-2017 12:00,98.77267540026162,0.0,0.0,0.0,0
18-1-2017 13:00,42.94068020736222,0.0,0.0,0.0,0
18-1-2017 14:00,-130.5017000319482,0.0,0.0,0.0,0
18-1-2017 15:00,91.68942120493182,0.0,0.0,0.0,0
18-1-2017 16:00,99.01406629818996,0.0,0.0,0.0,0
18-1-2017 17:00,145.80894757160547,0.0,0.0,0.0,0
18-1-2017 18:00,135.9041381280888,0.0,0.0,0.0,0
18-1-2017 19:00,107.13689588878026,0.0,0.0,0.0,0
18-1-2017 20:00,24.65945997495305,0.0,0.0,0.0,0
18-1-2017 21:00,125.26093192492544,0.0,0.0,0.0,0
18-1-2017 22:00,34.84280171851594,0.0,0.0,0.0,0
18-1-2017 23:00,34.69626890348832,0.0,0.0,0.0,0
19-1-2017 0:00,-612.6879088807244,0.0,0.0,0.0,0
19-1-2017 1:00,4.801778192643496,0.0,0.0,0.0,0
19-1-2017 2:00,28.26260018606672,0.0,0.0,0.0,0
19-1-2017 3:00,-17.654954261322814,0.0,0.0,0.0,0
19-1-2017 4:00,85.97133289969997,0.0,0.0,0.0,0
19-1-2017 5:00,55.752463371784074,0.0,0.0,0.0,0
19-1-2017 6:00,-9.444797849560246,0.0,0.0,0.0,0
19-1-2017 7:00,60.38384311054324,0.0,0.0,0.0,0
19-1-2017 8:00,87.37716751100982,0.0,0.0,0.0,0
19-1-2017 9:00,-525.360879762567,0.0,0.0,0.0,0
19-1-2017 10:00,102.96079319900889,0.0,0.0,0.0,0
19-1-2017 11:00,76.86316751854656,0.0,0.0,0.0,0
19-1-2017 12:00,-18.138022661650098,0.0,0.0,0.0,0
19-1-2017 13:00,-19.187372473836376,0.0,0.0,0.0,0
19-1-2017 14:00,-186.46618089043625,0.0,0.0,0.0,0
19-1-2017 15:00,75.52404690255457,0.0,0.0,0.0,0
19-1-2017 16:00,70.0229865876089,0.0,0.0,0.0,0
19-1-2017 17:00,108.40702198106817,0.0,0.0,0.0,0
19-1-2017 18:00,104.21923975998209,0.0,0.0,0.0,0
19-1-2017 19:00,225.55330142523383,0.0,0.0,0.0,0
19-1-2017 20:00,73.43788469185756,0.0,0.0,0.0,0
19-1-2017 21:00,170.08048547566318,0.0,0.0,0.0,0
19-1-2017 22:00,70.19636694336214,0.0,0.0,0.0,0
19-1-2017 23:00,41.87666087610137,0.0,0.0,0.0,0
20-1-2017 0:00,-779.4424794050436,0.0,0.0,0.0,0
20-1-2017 1:00,3.705830799248929,0.0,0.0,0.0,0
20-1-2017 2:00,43.85380531628903,0.0,0.0,0.0,0
20-1-2017 3:00,-14.280092440620933,0.0,0.0,0.0,0
20-1-2017 4:00,74.50634200506965,0.0,0.0,0.0,0
20-1-2017 5:00,35.111914877360164,0.0,0.0,0.0,0
20-1-2017 6:00,13.201180378257959,0.0,0.0,0.0,0
20-1-2017 7:00,73.24303162005003,0.0,0.0,0.0,0
20-1-2017 8:00,101.1969824963794,0.0,0.0,0.0,0
20-1-2017 9:00,-413.2136250221146,0.0,0.0,0.0,0
20-1-2017 10:00,54.33334148352435,0.0,0.0,0.0,0
20-1-2017 11:00,85.99853374748557,0.0,0.0,0.0,0
20-1-2017 12:00,-9.45546285208809,0.0,0.0,0.0,0
20-1-2017 13:00,-29.89530402388243,0.0,0.0,0.0,0
20-1-2017 14:00,-176.28367735809297,0.0,0.0,0.0,0
20-1-2017 15:00,107.4125202506873,0.0,0.0,0.0,0
20-1-2017 16:00,126.61139085090576,0.0,0.0,0.0,0
20-1-2017 17:00,154.28424904806116,0.0,0.0,0.0,0
20-1-2017 18:00,119.53316273305836,0.0,0.0,0.0,0
20-1-2017 19:00,97.17394537909365,0.0,0.0,0.0,0
20-1-2017 20:00,173.19596490239178,0.0,0.0,0.0,0
20-1-2017 21:00,151.52351149803587,0.0,0.0,0.0,0
20-1-2017 22:00,22.869858735384014,0.0,0.0,0.0,0
20-1-2017 23:00,-11.526566488569529,0.0,0.0,0.0,0
21-1-2017 0:00,-1080.4742151711066,0.0,0.0,0.0,0
21-1-2017 1:00,-157.90962447814547,0.0,0.0,0.0,0
21-1-2017 2:00,-153.926840079744,0.0,0.0,0.0,0
21-1-2017 3:00,-272.1194237884306,0.0,0.0,0.0,0
21-1-2017 4:00,-240.4642746184088,0.0,0.0,0.0,0
21-1-2017 5:00,-305.4382783063014,0.0,0.0,0.0,0
21-1-2017 6:00,-407.68650504355116,0.0,0.0,0.0,0
21-1-2017 7:00,-389.7505958900929,0.0,0.0,0.0,0
21-1-2017 8:00,-426.2951709079232,0.0,0.0,0.0,0
21-1-2017 9:00,-860.2239391414914,0.0,0.0,0.0,0
21-1-2017 10:00,-537.0366559631531,0.0,0.0,0.0,0
21-1-2017 11:00,-643.4736226261319,0.0,0.0,0.0,0
21-1-2017 12:00,-839.0154025164467,0.0,0.0,0.0,0
21-1-2017 13:00,1225.7687042689658,0.0,0.0,0.0,0
21-1-2017 14:00,3806.4552053339607,0.0,0.0,0.0,0
21-1-2017 15:00,1698.021812075345,0.0,0.0,0.0,0
21-1-2017 16:00,1657.2944483734332,0.0,0.0,0.0,0
21-1-2017 17:00,676.2871874860302,0.0,0.0,0.0,0
21-1-2017 18:00,814.7438551888558,0.0,0.0,0.0,0
21-1-2017 19:00,728.6581540246175,0.0,0.0,0.0,0
21-1-2017 20:00,-334.3555949864676,0.0,0.0,0.0,0
21-1-2017 21:00,-484.3739180169914,0.0,0.0,0.0,0
21-1-2017 22:00,-499.7181818694304,0.0,0.0,0.0,0
21-1-2017 23:00,-523.6824031095132,0.0,0.0,0.0,0
22-1-2017 0:00,-2104.8918981705597,0.0,0.0,0.0,0
22-1-2017 1:00,-878.8943359502184,0.0,0.0,0.0,0
22-1-2017 2:00,-732.8383941174898,0.0,0.0,0.0,0
22-1-2017 3:00,-746.268816806725,0.0,0.0,0.0,0
22-1-2017 4:00,-610.8193841668423,0.0,0.0,0.0,0
22-1-2017 5:00,1185.274940982537,0.0,0.0,0.0,0
22-1-2017 6:00,2218.193827982274,0.0,0.0,0.0,0
22-1-2017 7:00,523.2241191093161,0.0,0.0,0.0,0
22-1-2017 8:00,310.058377784138,0.0,0.0,0.0,0
22-1-2017 9:00,-382.9974866413033,0.0,0.0,0.0,0
22-1-2017 10:00,-177.3177142560088,0.0,0.0,0.0,0
22-1-2017 11:00,-356.0805179254371,0.0,0.0,0.0,0
22-1-2017 12:00,-566.1709783527502,0.0,0.0,0.0,0
22-1-2017 13:00,-385.75932283563725,0.0,0.0,0.0,0
22-1-2017 14:00,-595.8589194159417,0.0,0.0,0.0,0
22-1-2017 15:00,-187.75137231236715,0.0,0.0,0.0,0
22-1-2017 16:00,-148.2373687545189,0.0,0.0,0.0,0
22-1-2017 17:00,-56.38525741153353,0.0,0.0,0.0,0
22-1-2017 18:00,2.302486727929022,0.0,0.0,0.0,0
22-1-2017 19:00,246.15016513184491,0.0,0.0,0.0,0
22-1-2017 20:00,151.8254895887443,0.0,0.0,0.0,0
22-1-2017 21:00,200.43866741897943,0.0,0.0,0.0,0
22-1-2017 22:00,210.80822256755096,0.0,0.0,0.0,0
22-1-2017 23:00,98.9886344060219,0.0,0.0,0.0,0
23-1-2017 0:00,-1268.200028740077,0.0,0.0,0.0,0
23-1-2017 1:00,38.19057036771551,0.0,0.0,0.0,0
23-1-2017 2:00,189.91973499484232,0.0,0.0,0.0,0
23-1-2017 3:00,283.1515386851289,0.0,0.0,0.0,0
23-1-2017 4:00,163.00238267294117,0.0,0.0,0.0,0
23-1-2017 5:00,93.44748884372643,0.0,0.0,0.0,0
23-1-2017 6:00,196.04594176458568,0.0,0.0,0.0,0
23-1-2017 7:00,386.31595384515344,0.0,0.0,0.0,0
23-1-2017 8:00,305.17438519256905,0.0,0.0,0.0,0
23-1-2017 9:00,132.54770707380794,0.0,0.0,0.0,0
23-1-2017 10:00,104.5264801882497,0.0,0.0,0.0,0
23-1-2017 11:00,-136.93564896543705,0.0,0.0,0.0,0
23-1-2017 12:00,-406.4282784075574,0.0,0.0,0.0,0
23-1-2017 13:00,-173.37717306233958,0.0,0.0,0.0,0
23-1-2017 14:00,-391.96096619153747,0.0,0.0,0.0,0
23-1-2017 15:00,89.71942237063149,0.0,0.0,0.0,0
23-1-2017 16:00,76.22363587791267,0.0,0.0,0.0,0
23-1-2017 17:00,147.1663296901363,0.0,0.0,0.0,0
23-1-2017 18:00,127.01636050508523,0.0,0.0,0.0,0
23-1-2017 19:00,101.47586259834407,0.0,0.0,0.0,0
23-1-2017 20:00,150.94870464441624,0.0,0.0,0.0,0
23-1-2017 21:00,167.94334633089852,0.0,0.0,0.0,0
23-1-2017 22:00,158.51169628960884,0.0,0.0,0.0,0
23-1-2017 23:00,140.4217170157615,0.0,0.0,0.0,0
24-1-2017 0:00,-1480.731138406261,0.0,0.0,0.0,0
24-1-2017 1:00,25.493272147821358,0.0,0.0,0.0,0
24-1-2017 2:00,77.84643412818525,0.0,0.0,0.0,0
24-1-2017 3:00,17.521238756832872,0.0,0.0,0.0,0
24-1-2017 4:00,90.61619243337475,0.0,0.0,0.0,0
24-1-2017 5:00,97.69926946236228,0.0,0.0,0.0,0
24-1-2017 6:00,37.83447814113947,0.0,0.0,0.0,0
24-1-2017 7:00,102.03239090930902,0.0,0.0,0.0,0
24-1-2017 8:00,171.02317466339434,0.0,0.0,0.0,0
24-1-2017 9:00,108.34412050452943,0.0,0.0,0.0,0
24-1-2017 10:00,226.10052928891253,0.0,0.0,0.0,0
24-1-2017 11:00,-22.762290408238982,0.0,0.0,0.0,0
24-1-2017 12:00,-371.3284539243731,0.0,0.0,0.0,0
24-1-2017 13:00,-124.40346191478443,0.0,0.0,0.0,0
24-1-2017 14:00,-370.7670147566093,0.0,0.0,0.0,0
24-1-2017 15:00,145.29065210041995,0.0,0.0,0.0,0
24-1-2017 16:00,204.4504804259342,0.0,0.0,0.0,0
24-1-2017 17:00,168.9349300590427,0.0,0.0,0.0,0
24-1-2017 18:00,140.8684209011251,0.0,0.0,0.0,0
24-1-2017 19:00,107.3136706847423,0.0,0.0,0.0,0
24-1-2017 20:00,169.96795432100282,0.0,0.0,0.0,0
24-1-2017 21:00,204.4291423068222,0.0,0.0,0.0,0
24-1-2017 22:00,215.064915900316,0.0,0.0,0.0,0
24-1-2017 23:00,168.15317433879557,0.0,0.0,0.0,0
25-1-2017 0:00,-1671.305244534506,0.0,0.0,0.0,0
25-1-2017 1:00,14.605143877910223,0.0,0.0,0.0,0
25-1-2017 2:00,84.65446962355497,0.0,0.0,0.0,0
25-1-2017 3:00,36.7044416026074,0.0,0.0,0.0,0
25-1-2017 4:00,143.8592886916964,0.0,0.0,0.0,0
25-1-2017 5:00,102.37734802429759,0.0,0.0,0.0,0
25-1-2017 6:00,46.856323906403986,0.0,0.0,0.0,0
25-1-2017 7:00,108.071559318357,0.0,0.0,0.0,0
25-1-2017 8:00,189.96411743529404,0.0,0.0,0.0,0
25-1-2017 9:00,216.7695214417463,0.0,0.0,0.0,0
25-1-2017 10:00,249.90893560683185,0.0,0.0,0.0,0
25-1-2017 11:00,-111.4092049230228,0.0,0.0,0.0,0
25-1-2017 12:00,-480.4235328024089,0.0,0.0,0.0,0
25-1-2017 13:00,-187.85110454365605,0.0,0.0,0.0,0
25-1-2017 14:00,-429.5808675133152,0.0,0.0,0.0,0
25-1-2017 15:00,178.93762722336805,0.0,0.0,0.0,0
25-1-2017 16:00,162.53882153200914,0.0,0.0,0.0,0
25-1-2017 17:00,187.63071830637455,0.0,0.0,0.0,0
25-1-2017 18:00,175.6033604959623,0.0,0.0,0.0,0
25-1-2017 19:00,143.4281112204368,38.58,1813.93,-1736.78,0
25-1-2017 20:00,193.89758969738477,31.26,1805.14,-1742.63,0
25-1-2017 21:00,221.08527644318735,44.92,1817.36,-1727.53,0
25-1-2017 22:00,232.90559411305333,50.39,1821.41,-1720.63,0
25-1-2017 23:00,243.0292107054479,53.02,1822.62,-1716.58,0
26-1-2017 0:00,-1823.308727373813,55.59,1823.78,-1712.6,1
26-1-2017 1:00,340.1779780878719,-459.71,1313.37,-2232.8,0
26-1-2017 2:00,336.3478093844884,135.4,1908.15,-1637.35,0
26-1-2017 3:00,146.435229124868,65.98,1837.33,-1705.37,0
26-1-2017 4:00,128.4076838676383,27.95,1797.85,-1741.94,0
26-1-2017 5:00,114.09756151840179,28.36,1796.81,-1740.09,0
26-1-2017 6:00,41.542812047584675,25.0,1792.01,-1742.0,0
26-1-2017 7:00,127.86420644994757,7.72,1773.27,-1757.83,0
26-1-2017 8:00,203.22399571888639,31.08,1795.2,-1733.04,0
26-1-2017 9:00,262.4285800929164,47.03,1809.76,-1715.69,0
26-1-2017 10:00,125.13870938430853,60.01,1821.37,-1701.36,0
26-1-2017 11:00,-297.18751714496375,25.02,1784.95,-1734.9,0
26-1-2017 12:00,-713.7458784923691,-74.97,1683.7,-1833.65,0
26-1-2017 13:00,-350.2373401489332,-166.26,1591.71,-1924.22,0
26-1-2017 14:00,-627.3531263251037,-66.44,1690.16,-1823.03,0
26-1-2017 15:00,25.379517018489423,-147.67,1608.05,-1903.4,0
26-1-2017 16:00,48.92152927358586,22.29,1776.64,-1732.06,0
26-1-2017 17:00,100.16603490685452,8.43,1761.36,-1744.5,0
26-1-2017 18:00,164.91842168365724,22.58,1774.1,-1728.95,0
26-1-2017 19:00,197.86307794473078,37.06,1787.21,-1713.09,0
26-1-2017 20:00,279.6301192091445,43.73,1792.51,-1705.05,0
26-1-2017 21:00,286.6821547423758,63.44,1810.91,-1684.03,0
26-1-2017 22:00,300.0240528675861,63.31,1809.47,-1682.84,0
26-1-2017 23:00,354.0929482026081,67.06,1811.91,-1677.79,0
27-1-2017 0:00,-1967.340054830057,80.52,1824.11,-1663.08,1
27-1-2017 1:00,109.89609465950844,-493.65,1255.92,-2243.22,0
27-1-2017 2:00,168.80955848570738,81.66,1830.46,-1667.14,0
27-1-2017 3:00,154.54755296602468,30.48,1777.9,-1716.94,0
27-1-2017 4:00,121.00533561056682,32.87,1778.93,-1713.18,0
27-1-2017 5:00,158.48919881995312,24.72,1769.4,-1719.97,0
27-1-2017 6:00,70.58289123667294,34.97,1778.3,-1708.36,0
27-1-2017 7:00,140.80447279913346,12.59,1754.53,-1729.36,0
27-1-2017 8:00,228.215521389762,32.39,1772.99,-1708.2,0
27-1-2017 9:00,455.31798040650915,52.04,1791.33,-1687.25,0
27-1-2017 10:00,277.9058657067395,105.33,1843.53,-1632.87,0
27-1-2017 11:00,-129.77140593941874,56.72,1793.61,-1680.16,0
27-1-2017 12:00,-647.166759872312,-37.3,1698.28,-1772.87,0
27-1-2017 13:00,-304.3819239770406,-153.22,1581.64,-1888.08,0
27-1-2017 14:00,-526.3035458925705,-56.41,1677.13,-1789.94,0
27-1-2017 15:00,133.94343352508497,-122.97,1609.59,-1855.54,0
27-1-2017 16:00,150.9005888389578,46.09,1777.41,-1685.24,0
27-1-2017 17:00,198.5096895392403,30.83,1760.82,-1699.16,0
27-1-2017 18:00,138.82380711136852,44.59,1773.28,-1684.1,0
27-1-2017 19:00,94.34391834601536,28.38,1755.74,-1698.98,0
27-1-2017 20:00,338.5940718348694,19.49,1745.52,-1706.54,0
27-1-2017 21:00,237.9389544420743,80.44,1805.3,-1644.43,0
27-1-2017 22:00,210.6351920532262,49.68,1773.26,-1673.89,0
27-1-2017 23:00,230.9921251614726,46.81,1769.1,-1675.47,0
28-1-2017 0:00,-1772.2231837939994,52.46,1773.48,-1668.55,1
28-1-2017 1:00,808.394004975522,-438.31,1287.09,-2163.71,0
28-1-2017 2:00,401.9426965833791,240.49,1967.2,-1486.22,0
28-1-2017 3:00,120.8828610557099,69.65,1795.08,-1655.77,0
28-1-2017 4:00,82.70707887524634,21.33,1745.44,-1702.77,0
28-1-2017 5:00,69.09879083884448,17.99,1740.78,-1704.8,0
28-1-2017 6:00,-1.9752116613099133,15.26,1736.74,-1706.21,0
28-1-2017 7:00,38.630695047608924,-1.39,1718.78,-1721.55,0
28-1-2017 8:00,114.12714094628768,10.24,1729.1,-1708.61,0
28-1-2017 9:00,290.76722457999585,27.1,1744.67,-1690.46,0
28-1-2017 10:00,-89.01728968771727,68.12,1784.5,-1648.25,0
28-1-2017 11:00,-725.2757620275435,-27.69,1687.43,-1742.8,0
28-1-2017 12:00,-1327.2282641227062,-170.1,1544.54,-1884.75,0
28-1-2017 13:00,-975.0684959440987,-301.61,1413.99,-2017.22,0
28-1-2017 14:00,-1362.2673188674871,-205.15,1509.92,-1920.23,0
28-1-2017 15:00,-715.1273686442689,-314.79,1401.25,-2030.82,0
28-1-2017 16:00,-780.6646277787082,-148.46,1566.55,-1863.47,0
28-1-2017 17:00,-796.4844945130765,-182.37,1532.02,-1896.76,0
28-1-2017 18:00,-798.4422086472871,-185.78,1527.96,-1899.51,0
28-1-2017 19:00,-837.5350870131872,-187.67,1525.4,-1900.75,0
28-1-2017 20:00,-815.9902658740135,-199.17,1513.33,-1911.68,0
28-1-2017 21:00,-860.9175954847346,-194.8,1517.06,-1906.66,0
28-1-2017 22:00,-786.4154119307943,-208.35,1502.97,-1919.68,0
28-1-2017 23:00,-742.3788345924766,-190.86,1519.75,-1901.47,0
29-1-2017 0:00,17035.06515698609,-182.74,1527.1,-1892.58,1
29-1-2017 1:00,-45.69829946797563,3974.75,6121.1,1828.4,1
29-1-2017 2:00,-158.2060645820054,-167.91,1990.41,-2326.22,0
29-1-2017 3:00,647.204585378794,-4.87,2151.84,-2161.58,0
29-1-2017 4:00,385.81966045636,103.25,2258.92,-2052.41,0
29-1-2017 5:00,-602.4886879084816,57.47,2211.65,-2096.71,0
29-1-2017 6:00,-597.5582944081614,-84.13,2069.03,-2237.29,0
29-1-2017 7:00,-219.27112525456778,-71.29,2080.64,-2223.21,0
29-1-2017 8:00,-597.1723447496215,-17.21,2133.16,-2167.58,0
29-1-2017 9:00,-267.9142351445414,-78.99,2070.24,-2228.22,0
29-1-2017 10:00,-566.6905522550946,-25.12,2122.58,-2172.82,0
29-1-2017 11:00,-1111.8096285634856,-75.16,2071.35,-2221.67,0
29-1-2017 12:00,-1591.6286820958144,-153.14,1993.2,-2299.49,0
29-1-2017 13:00,-952.2681704023078,-223.13,1924.34,-2370.6,0
29-1-2017 14:00,-1119.7883831019917,-125.65,2020.95,-2272.24,0
29-1-2017 15:00,-184.00965084164739,-161.85,1984.47,-2308.17,0
29-1-2017 16:00,-27.384488357085274,-17.81,2126.94,-2162.57,0
29-1-2017 17:00,25.195689760742653,-3.52,2139.68,-2146.72,0
29-1-2017 18:00,97.40515620703934,3.39,2145.04,-2138.25,0
29-1-2017 19:00,155.18111531980014,14.02,2154.13,-2126.09,0
29-1-2017 20:00,276.222431188502,22.31,2160.9,-2116.28,0
29-1-2017 21:00,154.38853168083472,40.49,2177.62,-2096.64,0
29-1-2017 22:00,131.96140715655793,21.08,2156.69,-2114.52,0
29-1-2017 23:00,48.8623747039411,19.06,2153.14,-2115.03,0
30-1-2017 0:00,-2907.3915265268197,6.66,2139.21,-2125.89,1
30-1-2017 1:00,-324.1374400658202,-444.87,1697.09,-2586.83,0
30-1-2017 2:00,-379.0883410629184,-23.63,2116.81,-2164.07,0
30-1-2017 3:00,-582.023992508374,-59.04,2080.03,-2198.11,0
30-1-2017 4:00,-619.752911215169,-89.79,2048.1,-2227.68,0
30-1-2017 5:00,-605.9710605969518,-94.8,2041.93,-2231.52,0
30-1-2017 6:00,-738.4675975119105,-93.46,2042.08,-2229.0,0
30-1-2017 7:00,-738.0915183519562,-115.21,2019.34,-2249.76,0
30-1-2017 8:00,-668.6350221477649,-115.49,2018.03,-2249.02,0
30-1-2017 9:00,-184.29392436238504,-106.04,2026.36,-2238.45,0
30-1-2017 10:00,-165.1310686568604,-32.12,2098.78,-2163.02,0
30-1-2017 11:00,2999.1094704416605,-32.88,2096.53,-2162.3,1
30-1-2017 12:00,6444.752718196063,454.62,2594.21,-1684.96,1
30-1-2017 13:00,2793.740142524058,1089.71,3272.24,-1092.81,0
30-1-2017 14:00,3617.033043185046,473.9,2658.29,-1710.5,1
30-1-2017 15:00,-697.9214664291118,733.34,2927.72,-1461.05,0
30-1-2017 16:00,-790.3989526039354,-86.17,2109.13,-2281.47,0
30-1-2017 17:00,-685.5362482785098,-163.41,2030.96,-2357.77,0
30-1-2017 18:00,-706.4408619311499,-124.61,2068.57,-2317.8,0
30-1-2017 19:00,-690.6584382109802,-131.21,2060.82,-2323.25,0
30-1-2017 20:00,-570.1309171042055,-130.49,2060.4,-2321.37,0
30-1-2017 21:00,-500.51805438943575,-108.26,2081.34,-2297.85,0
30-1-2017 22:00,-327.77982095523066,-94.6,2093.65,-2282.86,0
30-1-2017 23:00,-235.6845422351273,-62.12,2124.68,-2248.92,0
31-1-2017 0:00,-3254.012058049166,-43.04,2142.27,-2228.36,1
31-1-2017 1:00,-286.7935087162149,-617.9,1578.42,-2814.22,0
31-1-2017 2:00,-119.96062563949863,-98.15,2096.78,-2293.09,0
31-1-2017 3:00,-115.98565853432683,-12.6,2180.81,-2206.02,0
31-1-2017 4:00,5.8408617813704495,-22.62,2169.29,-2214.53,0
31-1-2017 5:00,86.34179539886964,-0.3,2190.1,-2190.7,0
31-1-2017 6:00,4.31721208485601,16.55,2205.45,-2172.34,0
31-1-2017 7:00,71.50913207009376,2.01,2189.41,-2185.38,0
31-1-2017 8:00,224.87027479245285,13.05,2198.95,-2172.84,0
31-1-2017 9:00,818.289740684224,43.26,2227.71,-2141.19,0
31-1-2017 10:00,350.1584944847342,158.07,2341.75,-2025.61,0
31-1-2017 11:00,-381.4146257309252,77.44,2259.66,-2104.79,0
31-1-2017 12:00,-1042.0523514108836,-69.99,2111.0,-2250.98,0
31-1-2017 13:00,-504.6844931507485,-204.99,1975.65,-2385.62,0
31-1-2017 14:00,-800.804957831434,-108.89,2070.36,-2288.15,0
31-1-2017 15:00,215.90081197755967,-156.69,2021.66,-2335.03,0
31-1-2017 16:00,152.72740968677647,30.23,2207.27,-2146.8,0
31-1-2017 17:00,241.73476360033897,33.79,2209.36,-2141.78,0
31-1-2017 18:00,153.84819322930173,45.84,2219.99,-2128.31,0
31-1-2017 19:00,71.3583405105195,30.68,2203.37,-2142.01,0
31-1-2017 20:00,163.34332580900605,13.94,2185.16,-2157.29,0
31-1-2017 21:00,103.13805983013185,30.42,2200.21,-2139.36,0
31-1-2017 22:00,207.69427979882323,21.0,2189.33,-2147.33,0
31-1-2017 23:00,172.31649826765113,39.43,2206.34,-2127.48,0
