Time,Actual,Forecasts,Upper Interval,Lower Interval,Is Anomalies
1-1-2017 0:00,171.35065124043444,0.0,0.0,0.0,0
1-1-2017 1:00,286.42250532650576,0.0,0.0,0.0,0
1-1-2017 2:00,309.40878650790887,0.0,0.0,0.0,0
1-1-2017 3:00,322.08800726551544,0.0,0.0,0.0,0
1-1-2017 4:00,340.1880170810539,0.0,0.0,0.0,0
1-1-2017 5:00,342.1608118670813,0.0,0.0,0.0,0
1-1-2017 6:00,311.33697981398893,0.0,0.0,0.0,0
1-1-2017 7:00,232.4574177591063,0.0,0.0,0.0,0
1-1-2017 8:00,57.148074507817114,0.0,0.0,0.0,0
1-1-2017 9:00,-401.7806337907446,0.0,0.0,0.0,0
1-1-2017 10:00,-599.2372560249509,0.0,0.0,0.0,0
1-1-2017 11:00,-479.6914128228542,0.0,0.0,0.0,0
1-1-2017 12:00,-422.1291969060063,0.0,0.0,0.0,0
1-1-2017 13:00,-411.4973080112468,0.0,0.0,0.0,0
1-1-2017 14:00,-557.6887606118426,0.0,0.0,0.0,0
1-1-2017 15:00,-576.0720539238446,0.0,0.0,0.0,0
1-1-2017 16:00,-540.0398226310738,0.0,0.0,0.0,0
1-1-2017 17:00,-467.758955971501,0.0,0.0,0.0,0
1-1-2017 18:00,-203.70886758868323,0.0,0.0,0.0,0
1-1-2017 19:00,35.80117966937621,0.0,0.0,0.0,0
1-1-2017 20:00,79.91545350504362,0.0,0.0,0.0,0
1-1-2017 21:00,53.64026262936136,0.0,0.0,0.0,0
1-1-2017 22:00,115.65951487471955,0.0,0.0,0.0,0
1-1-2017 23:00,204.69124648343006,0.0,0.0,0.0,0
2-1-2017 0:00,227.04179909996458,0.0,0.0,0.0,0
2-1-2017 1:00,207.93081268194487,0.0,0.0,0.0,0
2-1-2017 2:00,181.80886111001746,0.0,0.0,0.0,0
2-1-2017 3:00,157.4514178947461,0.0,0.0,0.0,0
2-1-2017 4:00,132.9076373491489,0.0,0.0,0.0,0
2-1-2017 5:00,102.71810304767314,0.0,0.0,0.0,0
2-1-2017 6:00,81.1866130796252,0.0,0.0,0.0,0
2-1-2017 7:00,91.00836618841538,0.0,0.0,0.0,0
2-1-2017 8:00,171.45330858921636,0.0,0.0,0.0,0
2-1-2017 9:00,351.582139628777,0.0,0.0,0.0,0
2-1-2017 10:00,-201.7987152843425,0.0,0.0,0.0,0
2-1-2017 11:00,-236.34062824087084,0.0,0.0,0.0,0
2-1-2017 12:00,-473.0045786166713,0.0,0.0,0.0,0
2-1-2017 13:00,-232.953376004319,0.0,0.0,0.0,0
2-1-2017 14:00,-240.53500227309792,0.0,0.0,0.0,0
2-1-2017 15:00,-91.50421373907704,0.0,0.0,0.0,0
2-1-2017 16:00,159.61924372261615,0.0,0.0,0.0,0
2-1-2017 17:00,376.623339456969,0.0,0.0,0.0,0
2-1-2017 18:00,357.790314952422,0.0,0.0,0.0,0
2-1-2017 19:00,314.254762849391,0.0,0.0,0.0,0
2-1-2017 20:00,192.43195352519,0.0,0.0,0.0,0
2-1-2017 21:00,139.56398666341806,0.0,0.0,0.0,0
2-1-2017 22:00,111.79708329330265,0.0,0.0,0.0,0
2-1-2017 23:00,17.08840952328387,0.0,0.0,0.0,0
3-1-2017 0:00,-87.22136677812773,0.0,0.0,0.0,0
3-1-2017 1:00,-142.22590513663795,0.0,0.0,0.0,0
3-1-2017 2:00,-164.15680089829516,0.0,0.0,0.0,0
3-1-2017 3:00,-173.32161952284343,0.0,0.0,0.0,0
3-1-2017 4:00,-175.59188617904806,0.0,0.0,0.0,0
3-1-2017 5:00,-176.739995743211,0.0,0.0,0.0,0
3-1-2017 6:00,-145.57538980139816,0.0,0.0,0.0,0
3-1-2017 7:00,-108.62947137160472,0.0,0.0,0.0,0
3-1-2017 8:00,-19.287393161382624,0.0,0.0,0.0,0
3-1-2017 9:00,129.4036091889975,0.0,0.0,0.0,0
3-1-2017 10:00,174.48286521809996,0.0,0.0,0.0,0
3-1-2017 11:00,-12.982460275918811,0.0,0.0,0.0,0
3-1-2017 12:00,-7.708233323232662,0.0,0.0,0.0,0
3-1-2017 13:00,217.9510722189591,0.0,0.0,0.0,0
3-1-2017 14:00,223.3680614942432,0.0,0.0,0.0,0
3-1-2017 15:00,199.17172108653358,0.0,0.0,0.0,0
3-1-2017 16:00,188.0537329429112,0.0,0.0,0.0,0
3-1-2017 17:00,165.37813880133012,0.0,0.0,0.0,0
3-1-2017 18:00,111.72908245870462,0.0,0.0,0.0,0
3-1-2017 19:00,-124.48541944736405,0.0,0.0,0.0,0
3-1-2017 20:00,-10.518662373380494,0.0,0.0,0.0,0
3-1-2017 21:00,-1.4174984850064902,0.0,0.0,0.0,0
3-1-2017 22:00,-8.987889168808579,0.0,0.0,0.0,0
3-1-2017 23:00,-83.57430001576904,0.0,0.0,0.0,0
4-1-2017 0:00,-134.12173693333875,0.0,0.0,0.0,0
4-1-2017 1:00,-163.9605151504121,0.0,0.0,0.0,0
4-1-2017 2:00,-167.49104301987165,0.0,0.0,0.0,0
4-1-2017 3:00,-171.93392497177058,0.0,0.0,0.0,0
4-1-2017 4:00,-178.73054541679096,0.0,0.0,0.0,0
4-1-2017 5:00,-171.71220942505806,0.0,0.0,0.0,0
4-1-2017 6:00,-159.87648675480193,0.0,0.0,0.0,0
4-1-2017 7:00,-127.29110968731902,0.0,0.0,0.0,0
4-1-2017 8:00,-87.14660235098881,0.0,0.0,0.0,0
4-1-2017 9:00,5.652919688476686,0.0,0.0,0.0,0
4-1-2017 10:00,186.97867034550404,0.0,0.0,0.0,0
4-1-2017 11:00,197.73631599969826,0.0,0.0,0.0,0
4-1-2017 12:00,254.9551039665746,0.0,0.0,0.0,0
4-1-2017 13:00,171.46127671915997,0.0,0.0,0.0,0
4-1-2017 14:00,249.2356458190618,0.0,0.0,0.0,0
4-1-2017 15:00,231.3109407501754,0.0,0.0,0.0,0
4-1-2017 16:00,184.63029133664827,0.0,0.0,0.0,0
4-1-2017 17:00,107.85481727785464,0.0,0.0,0.0,0
4-1-2017 18:00,33.89953905587163,0.0,0.0,0.0,0
4-1-2017 19:00,-24.444046174814957,0.0,0.0,0.0,0
4-1-2017 20:00,-55.70785622422727,0.0,0.0,0.0,0
4-1-2017 21:00,-23.623239075220454,0.0,0.0,0.0,0
4-1-2017 22:00,-40.842710001072646,0.0,0.0,0.0,0
4-1-2017 23:00,-92.90245085333913,0.0,0.0,0.0,0
5-1-2017 0:00,-136.07314131543126,0.0,0.0,0.0,0
5-1-2017 1:00,-160.82804628220083,0.0,0.0,0.0,0
5-1-2017 2:00,-168.57009315059634,0.0,0.0,0.0,0
5-1-2017 3:00,-164.8629253209781,0.0,0.0,0.0,0
5-1-2017 4:00,-168.17830047949485,0.0,0.0,0.0,0
5-1-2017 5:00,-159.17093942232373,0.0,0.0,0.0,0
5-1-2017 6:00,-138.4615205140817,0.0,0.0,0.0,0
5-1-2017 7:00,-105.92563413979906,0.0,0.0,0.0,0
5-1-2017 8:00,-48.23764700825154,0.0,0.0,0.0,0
5-1-2017 9:00,26.945060387919057,0.0,0.0,0.0,0
5-1-2017 10:00,210.89998890082734,0.0,0.0,0.0,0
5-1-2017 11:00,235.10328893119095,0.0,0.0,0.0,0
5-1-2017 12:00,287.07932114021355,0.0,0.0,0.0,0
5-1-2017 13:00,132.07965926289967,0.0,0.0,0.0,0
5-1-2017 14:00,234.26870634712623,0.0,0.0,0.0,0
5-1-2017 15:00,231.8929347767712,0.0,0.0,0.0,0
5-1-2017 16:00,179.33644016513608,0.0,0.0,0.0,0
5-1-2017 17:00,83.86161723404507,0.0,0.0,0.0,0
5-1-2017 18:00,1.600648177619405,0.0,0.0,0.0,0
5-1-2017 19:00,-4.7909024282928385,0.0,0.0,0.0,0
5-1-2017 20:00,-139.9041616517086,0.0,0.0,0.0,0
5-1-2017 21:00,-141.17188217604166,0.0,0.0,0.0,0
5-1-2017 22:00,-137.1446649997779,0.0,0.0,0.0,0
5-1-2017 23:00,-126.89196751318389,0.0,0.0,0.0,0
6-1-2017 0:00,-131.90720362012792,0.0,0.0,0.0,0
6-1-2017 1:00,-129.155654064626,0.0,0.0,0.0,0
6-1-2017 2:00,-115.2809618429086,0.0,0.0,0.0,0
6-1-2017 3:00,-107.6159931870601,0.0,0.0,0.0,0
6-1-2017 4:00,-104.14682721966142,0.0,0.0,0.0,0
6-1-2017 5:00,-91.76117668895324,0.0,0.0,0.0,0
6-1-2017 6:00,-80.35775444799685,0.0,0.0,0.0,0
6-1-2017 7:00,-70.75175691066545,0.0,0.0,0.0,0
6-1-2017 8:00,-70.27773458139757,0.0,0.0,0.0,0
6-1-2017 9:00,-77.38927061054255,0.0,0.0,0.0,0
6-1-2017 10:00,118.35768343074847,0.0,0.0,0.0,0
6-1-2017 11:00,226.31409678237583,0.0,0.0,0.0,0
6-1-2017 12:00,245.02969880338787,0.0,0.0,0.0,0
6-1-2017 13:00,35.423183801560526,0.0,0.0,0.0,0
6-1-2017 14:00,132.91222773462573,0.0,0.0,0.0,0
6-1-2017 15:00,163.96284907919755,0.0,0.0,0.0,0
6-1-2017 16:00,105.36795642945242,0.0,0.0,0.0,0
6-1-2017 17:00,48.86420935559772,0.0,0.0,0.0,0
6-1-2017 18:00,-55.92881652591382,0.0,0.0,0.0,0
6-1-2017 19:00,-83.63574410847013,0.0,0.0,0.0,0
6-1-2017 20:00,66.35865267739621,0.0,0.0,0.0,0
6-1-2017 21:00,99.47758492515698,0.0,0.0,0.0,0
6-1-2017 22:00,-5.50546280555443,0.0,0.0,0.0,0
6-1-2017 23:00,64.81584652734784,0.0,0.0,0.0,0
7-1-2017 0:00,-34.186071331847984,0.0,0.0,0.0,0
7-1-2017 1:00,-55.54438131302743,0.0,0.0,0.0,0
7-1-2017 2:00,-44.77926406015024,0.0,0.0,0.0,0
7-1-2017 3:00,-27.722808637024855,0.0,0.0,0.0,0
7-1-2017 4:00,-12.708070207486344,0.0,0.0,0.0,0
7-1-2017 5:00,-6.352196954623423,0.0,0.0,0.0,0
7-1-2017 6:00,0.7871618676649632,0.0,0.0,0.0,0
7-1-2017 7:00,23.19301994450541,0.0,0.0,0.0,0
7-1-2017 8:00,-5.50717315204588,0.0,0.0,0.0,0
7-1-2017 9:00,-99.6364463408612,0.0,0.0,0.0,0
7-1-2017 10:00,-9.613020478777116,0.0,0.0,0.0,0
7-1-2017 11:00,117.64095248652586,0.0,0.0,0.0,0
7-1-2017 12:00,119.6805706119386,0.0,0.0,0.0,0
7-1-2017 13:00,43.224119463661395,0.0,0.0,0.0,0
7-1-2017 14:00,-80.55992277637108,0.0,0.0,0.0,0
7-1-2017 15:00,-112.71599153880993,0.0,0.0,0.0,0
7-1-2017 16:00,-146.59280722679932,0.0,0.0,0.0,0
7-1-2017 17:00,-132.61838168624035,0.0,0.0,0.0,0
7-1-2017 18:00,-75.38636763566183,0.0,0.0,0.0,0
7-1-2017 19:00,-20.470875493810354,0.0,0.0,0.0,0
7-1-2017 20:00,-29.76102599761066,0.0,0.0,0.0,0
7-1-2017 21:00,-34.58476970548293,0.0,0.0,0.0,0
7-1-2017 22:00,2.0143173295408587,0.0,0.0,0.0,0
7-1-2017 23:00,59.46663818146192,0.0,0.0,0.0,0
8-1-2017 0:00,151.68043824272445,0.0,0.0,0.0,0
8-1-2017 1:00,179.55683154283543,0.0,0.0,0.0,0
8-1-2017 2:00,210.0069366448447,0.0,0.0,0.0,0
8-1-2017 3:00,238.22944165321917,0.0,0.0,0.0,0
8-1-2017 4:00,262.35538564850754,0.0,0.0,0.0,0
8-1-2017 5:00,293.29372591301376,0.0,0.0,0.0,0
8-1-2017 6:00,278.1612656061229,0.0,0.0,0.0,0
8-1-2017 7:00,235.85955602782326,0.0,0.0,0.0,0
8-1-2017 8:00,136.67771931080387,0.0,0.0,0.0,0
8-1-2017 9:00,-202.00533152738626,0.0,0.0,0.0,0
8-1-2017 10:00,-402.0614355674287,0.0,0.0,0.0,0
8-1-2017 11:00,-350.57590471136945,0.0,0.0,0.0,0
8-1-2017 12:00,-323.6982722044753,0.0,0.0,0.0,0
8-1-2017 13:00,-280.14636529886593,0.0,0.0,0.0,0
8-1-2017 14:00,-444.58519951166,0.0,0.0,0.0,0
8-1-2017 15:00,-465.0496641807722,0.0,0.0,0.0,0
8-1-2017 16:00,-469.7200883934556,0.0,0.0,0.0,0
8-1-2017 17:00,-409.144028177266,0.0,0.0,0.0,0
8-1-2017 18:00,-186.75351213338013,0.0,0.0,0.0,0
8-1-2017 19:00,19.667940678228547,0.0,0.0,0.0,0
8-1-2017 20:00,48.23678383011145,0.0,0.0,0.0,0
8-1-2017 21:00,48.07281801160923,0.0,0.0,0.0,0
8-1-2017 22:00,79.99666971420413,0.0,0.0,0.0,0
8-1-2017 23:00,106.99263198697997,0.0,0.0,0.0,0
9-1-2017 0:00,113.8547798705365,0.0,0.0,0.0,0
9-1-2017 1:00,100.89614688562835,0.0,0.0,0.0,0
9-1-2017 2:00,71.10151027045958,0.0,0.0,0.0,0
9-1-2017 3:00,37.61033529777387,0.0,0.0,0.0,0
9-1-2017 4:00,-2.1324413430533014,0.0,0.0,0.0,0
9-1-2017 5:00,-28.23619247974557,0.0,0.0,0.0,0
9-1-2017 6:00,-66.49503032865732,0.0,0.0,0.0,0
9-1-2017 7:00,-108.92995933065322,0.0,0.0,0.0,0
9-1-2017 8:00,-56.44909143669736,0.0,0.0,0.0,0
9-1-2017 9:00,129.49606497945024,0.0,0.0,0.0,0
9-1-2017 10:00,263.7207025264945,0.0,0.0,0.0,0
9-1-2017 11:00,61.55806276252247,0.0,0.0,0.0,0
9-1-2017 12:00,112.903981140111,0.0,0.0,0.0,0
9-1-2017 13:00,263.84222068902545,0.0,0.0,0.0,0
9-1-2017 14:00,313.12656909288876,0.0,0.0,0.0,0
9-1-2017 15:00,319.4916831065218,0.0,0.0,0.0,0
9-1-2017 16:00,277.83455692354414,0.0,0.0,0.0,0
9-1-2017 17:00,241.56755856766927,0.0,0.0,0.0,0
9-1-2017 18:00,96.6418833571679,0.0,0.0,0.0,0
9-1-2017 19:00,37.974316608996105,0.0,0.0,0.0,0
9-1-2017 20:00,-9.712826812975436,0.0,0.0,0.0,0
9-1-2017 21:00,-33.35402960570718,0.0,0.0,0.0,0
9-1-2017 22:00,-72.78195997062028,0.0,0.0,0.0,0
9-1-2017 23:00,-124.53890301206911,0.0,0.0,0.0,0
10-1-2017 0:00,-167.9930046656541,0.0,0.0,0.0,0
10-1-2017 1:00,-187.8015501276866,0.0,0.0,0.0,0
10-1-2017 2:00,-192.4657962966919,0.0,0.0,0.0,0
10-1-2017 3:00,-197.30965812002773,0.0,0.0,0.0,0
10-1-2017 4:00,-195.81194033173642,0.0,0.0,0.0,0
10-1-2017 5:00,-197.84154887992668,0.0,0.0,0.0,0
10-1-2017 6:00,-180.54311432664383,0.0,0.0,0.0,0
10-1-2017 7:00,-144.97654121197832,0.0,0.0,0.0,0
10-1-2017 8:00,-103.42156648888022,0.0,0.0,0.0,0
10-1-2017 9:00,4.437076697392968,0.0,0.0,0.0,0
10-1-2017 10:00,180.7224854621361,0.0,0.0,0.0,0
10-1-2017 11:00,195.19802470741,0.0,0.0,0.0,0
10-1-2017 12:00,260.1915987565626,0.0,0.0,0.0,0
10-1-2017 13:00,178.59966181614618,0.0,0.0,0.0,0
10-1-2017 14:00,265.4893619000534,0.0,0.0,0.0,0
10-1-2017 15:00,269.83458120125056,0.0,0.0,0.0,0
10-1-2017 16:00,183.16540186288307,0.0,0.0,0.0,0
10-1-2017 17:00,117.82147121873618,0.0,0.0,0.0,0
10-1-2017 18:00,42.396097052373534,0.0,0.0,0.0,0
10-1-2017 19:00,-2.4268924646564756,0.0,0.0,0.0,0
10-1-2017 20:00,-47.2539188224024,0.0,0.0,0.0,0
10-1-2017 21:00,-57.48750770005881,0.0,0.0,0.0,0
10-1-2017 22:00,-40.37003029220932,0.0,0.0,0.0,0
10-1-2017 23:00,-100.83632417531396,0.0,0.0,0.0,0
11-1-2017 0:00,-163.58249530677097,0.0,0.0,0.0,0
11-1-2017 1:00,-186.31617191813575,0.0,0.0,0.0,0
11-1-2017 2:00,-186.8852463131857,0.0,0.0,0.0,0
11-1-2017 3:00,-188.31701365938022,0.0,0.0,0.0,0
11-1-2017 4:00,-180.89576243654176,0.0,0.0,0.0,0
11-1-2017 5:00,-182.07027803060078,0.0,0.0,0.0,0
11-1-2017 6:00,-162.3636207094944,0.0,0.0,0.0,0
11-1-2017 7:00,-125.21622793665324,0.0,0.0,0.0,0
11-1-2017 8:00,-103.9578288428986,0.0,0.0,0.0,0
11-1-2017 9:00,416.06738670797233,0.0,0.0,0.0,0
11-1-2017 10:00,552.0548666455602,0.0,0.0,0.0,0
11-1-2017 11:00,175.0398848552261,0.0,0.0,0.0,0
11-1-2017 12:00,205.30241453108886,0.0,0.0,0.0,0
11-1-2017 13:00,79.66107986778479,0.0,0.0,0.0,0
11-1-2017 14:00,160.40691039817955,0.0,0.0,0.0,0
11-1-2017 15:00,168.2730137533838,0.0,0.0,0.0,0
11-1-2017 16:00,106.68153261747977,0.0,0.0,0.0,0
11-1-2017 17:00,30.93684353630806,0.0,0.0,0.0,0
11-1-2017 18:00,-134.2820557346687,0.0,0.0,0.0,0
11-1-2017 19:00,-262.97442338288727,0.0,0.0,0.0,0
11-1-2017 20:00,-121.80528803873744,0.0,0.0,0.0,0
11-1-2017 21:00,-58.64028302323459,0.0,0.0,0.0,0
11-1-2017 22:00,-66.39559762235206,0.0,0.0,0.0,0
11-1-2017 23:00,-66.9294421268421,0.0,0.0,0.0,0
12-1-2017 0:00,-71.98588251590047,0.0,0.0,0.0,0
12-1-2017 1:00,-73.94921383784958,0.0,0.0,0.0,0
12-1-2017 2:00,-60.98764002019561,0.0,0.0,0.0,0
12-1-2017 3:00,-60.19183645050009,0.0,0.0,0.0,0
12-1-2017 4:00,-53.700802510962035,0.0,0.0,0.0,0
12-1-2017 5:00,-54.65736308577323,0.0,0.0,0.0,0
12-1-2017 6:00,-45.369620931726786,0.0,0.0,0.0,0
12-1-2017 7:00,-36.86827670139337,0.0,0.0,0.0,0
12-1-2017 8:00,-36.013321437665354,0.0,0.0,0.0,0
12-1-2017 9:00,-40.287083832127564,0.0,0.0,0.0,0
12-1-2017 10:00,74.84695308078813,0.0,0.0,0.0,0
12-1-2017 11:00,174.78593605732806,0.0,0.0,0.0,0
12-1-2017 12:00,102.18190716238382,0.0,0.0,0.0,0
12-1-2017 13:00,57.30893707060659,0.0,0.0,0.0,0
12-1-2017 14:00,136.68866034190341,0.0,0.0,0.0,0
12-1-2017 15:00,126.92341004552941,0.0,0.0,0.0,0
12-1-2017 16:00,67.96780940491158,0.0,0.0,0.0,0
12-1-2017 17:00,29.571915671052466,0.0,0.0,0.0,0
12-1-2017 18:00,-30.40095492020123,0.0,0.0,0.0,0
12-1-2017 19:00,-75.51119653394483,0.0,0.0,0.0,0
12-1-2017 20:00,-110.41439532223626,0.0,0.0,0.0,0
12-1-2017 21:00,-77.63225391869128,0.0,0.0,0.0,0
12-1-2017 22:00,-52.7173976145923,0.0,0.0,0.0,0
12-1-2017 23:00,-41.675829830284556,0.0,0.0,0.0,0
13-1-2017 0:00,-21.31957656676093,0.0,0.0,0.0,0
13-1-2017 1:00,-13.592774067446271,0.0,0.0,0.0,0
13-1-2017 2:00,-8.650763505240775,0.0,0.0,0.0,0
13-1-2017 3:00,-1.967600487807431,0.0,0.0,0.0,0
13-1-2017 4:00,2.9174694502835337,0.0,0.0,0.0,0
13-1-2017 5:00,7.1907966407025015,0.0,0.0,0.0,0
13-1-2017 6:00,9.911556373671942,0.0,0.0,0.0,0
13-1-2017 7:00,-2.1422432591454026,0.0,0.0,0.0,0
13-1-2017 8:00,-16.139827146087327,0.0,0.0,0.0,0
13-1-2017 9:00,-68.58115283068878,0.0,0.0,0.0,0
13-1-2017 10:00,-5.0260591939122605,0.0,0.0,0.0,0
13-1-2017 11:00,149.461388298036,0.0,0.0,0.0,0
13-1-2017 12:00,135.9053005808181,0.0,0.0,0.0,0
13-1-2017 13:00,57.216967916869976,0.0,0.0,0.0,0
13-1-2017 14:00,90.26685678537149,0.0,0.0,0.0,0
13-1-2017 15:00,-163.35347430627849,0.0,0.0,0.0,0
13-1-2017 16:00,95.54274788429132,0.0,0.0,0.0,0
13-1-2017 17:00,4.83075020781439,0.0,0.0,0.0,0
13-1-2017 18:00,-44.37099099364639,0.0,0.0,0.0,0
13-1-2017 19:00,-44.86355666737188,0.0,0.0,0.0,0
13-1-2017 20:00,-98.21353968256108,0.0,0.0,0.0,0
13-1-2017 21:00,-90.34792044906987,0.0,0.0,0.0,0
13-1-2017 22:00,-69.59568843171496,0.0,0.0,0.0,0
13-1-2017 23:00,28.068496451430292,0.0,0.0,0.0,0
14-1-2017 0:00,103.01419923275887,0.0,0.0,0.0,0
14-1-2017 1:00,145.80662720586918,0.0,0.0,0.0,0
14-1-2017 2:00,165.9600231825235,0.0,0.0,0.0,0
14-1-2017 3:00,191.02164453034607,0.0,0.0,0.0,0
14-1-2017 4:00,213.2414339741763,0.0,0.0,0.0,0
14-1-2017 5:00,224.1259523503769,0.0,0.0,0.0,0
14-1-2017 6:00,218.11053709305997,0.0,0.0,0.0,0
14-1-2017 7:00,175.87782416234415,0.0,0.0,0.0,0
14-1-2017 8:00,99.34406817370825,0.0,0.0,0.0,0
14-1-2017 9:00,-140.34539241385937,0.0,0.0,0.0,0
14-1-2017 10:00,-291.3217202891559,0.0,0.0,0.0,0
14-1-2017 11:00,-270.7738671664176,0.0,0.0,0.0,0
14-1-2017 12:00,-280.4033966502781,0.0,0.0,0.0,0
14-1-2017 13:00,-200.1548441462653,0.0,0.0,0.0,0
14-1-2017 14:00,-322.6833908681044,0.0,0.0,0.0,0
14-1-2017 15:00,-321.5651911626457,0.0,0.0,0.0,0
14-1-2017 16:00,-332.4460024189741,0.0,0.0,0.0,0
14-1-2017 17:00,-294.74165203599557,0.0,0.0,0.0,0
14-1-2017 18:00,-137.73627889621525,0.0,0.0,0.0,0
14-1-2017 19:00,-1.912041759735871,0.0,0.0,0.0,0
14-1-2017 20:00,18.049216030626212,0.0,0.0,0.0,0
14-1-2017 21:00,43.08141512794111,0.0,0.0,0.0,0
14-1-2017 22:00,75.73501636306355,0.0,0.0,0.0,0
14-1-2017 23:00,154.38325263512291,0.0,0.0,0.0,0
15-1-2017 0:00,257.9378046700366,0.0,0.0,0.0,0
15-1-2017 1:00,293.66135128444967,0.0,0.0,0.0,0
15-1-2017 2:00,310.8216258430598,0.0,0.0,0.0,0
15-1-2017 3:00,322.8171986887786,0.0,0.0,0.0,0
15-1-2017 4:00,331.75681026865755,0.0,0.0,0.0,0
15-1-2017 5:00,331.2351114260869,0.0,0.0,0.0,0
15-1-2017 6:00,307.40611277393066,0.0,0.0,0.0,0
15-1-2017 7:00,253.63423148769527,0.0,0.0,0.0,0
15-1-2017 8:00,145.95404833974413,0.0,0.0,0.0,0
15-1-2017 9:00,-146.45821761923037,0.0,0.0,0.0,0
15-1-2017 10:00,-355.27780466752006,0.0,0.0,0.0,0
15-1-2017 11:00,-384.6113835749112,0.0,0.0,0.0,0
15-1-2017 12:00,-401.28619248633447,0.0,0.0,0.0,0
15-1-2017 13:00,-310.3011914356406,0.0,0.0,0.0,0
15-1-2017 14:00,-414.49861036909977,0.0,0.0,0.0,0
15-1-2017 15:00,-398.532316487812,0.0,0.0,0.0,0
15-1-2017 16:00,-426.25008833590124,0.0,0.0,0.0,0
15-1-2017 17:00,-342.5159405435847,0.0,0.0,0.0,0
15-1-2017 18:00,-134.2800037126807,0.0,0.0,0.0,0
15-1-2017 19:00,28.868835542011823,0.0,0.0,0.0,0
15-1-2017 20:00,34.49913344593335,0.0,0.0,0.0,0
15-1-2017 21:00,14.007318381857147,0.0,0.0,0.0,0
15-1-2017 22:00,84.44139900826917,0.0,0.0,0.0,0
15-1-2017 23:00,122.4027968427647,0.0,0.0,0.0,0
16-1-2017 0:00,117.53530830478553,0.0,0.0,0.0,0
16-1-2017 1:00,111.36693533208461,0.0,0.0,0.0,0
16-1-2017 2:00,86.85105024423387,0.0,0.0,0.0,0
16-1-2017 3:00,51.37753635943227,0.0,0.0,0.0,0
16-1-2017 4:00,6.29635949054466,0.0,0.0,0.0,0
16-1-2017 5:00,-27.381300193554466,0.0,0.0,0.0,0
16-1-2017 6:00,-54.0936258633069,0.0,0.0,0.0,0
16-1-2017 7:00,-83.433509834598,0.0,0.0,0.0,0
16-1-2017 8:00,-77.26895447140032,0.0,0.0,0.0,0
16-1-2017 9:00,35.36176332959906,0.0,0.0,0.0,0
16-1-2017 10:00,233.28483238260685,0.0,0.0,0.0,0
16-1-2017 11:00,342.2157367193764,0.0,0.0,0.0,0
16-1-2017 12:00,334.551563654681,0.0,0.0,0.0,0
16-1-2017 13:00,206.63486547468744,0.0,0.0,0.0,0
16-1-2017 14:00,248.8204265522388,0.0,0.0,0.0,0
16-1-2017 15:00,245.4566668319867,0.0,0.0,0.0,0
16-1-2017 16:00,120.51311440627842,0.0,0.0,0.0,0
16-1-2017 17:00,92.43655376459719,0.0,0.0,0.0,0
16-1-2017 18:00,19.01254844328912,0.0,0.0,0.0,0
16-1-2017 19:00,-38.597829063695485,0.0,0.0,0.0,0
16-1-2017 20:00,-41.22230992610412,0.0,0.0,0.0,0
16-1-2017 21:00,-64.655790145987,0.0,0.0,0.0,0
16-1-2017 22:00,-99.4871086864905,0.0,0.0,0.0,0
16-1-2017 23:00,-124.23842784776389,0.0,0.0,0.0,0
17-1-2017 0:00,-137.3038355168411,0.0,0.0,0.0,0
17-1-2017 1:00,-127.31471594912534,0.0,0.0,0.0,0
17-1-2017 2:00,-129.41734855590653,0.0,0.0,0.0,0
17-1-2017 3:00,-129.2805370436979,0.0,0.0,0.0,0
17-1-2017 4:00,-122.2977205534786,0.0,0.0,0.0,0
17-1-2017 5:00,-123.95069450928122,0.0,0.0,0.0,0
17-1-2017 6:00,-118.72570062680518,0.0,0.0,0.0,0
17-1-2017 7:00,-100.31330803613764,0.0,0.0,0.0,0
17-1-2017 8:00,-73.27373491477681,0.0,0.0,0.0,0
17-1-2017 9:00,4.269371607104858,0.0,0.0,0.0,0
17-1-2017 10:00,123.00370168892539,0.0,0.0,0.0,0
17-1-2017 11:00,208.4676941973712,0.0,0.0,0.0,0
17-1-2017 12:00,210.72276190691912,0.0,0.0,0.0,0
17-1-2017 13:00,115.10388916514762,0.0,0.0,0.0,0
17-1-2017 14:00,160.03195492262012,0.0,0.0,0.0,0
17-1-2017 15:00,184.53766626973822,0.0,0.0,0.0,0
17-1-2017 16:00,90.72421780447701,0.0,0.0,0.0,0
17-1-2017 17:00,77.29812459018274,0.0,0.0,0.0,0
17-1-2017 18:00,15.38535297804708,0.0,0.0,0.0,0
17-1-2017 19:00,-16.56207645348877,0.0,0.0,0.0,0
17-1-2017 20:00,-15.639171245102602,0.0,0.0,0.0,0
17-1-2017 21:00,-15.010533577003912,0.0,0.0,0.0,0
17-1-2017 22:00,-55.19761617386678,0.0,0.0,0.0,0
17-1-2017 23:00,-98.4520172203529,0.0,0.0,0.0,0
18-1-2017 0:00,-106.03893142121547,0.0,0.0,0.0,0
18-1-2017 1:00,-109.88176721200637,0.0,0.0,0.0,0
18-1-2017 2:00,-103.32105411072484,0.0,0.0,0.0,0
18-1-2017 3:00,-106.1476488648592,0.0,0.0,0.0,0
18-1-2017 4:00,-104.94911504632853,0.0,0.0,0.0,0
18-1-2017 5:00,-113.46877977996644,0.0,0.0,0.0,0
18-1-2017 6:00,-99.5684427225392,0.0,0.0,0.0,0
18-1-2017 7:00,-93.9820345396115,0.0,0.0,0.0,0
18-1-2017 8:00,-68.19123585712839,0.0,0.0,0.0,0
18-1-2017 9:00,1.6884969767681923,0.0,0.0,0.0,0
18-1-2017 10:00,122.9112569276914,0.0,0.0,0.0,0
18-1-2017 11:00,153.1554807792154,0.0,0.0,0.0,0
18-1-2017 12:00,173.70197381936862,0.0,0.0,0.0,0
18-1-2017 13:00,112.44988716801606,0.0,0.0,0.0,0
18-1-2017 14:00,144.70669535472211,0.0,0.0,0.0,0
18-1-2017 15:00,164.8607824607409,0.0,0.0,0.0,0
18-1-2017 16:00,93.02306556731162,0.0,0.0,0.0,0
18-1-2017 17:00,64.59359407977479,0.0,0.0,0.0,0
18-1-2017 18:00,36.020817987937676,0.0,0.0,0.0,0
18-1-2017 19:00,24.301022784903694,0.0,0.0,0.0,0
18-1-2017 20:00,-33.40066501572528,0.0,0.0,0.0,0
18-1-2017 21:00,-35.52523496525805,0.0,0.0,0.0,0
18-1-2017 22:00,-53.92343763430188,0.0,0.0,0.0,0
18-1-2017 23:00,-70.51294842313689,0.0,0.0,0.0,0
19-1-2017 0:00,-90.75197768151929,0.0,0.0,0.0,0
19-1-2017 1:00,-96.28371841913963,0.0,0.0,0.0,0
19-1-2017 2:00,-88.47660919811801,0.0,0.0,0.0,0
19-1-2017 3:00,-83.56355980691762,0.0,0.0,0.0,0
19-1-2017 4:00,-85.208960106051,0.0,0.0,0.0,0
19-1-2017 5:00,-84.39972454992687,0.0,0.0,0.0,0
19-1-2017 6:00,-73.70845324995207,0.0,0.0,0.0,0
19-1-2017 7:00,-53.430135572800395,0.0,0.0,0.0,0
19-1-2017 8:00,-39.99021742723107,0.0,0.0,0.0,0
19-1-2017 9:00,14.107487433704705,0.0,0.0,0.0,0
19-1-2017 10:00,115.75990976201138,0.0,0.0,0.0,0
19-1-2017 11:00,167.1555974648944,0.0,0.0,0.0,0
19-1-2017 12:00,159.53474834393398,0.0,0.0,0.0,0
19-1-2017 13:00,78.81260184838004,0.0,0.0,0.0,0
19-1-2017 14:00,97.04130652969945,0.0,0.0,0.0,0
19-1-2017 15:00,114.44692345999886,0.0,0.0,0.0,0
19-1-2017 16:00,-39.976892344040834,0.0,0.0,0.0,0
19-1-2017 17:00,-43.418245424973975,0.0,0.0,0.0,0
19-1-2017 18:00,15.450470683333606,0.0,0.0,0.0,0
19-1-2017 19:00,-20.75583070871869,0.0,0.0,0.0,0
19-1-2017 20:00,-43.77625193588415,0.0,0.0,0.0,0
19-1-2017 21:00,-90.4000688136963,0.0,0.0,0.0,0
19-1-2017 22:00,-0.23603392638040077,0.0,0.0,0.0,0
19-1-2017 23:00,-26.06729682902369,0.0,0.0,0.0,0
20-1-2017 0:00,-53.91508351638481,0.0,0.0,0.0,0
20-1-2017 1:00,-62.49239237264317,0.0,0.0,0.0,0
20-1-2017 2:00,-64.00555020369006,0.0,0.0,0.0,0
20-1-2017 3:00,-68.87951983896369,0.0,0.0,0.0,0
20-1-2017 4:00,-68.90648165857203,0.0,0.0,0.0,0
20-1-2017 5:00,-73.44364459212602,0.0,0.0,0.0,0
20-1-2017 6:00,-67.74673782904301,0.0,0.0,0.0,0
20-1-2017 7:00,-62.72314451569582,0.0,0.0,0.0,0
20-1-2017 8:00,-51.410740765068795,0.0,0.0,0.0,0
20-1-2017 9:00,-7.329428679017269,0.0,0.0,0.0,0
20-1-2017 10:00,85.39794781142518,0.0,0.0,0.0,0
20-1-2017 11:00,157.95039115041902,0.0,0.0,0.0,0
20-1-2017 12:00,159.3974916530966,0.0,0.0,0.0,0
20-1-2017 13:00,65.96887262724886,0.0,0.0,0.0,0
20-1-2017 14:00,138.7230611170893,0.0,0.0,0.0,0
20-1-2017 15:00,196.56379518557628,0.0,0.0,0.0,0
20-1-2017 16:00,81.41726827400373,0.0,0.0,0.0,0
20-1-2017 17:00,49.60751670771424,0.0,0.0,0.0,0
20-1-2017 18:00,1.781208124206728,0.0,0.0,0.0,0
20-1-2017 19:00,-24.449087092992954,0.0,0.0,0.0,0
20-1-2017 20:00,-44.95572938282339,0.0,0.0,0.0,0
20-1-2017 21:00,-58.019380068853366,0.0,0.0,0.0,0
20-1-2017 22:00,-67.76603122331073,0.0,0.0,0.0,0
20-1-2017 23:00,-32.6319698378951,0.0,0.0,0.0,0
21-1-2017 0:00,-3.931437552368493,0.0,0.0,0.0,0
21-1-2017 1:00,-9.522431858586287,0.0,0.0,0.0,0
21-1-2017 2:00,-16.943974073023583,0.0,0.0,0.0,0
21-1-2017 3:00,-8.52308006609303,0.0,0.0,0.0,0
21-1-2017 4:00,-0.4238573518341582,0.0,0.0,0.0,0
21-1-2017 5:00,6.688399733108781,0.0,0.0,0.0,0
21-1-2017 6:00,10.976760467474719,0.0,0.0,0.0,0
21-1-2017 7:00,19.278297558793497,0.0,0.0,0.0,0
21-1-2017 8:00,2.495855056254527,0.0,0.0,0.0,0
21-1-2017 9:00,-33.949522166038946,0.0,0.0,0.0,0
21-1-2017 10:00,-30.228194648681438,0.0,0.0,0.0,0
21-1-2017 11:00,-12.959998808796513,0.0,0.0,0.0,0
21-1-2017 12:00,-26.485951817700993,0.0,0.0,0.0,0
21-1-2017 13:00,27.303462821390667,0.0,0.0,0.0,0
21-1-2017 14:00,8.277641314985203,0.0,0.0,0.0,0
21-1-2017 15:00,-11.572001283106374,0.0,0.0,0.0,0
21-1-2017 16:00,-102.99278474883045,0.0,0.0,0.0,0
21-1-2017 17:00,-94.74280233180173,0.0,0.0,0.0,0
21-1-2017 18:00,-31.60600313845066,0.0,0.0,0.0,0
21-1-2017 19:00,-8.786658628986402,0.0,0.0,0.0,0
21-1-2017 20:00,-4.15588842967054,0.0,0.0,0.0,0
21-1-2017 21:00,5.746499975465667,0.0,0.0,0.0,0
21-1-2017 22:00,11.962176387998738,0.0,0.0,0.0,0
21-1-2017 23:00,52.764575670236695,0.0,0.0,0.0,0
22-1-2017 0:00,130.09833959333218,0.0,0.0,0.0,0
22-1-2017 1:00,141.89177302392375,0.0,0.0,0.0,0
22-1-2017 2:00,162.54115449835444,0.0,0.0,0.0,0
22-1-2017 3:00,186.99685555879898,0.0,0.0,0.0,0
22-1-2017 4:00,212.32773260280078,0.0,0.0,0.0,0
22-1-2017 5:00,228.6480436522939,0.0,0.0,0.0,0
22-1-2017 6:00,219.5863322164854,0.0,0.0,0.0,0
22-1-2017 7:00,207.39637539097072,0.0,0.0,0.0,0
22-1-2017 8:00,132.36419169476358,0.0,0.0,0.0,0
22-1-2017 9:00,-95.97520762174054,0.0,0.0,0.0,0
22-1-2017 10:00,-306.11097073711846,0.0,0.0,0.0,0
22-1-2017 11:00,-358.65538946040476,0.0,0.0,0.0,0
22-1-2017 12:00,-373.29356050223316,0.0,0.0,0.0,0
22-1-2017 13:00,-298.1294508183237,0.0,0.0,0.0,0
22-1-2017 14:00,-391.1528897777446,0.0,0.0,0.0,0
22-1-2017 15:00,-369.86303204130894,0.0,0.0,0.0,0
22-1-2017 16:00,-405.87665596236377,0.0,0.0,0.0,0
22-1-2017 17:00,-313.7674198979928,0.0,0.0,0.0,0
22-1-2017 18:00,-106.51709835731288,0.0,0.0,0.0,0
22-1-2017 19:00,54.54129663448214,0.0,0.0,0.0,0
22-1-2017 20:00,118.14917437529078,0.0,0.0,0.0,0
22-1-2017 21:00,120.98546371358754,0.0,0.0,0.0,0
22-1-2017 22:00,238.95916273552223,0.0,0.0,0.0,0
22-1-2017 23:00,275.94802154146316,0.0,0.0,0.0,0
23-1-2017 0:00,260.93763233303093,0.0,0.0,0.0,0
23-1-2017 1:00,276.65047788826183,0.0,0.0,0.0,0
23-1-2017 2:00,286.0757674393899,0.0,0.0,0.0,0
23-1-2017 3:00,298.3012599411778,0.0,0.0,0.0,0
23-1-2017 4:00,302.5048548206708,0.0,0.0,0.0,0
23-1-2017 5:00,319.5964020522083,0.0,0.0,0.0,0
23-1-2017 6:00,327.7478006637192,0.0,0.0,0.0,0
23-1-2017 7:00,328.77689725144484,0.0,0.0,0.0,0
23-1-2017 8:00,363.7255196916435,0.0,0.0,0.0,0
23-1-2017 9:00,22.456025372030638,0.0,0.0,0.0,0
23-1-2017 10:00,-766.2734730077531,0.0,0.0,0.0,0
23-1-2017 11:00,-946.5571509258808,0.0,0.0,0.0,0
23-1-2017 12:00,-958.7041846323036,0.0,0.0,0.0,0
23-1-2017 13:00,-813.1854616619623,0.0,0.0,0.0,0
23-1-2017 14:00,-844.2065998327844,0.0,0.0,0.0,0
23-1-2017 15:00,-801.9973235202078,0.0,0.0,0.0,0
23-1-2017 16:00,416.3896796815084,0.0,0.0,0.0,0
23-1-2017 17:00,534.2205866500498,0.0,0.0,0.0,0
23-1-2017 18:00,390.4868477948864,0.0,0.0,0.0,0
23-1-2017 19:00,327.4002701206398,0.0,0.0,0.0,0
23-1-2017 20:00,316.3912322545688,0.0,0.0,0.0,0
23-1-2017 21:00,283.1121764003303,0.0,0.0,0.0,0
23-1-2017 22:00,225.16711917896066,0.0,0.0,0.0,0
23-1-2017 23:00,165.26565865589941,0.0,0.0,0.0,0
24-1-2017 0:00,72.12433746323359,0.0,0.0,0.0,0
24-1-2017 1:00,7.805443405699066,0.0,0.0,0.0,0
24-1-2017 2:00,-29.264510703879864,0.0,0.0,0.0,0
24-1-2017 3:00,-58.97037849815297,0.0,0.0,0.0,0
24-1-2017 4:00,-97.39532538670073,0.0,0.0,0.0,0
24-1-2017 5:00,-109.41498556264071,0.0,0.0,0.0,0
24-1-2017 6:00,-110.74292049333167,0.0,0.0,0.0,0
24-1-2017 7:00,-109.64747182137671,0.0,0.0,0.0,0
24-1-2017 8:00,-79.34074457378301,0.0,0.0,0.0,0
24-1-2017 9:00,29.19972117331713,0.0,0.0,0.0,0
24-1-2017 10:00,253.0764751594561,0.0,0.0,0.0,0
24-1-2017 11:00,229.91352567681565,0.0,0.0,0.0,0
24-1-2017 12:00,237.09761693612643,0.0,0.0,0.0,0
24-1-2017 13:00,113.42989279326275,0.0,0.0,0.0,0
24-1-2017 14:00,164.87999501140246,0.0,0.0,0.0,0
24-1-2017 15:00,183.14762950048316,0.0,0.0,0.0,0
24-1-2017 16:00,102.39412704151357,0.0,0.0,0.0,0
24-1-2017 17:00,46.33219488362931,0.0,0.0,0.0,0
24-1-2017 18:00,-11.270114397973543,0.0,0.0,0.0,0
24-1-2017 19:00,-52.30652481935931,0.0,0.0,0.0,0
24-1-2017 20:00,-34.57733837340788,0.0,0.0,0.0,0
24-1-2017 21:00,-10.588759033245196,0.0,0.0,0.0,0
24-1-2017 22:00,-19.820422611924414,0.0,0.0,0.0,0
24-1-2017 23:00,-47.820052577993806,0.0,0.0,0.0,0
25-1-2017 0:00,-122.38015586889856,0.0,0.0,0.0,0
25-1-2017 1:00,-137.09796752334773,0.0,0.0,0.0,0
25-1-2017 2:00,-142.48034327778316,0.0,0.0,0.0,0
25-1-2017 3:00,-140.18474935226686,0.0,0.0,0.0,0
25-1-2017 4:00,-138.46666249990346,0.0,0.0,0.0,0
25-1-2017 5:00,-134.3983066027921,0.0,0.0,0.0,0
25-1-2017 6:00,-120.63635159515638,0.0,0.0,0.0,0
25-1-2017 7:00,-90.10609277442995,0.0,0.0,0.0,0
25-1-2017 8:00,-49.29280265489933,0.0,0.0,0.0,0
25-1-2017 9:00,52.351988760671475,0.0,0.0,0.0,0
25-1-2017 10:00,183.34942112575777,0.0,0.0,0.0,0
25-1-2017 11:00,183.471626091629,0.0,0.0,0.0,0
25-1-2017 12:00,211.29126832969837,0.0,0.0,0.0,0
25-1-2017 13:00,109.85120629486232,0.0,0.0,0.0,0
25-1-2017 14:00,188.5166581231971,0.0,0.0,0.0,0
25-1-2017 15:00,189.9767600100148,0.0,0.0,0.0,0
25-1-2017 16:00,108.62812245914324,0.0,0.0,0.0,0
25-1-2017 17:00,90.11241039601612,0.0,0.0,0.0,0
25-1-2017 18:00,-10.099410090843321,0.0,0.0,0.0,0
25-1-2017 19:00,-18.57497597360691,-61.6,110.57,-233.77,0
25-1-2017 20:00,-46.45688792987096,-47.38,124.67,-219.44,0
25-1-2017 21:00,-25.66794612112858,-79.68,92.23,-251.6,0
25-1-2017 22:00,-2.0013823655411898,-48.83,122.99,-220.66,0
25-1-2017 23:00,34.10565191695764,-31.24,140.48,-202.97,0
26-1-2017 0:00,14.798356687911678,1.82,173.48,-169.84,0
26-1-2017 1:00,37.2079437792122,-25.3,146.23,-196.82,0
26-1-2017 2:00,64.59769935902227,2.67,174.13,-168.78,0
26-1-2017 3:00,90.14409846356614,20.58,191.96,-150.8,0
26-1-2017 4:00,118.0722573679318,38.77,210.1,-132.56,0
26-1-2017 5:00,142.2478282703072,57.39,228.69,-113.91,0
26-1-2017 6:00,149.88159569174798,70.57,241.86,-100.73,0
26-1-2017 7:00,144.6585904129625,67.16,238.43,-104.11,0
26-1-2017 8:00,93.0592335524293,54.17,225.41,-117.06,0
26-1-2017 9:00,-94.66639395944935,-2.66,168.46,-173.78,0
26-1-2017 10:00,-260.4362738317167,-181.67,-10.54,-352.81,0
26-1-2017 11:00,-318.8635871533295,-302.21,-131.1,-473.32,0
26-1-2017 12:00,-281.75695524772914,-321.41,-150.44,-492.38,0
26-1-2017 13:00,-258.4399345969275,-262.23,-91.37,-433.09,0
26-1-2017 14:00,-354.26117761861315,-233.25,-62.53,-403.97,0
26-1-2017 15:00,-332.6661100206196,-315.3,-144.46,-486.15,0
26-1-2017 16:00,-393.0007663764747,-252.17,-81.46,-422.87,0
26-1-2017 17:00,-324.9937351351339,-305.88,-134.96,-476.81,0
26-1-2017 18:00,-116.42638395558015,-200.19,-29.4,-370.98,0
26-1-2017 19:00,27.46531329966001,3.28,174.06,-167.5,0
26-1-2017 20:00,137.68881818151613,112.62,283.27,-58.03,0
26-1-2017 21:00,138.02196008485225,201.87,372.4,31.35,0
26-1-2017 22:00,111.14460873067725,176.48,346.94,6.01,0
26-1-2017 23:00,129.96270260859012,147.93,318.33,-22.48,0
27-1-2017 0:00,81.347668371228,163.88,334.16,-6.39,0
27-1-2017 1:00,40.49073622078731,102.24,272.5,-68.03,0
27-1-2017 2:00,17.118705147351875,69.36,239.55,-100.84,0
27-1-2017 3:00,-10.45800855656762,48.49,218.6,-121.62,0
27-1-2017 4:00,-38.95461500517456,23.2,193.24,-146.83,0
27-1-2017 5:00,-55.152967751771826,0.12,170.09,-169.85,0
27-1-2017 6:00,-67.37852657076348,-9.46,160.43,-179.35,0
27-1-2017 7:00,-77.41649018261126,-16.9,152.92,-186.71,0
27-1-2017 8:00,-40.74018825675853,-21.6,148.15,-191.34,0
27-1-2017 9:00,112.54085933910153,20.31,189.93,-149.31,0
27-1-2017 10:00,289.49086811266966,165.96,335.6,-3.67,0
27-1-2017 11:00,256.9012373867615,304.09,473.86,134.32,0
27-1-2017 12:00,223.2520598430816,225.25,394.92,55.57,0
27-1-2017 13:00,172.30319778927844,194.68,364.22,25.13,0
27-1-2017 14:00,274.8622945273295,134.3,303.72,-35.12,0
27-1-2017 15:00,294.4093624462565,237.59,407.22,67.96,0
27-1-2017 16:00,203.50683847508606,215.65,385.21,46.1,0
27-1-2017 17:00,135.9316916689512,113.17,282.6,-56.25,0
27-1-2017 18:00,-34.15670683702558,54.81,224.11,-114.49,0
27-1-2017 19:00,-188.39174983215014,-112.81,56.5,-282.12,0
27-1-2017 20:00,-147.43683150054187,-228.93,-59.66,-398.21,0
27-1-2017 21:00,-111.45321302312925,-153.47,15.79,-322.73,0
27-1-2017 22:00,-106.04775759207075,-126.58,42.58,-295.74,0
27-1-2017 23:00,-26.55188222374727,-117.8,51.24,-286.83,0
28-1-2017 0:00,-44.52793357442954,-32.51,136.54,-201.57,0
28-1-2017 1:00,-15.615829265232946,-67.02,101.91,-235.95,0
28-1-2017 2:00,22.385908709464616,-25.82,143.03,-194.66,0
28-1-2017 3:00,52.43163789846051,3.59,172.34,-165.17,0
28-1-2017 4:00,85.41565825355212,26.63,195.3,-142.03,0
28-1-2017 5:00,108.73171382134683,51.88,220.47,-116.72,0
28-1-2017 6:00,121.6351607252883,64.77,233.29,-103.75,0
28-1-2017 7:00,121.25046582540637,68.55,237.0,-99.9,0
28-1-2017 8:00,85.0206535826731,60.08,228.45,-108.29,0
28-1-2017 9:00,21.792835854374005,18.32,186.58,-149.93,0
28-1-2017 10:00,-37.84283037648731,-41.01,127.12,-209.14,0
28-1-2017 11:00,-115.66034215695487,-89.35,78.65,-257.34,0
28-1-2017 12:00,-141.85089280017968,-154.8,13.08,-322.68,0
28-1-2017 13:00,-170.47395716863184,-159.69,8.07,-327.45,0
28-1-2017 14:00,-253.28284028088768,-178.83,-11.2,-346.47,0
28-1-2017 15:00,-237.62209165107168,-246.38,-78.79,-413.98,0
28-1-2017 16:00,-283.65089756630636,-199.68,-32.21,-367.16,0
28-1-2017 17:00,-257.8770584298461,-241.82,-74.35,-409.28,0
28-1-2017 18:00,-154.44004263128284,-187.78,-20.43,-355.12,0
28-1-2017 19:00,-77.40109886658303,-80.22,87.02,-247.46,0
28-1-2017 20:00,-16.614040075033586,-15.97,151.15,-183.08,0
28-1-2017 21:00,25.244153911617275,37.43,204.42,-129.56,0
28-1-2017 22:00,69.35547832408378,69.52,236.39,-97.35,0
28-1-2017 23:00,136.85219737899206,105.63,272.38,-61.11,0
29-1-2017 0:00,88.8881911111639,161.06,327.69,-5.58,0
29-1-2017 1:00,200.03123569188023,92.4,259.0,-74.2,0
29-1-2017 2:00,219.95864652659333,213.45,380.13,46.78,0
29-1-2017 3:00,237.32872242038655,192.72,359.27,26.17,0
29-1-2017 4:00,268.5138652510481,202.42,368.88,35.96,0
29-1-2017 5:00,268.65685615135976,215.85,382.26,49.44,0
29-1-2017 6:00,261.58183579635863,196.1,362.43,29.76,0
29-1-2017 7:00,228.8026112545329,176.5,342.79,10.22,0
29-1-2017 8:00,151.57888648930452,131.26,297.46,-34.94,0
29-1-2017 9:00,-27.654940301843226,49.16,215.24,-116.93,0
29-1-2017 10:00,-209.85240668916646,-122.92,43.15,-288.99,0
29-1-2017 11:00,-308.49392467622613,-267.74,-101.67,-433.81,0
29-1-2017 12:00,-304.58197357102847,-324.31,-158.34,-490.29,0
29-1-2017 13:00,-291.8663542548592,-290.06,-124.19,-455.92,0
29-1-2017 14:00,-382.7803312181518,-265.5,-99.76,-431.23,0
29-1-2017 15:00,-359.2330158781767,-342.7,-176.85,-508.54,0
29-1-2017 16:00,-395.013159385586,-276.83,-111.1,-442.55,0
29-1-2017 17:00,-345.0515307187,-305.66,-139.82,-471.49,0
29-1-2017 18:00,-157.20029702776588,-222.86,-57.12,-388.6,0
29-1-2017 19:00,-25.816571087719353,-30.33,135.37,-196.02,0
29-1-2017 20:00,64.20342357929371,71.27,236.85,-94.3,0
29-1-2017 21:00,77.00143591861183,144.56,310.01,-20.9,0
29-1-2017 22:00,67.65591451439019,138.48,303.9,-26.93,0
29-1-2017 23:00,128.000762457787,125.9,291.28,-39.48,0
30-1-2017 0:00,45.15741778243421,184.23,349.49,18.96,0
30-1-2017 1:00,-7.574178457781954,78.58,244.04,-86.89,0
30-1-2017 2:00,-46.622972833195604,45.54,211.01,-119.93,0
30-1-2017 3:00,-88.07966520458524,11.08,176.57,-154.41,0
30-1-2017 4:00,-133.55048712271355,-21.86,143.67,-187.4,0
30-1-2017 5:00,-159.23769467206603,-56.67,108.95,-222.29,0
30-1-2017 6:00,-187.35469643359818,-68.32,97.35,-234.0,0
30-1-2017 7:00,-204.0108289962467,-86.28,79.51,-252.07,0
30-1-2017 8:00,-160.44903586900398,-89.7,76.2,-255.59,0
30-1-2017 9:00,54.15933024809817,-33.53,132.33,-199.39,0
30-1-2017 10:00,346.64959307332106,183.14,349.01,17.28,0
30-1-2017 11:00,576.8963084444492,431.98,598.15,265.8,0
30-1-2017 12:00,461.70675005263206,592.83,759.22,426.45,0
30-1-2017 13:00,594.1527324985175,400.34,566.89,233.79,1
30-1-2017 14:00,606.055615019273,551.75,718.77,384.74,0
30-1-2017 15:00,406.4925275654002,493.76,660.71,326.82,0
30-1-2017 16:00,272.3835051615083,264.98,431.93,98.03,0
30-1-2017 17:00,187.17970629683862,153.09,319.92,-13.75,0
30-1-2017 18:00,67.5694903911035,72.7,239.44,-94.03,0
30-1-2017 19:00,-10.918370086125265,-43.74,122.88,-210.36,0
30-1-2017 20:00,-167.58053907957526,-102.11,64.41,-268.63,0
30-1-2017 21:00,-184.38764103816663,-249.14,-82.67,-415.61,0
30-1-2017 22:00,-189.8362213933251,-222.67,-56.25,-389.09,0
30-1-2017 23:00,-200.13848021067975,-223.07,-56.75,-389.4,0
31-1-2017 0:00,-303.70526141634537,-220.72,-54.5,-386.94,0
31-1-2017 1:00,-326.3684534642939,-314.29,-148.08,-480.5,0
31-1-2017 2:00,-328.97040803663424,-297.26,-131.16,-463.36,0
31-1-2017 3:00,-329.5108236600064,-283.99,-117.99,-449.99,0
31-1-2017 4:00,-332.28564159531834,-266.76,-100.85,-432.67,0
31-1-2017 5:00,-343.83134453413265,-252.89,-87.03,-418.76,0
31-1-2017 6:00,-335.2586246419934,-247.32,-81.44,-413.2,0
31-1-2017 7:00,-299.0400058576238,-218.99,-53.1,-384.87,0
31-1-2017 8:00,-256.42103547006855,-168.33,-2.46,-334.21,0
31-1-2017 9:00,-67.92942288610925,-118.49,47.39,-284.37,0
31-1-2017 10:00,55.431774900376695,79.85,245.65,-85.96,0
31-1-2017 11:00,99.53992937840985,166.1,331.8,0.4,0
31-1-2017 12:00,226.24206723829366,189.46,355.12,23.8,0
31-1-2017 13:00,249.62052824237662,308.5,474.06,142.93,0
31-1-2017 14:00,321.1023856756608,291.11,456.62,125.6,0
31-1-2017 15:00,371.8910108564219,353.64,519.05,188.23,0
31-1-2017 16:00,292.34737526978597,371.45,536.76,206.15,0
31-1-2017 17:00,255.38703055026963,262.92,428.21,97.64,0
31-1-2017 18:00,138.23424672457418,231.05,396.23,65.87,0
31-1-2017 19:00,29.165733758957003,100.73,265.93,-64.47,0
31-1-2017 20:00,-62.80766496606907,8.76,173.93,-156.42,0
31-1-2017 21:00,-117.07368107361413,-68.06,97.08,-233.2,0
31-1-2017 22:00,-191.01730138928087,-110.26,68.81,-289.32,0
31-1-2017 23:00,-389.80864797695904,-164.85,0.22,-329.92,1
