G:\Python\analytics-code-base\Pipeline\jpmml-sklearn-master\src\main\java\sklearn\Transformer.java
G:\Python\analytics-code-base\Pipeline\jpmml-sklearn-master\src\main\java\xgboost\sklearn\Booster.java
G:\Python\analytics-code-base\Pipeline\jpmml-sklearn-master\target\generated-sources\javacc\org\jpmml\sklearn\StringProvider.java
G:\Python\analytics-code-base\Pipeline\jpmml-sklearn-master\src\main\java\sklearn2pmml\feature_extraction\text\Splitter.java
G:\Python\analytics-code-base\Pipeline\jpmml-sklearn-master\src\main\java\sklearn\LabelEncoderClassifier.java
G:\Python\analytics-code-base\Pipeline\jpmml-sklearn-master\target\generated-sources\javacc\org\jpmml\sklearn\SimpleCharStream.java
G:\Python\analytics-code-base\Pipeline\jpmml-sklearn-master\src\main\java\org\jpmml\sklearn\ClassDictUtil.java
G:\Python\analytics-code-base\Pipeline\jpmml-sklearn-master\src\main\java\sklearn\linear_model\stochastic_gradient\SGDRegressor.java
G:\Python\analytics-code-base\Pipeline\jpmml-sklearn-master\src\main\java\lightgbm\sklearn\HasBooster.java
G:\Python\analytics-code-base\Pipeline\jpmml-sklearn-master\src\main\java\sklearn\feature_extraction\DictVectorizer.java
G:\Python\analytics-code-base\Pipeline\jpmml-sklearn-master\src\main\java\sklearn\linear_model\stochastic_gradient\Log.java
G:\Python\analytics-code-base\Pipeline\jpmml-sklearn-master\src\main\java\sklearn2pmml\decoration\ContinuousDomain.java
G:\Python\analytics-code-base\Pipeline\jpmml-sklearn-master\src\main\java\sklearn\preprocessing\LabelEncoder.java
G:\Python\analytics-code-base\Pipeline\jpmml-sklearn-master\src\main\java\sklearn\ensemble\gradient_boosting\LossFunction.java
G:\Python\analytics-code-base\Pipeline\jpmml-sklearn-master\src\main\java\xgboost\sklearn\HasBooster.java
G:\Python\analytics-code-base\Pipeline\jpmml-sklearn-master\src\main\java\sklearn\tree\PresortBestSplitter.java
G:\Python\analytics-code-base\Pipeline\jpmml-sklearn-master\src\main\java\lightgbm\sklearn\BoosterUtil.java
G:\Python\analytics-code-base\Pipeline\jpmml-sklearn-master\src\main\java\org\jpmml\sklearn\TupleUtil.java
G:\Python\analytics-code-base\Pipeline\jpmml-sklearn-master\src\main\java\sklearn\preprocessing\ImputerUtil.java
G:\Python\analytics-code-base\Pipeline\jpmml-sklearn-master\src\main\java\scipy\sparse\CSRMatrixUtil.java
G:\Python\analytics-code-base\Pipeline\jpmml-sklearn-master\src\main\java\org\jpmml\sklearn\CClassDict.java
G:\Python\analytics-code-base\Pipeline\jpmml-sklearn-master\src\main\java\sklearn\neighbors\KNeighborsClassifier.java
G:\Python\analytics-code-base\Pipeline\jpmml-sklearn-master\src\main\java\sklearn2pmml\EstimatorProxy.java
G:\Python\analytics-code-base\Pipeline\jpmml-sklearn-master\src\main\java\sklearn\HasNumberOfFeatures.java
G:\Python\analytics-code-base\Pipeline\jpmml-sklearn-master\src\main\java\sklearn\preprocessing\Binarizer.java
G:\Python\analytics-code-base\Pipeline\jpmml-sklearn-master\src\main\java\sklearn\TransformerUtil.java
G:\Python\analytics-code-base\Pipeline\jpmml-sklearn-master\src\main\java\sklearn_pandas\CategoricalImputer.java
G:\Python\analytics-code-base\Pipeline\jpmml-sklearn-master\src\main\java\sklearn\cluster\MiniBatchKMeans.java
G:\Python\analytics-code-base\Pipeline\jpmml-sklearn-master\src\main\java\sklearn\neural_network\MLPRegressor.java
G:\Python\analytics-code-base\Pipeline\jpmml-sklearn-master\src\main\java\xgboost\sklearn\XGBClassifier.java
G:\Python\analytics-code-base\Pipeline\jpmml-sklearn-master\src\main\java\sklearn\neighbors\DistanceMetric.java
G:\Python\analytics-code-base\Pipeline\jpmml-sklearn-master\src\main\java\sklearn\preprocessing\PolynomialFeatures.java
G:\Python\analytics-code-base\Pipeline\jpmml-sklearn-master\src\main\java\sklearn\ensemble\forest\RandomForestClassifier.java
G:\Python\analytics-code-base\Pipeline\jpmml-sklearn-master\src\main\java\sklearn\linear_model\ridge\RidgeClassifier.java
G:\Python\analytics-code-base\Pipeline\jpmml-sklearn-master\src\main\java\sklearn\pipeline\FeatureUnion.java
G:\Python\analytics-code-base\Pipeline\jpmml-sklearn-master\src\main\java\sklearn\svm\NuSVR.java
G:\Python\analytics-code-base\Pipeline\jpmml-sklearn-master\src\main\java\sklearn\neighbors\BinaryTree.java
G:\Python\analytics-code-base\Pipeline\jpmml-sklearn-master\src\main\java\sklearn2pmml\preprocessing\PMMLLabelBinarizer.java
G:\Python\analytics-code-base\Pipeline\jpmml-sklearn-master\src\main\java\sklearn\tree\TreeModelUtil.java
G:\Python\analytics-code-base\Pipeline\jpmml-sklearn-master\src\main\java\sklearn\neighbors\KNeighborsRegressor.java
G:\Python\analytics-code-base\Pipeline\jpmml-sklearn-master\src\main\java\sklearn\preprocessing\Imputer.java
G:\Python\analytics-code-base\Pipeline\jpmml-sklearn-master\target\generated-sources\javacc\org\jpmml\sklearn\StreamProvider.java
G:\Python\analytics-code-base\Pipeline\jpmml-sklearn-master\src\main\java\sklearn\ensemble\EnsembleRegressor.java
G:\Python\analytics-code-base\Pipeline\jpmml-sklearn-master\src\main\java\sklearn\Classifier.java
G:\Python\analytics-code-base\Pipeline\jpmml-sklearn-master\src\main\java\sklearn\ensemble\weight_boosting\AdaBoostRegressor.java
G:\Python\analytics-code-base\Pipeline\jpmml-sklearn-master\src\main\java\org\jpmml\sklearn\ClassDictConstructorUtil.java
G:\Python\analytics-code-base\Pipeline\jpmml-sklearn-master\src\main\java\sklearn\svm\BaseLibSVMClassifier.java
G:\Python\analytics-code-base\Pipeline\jpmml-sklearn-master\src\main\java\numpy\core\UFunc.java
G:\Python\analytics-code-base\Pipeline\jpmml-sklearn-master\src\main\java\sklearn\ensemble\voting_classifier\VotingClassifier.java
G:\Python\analytics-code-base\Pipeline\jpmml-sklearn-master\src\main\java\sklearn\ensemble\forest\ExtraTreesRegressor.java
G:\Python\analytics-code-base\Pipeline\jpmml-sklearn-master\src\main\java\org\jpmml\sklearn\CompressedInputStreamStorage.java
G:\Python\analytics-code-base\Pipeline\jpmml-sklearn-master\src\main\java\sklearn\linear_model\stochastic_gradient\LossFunction.java
G:\Python\analytics-code-base\Pipeline\jpmml-sklearn-master\src\main\java\numpy\core\NDArray.java
G:\Python\analytics-code-base\Pipeline\jpmml-sklearn-master\src\main\java\sklearn\Initializer.java
G:\Python\analytics-code-base\Pipeline\jpmml-sklearn-master\src\main\java\sklearn2pmml\PMMLPipeline.java
G:\Python\analytics-code-base\Pipeline\jpmml-sklearn-master\src\main\java\joblib\NDArrayWrapper.java
G:\Python\analytics-code-base\Pipeline\jpmml-sklearn-master\src\main\java\sklearn\tree\TreeClassifier.java
G:\Python\analytics-code-base\Pipeline\jpmml-sklearn-master\src\main\java\lightgbm\sklearn\LGBMRegressor.java
G:\Python\analytics-code-base\Pipeline\jpmml-sklearn-master\src\main\java\sklearn\linear_model\logistic\LogisticRegression.java
G:\Python\analytics-code-base\Pipeline\jpmml-sklearn-master\src\main\java\org\jpmml\sklearn\visitors\TreeModelCompactor.java
G:\Python\analytics-code-base\Pipeline\jpmml-sklearn-master\src\main\java\joblib\NDArrayWrapperConstructor.java
G:\Python\analytics-code-base\Pipeline\jpmml-sklearn-master\src\main\java\sklearn\svm\NuSVC.java
G:\Python\analytics-code-base\Pipeline\jpmml-sklearn-master\src\main\java\sklearn\tree\TreeRegressor.java
G:\Python\analytics-code-base\Pipeline\jpmml-sklearn-master\src\main\java\sklearn\tree\ExtraTreeRegressor.java
G:\Python\analytics-code-base\Pipeline\jpmml-sklearn-master\src\main\java\sklearn\feature_selection\SelectKBest.java
G:\Python\analytics-code-base\Pipeline\jpmml-sklearn-master\src\main\java\sklearn\tree\RegressionCriterion.java
G:\Python\analytics-code-base\Pipeline\jpmml-sklearn-master\src\main\java\xgboost\sklearn\XGBRegressor.java
G:\Python\analytics-code-base\Pipeline\jpmml-sklearn-master\src\main\java\org\jpmml\sklearn\HasOptions.java
G:\Python\analytics-code-base\Pipeline\jpmml-sklearn-master\target\generated-sources\javacc\org\jpmml\sklearn\Token.java
G:\Python\analytics-code-base\Pipeline\jpmml-sklearn-master\src\main\java\sklearn\svm\BaseLibSVMRegressor.java
G:\Python\analytics-code-base\Pipeline\jpmml-sklearn-master\src\main\java\org\jpmml\sklearn\InputStreamStorage.java
G:\Python\analytics-code-base\Pipeline\jpmml-sklearn-master\src\main\java\sklearn\ensemble\gradient_boosting\HasPriorProbability.java
G:\Python\analytics-code-base\Pipeline\jpmml-sklearn-master\src\main\java\xgboost\sklearn\BoosterUtil.java
G:\Python\analytics-code-base\Pipeline\jpmml-sklearn-master\src\main\java\sklearn\ensemble\forest\RandomForestRegressor.java
G:\Python\analytics-code-base\Pipeline\jpmml-sklearn-master\src\main\java\sklearn\linear_model\coordinate_descent\ElasticNet.java
G:\Python\analytics-code-base\Pipeline\jpmml-sklearn-master\src\main\java\sklearn\ensemble\gradient_boosting\BinomialDeviance.java
G:\Python\analytics-code-base\Pipeline\jpmml-sklearn-master\src\main\java\numpy\random\RandomState.java
G:\Python\analytics-code-base\Pipeline\jpmml-sklearn-master\src\main\java\sklearn\tree\DecisionTreeRegressor.java
G:\Python\analytics-code-base\Pipeline\jpmml-sklearn-master\src\main\java\org\jpmml\sklearn\ObjectConstructor.java
G:\Python\analytics-code-base\Pipeline\jpmml-sklearn-master\src\main\java\sklearn2pmml\preprocessing\ExpressionTransformer.java
G:\Python\analytics-code-base\Pipeline\jpmml-sklearn-master\src\main\java\sklearn\ensemble\gradient_boosting\ScaledLogOddsEstimator.java
G:\Python\analytics-code-base\Pipeline\jpmml-sklearn-master\target\generated-sources\javacc\org\jpmml\sklearn\ExpressionTranslator.java
G:\Python\analytics-code-base\Pipeline\jpmml-sklearn-master\src\main\java\collections\DefaultDict.java
G:\Python\analytics-code-base\Pipeline\jpmml-sklearn-master\src\main\java\sklearn\svm\LinearSVR.java
G:\Python\analytics-code-base\Pipeline\jpmml-sklearn-master\src\main\java\sklearn\svm\SupportVectorMachineUtil.java
G:\Python\analytics-code-base\Pipeline\jpmml-sklearn-master\src\main\java\sklearn\ensemble\gradient_boosting\ExponentialLoss.java
G:\Python\analytics-code-base\Pipeline\jpmml-sklearn-master\src\main\java\sklearn\feature_extraction\text\TfidfTransformer.java
G:\Python\analytics-code-base\Pipeline\jpmml-sklearn-master\src\main\java\sklearn\Clusterer.java
G:\Python\analytics-code-base\Pipeline\jpmml-sklearn-master\src\main\java\sklearn\ensemble\gradient_boosting\HasDefaultValue.java
G:\Python\analytics-code-base\Pipeline\jpmml-sklearn-master\src\main\java\sklearn\neighbors\KNeighborsUtil.java
G:\Python\analytics-code-base\Pipeline\jpmml-sklearn-master\src\main\java\sklearn\linear_model\BaseLinearClassifier.java
G:\Python\analytics-code-base\Pipeline\jpmml-sklearn-master\src\main\java\sklearn\ensemble\forest\BaseForestRegressor.java
G:\Python\analytics-code-base\Pipeline\jpmml-sklearn-master\target\generated-sources\javacc\org\jpmml\sklearn\TokenMgrException.java
G:\Python\analytics-code-base\Pipeline\jpmml-sklearn-master\src\main\java\sklearn\discriminant_analysis\LinearDiscriminantAnalysis.java
G:\Python\analytics-code-base\Pipeline\jpmml-sklearn-master\src\main\java\xgboost\sklearn\HasXGBoostOptions.java
G:\Python\analytics-code-base\Pipeline\jpmml-sklearn-master\src\main\java\sklearn\preprocessing\MaxAbsScaler.java
G:\Python\analytics-code-base\Pipeline\jpmml-sklearn-master\src\main\java\sklearn\ensemble\bagging\BaggingUtil.java
G:\Python\analytics-code-base\Pipeline\jpmml-sklearn-master\src\main\java\numpy\core\Scalar.java
G:\Python\analytics-code-base\Pipeline\jpmml-sklearn-master\src\main\java\sklearn\cluster\KMeans.java
G:\Python\analytics-code-base\Pipeline\jpmml-sklearn-master\src\main\java\sklearn\ensemble\bagging\BaggingRegressor.java
G:\Python\analytics-code-base\Pipeline\jpmml-sklearn-master\src\main\java\sklearn\ensemble\gradient_boosting\GradientBoostingClassifier.java
G:\Python\analytics-code-base\Pipeline\jpmml-sklearn-master\src\main\java\sklearn\HasClasses.java
G:\Python\analytics-code-base\Pipeline\jpmml-sklearn-master\src\main\java\org\jpmml\sklearn\Main.java
G:\Python\analytics-code-base\Pipeline\jpmml-sklearn-master\src\main\java\numpy\core\NDArrayUtil.java
G:\Python\analytics-code-base\Pipeline\jpmml-sklearn-master\src\main\java\sklearn\HasEstimatorEnsemble.java
G:\Python\analytics-code-base\Pipeline\jpmml-sklearn-master\src\main\java\sklearn\svm\OneClassSVM.java
G:\Python\analytics-code-base\Pipeline\jpmml-sklearn-master\src\main\java\sklearn_pandas\TransformerPipeline.java
G:\Python\analytics-code-base\Pipeline\jpmml-sklearn-master\src\main\java\sklearn\linear_model\stochastic_gradient\SGDClassifier.java
G:\Python\analytics-code-base\Pipeline\jpmml-sklearn-master\src\main\java\sklearn\naive_bayes\GaussianNB.java
G:\Python\analytics-code-base\Pipeline\jpmml-sklearn-master\src\main\java\sklearn\BaseEstimator.java
G:\Python\analytics-code-base\Pipeline\jpmml-sklearn-master\target\generated-sources\javacc\org\jpmml\sklearn\Provider.java
G:\Python\analytics-code-base\Pipeline\jpmml-sklearn-master\src\main\java\sklearn\linear_model\stochastic_gradient\ModifiedHuber.java
G:\Python\analytics-code-base\Pipeline\jpmml-sklearn-master\src\main\java\sklearn\neural_network\BaseMultilayerPerceptronUtil.java
G:\Python\analytics-code-base\Pipeline\jpmml-sklearn-master\src\main\java\sklearn2pmml\decoration\CategoricalDomain.java
G:\Python\analytics-code-base\Pipeline\jpmml-sklearn-master\src\main\java\org\jpmml\sklearn\FileStorage.java
G:\Python\analytics-code-base\Pipeline\jpmml-sklearn-master\src\main\java\sklearn\decomposition\PCA.java
G:\Python\analytics-code-base\Pipeline\jpmml-sklearn-master\src\main\java\sklearn\ensemble\gradient_boosting\ZeroEstimator.java
G:\Python\analytics-code-base\Pipeline\jpmml-sklearn-master\src\main\java\sklearn\preprocessing\LabelBinarizer.java
G:\Python\analytics-code-base\Pipeline\jpmml-sklearn-master\src\main\java\sklearn\ensemble\gradient_boosting\GradientBoostingRegressor.java
G:\Python\analytics-code-base\Pipeline\jpmml-sklearn-master\src\main\java\sklearn\linear_model\base\LinearRegression.java
G:\Python\analytics-code-base\Pipeline\jpmml-sklearn-master\src\main\java\org\jpmml\sklearn\SkLearnEncoder.java
G:\Python\analytics-code-base\Pipeline\jpmml-sklearn-master\src\main\java\sklearn_pandas\DataFrameMapper.java
G:\Python\analytics-code-base\Pipeline\jpmml-sklearn-master\src\main\java\lightgbm\sklearn\Booster.java
G:\Python\analytics-code-base\Pipeline\jpmml-sklearn-master\src\main\java\sklearn\preprocessing\StandardScaler.java
G:\Python\analytics-code-base\Pipeline\jpmml-sklearn-master\src\main\java\sklearn\tree\Tree.java
G:\Python\analytics-code-base\Pipeline\jpmml-sklearn-master\src\main\java\sklearn\preprocessing\RobustScaler.java
G:\Python\analytics-code-base\Pipeline\jpmml-sklearn-master\src\main\java\sklearn\preprocessing\OneHotEncoder.java
G:\Python\analytics-code-base\Pipeline\jpmml-sklearn-master\src\main\java\sklearn\Selector.java
G:\Python\analytics-code-base\Pipeline\jpmml-sklearn-master\src\main\java\sklearn\tree\ExtraTreeClassifier.java
G:\Python\analytics-code-base\Pipeline\jpmml-sklearn-master\src\main\java\sklearn\tree\HasTree.java
G:\Python\analytics-code-base\Pipeline\jpmml-sklearn-master\src\main\java\sklearn\feature_selection\SelectFromModel.java
G:\Python\analytics-code-base\Pipeline\jpmml-sklearn-master\src\main\java\sklearn2pmml\decoration\Domain.java
G:\Python\analytics-code-base\Pipeline\jpmml-sklearn-master\src\main\java\sklearn2pmml\decoration\DomainUtil.java
G:\Python\analytics-code-base\Pipeline\jpmml-sklearn-master\src\main\java\sklearn\linear_model\ridge\Ridge.java
G:\Python\analytics-code-base\Pipeline\jpmml-sklearn-master\src\main\java\sklearn\ensemble\forest\BaseForestClassifier.java
G:\Python\analytics-code-base\Pipeline\jpmml-sklearn-master\src\main\java\sklearn\ensemble\bagging\BaggingClassifier.java
G:\Python\analytics-code-base\Pipeline\jpmml-sklearn-master\src\main\java\sklearn\ensemble\gradient_boosting\MultinomialDeviance.java
G:\Python\analytics-code-base\Pipeline\jpmml-sklearn-master\src\main\java\sklearn\dummy\DummyClassifier.java
G:\Python\analytics-code-base\Pipeline\jpmml-sklearn-master\src\main\java\sklearn\tree\HasTreeOptions.java
G:\Python\analytics-code-base\Pipeline\jpmml-sklearn-master\target\generated-sources\javacc\org\jpmml\sklearn\ParseException.java
G:\Python\analytics-code-base\Pipeline\jpmml-sklearn-master\src\main\java\numpy\DType.java
G:\Python\analytics-code-base\Pipeline\jpmml-sklearn-master\src\main\java\sklearn\ensemble\forest\BaseForestUtil.java
G:\Python\analytics-code-base\Pipeline\jpmml-sklearn-master\src\main\java\sklearn\preprocessing\MinMaxScaler.java
G:\Python\analytics-code-base\Pipeline\jpmml-sklearn-master\src\main\java\lightgbm\sklearn\LGBMClassifier.java
G:\Python\analytics-code-base\Pipeline\jpmml-sklearn-master\src\main\java\org\jpmml\sklearn\SkLearnUtil.java
G:\Python\analytics-code-base\Pipeline\jpmml-sklearn-master\src\main\java\sklearn\decomposition\IncrementalPCA.java
G:\Python\analytics-code-base\Pipeline\jpmml-sklearn-master\src\main\java\sklearn\pipeline\Pipeline.java
G:\Python\analytics-code-base\Pipeline\jpmml-sklearn-master\src\main\java\sklearn\svm\SVR.java
G:\Python\analytics-code-base\Pipeline\jpmml-sklearn-master\src\main\java\sklearn\Estimator.java
G:\Python\analytics-code-base\Pipeline\jpmml-sklearn-master\src\main\java\sklearn\HasEstimator.java
G:\Python\analytics-code-base\Pipeline\jpmml-sklearn-master\src\main\java\sklearn\tree\DecisionTreeClassifier.java
G:\Python\analytics-code-base\Pipeline\jpmml-sklearn-master\src\main\java\org\jpmml\sklearn\ExtensionObjectConstructor.java
G:\Python\analytics-code-base\Pipeline\jpmml-sklearn-master\src\main\java\sklearn\ensemble\gradient_boosting\LogOddsEstimator.java
G:\Python\analytics-code-base\Pipeline\jpmml-sklearn-master\src\main\java\sklearn\ensemble\gradient_boosting\PriorProbabilityEstimator.java
G:\Python\analytics-code-base\Pipeline\jpmml-sklearn-master\src\main\java\sklearn\ensemble\iforest\IsolationForest.java
G:\Python\analytics-code-base\Pipeline\jpmml-sklearn-master\src\main\java\sklearn\TypeUtil.java
G:\Python\analytics-code-base\Pipeline\jpmml-sklearn-master\src\main\java\sklearn\linear_model\coordinate_descent\Lasso.java
G:\Python\analytics-code-base\Pipeline\jpmml-sklearn-master\src\main\java\sklearn\ensemble\EnsembleClassifier.java
G:\Python\analytics-code-base\Pipeline\jpmml-sklearn-master\src\main\java\sklearn\feature_extraction\text\CountVectorizer.java
G:\Python\analytics-code-base\Pipeline\jpmml-sklearn-master\src\main\java\sklearn\linear_model\BaseLinearRegressor.java
G:\Python\analytics-code-base\Pipeline\jpmml-sklearn-master\src\main\java\sklearn2pmml\SelectorProxy.java
G:\Python\analytics-code-base\Pipeline\jpmml-sklearn-master\src\main\java\sklearn\EstimatorUtil.java
G:\Python\analytics-code-base\Pipeline\jpmml-sklearn-master\src\main\java\sklearn\Regressor.java
G:\Python\analytics-code-base\Pipeline\jpmml-sklearn-master\src\main\java\sklearn\neighbors\HasNeighbors.java
G:\Python\analytics-code-base\Pipeline\jpmml-sklearn-master\src\main\java\joblib\NumpyArrayWrapper.java
G:\Python\analytics-code-base\Pipeline\jpmml-sklearn-master\src\main\java\sklearn2pmml\preprocessing\PMMLLabelEncoder.java
G:\Python\analytics-code-base\Pipeline\jpmml-sklearn-master\src\main\java\sklearn\ensemble\gradient_boosting\QuantileEstimator.java
G:\Python\analytics-code-base\Pipeline\jpmml-sklearn-master\src\main\java\org\jpmml\sklearn\PickleUtil.java
G:\Python\analytics-code-base\Pipeline\jpmml-sklearn-master\src\main\java\sklearn\linear_model\stochastic_gradient\SquaredHinge.java
G:\Python\analytics-code-base\Pipeline\jpmml-sklearn-master\src\main\java\org\jpmml\sklearn\HasArray.java
G:\Python\analytics-code-base\Pipeline\jpmml-sklearn-master\src\main\java\sklearn\neural_network\MLPClassifier.java
G:\Python\analytics-code-base\Pipeline\jpmml-sklearn-master\src\main\java\sklearn\ensemble\gradient_boosting\MeanEstimator.java
G:\Python\analytics-code-base\Pipeline\jpmml-sklearn-master\src\main\java\sklearn\linear_model\stochastic_gradient\Hinge.java
G:\Python\analytics-code-base\Pipeline\jpmml-sklearn-master\target\generated-sources\javacc\org\jpmml\sklearn\ExpressionTranslatorConstants.java
G:\Python\analytics-code-base\Pipeline\jpmml-sklearn-master\target\generated-sources\javacc\org\jpmml\sklearn\ExpressionTranslatorTokenManager.java
G:\Python\analytics-code-base\Pipeline\jpmml-sklearn-master\src\main\java\org\jpmml\sklearn\Storage.java
G:\Python\analytics-code-base\Pipeline\jpmml-sklearn-master\src\main\java\sklearn\neighbors\HasTrainingData.java
G:\Python\analytics-code-base\Pipeline\jpmml-sklearn-master\src\main\java\lightgbm\sklearn\HasLightGBMOptions.java
G:\Python\analytics-code-base\Pipeline\jpmml-sklearn-master\src\main\java\sklearn\dummy\DummyRegressor.java
G:\Python\analytics-code-base\Pipeline\jpmml-sklearn-master\src\main\java\sklearn\ensemble\gradient_boosting\GradientBoostingUtil.java
G:\Python\analytics-code-base\Pipeline\jpmml-sklearn-master\src\main\java\scipy\sparse\CSRMatrix.java
G:\Python\analytics-code-base\Pipeline\jpmml-sklearn-master\src\main\java\sklearn\preprocessing\FunctionTransformer.java
G:\Python\analytics-code-base\Pipeline\jpmml-sklearn-master\src\main\java\sklearn\feature_extraction\text\TfidfVectorizer.java
G:\Python\analytics-code-base\Pipeline\jpmml-sklearn-master\src\main\java\sklearn\ensemble\forest\ExtraTreesClassifier.java
G:\Python\analytics-code-base\Pipeline\jpmml-sklearn-master\src\main\java\sklearn\svm\SVC.java
