Subjected_KPI,Correlated_KPIs,Correlated_Txns,Correlation_KPI_Values,Correlation_Txn_Values
LINUX2_CONNECTIONPOOL_FREEPOOLSIZE,"LINUX4_MEM_UTIL,LINUX4_DISK_IOWRITE,LINUX2_THREADPOOL_POOLSIZE,LINUX2_THREADPOOL_ACTIVECOUNT,LINUX2_JVM_CPUUSAGE,LINUX2_CONNECTIONPOOL_POOLSIZE,LINUX2_CONNECTIONPOOL_PERCENTUSED,LINUX2_TOTAL_SESSIONS_CREATED","Txn_HACCBAL_SlowPercentage,Txn_HOAACCA_Total","1.000,1.000,1.000,1.000,1.000,1.000,0.756,0.000","1.000,0.000"
LINUX2_CONNECTIONPOOL_PERCENTUSED,"LINUX4_MEM_UTIL,LINUX4_DISK_IOWRITE,LINUX2_THREADPOOL_POOLSIZE,LINUX2_THREADPOOL_ACTIVECOUNT,LINUX2_JVM_CPUUSAGE,LINUX2_CONNECTIONPOOL_POOLSIZE,LINUX2_CONNECTIONPOOL_FREEPOOLSIZE,LINUX2_TOTAL_SESSIONS_CREATED","Txn_HACCBAL_SlowPercentage,Txn_HOAACCA_Total","0.756,0.756,0.756,0.756,0.756,0.756,0.756,0.655","0.756,0.655"
LINUX2_CONNECTIONPOOL_POOLSIZE,"LINUX4_MEM_UTIL,LINUX4_DISK_IOWRITE,LINUX2_THREADPOOL_POOLSIZE,LINUX2_THREADPOOL_ACTIVECOUNT,LINUX2_JVM_CPUUSAGE,LINUX2_CONNECTIONPOOL_FREEPOOLSIZE,LINUX2_CONNECTIONPOOL_PERCENTUSED,LINUX2_TOTAL_SESSIONS_CREATED","Txn_HACCBAL_SlowPercentage,Txn_HOAACCA_Total","1.000,1.000,1.000,1.000,1.000,1.000,0.756,0.000","1.000,0.000"
LINUX2_JVM_CPUUSAGE,"LINUX4_MEM_UTIL,LINUX4_DISK_IOWRITE,LINUX2_THREADPOOL_POOLSIZE,LINUX2_THREADPOOL_ACTIVECOUNT,LINUX2_CONNECTIONPOOL_POOLSIZE,LINUX2_CONNECTIONPOOL_FREEPOOLSIZE,LINUX2_CONNECTIONPOOL_PERCENTUSED,LINUX2_TOTAL_SESSIONS_CREATED","Txn_HACCBAL_SlowPercentage,Txn_HOAACCA_Total","1.000,1.000,1.000,1.000,1.000,1.000,0.756,0.000","1.000,0.000"
LINUX2_THREADPOOL_ACTIVECOUNT,"LINUX4_MEM_UTIL,LINUX4_DISK_IOWRITE,LINUX2_THREADPOOL_POOLSIZE,LINUX2_JVM_CPUUSAGE,LINUX2_CONNECTIONPOOL_POOLSIZE,LINUX2_CONNECTIONPOOL_FREEPOOLSIZE,LINUX2_CONNECTIONPOOL_PERCENTUSED,LINUX2_TOTAL_SESSIONS_CREATED","Txn_HACCBAL_SlowPercentage,Txn_HOAACCA_Total","1.000,1.000,1.000,1.000,1.000,1.000,0.756,0.000","1.000,0.000"
LINUX2_THREADPOOL_POOLSIZE,"LINUX4_MEM_UTIL,LINUX4_DISK_IOWRITE,LINUX2_THREADPOOL_ACTIVECOUNT,LINUX2_JVM_CPUUSAGE,LINUX2_CONNECTIONPOOL_POOLSIZE,LINUX2_CONNECTIONPOOL_FREEPOOLSIZE,LINUX2_CONNECTIONPOOL_PERCENTUSED,LINUX2_TOTAL_SESSIONS_CREATED","Txn_HACCBAL_SlowPercentage,Txn_HOAACCA_Total","1.000,1.000,1.000,1.000,1.000,1.000,0.756,0.000","1.000,0.000"
LINUX2_TOTAL_SESSIONS_CREATED,"LINUX2_CONNECTIONPOOL_PERCENTUSED,LINUX4_MEM_UTIL,LINUX4_DISK_IOWRITE,LINUX2_THREADPOOL_POOLSIZE,LINUX2_THREADPOOL_ACTIVECOUNT,LINUX2_JVM_CPUUSAGE,LINUX2_CONNECTIONPOOL_POOLSIZE,LINUX2_CONNECTIONPOOL_FREEPOOLSIZE","Txn_HOAACCA_Total,Txn_HACCBAL_SlowPercentage","0.655,0.000,0.000,0.000,0.000,0.000,0.000,0.000","1.000,0.000"
LINUX4_DISK_IOWRITE,"LINUX4_MEM_UTIL,LINUX2_THREADPOOL_POOLSIZE,LINUX2_THREADPOOL_ACTIVECOUNT,LINUX2_JVM_CPUUSAGE,LINUX2_CONNECTIONPOOL_POOLSIZE,LINUX2_CONNECTIONPOOL_FREEPOOLSIZE,LINUX2_CONNECTIONPOOL_PERCENTUSED,LINUX2_TOTAL_SESSIONS_CREATED","Txn_HACCBAL_SlowPercentage,Txn_HOAACCA_Total","1.000,1.000,1.000,1.000,1.000,1.000,0.756,0.000","1.000,0.000"
LINUX4_MEM_UTIL,"LINUX4_DISK_IOWRITE,LINUX2_THREADPOOL_POOLSIZE,LINUX2_THREADPOOL_ACTIVECOUNT,LINUX2_JVM_CPUUSAGE,LINUX2_CONNECTIONPOOL_POOLSIZE,LINUX2_CONNECTIONPOOL_FREEPOOLSIZE,LINUX2_CONNECTIONPOOL_PERCENTUSED,LINUX2_TOTAL_SESSIONS_CREATED","Txn_HACCBAL_SlowPercentage,Txn_HOAACCA_Total","1.000,1.000,1.000,1.000,1.000,1.000,0.756,0.000","1.000,0.000"
Txn_HACCBAL_SlowPercentage,"LINUX4_MEM_UTIL,LINUX4_DISK_IOWRITE,LINUX2_THREADPOOL_POOLSIZE,LINUX2_THREADPOOL_ACTIVECOUNT,LINUX2_JVM_CPUUSAGE,LINUX2_CONNECTIONPOOL_POOLSIZE,LINUX2_CONNECTIONPOOL_FREEPOOLSIZE,LINUX2_CONNECTIONPOOL_PERCENTUSED,LINUX2_TOTAL_SESSIONS_CREATED",Txn_HOAACCA_Total,"1.000,1.000,1.000,1.000,1.000,1.000,1.000,0.756,0.000",0.000
Txn_HOAACCA_Total,"LINUX2_TOTAL_SESSIONS_CREATED,LINUX2_CONNECTIONPOOL_PERCENTUSED,LINUX4_MEM_UTIL,LINUX4_DISK_IOWRITE,LINUX2_THREADPOOL_POOLSIZE,LINUX2_THREADPOOL_ACTIVECOUNT,LINUX2_JVM_CPUUSAGE,LINUX2_CONNECTIONPOOL_POOLSIZE,LINUX2_CONNECTIONPOOL_FREEPOOLSIZE",Txn_HACCBAL_SlowPercentage,"1.000,0.655,0.000,0.000,0.000,0.000,0.000,0.000,0.000",0.000
