Subjected_KPI,Correlated_KPIs,Correlated_Txns,Correlation_KPI_Values,Correlation_Txn_Values
Txn_FTI_AvgRespTime,,"Txn_HDDPRPT_Total,Txn_HACZDB_AvgRespTime,Txn_FTI_SlowPercentage",,"1.000,1.000,1.000"
Txn_FTI_SlowPercentage,,"Txn_HDDPRPT_Total,Txn_HACZDB_AvgRespTime,Txn_FTI_AvgRespTime",,"1.000,1.000,1.000"
Txn_HACZDB_AvgRespTime,,"Txn_HDDPRPT_Total,Txn_FTI_SlowPercentage,Txn_FTI_AvgRespTime",,"1.000,1.000,1.000"
Txn_HDDPRPT_Total,,"Txn_HACZDB_AvgRespTime,Txn_FTI_SlowPercentage,Txn_FTI_AvgRespTime",,"1.000,1.000,1.000"
