Subjected_KPI,Correlated_KPIs,Correlated_Txns,Correlation_KPI_Values,Correlation_Txn_Values
LINUX14_CACHE_HITRATIO,,"Txn_PISP_AvgRespTime,Txn_HCAACTD_SlowPercentage,Txn_HCAACTD_AvgRespTime,Txn_HDDMP_Total,Txn_HCAAC_SlowPercentage",,"1.000,1.000,1.000,-0.655,-0.655"
Txn_HCAACTD_AvgRespTime,LINUX14_CACHE_HITRATIO,"Txn_PISP_AvgRespTime,Txn_HCAACTD_SlowPercentage,Txn_HDDMP_Total,Txn_HCAAC_SlowPercentage",1.000,"1.000,1.000,-0.655,-0.655"
Txn_HCAACTD_SlowPercentage,LINUX14_CACHE_HITRATIO,"Txn_PISP_AvgRespTime,Txn_HCAACTD_AvgRespTime,Txn_HDDMP_Total,Txn_HCAAC_SlowPercentage",1.000,"1.000,1.000,-0.655,-0.655"
Txn_HCAAC_SlowPercentage,LINUX14_CACHE_HITRATIO,"Txn_HDDMP_Total,Txn_PISP_AvgRespTime,Txn_HCAACTD_SlowPercentage,Txn_HCAACTD_AvgRespTime",-0.655,"1.000,-0.655,-0.655,-0.655"
Txn_HDDMP_Total,LINUX14_CACHE_HITRATIO,"Txn_HCAAC_SlowPercentage,Txn_PISP_AvgRespTime,Txn_HCAACTD_SlowPercentage,Txn_HCAACTD_AvgRespTime",-0.655,"1.000,-0.655,-0.655,-0.655"
Txn_PISP_AvgRespTime,LINUX14_CACHE_HITRATIO,"Txn_HCAACTD_SlowPercentage,Txn_HCAACTD_AvgRespTime,Txn_HDDMP_Total,Txn_HCAAC_SlowPercentage",1.000,"1.000,1.000,-0.655,-0.655"
