Subjected_KPI,Correlated_KPIs,Correlated_Txns,Correlation_KPI_Values,Correlation_Txn_Values
LINUX14_CACHE_HITRATIO,"LINUX3_BUSY_WORKERS,LINUX2_THREADPOOL_ACTIVECOUNT,OPEN_CONNECTIONS_BETWEEN_IHS52_TO_WAS52,LINUX2_THREADPOOL_POOLSIZE,LINUX2_EJB_METHODRESPONSE_TIME,LINUX3_CPU_LOAD,LINUX3_TOTAL_ACCESSES,LINUX3_TOTAL_KBYTES_SERVED,LINUX3_TOTAL_REQUESTS,OPEN_CONNECTIONS_FROM_WAS_TO_LOADBALANCER,OPEN_CONNECTIONS_BETWEEN_IHS54_TO_WAS54,OPEN_CONNECTIONS_BETWEEN_IHS53_TO_WAS53,LINUX2_JVM_CPUUSAGE","Txn_HUPM_SlowPercentage,Txn_HPORDM_SlowPercentage,Txn_LOGOUT_SlowPercentage,Txn_LOGOUT_AvgRespTime,Txn_LOGIN_SlowPercentage,Txn_LOGIN_AvgRespTime,Txn_HUPM_AvgRespTime,Txn_TM_SlowPercentage,Txn_TM_AvgRespTime,Txn_HPBP_SlowPercentage,Txn_HPORDM_AvgRespTime,Txn_PISP_AvgRespTime,Txn_PISP_SlowPercentage,Txn_HDDMI_SlowPercentage,Txn_HDTPRPT_SlowPercentage,Txn_HPBP_AvgRespTime,Txn_HDTPRPT_AvgRespTime,Txn_HICHB_Total,Txn_HDDC_AvgRespTime","1.000,1.000,1.000,0.756,0.756,0.756,0.756,0.756,0.756,0.655,0.655,0.655,0.655","1.000,1.000,1.000,1.000,1.000,1.000,1.000,0.756,0.756,0.756,0.756,0.756,0.756,0.655,0.655,0.655,0.655,0.545,-1.000"
LINUX2_EJB_METHODRESPONSE_TIME,"LINUX2_THREADPOOL_POOLSIZE,LINUX3_CPU_LOAD,LINUX3_TOTAL_ACCESSES,LINUX3_TOTAL_KBYTES_SERVED,LINUX3_TOTAL_REQUESTS,LINUX14_CACHE_HITRATIO,LINUX2_THREADPOOL_ACTIVECOUNT,LINUX3_BUSY_WORKERS,OPEN_CONNECTIONS_BETWEEN_IHS52_TO_WAS52,LINUX2_JVM_CPUUSAGE,OPEN_CONNECTIONS_BETWEEN_IHS53_TO_WAS53,OPEN_CONNECTIONS_BETWEEN_IHS54_TO_WAS54,OPEN_CONNECTIONS_FROM_WAS_TO_LOADBALANCER","Txn_TM_SlowPercentage,Txn_PISP_SlowPercentage,Txn_PISP_AvgRespTime,Txn_TM_AvgRespTime,Txn_HPORDM_AvgRespTime,Txn_HPBP_SlowPercentage,Txn_HICHB_Total,Txn_HUPM_AvgRespTime,Txn_LOGIN_AvgRespTime,Txn_HPORDM_SlowPercentage,Txn_LOGOUT_SlowPercentage,Txn_LOGOUT_AvgRespTime,Txn_LOGIN_SlowPercentage,Txn_HUPM_SlowPercentage,Txn_HPBP_AvgRespTime,Txn_HDTPRPT_SlowPercentage,Txn_HDDMI_SlowPercentage,Txn_HDTPRPT_AvgRespTime,Txn_HDDC_AvgRespTime","1.000,1.000,1.000,1.000,1.000,0.756,0.756,0.756,0.756,0.000,0.000,0.000,0.000","1.000,1.000,1.000,1.000,1.000,1.000,0.961,0.756,0.756,0.756,0.756,0.756,0.756,0.756,0.000,0.000,0.000,0.000,-0.756"
LINUX2_JVM_CPUUSAGE,"OPEN_CONNECTIONS_BETWEEN_IHS53_TO_WAS53,OPEN_CONNECTIONS_BETWEEN_IHS54_TO_WAS54,OPEN_CONNECTIONS_FROM_WAS_TO_LOADBALANCER,LINUX14_CACHE_HITRATIO,LINUX2_THREADPOOL_ACTIVECOUNT,LINUX3_BUSY_WORKERS,OPEN_CONNECTIONS_BETWEEN_IHS52_TO_WAS52,LINUX3_TOTAL_ACCESSES,LINUX2_EJB_METHODRESPONSE_TIME,LINUX2_THREADPOOL_POOLSIZE,LINUX3_CPU_LOAD,LINUX3_TOTAL_KBYTES_SERVED,LINUX3_TOTAL_REQUESTS","Txn_HDTPRPT_AvgRespTime,Txn_HPBP_AvgRespTime,Txn_HDDMI_SlowPercentage,Txn_HDTPRPT_SlowPercentage,Txn_HUPM_AvgRespTime,Txn_HUPM_SlowPercentage,Txn_LOGIN_AvgRespTime,Txn_LOGIN_SlowPercentage,Txn_LOGOUT_AvgRespTime,Txn_LOGOUT_SlowPercentage,Txn_HPORDM_SlowPercentage,Txn_PISP_SlowPercentage,Txn_PISP_AvgRespTime,Txn_TM_AvgRespTime,Txn_HPBP_SlowPercentage,Txn_HPORDM_AvgRespTime,Txn_TM_SlowPercentage,Txn_HICHB_Total,Txn_HDDC_AvgRespTime","1.000,1.000,1.000,0.655,0.655,0.655,0.655,0.000,0.000,0.000,0.000,0.000,0.000","1.000,1.000,1.000,1.000,0.655,0.655,0.655,0.655,0.655,0.655,0.655,0.000,0.000,0.000,0.000,0.000,0.000,-0.277,-0.655"
LINUX2_THREADPOOL_ACTIVECOUNT,"LINUX14_CACHE_HITRATIO,LINUX3_BUSY_WORKERS,OPEN_CONNECTIONS_BETWEEN_IHS52_TO_WAS52,LINUX2_THREADPOOL_POOLSIZE,LINUX2_EJB_METHODRESPONSE_TIME,LINUX3_CPU_LOAD,LINUX3_TOTAL_ACCESSES,LINUX3_TOTAL_KBYTES_SERVED,LINUX3_TOTAL_REQUESTS,OPEN_CONNECTIONS_FROM_WAS_TO_LOADBALANCER,OPEN_CONNECTIONS_BETWEEN_IHS54_TO_WAS54,OPEN_CONNECTIONS_BETWEEN_IHS53_TO_WAS53,LINUX2_JVM_CPUUSAGE","Txn_LOGIN_AvgRespTime,Txn_HPORDM_SlowPercentage,Txn_HUPM_AvgRespTime,Txn_HUPM_SlowPercentage,Txn_LOGIN_SlowPercentage,Txn_LOGOUT_AvgRespTime,Txn_LOGOUT_SlowPercentage,Txn_TM_SlowPercentage,Txn_TM_AvgRespTime,Txn_HPBP_SlowPercentage,Txn_HPORDM_AvgRespTime,Txn_PISP_AvgRespTime,Txn_PISP_SlowPercentage,Txn_HDDMI_SlowPercentage,Txn_HDTPRPT_SlowPercentage,Txn_HPBP_AvgRespTime,Txn_HDTPRPT_AvgRespTime,Txn_HICHB_Total,Txn_HDDC_AvgRespTime","1.000,1.000,1.000,0.756,0.756,0.756,0.756,0.756,0.756,0.655,0.655,0.655,0.655","1.000,1.000,1.000,1.000,1.000,1.000,1.000,0.756,0.756,0.756,0.756,0.756,0.756,0.655,0.655,0.655,0.655,0.545,-1.000"
LINUX2_THREADPOOL_POOLSIZE,"LINUX2_EJB_METHODRESPONSE_TIME,LINUX3_CPU_LOAD,LINUX3_TOTAL_ACCESSES,LINUX3_TOTAL_KBYTES_SERVED,LINUX3_TOTAL_REQUESTS,LINUX14_CACHE_HITRATIO,LINUX2_THREADPOOL_ACTIVECOUNT,LINUX3_BUSY_WORKERS,OPEN_CONNECTIONS_BETWEEN_IHS52_TO_WAS52,LINUX2_JVM_CPUUSAGE,OPEN_CONNECTIONS_BETWEEN_IHS53_TO_WAS53,OPEN_CONNECTIONS_BETWEEN_IHS54_TO_WAS54,OPEN_CONNECTIONS_FROM_WAS_TO_LOADBALANCER","Txn_TM_SlowPercentage,Txn_PISP_SlowPercentage,Txn_PISP_AvgRespTime,Txn_TM_AvgRespTime,Txn_HPORDM_AvgRespTime,Txn_HPBP_SlowPercentage,Txn_HICHB_Total,Txn_HUPM_AvgRespTime,Txn_LOGIN_AvgRespTime,Txn_HPORDM_SlowPercentage,Txn_LOGOUT_SlowPercentage,Txn_LOGOUT_AvgRespTime,Txn_LOGIN_SlowPercentage,Txn_HUPM_SlowPercentage,Txn_HPBP_AvgRespTime,Txn_HDTPRPT_SlowPercentage,Txn_HDDMI_SlowPercentage,Txn_HDTPRPT_AvgRespTime,Txn_HDDC_AvgRespTime","1.000,1.000,1.000,1.000,1.000,0.756,0.756,0.756,0.756,0.000,0.000,0.000,0.000","1.000,1.000,1.000,1.000,1.000,1.000,0.961,0.756,0.756,0.756,0.756,0.756,0.756,0.756,0.000,0.000,0.000,0.000,-0.756"
LINUX3_BUSY_WORKERS,"LINUX14_CACHE_HITRATIO,OPEN_CONNECTIONS_BETWEEN_IHS52_TO_WAS52,LINUX2_THREADPOOL_ACTIVECOUNT,LINUX2_THREADPOOL_POOLSIZE,LINUX2_EJB_METHODRESPONSE_TIME,LINUX3_CPU_LOAD,LINUX3_TOTAL_ACCESSES,LINUX3_TOTAL_KBYTES_SERVED,LINUX3_TOTAL_REQUESTS,OPEN_CONNECTIONS_FROM_WAS_TO_LOADBALANCER,OPEN_CONNECTIONS_BETWEEN_IHS54_TO_WAS54,OPEN_CONNECTIONS_BETWEEN_IHS53_TO_WAS53,LINUX2_JVM_CPUUSAGE","Txn_LOGIN_AvgRespTime,Txn_HPORDM_SlowPercentage,Txn_HUPM_AvgRespTime,Txn_HUPM_SlowPercentage,Txn_LOGIN_SlowPercentage,Txn_LOGOUT_AvgRespTime,Txn_LOGOUT_SlowPercentage,Txn_TM_SlowPercentage,Txn_TM_AvgRespTime,Txn_HPBP_SlowPercentage,Txn_HPORDM_AvgRespTime,Txn_PISP_AvgRespTime,Txn_PISP_SlowPercentage,Txn_HDDMI_SlowPercentage,Txn_HDTPRPT_SlowPercentage,Txn_HPBP_AvgRespTime,Txn_HDTPRPT_AvgRespTime,Txn_HICHB_Total,Txn_HDDC_AvgRespTime","1.000,1.000,1.000,0.756,0.756,0.756,0.756,0.756,0.756,0.655,0.655,0.655,0.655","1.000,1.000,1.000,1.000,1.000,1.000,1.000,0.756,0.756,0.756,0.756,0.756,0.756,0.655,0.655,0.655,0.655,0.545,-1.000"
LINUX3_CPU_LOAD,"LINUX2_EJB_METHODRESPONSE_TIME,LINUX2_THREADPOOL_POOLSIZE,LINUX3_TOTAL_ACCESSES,LINUX3_TOTAL_KBYTES_SERVED,LINUX3_TOTAL_REQUESTS,LINUX14_CACHE_HITRATIO,LINUX2_THREADPOOL_ACTIVECOUNT,LINUX3_BUSY_WORKERS,OPEN_CONNECTIONS_BETWEEN_IHS52_TO_WAS52,LINUX2_JVM_CPUUSAGE,OPEN_CONNECTIONS_BETWEEN_IHS53_TO_WAS53,OPEN_CONNECTIONS_BETWEEN_IHS54_TO_WAS54,OPEN_CONNECTIONS_FROM_WAS_TO_LOADBALANCER","Txn_TM_SlowPercentage,Txn_PISP_SlowPercentage,Txn_PISP_AvgRespTime,Txn_TM_AvgRespTime,Txn_HPORDM_AvgRespTime,Txn_HPBP_SlowPercentage,Txn_HICHB_Total,Txn_HUPM_AvgRespTime,Txn_LOGIN_AvgRespTime,Txn_HPORDM_SlowPercentage,Txn_LOGOUT_SlowPercentage,Txn_LOGOUT_AvgRespTime,Txn_LOGIN_SlowPercentage,Txn_HUPM_SlowPercentage,Txn_HPBP_AvgRespTime,Txn_HDTPRPT_SlowPercentage,Txn_HDDMI_SlowPercentage,Txn_HDTPRPT_AvgRespTime,Txn_HDDC_AvgRespTime","1.000,1.000,1.000,1.000,1.000,0.756,0.756,0.756,0.756,0.000,0.000,0.000,0.000","1.000,1.000,1.000,1.000,1.000,1.000,0.961,0.756,0.756,0.756,0.756,0.756,0.756,0.756,0.000,0.000,0.000,0.000,-0.756"
LINUX3_TOTAL_ACCESSES,"LINUX2_EJB_METHODRESPONSE_TIME,LINUX2_THREADPOOL_POOLSIZE,LINUX3_CPU_LOAD,LINUX3_TOTAL_KBYTES_SERVED,LINUX3_TOTAL_REQUESTS,LINUX14_CACHE_HITRATIO,LINUX2_THREADPOOL_ACTIVECOUNT,LINUX3_BUSY_WORKERS,OPEN_CONNECTIONS_BETWEEN_IHS52_TO_WAS52,LINUX2_JVM_CPUUSAGE,OPEN_CONNECTIONS_BETWEEN_IHS53_TO_WAS53,OPEN_CONNECTIONS_BETWEEN_IHS54_TO_WAS54,OPEN_CONNECTIONS_FROM_WAS_TO_LOADBALANCER","Txn_TM_SlowPercentage,Txn_PISP_SlowPercentage,Txn_PISP_AvgRespTime,Txn_TM_AvgRespTime,Txn_HPORDM_AvgRespTime,Txn_HPBP_SlowPercentage,Txn_HICHB_Total,Txn_HUPM_AvgRespTime,Txn_LOGIN_AvgRespTime,Txn_HPORDM_SlowPercentage,Txn_LOGOUT_SlowPercentage,Txn_LOGOUT_AvgRespTime,Txn_LOGIN_SlowPercentage,Txn_HUPM_SlowPercentage,Txn_HPBP_AvgRespTime,Txn_HDTPRPT_SlowPercentage,Txn_HDDMI_SlowPercentage,Txn_HDTPRPT_AvgRespTime,Txn_HDDC_AvgRespTime","1.000,1.000,1.000,1.000,1.000,0.756,0.756,0.756,0.756,0.000,0.000,0.000,0.000","1.000,1.000,1.000,1.000,1.000,1.000,0.961,0.756,0.756,0.756,0.756,0.756,0.756,0.756,0.000,0.000,0.000,0.000,-0.756"
LINUX3_TOTAL_KBYTES_SERVED,"LINUX2_EJB_METHODRESPONSE_TIME,LINUX2_THREADPOOL_POOLSIZE,LINUX3_CPU_LOAD,LINUX3_TOTAL_ACCESSES,LINUX3_TOTAL_REQUESTS,LINUX14_CACHE_HITRATIO,LINUX2_THREADPOOL_ACTIVECOUNT,LINUX3_BUSY_WORKERS,OPEN_CONNECTIONS_BETWEEN_IHS52_TO_WAS52,LINUX2_JVM_CPUUSAGE,OPEN_CONNECTIONS_BETWEEN_IHS53_TO_WAS53,OPEN_CONNECTIONS_BETWEEN_IHS54_TO_WAS54,OPEN_CONNECTIONS_FROM_WAS_TO_LOADBALANCER","Txn_TM_SlowPercentage,Txn_PISP_SlowPercentage,Txn_PISP_AvgRespTime,Txn_TM_AvgRespTime,Txn_HPORDM_AvgRespTime,Txn_HPBP_SlowPercentage,Txn_HICHB_Total,Txn_HUPM_AvgRespTime,Txn_LOGIN_AvgRespTime,Txn_HPORDM_SlowPercentage,Txn_LOGOUT_SlowPercentage,Txn_LOGOUT_AvgRespTime,Txn_LOGIN_SlowPercentage,Txn_HUPM_SlowPercentage,Txn_HPBP_AvgRespTime,Txn_HDTPRPT_SlowPercentage,Txn_HDDMI_SlowPercentage,Txn_HDTPRPT_AvgRespTime,Txn_HDDC_AvgRespTime","1.000,1.000,1.000,1.000,1.000,0.756,0.756,0.756,0.756,0.000,0.000,0.000,0.000","1.000,1.000,1.000,1.000,1.000,1.000,0.961,0.756,0.756,0.756,0.756,0.756,0.756,0.756,0.000,0.000,0.000,0.000,-0.756"
LINUX3_TOTAL_REQUESTS,"LINUX2_EJB_METHODRESPONSE_TIME,LINUX2_THREADPOOL_POOLSIZE,LINUX3_CPU_LOAD,LINUX3_TOTAL_ACCESSES,LINUX3_TOTAL_KBYTES_SERVED,LINUX14_CACHE_HITRATIO,LINUX2_THREADPOOL_ACTIVECOUNT,LINUX3_BUSY_WORKERS,OPEN_CONNECTIONS_BETWEEN_IHS52_TO_WAS52,LINUX2_JVM_CPUUSAGE,OPEN_CONNECTIONS_BETWEEN_IHS53_TO_WAS53,OPEN_CONNECTIONS_BETWEEN_IHS54_TO_WAS54,OPEN_CONNECTIONS_FROM_WAS_TO_LOADBALANCER","Txn_TM_SlowPercentage,Txn_PISP_SlowPercentage,Txn_PISP_AvgRespTime,Txn_TM_AvgRespTime,Txn_HPORDM_AvgRespTime,Txn_HPBP_SlowPercentage,Txn_HICHB_Total,Txn_HUPM_AvgRespTime,Txn_LOGIN_AvgRespTime,Txn_HPORDM_SlowPercentage,Txn_LOGOUT_SlowPercentage,Txn_LOGOUT_AvgRespTime,Txn_LOGIN_SlowPercentage,Txn_HUPM_SlowPercentage,Txn_HPBP_AvgRespTime,Txn_HDTPRPT_SlowPercentage,Txn_HDDMI_SlowPercentage,Txn_HDTPRPT_AvgRespTime,Txn_HDDC_AvgRespTime","1.000,1.000,1.000,1.000,1.000,0.756,0.756,0.756,0.756,0.000,0.000,0.000,0.000","1.000,1.000,1.000,1.000,1.000,1.000,0.961,0.756,0.756,0.756,0.756,0.756,0.756,0.756,0.000,0.000,0.000,0.000,-0.756"
OPEN_CONNECTIONS_BETWEEN_IHS52_TO_WAS52,"LINUX14_CACHE_HITRATIO,LINUX3_BUSY_WORKERS,LINUX2_THREADPOOL_ACTIVECOUNT,LINUX2_THREADPOOL_POOLSIZE,LINUX2_EJB_METHODRESPONSE_TIME,LINUX3_CPU_LOAD,LINUX3_TOTAL_ACCESSES,LINUX3_TOTAL_KBYTES_SERVED,LINUX3_TOTAL_REQUESTS,OPEN_CONNECTIONS_FROM_WAS_TO_LOADBALANCER,OPEN_CONNECTIONS_BETWEEN_IHS54_TO_WAS54,OPEN_CONNECTIONS_BETWEEN_IHS53_TO_WAS53,LINUX2_JVM_CPUUSAGE","Txn_LOGIN_AvgRespTime,Txn_HPORDM_SlowPercentage,Txn_HUPM_AvgRespTime,Txn_HUPM_SlowPercentage,Txn_LOGIN_SlowPercentage,Txn_LOGOUT_AvgRespTime,Txn_LOGOUT_SlowPercentage,Txn_TM_SlowPercentage,Txn_TM_AvgRespTime,Txn_HPBP_SlowPercentage,Txn_HPORDM_AvgRespTime,Txn_PISP_AvgRespTime,Txn_PISP_SlowPercentage,Txn_HDDMI_SlowPercentage,Txn_HDTPRPT_SlowPercentage,Txn_HPBP_AvgRespTime,Txn_HDTPRPT_AvgRespTime,Txn_HICHB_Total,Txn_HDDC_AvgRespTime","1.000,1.000,1.000,0.756,0.756,0.756,0.756,0.756,0.756,0.655,0.655,0.655,0.655","1.000,1.000,1.000,1.000,1.000,1.000,1.000,0.756,0.756,0.756,0.756,0.756,0.756,0.655,0.655,0.655,0.655,0.545,-1.000"
OPEN_CONNECTIONS_BETWEEN_IHS53_TO_WAS53,"LINUX2_JVM_CPUUSAGE,OPEN_CONNECTIONS_BETWEEN_IHS54_TO_WAS54,OPEN_CONNECTIONS_FROM_WAS_TO_LOADBALANCER,LINUX14_CACHE_HITRATIO,LINUX2_THREADPOOL_ACTIVECOUNT,LINUX3_BUSY_WORKERS,OPEN_CONNECTIONS_BETWEEN_IHS52_TO_WAS52,LINUX3_TOTAL_ACCESSES,LINUX2_EJB_METHODRESPONSE_TIME,LINUX2_THREADPOOL_POOLSIZE,LINUX3_CPU_LOAD,LINUX3_TOTAL_KBYTES_SERVED,LINUX3_TOTAL_REQUESTS","Txn_HDTPRPT_AvgRespTime,Txn_HPBP_AvgRespTime,Txn_HDDMI_SlowPercentage,Txn_HDTPRPT_SlowPercentage,Txn_HUPM_AvgRespTime,Txn_HUPM_SlowPercentage,Txn_LOGIN_AvgRespTime,Txn_LOGIN_SlowPercentage,Txn_LOGOUT_AvgRespTime,Txn_LOGOUT_SlowPercentage,Txn_HPORDM_SlowPercentage,Txn_PISP_SlowPercentage,Txn_PISP_AvgRespTime,Txn_TM_AvgRespTime,Txn_HPBP_SlowPercentage,Txn_HPORDM_AvgRespTime,Txn_TM_SlowPercentage,Txn_HICHB_Total,Txn_HDDC_AvgRespTime","1.000,1.000,1.000,0.655,0.655,0.655,0.655,0.000,0.000,0.000,0.000,0.000,0.000","1.000,1.000,1.000,1.000,0.655,0.655,0.655,0.655,0.655,0.655,0.655,0.000,0.000,0.000,0.000,0.000,0.000,-0.277,-0.655"
OPEN_CONNECTIONS_BETWEEN_IHS54_TO_WAS54,"LINUX2_JVM_CPUUSAGE,OPEN_CONNECTIONS_BETWEEN_IHS53_TO_WAS53,OPEN_CONNECTIONS_FROM_WAS_TO_LOADBALANCER,LINUX14_CACHE_HITRATIO,LINUX2_THREADPOOL_ACTIVECOUNT,LINUX3_BUSY_WORKERS,OPEN_CONNECTIONS_BETWEEN_IHS52_TO_WAS52,LINUX3_TOTAL_ACCESSES,LINUX2_EJB_METHODRESPONSE_TIME,LINUX2_THREADPOOL_POOLSIZE,LINUX3_CPU_LOAD,LINUX3_TOTAL_KBYTES_SERVED,LINUX3_TOTAL_REQUESTS","Txn_HDTPRPT_AvgRespTime,Txn_HPBP_AvgRespTime,Txn_HDDMI_SlowPercentage,Txn_HDTPRPT_SlowPercentage,Txn_HUPM_AvgRespTime,Txn_HUPM_SlowPercentage,Txn_LOGIN_AvgRespTime,Txn_LOGIN_SlowPercentage,Txn_LOGOUT_AvgRespTime,Txn_LOGOUT_SlowPercentage,Txn_HPORDM_SlowPercentage,Txn_PISP_SlowPercentage,Txn_PISP_AvgRespTime,Txn_TM_AvgRespTime,Txn_HPBP_SlowPercentage,Txn_HPORDM_AvgRespTime,Txn_TM_SlowPercentage,Txn_HICHB_Total,Txn_HDDC_AvgRespTime","1.000,1.000,1.000,0.655,0.655,0.655,0.655,0.000,0.000,0.000,0.000,0.000,0.000","1.000,1.000,1.000,1.000,0.655,0.655,0.655,0.655,0.655,0.655,0.655,0.000,0.000,0.000,0.000,0.000,0.000,-0.277,-0.655"
OPEN_CONNECTIONS_FROM_WAS_TO_LOADBALANCER,"LINUX2_JVM_CPUUSAGE,OPEN_CONNECTIONS_BETWEEN_IHS53_TO_WAS53,OPEN_CONNECTIONS_BETWEEN_IHS54_TO_WAS54,LINUX14_CACHE_HITRATIO,LINUX2_THREADPOOL_ACTIVECOUNT,LINUX3_BUSY_WORKERS,OPEN_CONNECTIONS_BETWEEN_IHS52_TO_WAS52,LINUX3_TOTAL_ACCESSES,LINUX2_EJB_METHODRESPONSE_TIME,LINUX2_THREADPOOL_POOLSIZE,LINUX3_CPU_LOAD,LINUX3_TOTAL_KBYTES_SERVED,LINUX3_TOTAL_REQUESTS","Txn_HDTPRPT_AvgRespTime,Txn_HPBP_AvgRespTime,Txn_HDDMI_SlowPercentage,Txn_HDTPRPT_SlowPercentage,Txn_HUPM_AvgRespTime,Txn_HUPM_SlowPercentage,Txn_LOGIN_AvgRespTime,Txn_LOGIN_SlowPercentage,Txn_LOGOUT_AvgRespTime,Txn_LOGOUT_SlowPercentage,Txn_HPORDM_SlowPercentage,Txn_PISP_SlowPercentage,Txn_PISP_AvgRespTime,Txn_TM_AvgRespTime,Txn_HPBP_SlowPercentage,Txn_HPORDM_AvgRespTime,Txn_TM_SlowPercentage,Txn_HICHB_Total,Txn_HDDC_AvgRespTime","1.000,1.000,1.000,0.655,0.655,0.655,0.655,0.000,0.000,0.000,0.000,0.000,0.000","1.000,1.000,1.000,1.000,0.655,0.655,0.655,0.655,0.655,0.655,0.655,0.000,0.000,0.000,0.000,0.000,0.000,-0.277,-0.655"
Txn_HDDC_AvgRespTime,"LINUX2_JVM_CPUUSAGE,OPEN_CONNECTIONS_BETWEEN_IHS53_TO_WAS53,OPEN_CONNECTIONS_BETWEEN_IHS54_TO_WAS54,OPEN_CONNECTIONS_FROM_WAS_TO_LOADBALANCER,LINUX2_EJB_METHODRESPONSE_TIME,LINUX2_THREADPOOL_POOLSIZE,LINUX3_CPU_LOAD,LINUX3_TOTAL_ACCESSES,LINUX3_TOTAL_KBYTES_SERVED,LINUX3_TOTAL_REQUESTS,OPEN_CONNECTIONS_BETWEEN_IHS52_TO_WAS52,LINUX3_BUSY_WORKERS,LINUX2_THREADPOOL_ACTIVECOUNT,LINUX14_CACHE_HITRATIO","Txn_HICHB_Total,Txn_HDTPRPT_AvgRespTime,Txn_HDDMI_SlowPercentage,Txn_HPBP_AvgRespTime,Txn_HDTPRPT_SlowPercentage,Txn_TM_SlowPercentage,Txn_TM_AvgRespTime,Txn_HPBP_SlowPercentage,Txn_HPORDM_AvgRespTime,Txn_PISP_AvgRespTime,Txn_PISP_SlowPercentage,Txn_HPORDM_SlowPercentage,Txn_HUPM_AvgRespTime,Txn_HUPM_SlowPercentage,Txn_LOGIN_AvgRespTime,Txn_LOGIN_SlowPercentage,Txn_LOGOUT_AvgRespTime,Txn_LOGOUT_SlowPercentage","-0.655,-0.655,-0.655,-0.655,-0.756,-0.756,-0.756,-0.756,-0.756,-0.756,-1.000,-1.000,-1.000,-1.000","-0.545,-0.655,-0.655,-0.655,-0.655,-0.756,-0.756,-0.756,-0.756,-0.756,-0.756,-1.000,-1.000,-1.000,-1.000,-1.000,-1.000,-1.000"
Txn_HDDMI_SlowPercentage,"LINUX2_JVM_CPUUSAGE,OPEN_CONNECTIONS_BETWEEN_IHS53_TO_WAS53,OPEN_CONNECTIONS_BETWEEN_IHS54_TO_WAS54,OPEN_CONNECTIONS_FROM_WAS_TO_LOADBALANCER,LINUX14_CACHE_HITRATIO,LINUX2_THREADPOOL_ACTIVECOUNT,LINUX3_BUSY_WORKERS,OPEN_CONNECTIONS_BETWEEN_IHS52_TO_WAS52,LINUX3_TOTAL_ACCESSES,LINUX2_EJB_METHODRESPONSE_TIME,LINUX2_THREADPOOL_POOLSIZE,LINUX3_CPU_LOAD,LINUX3_TOTAL_KBYTES_SERVED,LINUX3_TOTAL_REQUESTS","Txn_HDTPRPT_AvgRespTime,Txn_HPBP_AvgRespTime,Txn_HDTPRPT_SlowPercentage,Txn_HUPM_AvgRespTime,Txn_HUPM_SlowPercentage,Txn_LOGIN_AvgRespTime,Txn_LOGIN_SlowPercentage,Txn_LOGOUT_AvgRespTime,Txn_LOGOUT_SlowPercentage,Txn_HPORDM_SlowPercentage,Txn_PISP_SlowPercentage,Txn_PISP_AvgRespTime,Txn_TM_AvgRespTime,Txn_HPBP_SlowPercentage,Txn_HPORDM_AvgRespTime,Txn_TM_SlowPercentage,Txn_HICHB_Total,Txn_HDDC_AvgRespTime","1.000,1.000,1.000,1.000,0.655,0.655,0.655,0.655,0.000,0.000,0.000,0.000,0.000,0.000","1.000,1.000,1.000,0.655,0.655,0.655,0.655,0.655,0.655,0.655,0.000,0.000,0.000,0.000,0.000,0.000,-0.277,-0.655"
Txn_HDTPRPT_AvgRespTime,"LINUX2_JVM_CPUUSAGE,OPEN_CONNECTIONS_BETWEEN_IHS53_TO_WAS53,OPEN_CONNECTIONS_BETWEEN_IHS54_TO_WAS54,OPEN_CONNECTIONS_FROM_WAS_TO_LOADBALANCER,LINUX14_CACHE_HITRATIO,LINUX2_THREADPOOL_ACTIVECOUNT,LINUX3_BUSY_WORKERS,OPEN_CONNECTIONS_BETWEEN_IHS52_TO_WAS52,LINUX3_TOTAL_ACCESSES,LINUX2_EJB_METHODRESPONSE_TIME,LINUX2_THREADPOOL_POOLSIZE,LINUX3_CPU_LOAD,LINUX3_TOTAL_KBYTES_SERVED,LINUX3_TOTAL_REQUESTS","Txn_HPBP_AvgRespTime,Txn_HDDMI_SlowPercentage,Txn_HDTPRPT_SlowPercentage,Txn_HUPM_AvgRespTime,Txn_HUPM_SlowPercentage,Txn_LOGIN_AvgRespTime,Txn_LOGIN_SlowPercentage,Txn_LOGOUT_AvgRespTime,Txn_LOGOUT_SlowPercentage,Txn_HPORDM_SlowPercentage,Txn_PISP_SlowPercentage,Txn_PISP_AvgRespTime,Txn_TM_AvgRespTime,Txn_HPBP_SlowPercentage,Txn_HPORDM_AvgRespTime,Txn_TM_SlowPercentage,Txn_HICHB_Total,Txn_HDDC_AvgRespTime","1.000,1.000,1.000,1.000,0.655,0.655,0.655,0.655,0.000,0.000,0.000,0.000,0.000,0.000","1.000,1.000,1.000,0.655,0.655,0.655,0.655,0.655,0.655,0.655,0.000,0.000,0.000,0.000,0.000,0.000,-0.277,-0.655"
Txn_HDTPRPT_SlowPercentage,"LINUX2_JVM_CPUUSAGE,OPEN_CONNECTIONS_BETWEEN_IHS53_TO_WAS53,OPEN_CONNECTIONS_BETWEEN_IHS54_TO_WAS54,OPEN_CONNECTIONS_FROM_WAS_TO_LOADBALANCER,LINUX14_CACHE_HITRATIO,LINUX2_THREADPOOL_ACTIVECOUNT,LINUX3_BUSY_WORKERS,OPEN_CONNECTIONS_BETWEEN_IHS52_TO_WAS52,LINUX3_TOTAL_ACCESSES,LINUX2_EJB_METHODRESPONSE_TIME,LINUX2_THREADPOOL_POOLSIZE,LINUX3_CPU_LOAD,LINUX3_TOTAL_KBYTES_SERVED,LINUX3_TOTAL_REQUESTS","Txn_HDTPRPT_AvgRespTime,Txn_HPBP_AvgRespTime,Txn_HDDMI_SlowPercentage,Txn_HUPM_AvgRespTime,Txn_HUPM_SlowPercentage,Txn_LOGIN_AvgRespTime,Txn_LOGIN_SlowPercentage,Txn_LOGOUT_AvgRespTime,Txn_LOGOUT_SlowPercentage,Txn_HPORDM_SlowPercentage,Txn_PISP_SlowPercentage,Txn_PISP_AvgRespTime,Txn_TM_AvgRespTime,Txn_HPBP_SlowPercentage,Txn_HPORDM_AvgRespTime,Txn_TM_SlowPercentage,Txn_HICHB_Total,Txn_HDDC_AvgRespTime","1.000,1.000,1.000,1.000,0.655,0.655,0.655,0.655,0.000,0.000,0.000,0.000,0.000,0.000","1.000,1.000,1.000,0.655,0.655,0.655,0.655,0.655,0.655,0.655,0.000,0.000,0.000,0.000,0.000,0.000,-0.277,-0.655"
Txn_HICHB_Total,"LINUX2_EJB_METHODRESPONSE_TIME,LINUX2_THREADPOOL_POOLSIZE,LINUX3_CPU_LOAD,LINUX3_TOTAL_ACCESSES,LINUX3_TOTAL_KBYTES_SERVED,LINUX3_TOTAL_REQUESTS,LINUX14_CACHE_HITRATIO,LINUX2_THREADPOOL_ACTIVECOUNT,LINUX3_BUSY_WORKERS,OPEN_CONNECTIONS_BETWEEN_IHS52_TO_WAS52,LINUX2_JVM_CPUUSAGE,OPEN_CONNECTIONS_BETWEEN_IHS53_TO_WAS53,OPEN_CONNECTIONS_BETWEEN_IHS54_TO_WAS54,OPEN_CONNECTIONS_FROM_WAS_TO_LOADBALANCER","Txn_TM_SlowPercentage,Txn_PISP_SlowPercentage,Txn_PISP_AvgRespTime,Txn_TM_AvgRespTime,Txn_HPORDM_AvgRespTime,Txn_HPBP_SlowPercentage,Txn_HUPM_AvgRespTime,Txn_LOGIN_AvgRespTime,Txn_HPORDM_SlowPercentage,Txn_LOGOUT_SlowPercentage,Txn_LOGOUT_AvgRespTime,Txn_LOGIN_SlowPercentage,Txn_HUPM_SlowPercentage,Txn_HPBP_AvgRespTime,Txn_HDTPRPT_SlowPercentage,Txn_HDDMI_SlowPercentage,Txn_HDTPRPT_AvgRespTime,Txn_HDDC_AvgRespTime","0.961,0.961,0.961,0.961,0.961,0.961,0.545,0.545,0.545,0.545,-0.277,-0.277,-0.277,-0.277","0.961,0.961,0.961,0.961,0.961,0.961,0.545,0.545,0.545,0.545,0.545,0.545,0.545,-0.277,-0.277,-0.277,-0.277,-0.545"
Txn_HPBP_AvgRespTime,"LINUX2_JVM_CPUUSAGE,OPEN_CONNECTIONS_BETWEEN_IHS53_TO_WAS53,OPEN_CONNECTIONS_BETWEEN_IHS54_TO_WAS54,OPEN_CONNECTIONS_FROM_WAS_TO_LOADBALANCER,LINUX14_CACHE_HITRATIO,LINUX2_THREADPOOL_ACTIVECOUNT,LINUX3_BUSY_WORKERS,OPEN_CONNECTIONS_BETWEEN_IHS52_TO_WAS52,LINUX3_TOTAL_ACCESSES,LINUX2_EJB_METHODRESPONSE_TIME,LINUX2_THREADPOOL_POOLSIZE,LINUX3_CPU_LOAD,LINUX3_TOTAL_KBYTES_SERVED,LINUX3_TOTAL_REQUESTS","Txn_HDTPRPT_AvgRespTime,Txn_HDDMI_SlowPercentage,Txn_HDTPRPT_SlowPercentage,Txn_HUPM_AvgRespTime,Txn_HUPM_SlowPercentage,Txn_LOGIN_AvgRespTime,Txn_LOGIN_SlowPercentage,Txn_LOGOUT_AvgRespTime,Txn_LOGOUT_SlowPercentage,Txn_HPORDM_SlowPercentage,Txn_PISP_SlowPercentage,Txn_PISP_AvgRespTime,Txn_TM_AvgRespTime,Txn_HPBP_SlowPercentage,Txn_HPORDM_AvgRespTime,Txn_TM_SlowPercentage,Txn_HICHB_Total,Txn_HDDC_AvgRespTime","1.000,1.000,1.000,1.000,0.655,0.655,0.655,0.655,0.000,0.000,0.000,0.000,0.000,0.000","1.000,1.000,1.000,0.655,0.655,0.655,0.655,0.655,0.655,0.655,0.000,0.000,0.000,0.000,0.000,0.000,-0.277,-0.655"
Txn_HPBP_SlowPercentage,"LINUX2_EJB_METHODRESPONSE_TIME,LINUX2_THREADPOOL_POOLSIZE,LINUX3_CPU_LOAD,LINUX3_TOTAL_ACCESSES,LINUX3_TOTAL_KBYTES_SERVED,LINUX3_TOTAL_REQUESTS,LINUX14_CACHE_HITRATIO,LINUX2_THREADPOOL_ACTIVECOUNT,LINUX3_BUSY_WORKERS,OPEN_CONNECTIONS_BETWEEN_IHS52_TO_WAS52,LINUX2_JVM_CPUUSAGE,OPEN_CONNECTIONS_BETWEEN_IHS53_TO_WAS53,OPEN_CONNECTIONS_BETWEEN_IHS54_TO_WAS54,OPEN_CONNECTIONS_FROM_WAS_TO_LOADBALANCER","Txn_TM_SlowPercentage,Txn_PISP_SlowPercentage,Txn_PISP_AvgRespTime,Txn_TM_AvgRespTime,Txn_HPORDM_AvgRespTime,Txn_HICHB_Total,Txn_HUPM_AvgRespTime,Txn_LOGIN_AvgRespTime,Txn_HPORDM_SlowPercentage,Txn_LOGOUT_SlowPercentage,Txn_LOGOUT_AvgRespTime,Txn_LOGIN_SlowPercentage,Txn_HUPM_SlowPercentage,Txn_HPBP_AvgRespTime,Txn_HDTPRPT_SlowPercentage,Txn_HDDMI_SlowPercentage,Txn_HDTPRPT_AvgRespTime,Txn_HDDC_AvgRespTime","1.000,1.000,1.000,1.000,1.000,1.000,0.756,0.756,0.756,0.756,0.000,0.000,0.000,0.000","1.000,1.000,1.000,1.000,1.000,0.961,0.756,0.756,0.756,0.756,0.756,0.756,0.756,0.000,0.000,0.000,0.000,-0.756"
Txn_HPORDM_AvgRespTime,"LINUX2_EJB_METHODRESPONSE_TIME,LINUX2_THREADPOOL_POOLSIZE,LINUX3_CPU_LOAD,LINUX3_TOTAL_ACCESSES,LINUX3_TOTAL_KBYTES_SERVED,LINUX3_TOTAL_REQUESTS,LINUX14_CACHE_HITRATIO,LINUX2_THREADPOOL_ACTIVECOUNT,LINUX3_BUSY_WORKERS,OPEN_CONNECTIONS_BETWEEN_IHS52_TO_WAS52,LINUX2_JVM_CPUUSAGE,OPEN_CONNECTIONS_BETWEEN_IHS53_TO_WAS53,OPEN_CONNECTIONS_BETWEEN_IHS54_TO_WAS54,OPEN_CONNECTIONS_FROM_WAS_TO_LOADBALANCER","Txn_TM_SlowPercentage,Txn_PISP_SlowPercentage,Txn_PISP_AvgRespTime,Txn_TM_AvgRespTime,Txn_HPBP_SlowPercentage,Txn_HICHB_Total,Txn_HUPM_AvgRespTime,Txn_LOGIN_AvgRespTime,Txn_HPORDM_SlowPercentage,Txn_LOGOUT_SlowPercentage,Txn_LOGOUT_AvgRespTime,Txn_LOGIN_SlowPercentage,Txn_HUPM_SlowPercentage,Txn_HPBP_AvgRespTime,Txn_HDTPRPT_SlowPercentage,Txn_HDDMI_SlowPercentage,Txn_HDTPRPT_AvgRespTime,Txn_HDDC_AvgRespTime","1.000,1.000,1.000,1.000,1.000,1.000,0.756,0.756,0.756,0.756,0.000,0.000,0.000,0.000","1.000,1.000,1.000,1.000,1.000,0.961,0.756,0.756,0.756,0.756,0.756,0.756,0.756,0.000,0.000,0.000,0.000,-0.756"
Txn_HPORDM_SlowPercentage,"LINUX14_CACHE_HITRATIO,LINUX3_BUSY_WORKERS,OPEN_CONNECTIONS_BETWEEN_IHS52_TO_WAS52,LINUX2_THREADPOOL_ACTIVECOUNT,LINUX2_THREADPOOL_POOLSIZE,LINUX2_EJB_METHODRESPONSE_TIME,LINUX3_CPU_LOAD,LINUX3_TOTAL_ACCESSES,LINUX3_TOTAL_KBYTES_SERVED,LINUX3_TOTAL_REQUESTS,OPEN_CONNECTIONS_FROM_WAS_TO_LOADBALANCER,OPEN_CONNECTIONS_BETWEEN_IHS54_TO_WAS54,OPEN_CONNECTIONS_BETWEEN_IHS53_TO_WAS53,LINUX2_JVM_CPUUSAGE","Txn_LOGIN_AvgRespTime,Txn_HUPM_AvgRespTime,Txn_HUPM_SlowPercentage,Txn_LOGIN_SlowPercentage,Txn_LOGOUT_AvgRespTime,Txn_LOGOUT_SlowPercentage,Txn_TM_SlowPercentage,Txn_TM_AvgRespTime,Txn_HPBP_SlowPercentage,Txn_HPORDM_AvgRespTime,Txn_PISP_AvgRespTime,Txn_PISP_SlowPercentage,Txn_HDDMI_SlowPercentage,Txn_HDTPRPT_SlowPercentage,Txn_HPBP_AvgRespTime,Txn_HDTPRPT_AvgRespTime,Txn_HICHB_Total,Txn_HDDC_AvgRespTime","1.000,1.000,1.000,1.000,0.756,0.756,0.756,0.756,0.756,0.756,0.655,0.655,0.655,0.655","1.000,1.000,1.000,1.000,1.000,1.000,0.756,0.756,0.756,0.756,0.756,0.756,0.655,0.655,0.655,0.655,0.545,-1.000"
Txn_HUPM_AvgRespTime,"LINUX14_CACHE_HITRATIO,LINUX3_BUSY_WORKERS,OPEN_CONNECTIONS_BETWEEN_IHS52_TO_WAS52,LINUX2_THREADPOOL_ACTIVECOUNT,LINUX2_THREADPOOL_POOLSIZE,LINUX2_EJB_METHODRESPONSE_TIME,LINUX3_CPU_LOAD,LINUX3_TOTAL_ACCESSES,LINUX3_TOTAL_KBYTES_SERVED,LINUX3_TOTAL_REQUESTS,OPEN_CONNECTIONS_FROM_WAS_TO_LOADBALANCER,OPEN_CONNECTIONS_BETWEEN_IHS54_TO_WAS54,OPEN_CONNECTIONS_BETWEEN_IHS53_TO_WAS53,LINUX2_JVM_CPUUSAGE","Txn_LOGIN_AvgRespTime,Txn_HPORDM_SlowPercentage,Txn_HUPM_SlowPercentage,Txn_LOGIN_SlowPercentage,Txn_LOGOUT_AvgRespTime,Txn_LOGOUT_SlowPercentage,Txn_TM_SlowPercentage,Txn_TM_AvgRespTime,Txn_HPBP_SlowPercentage,Txn_HPORDM_AvgRespTime,Txn_PISP_AvgRespTime,Txn_PISP_SlowPercentage,Txn_HDDMI_SlowPercentage,Txn_HDTPRPT_SlowPercentage,Txn_HPBP_AvgRespTime,Txn_HDTPRPT_AvgRespTime,Txn_HICHB_Total,Txn_HDDC_AvgRespTime","1.000,1.000,1.000,1.000,0.756,0.756,0.756,0.756,0.756,0.756,0.655,0.655,0.655,0.655","1.000,1.000,1.000,1.000,1.000,1.000,0.756,0.756,0.756,0.756,0.756,0.756,0.655,0.655,0.655,0.655,0.545,-1.000"
Txn_HUPM_SlowPercentage,"LINUX14_CACHE_HITRATIO,LINUX3_BUSY_WORKERS,OPEN_CONNECTIONS_BETWEEN_IHS52_TO_WAS52,LINUX2_THREADPOOL_ACTIVECOUNT,LINUX2_THREADPOOL_POOLSIZE,LINUX2_EJB_METHODRESPONSE_TIME,LINUX3_CPU_LOAD,LINUX3_TOTAL_ACCESSES,LINUX3_TOTAL_KBYTES_SERVED,LINUX3_TOTAL_REQUESTS,OPEN_CONNECTIONS_FROM_WAS_TO_LOADBALANCER,OPEN_CONNECTIONS_BETWEEN_IHS54_TO_WAS54,OPEN_CONNECTIONS_BETWEEN_IHS53_TO_WAS53,LINUX2_JVM_CPUUSAGE","Txn_LOGIN_AvgRespTime,Txn_HPORDM_SlowPercentage,Txn_HUPM_AvgRespTime,Txn_LOGIN_SlowPercentage,Txn_LOGOUT_AvgRespTime,Txn_LOGOUT_SlowPercentage,Txn_TM_SlowPercentage,Txn_TM_AvgRespTime,Txn_HPBP_SlowPercentage,Txn_HPORDM_AvgRespTime,Txn_PISP_AvgRespTime,Txn_PISP_SlowPercentage,Txn_HDDMI_SlowPercentage,Txn_HDTPRPT_SlowPercentage,Txn_HPBP_AvgRespTime,Txn_HDTPRPT_AvgRespTime,Txn_HICHB_Total,Txn_HDDC_AvgRespTime","1.000,1.000,1.000,1.000,0.756,0.756,0.756,0.756,0.756,0.756,0.655,0.655,0.655,0.655","1.000,1.000,1.000,1.000,1.000,1.000,0.756,0.756,0.756,0.756,0.756,0.756,0.655,0.655,0.655,0.655,0.545,-1.000"
Txn_LOGIN_AvgRespTime,"LINUX14_CACHE_HITRATIO,LINUX3_BUSY_WORKERS,OPEN_CONNECTIONS_BETWEEN_IHS52_TO_WAS52,LINUX2_THREADPOOL_ACTIVECOUNT,LINUX2_THREADPOOL_POOLSIZE,LINUX2_EJB_METHODRESPONSE_TIME,LINUX3_CPU_LOAD,LINUX3_TOTAL_ACCESSES,LINUX3_TOTAL_KBYTES_SERVED,LINUX3_TOTAL_REQUESTS,OPEN_CONNECTIONS_FROM_WAS_TO_LOADBALANCER,OPEN_CONNECTIONS_BETWEEN_IHS54_TO_WAS54,OPEN_CONNECTIONS_BETWEEN_IHS53_TO_WAS53,LINUX2_JVM_CPUUSAGE","Txn_HPORDM_SlowPercentage,Txn_HUPM_AvgRespTime,Txn_HUPM_SlowPercentage,Txn_LOGIN_SlowPercentage,Txn_LOGOUT_AvgRespTime,Txn_LOGOUT_SlowPercentage,Txn_TM_SlowPercentage,Txn_TM_AvgRespTime,Txn_HPBP_SlowPercentage,Txn_HPORDM_AvgRespTime,Txn_PISP_AvgRespTime,Txn_PISP_SlowPercentage,Txn_HDDMI_SlowPercentage,Txn_HDTPRPT_SlowPercentage,Txn_HPBP_AvgRespTime,Txn_HDTPRPT_AvgRespTime,Txn_HICHB_Total,Txn_HDDC_AvgRespTime","1.000,1.000,1.000,1.000,0.756,0.756,0.756,0.756,0.756,0.756,0.655,0.655,0.655,0.655","1.000,1.000,1.000,1.000,1.000,1.000,0.756,0.756,0.756,0.756,0.756,0.756,0.655,0.655,0.655,0.655,0.545,-1.000"
Txn_LOGIN_SlowPercentage,"LINUX14_CACHE_HITRATIO,LINUX3_BUSY_WORKERS,OPEN_CONNECTIONS_BETWEEN_IHS52_TO_WAS52,LINUX2_THREADPOOL_ACTIVECOUNT,LINUX2_THREADPOOL_POOLSIZE,LINUX2_EJB_METHODRESPONSE_TIME,LINUX3_CPU_LOAD,LINUX3_TOTAL_ACCESSES,LINUX3_TOTAL_KBYTES_SERVED,LINUX3_TOTAL_REQUESTS,OPEN_CONNECTIONS_FROM_WAS_TO_LOADBALANCER,OPEN_CONNECTIONS_BETWEEN_IHS54_TO_WAS54,OPEN_CONNECTIONS_BETWEEN_IHS53_TO_WAS53,LINUX2_JVM_CPUUSAGE","Txn_LOGIN_AvgRespTime,Txn_HPORDM_SlowPercentage,Txn_HUPM_AvgRespTime,Txn_HUPM_SlowPercentage,Txn_LOGOUT_AvgRespTime,Txn_LOGOUT_SlowPercentage,Txn_TM_SlowPercentage,Txn_TM_AvgRespTime,Txn_HPBP_SlowPercentage,Txn_HPORDM_AvgRespTime,Txn_PISP_AvgRespTime,Txn_PISP_SlowPercentage,Txn_HDDMI_SlowPercentage,Txn_HDTPRPT_SlowPercentage,Txn_HPBP_AvgRespTime,Txn_HDTPRPT_AvgRespTime,Txn_HICHB_Total,Txn_HDDC_AvgRespTime","1.000,1.000,1.000,1.000,0.756,0.756,0.756,0.756,0.756,0.756,0.655,0.655,0.655,0.655","1.000,1.000,1.000,1.000,1.000,1.000,0.756,0.756,0.756,0.756,0.756,0.756,0.655,0.655,0.655,0.655,0.545,-1.000"
Txn_LOGOUT_AvgRespTime,"LINUX14_CACHE_HITRATIO,LINUX3_BUSY_WORKERS,OPEN_CONNECTIONS_BETWEEN_IHS52_TO_WAS52,LINUX2_THREADPOOL_ACTIVECOUNT,LINUX2_THREADPOOL_POOLSIZE,LINUX2_EJB_METHODRESPONSE_TIME,LINUX3_CPU_LOAD,LINUX3_TOTAL_ACCESSES,LINUX3_TOTAL_KBYTES_SERVED,LINUX3_TOTAL_REQUESTS,OPEN_CONNECTIONS_FROM_WAS_TO_LOADBALANCER,OPEN_CONNECTIONS_BETWEEN_IHS54_TO_WAS54,OPEN_CONNECTIONS_BETWEEN_IHS53_TO_WAS53,LINUX2_JVM_CPUUSAGE","Txn_LOGIN_AvgRespTime,Txn_HPORDM_SlowPercentage,Txn_HUPM_AvgRespTime,Txn_HUPM_SlowPercentage,Txn_LOGIN_SlowPercentage,Txn_LOGOUT_SlowPercentage,Txn_TM_SlowPercentage,Txn_TM_AvgRespTime,Txn_HPBP_SlowPercentage,Txn_HPORDM_AvgRespTime,Txn_PISP_AvgRespTime,Txn_PISP_SlowPercentage,Txn_HDDMI_SlowPercentage,Txn_HDTPRPT_SlowPercentage,Txn_HPBP_AvgRespTime,Txn_HDTPRPT_AvgRespTime,Txn_HICHB_Total,Txn_HDDC_AvgRespTime","1.000,1.000,1.000,1.000,0.756,0.756,0.756,0.756,0.756,0.756,0.655,0.655,0.655,0.655","1.000,1.000,1.000,1.000,1.000,1.000,0.756,0.756,0.756,0.756,0.756,0.756,0.655,0.655,0.655,0.655,0.545,-1.000"
Txn_LOGOUT_SlowPercentage,"LINUX14_CACHE_HITRATIO,LINUX3_BUSY_WORKERS,OPEN_CONNECTIONS_BETWEEN_IHS52_TO_WAS52,LINUX2_THREADPOOL_ACTIVECOUNT,LINUX2_THREADPOOL_POOLSIZE,LINUX2_EJB_METHODRESPONSE_TIME,LINUX3_CPU_LOAD,LINUX3_TOTAL_ACCESSES,LINUX3_TOTAL_KBYTES_SERVED,LINUX3_TOTAL_REQUESTS,OPEN_CONNECTIONS_FROM_WAS_TO_LOADBALANCER,OPEN_CONNECTIONS_BETWEEN_IHS54_TO_WAS54,OPEN_CONNECTIONS_BETWEEN_IHS53_TO_WAS53,LINUX2_JVM_CPUUSAGE","Txn_LOGIN_AvgRespTime,Txn_HPORDM_SlowPercentage,Txn_HUPM_AvgRespTime,Txn_HUPM_SlowPercentage,Txn_LOGIN_SlowPercentage,Txn_LOGOUT_AvgRespTime,Txn_TM_SlowPercentage,Txn_TM_AvgRespTime,Txn_HPBP_SlowPercentage,Txn_HPORDM_AvgRespTime,Txn_PISP_AvgRespTime,Txn_PISP_SlowPercentage,Txn_HDDMI_SlowPercentage,Txn_HDTPRPT_SlowPercentage,Txn_HPBP_AvgRespTime,Txn_HDTPRPT_AvgRespTime,Txn_HICHB_Total,Txn_HDDC_AvgRespTime","1.000,1.000,1.000,1.000,0.756,0.756,0.756,0.756,0.756,0.756,0.655,0.655,0.655,0.655","1.000,1.000,1.000,1.000,1.000,1.000,0.756,0.756,0.756,0.756,0.756,0.756,0.655,0.655,0.655,0.655,0.545,-1.000"
Txn_PISP_AvgRespTime,"LINUX2_EJB_METHODRESPONSE_TIME,LINUX2_THREADPOOL_POOLSIZE,LINUX3_CPU_LOAD,LINUX3_TOTAL_ACCESSES,LINUX3_TOTAL_KBYTES_SERVED,LINUX3_TOTAL_REQUESTS,LINUX14_CACHE_HITRATIO,LINUX2_THREADPOOL_ACTIVECOUNT,LINUX3_BUSY_WORKERS,OPEN_CONNECTIONS_BETWEEN_IHS52_TO_WAS52,LINUX2_JVM_CPUUSAGE,OPEN_CONNECTIONS_BETWEEN_IHS53_TO_WAS53,OPEN_CONNECTIONS_BETWEEN_IHS54_TO_WAS54,OPEN_CONNECTIONS_FROM_WAS_TO_LOADBALANCER","Txn_TM_SlowPercentage,Txn_PISP_SlowPercentage,Txn_TM_AvgRespTime,Txn_HPORDM_AvgRespTime,Txn_HPBP_SlowPercentage,Txn_HICHB_Total,Txn_HUPM_AvgRespTime,Txn_LOGIN_AvgRespTime,Txn_HPORDM_SlowPercentage,Txn_LOGOUT_SlowPercentage,Txn_LOGOUT_AvgRespTime,Txn_LOGIN_SlowPercentage,Txn_HUPM_SlowPercentage,Txn_HPBP_AvgRespTime,Txn_HDTPRPT_SlowPercentage,Txn_HDDMI_SlowPercentage,Txn_HDTPRPT_AvgRespTime,Txn_HDDC_AvgRespTime","1.000,1.000,1.000,1.000,1.000,1.000,0.756,0.756,0.756,0.756,0.000,0.000,0.000,0.000","1.000,1.000,1.000,1.000,1.000,0.961,0.756,0.756,0.756,0.756,0.756,0.756,0.756,0.000,0.000,0.000,0.000,-0.756"
Txn_PISP_SlowPercentage,"LINUX2_EJB_METHODRESPONSE_TIME,LINUX2_THREADPOOL_POOLSIZE,LINUX3_CPU_LOAD,LINUX3_TOTAL_ACCESSES,LINUX3_TOTAL_KBYTES_SERVED,LINUX3_TOTAL_REQUESTS,LINUX14_CACHE_HITRATIO,LINUX2_THREADPOOL_ACTIVECOUNT,LINUX3_BUSY_WORKERS,OPEN_CONNECTIONS_BETWEEN_IHS52_TO_WAS52,LINUX2_JVM_CPUUSAGE,OPEN_CONNECTIONS_BETWEEN_IHS53_TO_WAS53,OPEN_CONNECTIONS_BETWEEN_IHS54_TO_WAS54,OPEN_CONNECTIONS_FROM_WAS_TO_LOADBALANCER","Txn_TM_SlowPercentage,Txn_PISP_AvgRespTime,Txn_TM_AvgRespTime,Txn_HPORDM_AvgRespTime,Txn_HPBP_SlowPercentage,Txn_HICHB_Total,Txn_HUPM_AvgRespTime,Txn_LOGIN_AvgRespTime,Txn_HPORDM_SlowPercentage,Txn_LOGOUT_SlowPercentage,Txn_LOGOUT_AvgRespTime,Txn_LOGIN_SlowPercentage,Txn_HUPM_SlowPercentage,Txn_HPBP_AvgRespTime,Txn_HDTPRPT_SlowPercentage,Txn_HDDMI_SlowPercentage,Txn_HDTPRPT_AvgRespTime,Txn_HDDC_AvgRespTime","1.000,1.000,1.000,1.000,1.000,1.000,0.756,0.756,0.756,0.756,0.000,0.000,0.000,0.000","1.000,1.000,1.000,1.000,1.000,0.961,0.756,0.756,0.756,0.756,0.756,0.756,0.756,0.000,0.000,0.000,0.000,-0.756"
Txn_TM_AvgRespTime,"LINUX2_EJB_METHODRESPONSE_TIME,LINUX2_THREADPOOL_POOLSIZE,LINUX3_CPU_LOAD,LINUX3_TOTAL_ACCESSES,LINUX3_TOTAL_KBYTES_SERVED,LINUX3_TOTAL_REQUESTS,LINUX14_CACHE_HITRATIO,LINUX2_THREADPOOL_ACTIVECOUNT,LINUX3_BUSY_WORKERS,OPEN_CONNECTIONS_BETWEEN_IHS52_TO_WAS52,LINUX2_JVM_CPUUSAGE,OPEN_CONNECTIONS_BETWEEN_IHS53_TO_WAS53,OPEN_CONNECTIONS_BETWEEN_IHS54_TO_WAS54,OPEN_CONNECTIONS_FROM_WAS_TO_LOADBALANCER","Txn_TM_SlowPercentage,Txn_PISP_SlowPercentage,Txn_PISP_AvgRespTime,Txn_HPORDM_AvgRespTime,Txn_HPBP_SlowPercentage,Txn_HICHB_Total,Txn_HUPM_AvgRespTime,Txn_LOGIN_AvgRespTime,Txn_HPORDM_SlowPercentage,Txn_LOGOUT_SlowPercentage,Txn_LOGOUT_AvgRespTime,Txn_LOGIN_SlowPercentage,Txn_HUPM_SlowPercentage,Txn_HPBP_AvgRespTime,Txn_HDTPRPT_SlowPercentage,Txn_HDDMI_SlowPercentage,Txn_HDTPRPT_AvgRespTime,Txn_HDDC_AvgRespTime","1.000,1.000,1.000,1.000,1.000,1.000,0.756,0.756,0.756,0.756,0.000,0.000,0.000,0.000","1.000,1.000,1.000,1.000,1.000,0.961,0.756,0.756,0.756,0.756,0.756,0.756,0.756,0.000,0.000,0.000,0.000,-0.756"
Txn_TM_SlowPercentage,"LINUX2_EJB_METHODRESPONSE_TIME,LINUX2_THREADPOOL_POOLSIZE,LINUX3_CPU_LOAD,LINUX3_TOTAL_ACCESSES,LINUX3_TOTAL_KBYTES_SERVED,LINUX3_TOTAL_REQUESTS,LINUX14_CACHE_HITRATIO,LINUX2_THREADPOOL_ACTIVECOUNT,LINUX3_BUSY_WORKERS,OPEN_CONNECTIONS_BETWEEN_IHS52_TO_WAS52,LINUX2_JVM_CPUUSAGE,OPEN_CONNECTIONS_BETWEEN_IHS53_TO_WAS53,OPEN_CONNECTIONS_BETWEEN_IHS54_TO_WAS54,OPEN_CONNECTIONS_FROM_WAS_TO_LOADBALANCER","Txn_PISP_SlowPercentage,Txn_PISP_AvgRespTime,Txn_TM_AvgRespTime,Txn_HPORDM_AvgRespTime,Txn_HPBP_SlowPercentage,Txn_HICHB_Total,Txn_HUPM_AvgRespTime,Txn_LOGIN_AvgRespTime,Txn_HPORDM_SlowPercentage,Txn_LOGOUT_SlowPercentage,Txn_LOGOUT_AvgRespTime,Txn_LOGIN_SlowPercentage,Txn_HUPM_SlowPercentage,Txn_HPBP_AvgRespTime,Txn_HDTPRPT_SlowPercentage,Txn_HDDMI_SlowPercentage,Txn_HDTPRPT_AvgRespTime,Txn_HDDC_AvgRespTime","1.000,1.000,1.000,1.000,1.000,1.000,0.756,0.756,0.756,0.756,0.000,0.000,0.000,0.000","1.000,1.000,1.000,1.000,1.000,0.961,0.756,0.756,0.756,0.756,0.756,0.756,0.756,0.000,0.000,0.000,0.000,-0.756"
