Subjected_KPI,Correlated_KPIs,Correlated_Txns,Correlation_KPI_Values,Correlation_Txn_Values
LINUX14_CACHE_HITRATIO,"LINUX2_EJB_METHODRESPONSE_TIME,LINUX3_CPU_LOAD,LINUX3_TOTAL_REQUESTS,LINUX2_JVM_HEAPSIZE,OPEN_CONNECTIONS_FROM_WAS_TO_DB,LINUX2_THREADPOOL_POOLSIZE,LINUX3_TOTAL_ACCESSES,LINUX3_TOTAL_KBYTES_SERVED,OPEN_CONNECTIONS_BETWEEN_IHS52_TO_WAS52,LINUX2_THREADPOOL_ACTIVECOUNT,LINUX3_BUSY_WORKERS,OPEN_CONNECTIONS_BETWEEN_IHS53_TO_WAS53,OPEN_CONNECTIONS_BETWEEN_IHS54_TO_WAS54,OPEN_CONNECTIONS_FROM_WAS_TO_LOADBALANCER,LINUX2_JVM_CPUUSAGE","Txn_HPORDM_Total,Txn_HACCBAL_AvgRespTime,Txn_HACCBAL_SlowPercentage,Txn_HDDC_SlowPercentage,Txn_HICTM_SlowPercentage,Txn_TM_Total,Txn_HPBP_SlowPercentage,Txn_TM_AvgRespTime,Txn_PISP_SlowPercentage,Txn_HICHB_Total,Txn_TM_SlowPercentage,Txn_PISP_AvgRespTime,Txn_HPORDM_AvgRespTime,Txn_HDDC_AvgRespTime,Txn_HPORDM_SlowPercentage,Txn_LOGOUT_SlowPercentage,Txn_LOGOUT_AvgRespTime,Txn_LOGIN_SlowPercentage,Txn_LOGIN_AvgRespTime,Txn_HUPM_SlowPercentage,Txn_HUPM_AvgRespTime,Txn_HDTPRPT_AvgRespTime,Txn_HDTPRPT_SlowPercentage,Txn_HPBP_AvgRespTime,Txn_HDDMI_SlowPercentage","1.000,1.000,1.000,0.756,0.756,0.655,0.655,0.655,-0.143,-0.143,-0.143,-1.000,-1.000,-1.000,-1.000","0.756,0.756,0.756,0.756,0.756,0.756,0.655,0.655,0.655,0.655,0.655,0.655,0.655,0.545,-0.143,-0.143,-0.143,-0.143,-0.143,-0.143,-0.143,-1.000,-1.000,-1.000,-1.000"
LINUX2_EJB_METHODRESPONSE_TIME,"LINUX3_CPU_LOAD,LINUX3_TOTAL_REQUESTS,LINUX14_CACHE_HITRATIO,LINUX2_JVM_HEAPSIZE,OPEN_CONNECTIONS_FROM_WAS_TO_DB,LINUX2_THREADPOOL_POOLSIZE,LINUX3_TOTAL_ACCESSES,LINUX3_TOTAL_KBYTES_SERVED,OPEN_CONNECTIONS_BETWEEN_IHS52_TO_WAS52,LINUX2_THREADPOOL_ACTIVECOUNT,LINUX3_BUSY_WORKERS,OPEN_CONNECTIONS_BETWEEN_IHS53_TO_WAS53,OPEN_CONNECTIONS_BETWEEN_IHS54_TO_WAS54,OPEN_CONNECTIONS_FROM_WAS_TO_LOADBALANCER,LINUX2_JVM_CPUUSAGE","Txn_HPORDM_Total,Txn_HACCBAL_AvgRespTime,Txn_HACCBAL_SlowPercentage,Txn_HDDC_SlowPercentage,Txn_HICTM_SlowPercentage,Txn_TM_Total,Txn_HPBP_SlowPercentage,Txn_TM_AvgRespTime,Txn_PISP_SlowPercentage,Txn_HICHB_Total,Txn_TM_SlowPercentage,Txn_PISP_AvgRespTime,Txn_HPORDM_AvgRespTime,Txn_HDDC_AvgRespTime,Txn_HPORDM_SlowPercentage,Txn_LOGOUT_SlowPercentage,Txn_LOGOUT_AvgRespTime,Txn_LOGIN_SlowPercentage,Txn_LOGIN_AvgRespTime,Txn_HUPM_SlowPercentage,Txn_HUPM_AvgRespTime,Txn_HDTPRPT_AvgRespTime,Txn_HDTPRPT_SlowPercentage,Txn_HPBP_AvgRespTime,Txn_HDDMI_SlowPercentage","1.000,1.000,1.000,0.756,0.756,0.655,0.655,0.655,-0.143,-0.143,-0.143,-1.000,-1.000,-1.000,-1.000","0.756,0.756,0.756,0.756,0.756,0.756,0.655,0.655,0.655,0.655,0.655,0.655,0.655,0.545,-0.143,-0.143,-0.143,-0.143,-0.143,-0.143,-0.143,-1.000,-1.000,-1.000,-1.000"
LINUX2_JVM_CPUUSAGE,"OPEN_CONNECTIONS_BETWEEN_IHS53_TO_WAS53,OPEN_CONNECTIONS_BETWEEN_IHS54_TO_WAS54,OPEN_CONNECTIONS_FROM_WAS_TO_LOADBALANCER,LINUX3_BUSY_WORKERS,LINUX2_THREADPOOL_ACTIVECOUNT,OPEN_CONNECTIONS_BETWEEN_IHS52_TO_WAS52,LINUX3_TOTAL_KBYTES_SERVED,LINUX2_THREADPOOL_POOLSIZE,LINUX3_TOTAL_ACCESSES,LINUX2_JVM_HEAPSIZE,OPEN_CONNECTIONS_FROM_WAS_TO_DB,LINUX14_CACHE_HITRATIO,LINUX3_TOTAL_REQUESTS,LINUX3_CPU_LOAD,LINUX2_EJB_METHODRESPONSE_TIME","Txn_HDDMI_SlowPercentage,Txn_HDTPRPT_AvgRespTime,Txn_HDTPRPT_SlowPercentage,Txn_HPBP_AvgRespTime,Txn_LOGIN_AvgRespTime,Txn_LOGOUT_AvgRespTime,Txn_HUPM_SlowPercentage,Txn_LOGOUT_SlowPercentage,Txn_HPORDM_SlowPercentage,Txn_LOGIN_SlowPercentage,Txn_HUPM_AvgRespTime,Txn_HDDC_AvgRespTime,Txn_HPBP_SlowPercentage,Txn_HICHB_Total,Txn_HPORDM_AvgRespTime,Txn_TM_SlowPercentage,Txn_PISP_AvgRespTime,Txn_PISP_SlowPercentage,Txn_TM_AvgRespTime,Txn_TM_Total,Txn_HACCBAL_AvgRespTime,Txn_HACCBAL_SlowPercentage,Txn_HDDC_SlowPercentage,Txn_HICTM_SlowPercentage,Txn_HPORDM_Total","1.000,1.000,1.000,0.143,0.143,0.143,-0.655,-0.655,-0.655,-0.756,-0.756,-1.000,-1.000,-1.000,-1.000","1.000,1.000,1.000,1.000,0.143,0.143,0.143,0.143,0.143,0.143,0.143,-0.545,-0.655,-0.655,-0.655,-0.655,-0.655,-0.655,-0.655,-0.756,-0.756,-0.756,-0.756,-0.756,-0.756"
LINUX2_JVM_HEAPSIZE,"OPEN_CONNECTIONS_FROM_WAS_TO_DB,LINUX2_EJB_METHODRESPONSE_TIME,LINUX3_CPU_LOAD,LINUX3_TOTAL_REQUESTS,LINUX14_CACHE_HITRATIO,LINUX2_THREADPOOL_POOLSIZE,LINUX3_TOTAL_ACCESSES,LINUX3_TOTAL_KBYTES_SERVED,OPEN_CONNECTIONS_BETWEEN_IHS52_TO_WAS52,LINUX2_JVM_CPUUSAGE,LINUX2_THREADPOOL_ACTIVECOUNT,LINUX3_BUSY_WORKERS,OPEN_CONNECTIONS_BETWEEN_IHS54_TO_WAS54,OPEN_CONNECTIONS_BETWEEN_IHS53_TO_WAS53,OPEN_CONNECTIONS_FROM_WAS_TO_LOADBALANCER","Txn_TM_Total,Txn_HICTM_SlowPercentage,Txn_HACCBAL_AvgRespTime,Txn_HACCBAL_SlowPercentage,Txn_HDDC_SlowPercentage,Txn_HPORDM_Total,Txn_HDDC_AvgRespTime,Txn_HPORDM_AvgRespTime,Txn_TM_AvgRespTime,Txn_HICHB_Total,Txn_PISP_SlowPercentage,Txn_TM_SlowPercentage,Txn_PISP_AvgRespTime,Txn_HPBP_SlowPercentage,Txn_LOGOUT_SlowPercentage,Txn_LOGOUT_AvgRespTime,Txn_LOGIN_SlowPercentage,Txn_LOGIN_AvgRespTime,Txn_HUPM_SlowPercentage,Txn_HUPM_AvgRespTime,Txn_HDTPRPT_AvgRespTime,Txn_HDTPRPT_SlowPercentage,Txn_HPORDM_SlowPercentage,Txn_HPBP_AvgRespTime,Txn_HDDMI_SlowPercentage","1.000,0.756,0.756,0.756,0.756,0.000,0.000,0.000,-0.756,-0.756,-0.756,-0.756,-0.756,-0.756,-0.756","1.000,1.000,1.000,1.000,1.000,1.000,0.961,0.000,0.000,0.000,0.000,0.000,0.000,0.000,-0.756,-0.756,-0.756,-0.756,-0.756,-0.756,-0.756,-0.756,-0.756,-0.756,-0.756"
LINUX2_THREADPOOL_ACTIVECOUNT,"OPEN_CONNECTIONS_BETWEEN_IHS52_TO_WAS52,LINUX3_BUSY_WORKERS,LINUX3_TOTAL_KBYTES_SERVED,LINUX3_TOTAL_ACCESSES,LINUX2_THREADPOOL_POOLSIZE,OPEN_CONNECTIONS_BETWEEN_IHS54_TO_WAS54,OPEN_CONNECTIONS_FROM_WAS_TO_LOADBALANCER,OPEN_CONNECTIONS_BETWEEN_IHS53_TO_WAS53,LINUX2_JVM_CPUUSAGE,LINUX3_CPU_LOAD,LINUX2_EJB_METHODRESPONSE_TIME,LINUX14_CACHE_HITRATIO,LINUX3_TOTAL_REQUESTS,OPEN_CONNECTIONS_FROM_WAS_TO_DB,LINUX2_JVM_HEAPSIZE","Txn_LOGOUT_SlowPercentage,Txn_LOGOUT_AvgRespTime,Txn_LOGIN_SlowPercentage,Txn_LOGIN_AvgRespTime,Txn_HUPM_SlowPercentage,Txn_HUPM_AvgRespTime,Txn_HPORDM_SlowPercentage,Txn_TM_SlowPercentage,Txn_HICHB_Total,Txn_HPBP_SlowPercentage,Txn_HPORDM_AvgRespTime,Txn_PISP_AvgRespTime,Txn_PISP_SlowPercentage,Txn_TM_AvgRespTime,Txn_HDDMI_SlowPercentage,Txn_HDTPRPT_AvgRespTime,Txn_HDTPRPT_SlowPercentage,Txn_HPBP_AvgRespTime,Txn_HACCBAL_AvgRespTime,Txn_HACCBAL_SlowPercentage,Txn_HDDC_SlowPercentage,Txn_HICTM_SlowPercentage,Txn_HPORDM_Total,Txn_TM_Total,Txn_HDDC_AvgRespTime","1.000,1.000,0.655,0.655,0.655,0.143,0.143,0.143,0.143,-0.143,-0.143,-0.143,-0.143,-0.756,-0.756","1.000,1.000,1.000,1.000,1.000,1.000,1.000,0.655,0.655,0.655,0.655,0.655,0.655,0.655,0.143,0.143,0.143,0.143,-0.756,-0.756,-0.756,-0.756,-0.756,-0.756,-0.908"
LINUX2_THREADPOOL_POOLSIZE,"LINUX3_TOTAL_KBYTES_SERVED,LINUX3_TOTAL_ACCESSES,LINUX3_BUSY_WORKERS,LINUX2_THREADPOOL_ACTIVECOUNT,OPEN_CONNECTIONS_BETWEEN_IHS52_TO_WAS52,LINUX2_EJB_METHODRESPONSE_TIME,LINUX3_CPU_LOAD,LINUX3_TOTAL_REQUESTS,LINUX14_CACHE_HITRATIO,OPEN_CONNECTIONS_FROM_WAS_TO_DB,LINUX2_JVM_HEAPSIZE,OPEN_CONNECTIONS_BETWEEN_IHS54_TO_WAS54,OPEN_CONNECTIONS_BETWEEN_IHS53_TO_WAS53,OPEN_CONNECTIONS_FROM_WAS_TO_LOADBALANCER,LINUX2_JVM_CPUUSAGE","Txn_HPORDM_AvgRespTime,Txn_HPBP_SlowPercentage,Txn_TM_AvgRespTime,Txn_PISP_SlowPercentage,Txn_PISP_AvgRespTime,Txn_TM_SlowPercentage,Txn_HICHB_Total,Txn_HPORDM_SlowPercentage,Txn_HUPM_AvgRespTime,Txn_HUPM_SlowPercentage,Txn_LOGIN_AvgRespTime,Txn_LOGIN_SlowPercentage,Txn_LOGOUT_AvgRespTime,Txn_LOGOUT_SlowPercentage,Txn_TM_Total,Txn_HACCBAL_AvgRespTime,Txn_HACCBAL_SlowPercentage,Txn_HDDC_SlowPercentage,Txn_HICTM_SlowPercentage,Txn_HPORDM_Total,Txn_HDDC_AvgRespTime,Txn_HDTPRPT_AvgRespTime,Txn_HDTPRPT_SlowPercentage,Txn_HPBP_AvgRespTime,Txn_HDDMI_SlowPercentage","1.000,1.000,0.655,0.655,0.655,0.655,0.655,0.655,0.655,0.000,0.000,-0.655,-0.655,-0.655,-0.655","1.000,1.000,1.000,1.000,1.000,1.000,1.000,0.655,0.655,0.655,0.655,0.655,0.655,0.655,0.000,0.000,0.000,0.000,0.000,0.000,-0.277,-0.655,-0.655,-0.655,-0.655"
LINUX3_BUSY_WORKERS,"OPEN_CONNECTIONS_BETWEEN_IHS52_TO_WAS52,LINUX2_THREADPOOL_ACTIVECOUNT,LINUX3_TOTAL_KBYTES_SERVED,LINUX3_TOTAL_ACCESSES,LINUX2_THREADPOOL_POOLSIZE,OPEN_CONNECTIONS_BETWEEN_IHS54_TO_WAS54,OPEN_CONNECTIONS_FROM_WAS_TO_LOADBALANCER,OPEN_CONNECTIONS_BETWEEN_IHS53_TO_WAS53,LINUX2_JVM_CPUUSAGE,LINUX3_CPU_LOAD,LINUX2_EJB_METHODRESPONSE_TIME,LINUX14_CACHE_HITRATIO,LINUX3_TOTAL_REQUESTS,OPEN_CONNECTIONS_FROM_WAS_TO_DB,LINUX2_JVM_HEAPSIZE","Txn_LOGOUT_SlowPercentage,Txn_LOGOUT_AvgRespTime,Txn_LOGIN_SlowPercentage,Txn_LOGIN_AvgRespTime,Txn_HUPM_SlowPercentage,Txn_HUPM_AvgRespTime,Txn_HPORDM_SlowPercentage,Txn_TM_SlowPercentage,Txn_HICHB_Total,Txn_HPBP_SlowPercentage,Txn_HPORDM_AvgRespTime,Txn_PISP_AvgRespTime,Txn_PISP_SlowPercentage,Txn_TM_AvgRespTime,Txn_HDDMI_SlowPercentage,Txn_HDTPRPT_AvgRespTime,Txn_HDTPRPT_SlowPercentage,Txn_HPBP_AvgRespTime,Txn_HACCBAL_AvgRespTime,Txn_HACCBAL_SlowPercentage,Txn_HDDC_SlowPercentage,Txn_HICTM_SlowPercentage,Txn_HPORDM_Total,Txn_TM_Total,Txn_HDDC_AvgRespTime","1.000,1.000,0.655,0.655,0.655,0.143,0.143,0.143,0.143,-0.143,-0.143,-0.143,-0.143,-0.756,-0.756","1.000,1.000,1.000,1.000,1.000,1.000,1.000,0.655,0.655,0.655,0.655,0.655,0.655,0.655,0.143,0.143,0.143,0.143,-0.756,-0.756,-0.756,-0.756,-0.756,-0.756,-0.908"
LINUX3_CPU_LOAD,"LINUX2_EJB_METHODRESPONSE_TIME,LINUX3_TOTAL_REQUESTS,LINUX14_CACHE_HITRATIO,LINUX2_JVM_HEAPSIZE,OPEN_CONNECTIONS_FROM_WAS_TO_DB,LINUX2_THREADPOOL_POOLSIZE,LINUX3_TOTAL_ACCESSES,LINUX3_TOTAL_KBYTES_SERVED,OPEN_CONNECTIONS_BETWEEN_IHS52_TO_WAS52,LINUX2_THREADPOOL_ACTIVECOUNT,LINUX3_BUSY_WORKERS,OPEN_CONNECTIONS_BETWEEN_IHS53_TO_WAS53,OPEN_CONNECTIONS_BETWEEN_IHS54_TO_WAS54,OPEN_CONNECTIONS_FROM_WAS_TO_LOADBALANCER,LINUX2_JVM_CPUUSAGE","Txn_HPORDM_Total,Txn_HACCBAL_AvgRespTime,Txn_HACCBAL_SlowPercentage,Txn_HDDC_SlowPercentage,Txn_HICTM_SlowPercentage,Txn_TM_Total,Txn_HPBP_SlowPercentage,Txn_TM_AvgRespTime,Txn_PISP_SlowPercentage,Txn_HICHB_Total,Txn_TM_SlowPercentage,Txn_PISP_AvgRespTime,Txn_HPORDM_AvgRespTime,Txn_HDDC_AvgRespTime,Txn_HPORDM_SlowPercentage,Txn_LOGOUT_SlowPercentage,Txn_LOGOUT_AvgRespTime,Txn_LOGIN_SlowPercentage,Txn_LOGIN_AvgRespTime,Txn_HUPM_SlowPercentage,Txn_HUPM_AvgRespTime,Txn_HDTPRPT_AvgRespTime,Txn_HDTPRPT_SlowPercentage,Txn_HPBP_AvgRespTime,Txn_HDDMI_SlowPercentage","1.000,1.000,1.000,0.756,0.756,0.655,0.655,0.655,-0.143,-0.143,-0.143,-1.000,-1.000,-1.000,-1.000","0.756,0.756,0.756,0.756,0.756,0.756,0.655,0.655,0.655,0.655,0.655,0.655,0.655,0.545,-0.143,-0.143,-0.143,-0.143,-0.143,-0.143,-0.143,-1.000,-1.000,-1.000,-1.000"
LINUX3_TOTAL_ACCESSES,"LINUX3_TOTAL_KBYTES_SERVED,LINUX2_THREADPOOL_POOLSIZE,LINUX3_BUSY_WORKERS,LINUX2_THREADPOOL_ACTIVECOUNT,OPEN_CONNECTIONS_BETWEEN_IHS52_TO_WAS52,LINUX2_EJB_METHODRESPONSE_TIME,LINUX3_CPU_LOAD,LINUX3_TOTAL_REQUESTS,LINUX14_CACHE_HITRATIO,OPEN_CONNECTIONS_FROM_WAS_TO_DB,LINUX2_JVM_HEAPSIZE,OPEN_CONNECTIONS_BETWEEN_IHS54_TO_WAS54,OPEN_CONNECTIONS_BETWEEN_IHS53_TO_WAS53,OPEN_CONNECTIONS_FROM_WAS_TO_LOADBALANCER,LINUX2_JVM_CPUUSAGE","Txn_HPORDM_AvgRespTime,Txn_HPBP_SlowPercentage,Txn_TM_AvgRespTime,Txn_PISP_SlowPercentage,Txn_PISP_AvgRespTime,Txn_TM_SlowPercentage,Txn_HICHB_Total,Txn_HPORDM_SlowPercentage,Txn_HUPM_AvgRespTime,Txn_HUPM_SlowPercentage,Txn_LOGIN_AvgRespTime,Txn_LOGIN_SlowPercentage,Txn_LOGOUT_AvgRespTime,Txn_LOGOUT_SlowPercentage,Txn_TM_Total,Txn_HACCBAL_AvgRespTime,Txn_HACCBAL_SlowPercentage,Txn_HDDC_SlowPercentage,Txn_HICTM_SlowPercentage,Txn_HPORDM_Total,Txn_HDDC_AvgRespTime,Txn_HDTPRPT_AvgRespTime,Txn_HDTPRPT_SlowPercentage,Txn_HPBP_AvgRespTime,Txn_HDDMI_SlowPercentage","1.000,1.000,0.655,0.655,0.655,0.655,0.655,0.655,0.655,0.000,0.000,-0.655,-0.655,-0.655,-0.655","1.000,1.000,1.000,1.000,1.000,1.000,1.000,0.655,0.655,0.655,0.655,0.655,0.655,0.655,0.000,0.000,0.000,0.000,0.000,0.000,-0.277,-0.655,-0.655,-0.655,-0.655"
LINUX3_TOTAL_KBYTES_SERVED,"LINUX3_TOTAL_ACCESSES,LINUX2_THREADPOOL_POOLSIZE,LINUX3_BUSY_WORKERS,LINUX2_THREADPOOL_ACTIVECOUNT,OPEN_CONNECTIONS_BETWEEN_IHS52_TO_WAS52,LINUX2_EJB_METHODRESPONSE_TIME,LINUX3_CPU_LOAD,LINUX3_TOTAL_REQUESTS,LINUX14_CACHE_HITRATIO,OPEN_CONNECTIONS_FROM_WAS_TO_DB,LINUX2_JVM_HEAPSIZE,OPEN_CONNECTIONS_BETWEEN_IHS54_TO_WAS54,OPEN_CONNECTIONS_BETWEEN_IHS53_TO_WAS53,OPEN_CONNECTIONS_FROM_WAS_TO_LOADBALANCER,LINUX2_JVM_CPUUSAGE","Txn_HPORDM_AvgRespTime,Txn_HPBP_SlowPercentage,Txn_TM_AvgRespTime,Txn_PISP_SlowPercentage,Txn_PISP_AvgRespTime,Txn_TM_SlowPercentage,Txn_HICHB_Total,Txn_HPORDM_SlowPercentage,Txn_HUPM_AvgRespTime,Txn_HUPM_SlowPercentage,Txn_LOGIN_AvgRespTime,Txn_LOGIN_SlowPercentage,Txn_LOGOUT_AvgRespTime,Txn_LOGOUT_SlowPercentage,Txn_TM_Total,Txn_HACCBAL_AvgRespTime,Txn_HACCBAL_SlowPercentage,Txn_HDDC_SlowPercentage,Txn_HICTM_SlowPercentage,Txn_HPORDM_Total,Txn_HDDC_AvgRespTime,Txn_HDTPRPT_AvgRespTime,Txn_HDTPRPT_SlowPercentage,Txn_HPBP_AvgRespTime,Txn_HDDMI_SlowPercentage","1.000,1.000,0.655,0.655,0.655,0.655,0.655,0.655,0.655,0.000,0.000,-0.655,-0.655,-0.655,-0.655","1.000,1.000,1.000,1.000,1.000,1.000,1.000,0.655,0.655,0.655,0.655,0.655,0.655,0.655,0.000,0.000,0.000,0.000,0.000,0.000,-0.277,-0.655,-0.655,-0.655,-0.655"
LINUX3_TOTAL_REQUESTS,"LINUX2_EJB_METHODRESPONSE_TIME,LINUX3_CPU_LOAD,LINUX14_CACHE_HITRATIO,LINUX2_JVM_HEAPSIZE,OPEN_CONNECTIONS_FROM_WAS_TO_DB,LINUX2_THREADPOOL_POOLSIZE,LINUX3_TOTAL_ACCESSES,LINUX3_TOTAL_KBYTES_SERVED,OPEN_CONNECTIONS_BETWEEN_IHS52_TO_WAS52,LINUX2_THREADPOOL_ACTIVECOUNT,LINUX3_BUSY_WORKERS,OPEN_CONNECTIONS_BETWEEN_IHS53_TO_WAS53,OPEN_CONNECTIONS_BETWEEN_IHS54_TO_WAS54,OPEN_CONNECTIONS_FROM_WAS_TO_LOADBALANCER,LINUX2_JVM_CPUUSAGE","Txn_HPORDM_Total,Txn_HACCBAL_AvgRespTime,Txn_HACCBAL_SlowPercentage,Txn_HDDC_SlowPercentage,Txn_HICTM_SlowPercentage,Txn_TM_Total,Txn_HPBP_SlowPercentage,Txn_TM_AvgRespTime,Txn_PISP_SlowPercentage,Txn_HICHB_Total,Txn_TM_SlowPercentage,Txn_PISP_AvgRespTime,Txn_HPORDM_AvgRespTime,Txn_HDDC_AvgRespTime,Txn_HPORDM_SlowPercentage,Txn_LOGOUT_SlowPercentage,Txn_LOGOUT_AvgRespTime,Txn_LOGIN_SlowPercentage,Txn_LOGIN_AvgRespTime,Txn_HUPM_SlowPercentage,Txn_HUPM_AvgRespTime,Txn_HDTPRPT_AvgRespTime,Txn_HDTPRPT_SlowPercentage,Txn_HPBP_AvgRespTime,Txn_HDDMI_SlowPercentage","1.000,1.000,1.000,0.756,0.756,0.655,0.655,0.655,-0.143,-0.143,-0.143,-1.000,-1.000,-1.000,-1.000","0.756,0.756,0.756,0.756,0.756,0.756,0.655,0.655,0.655,0.655,0.655,0.655,0.655,0.545,-0.143,-0.143,-0.143,-0.143,-0.143,-0.143,-0.143,-1.000,-1.000,-1.000,-1.000"
OPEN_CONNECTIONS_BETWEEN_IHS52_TO_WAS52,"LINUX2_THREADPOOL_ACTIVECOUNT,LINUX3_BUSY_WORKERS,LINUX3_TOTAL_KBYTES_SERVED,LINUX3_TOTAL_ACCESSES,LINUX2_THREADPOOL_POOLSIZE,OPEN_CONNECTIONS_BETWEEN_IHS54_TO_WAS54,OPEN_CONNECTIONS_FROM_WAS_TO_LOADBALANCER,OPEN_CONNECTIONS_BETWEEN_IHS53_TO_WAS53,LINUX2_JVM_CPUUSAGE,LINUX3_CPU_LOAD,LINUX2_EJB_METHODRESPONSE_TIME,LINUX14_CACHE_HITRATIO,LINUX3_TOTAL_REQUESTS,OPEN_CONNECTIONS_FROM_WAS_TO_DB,LINUX2_JVM_HEAPSIZE","Txn_LOGOUT_SlowPercentage,Txn_LOGOUT_AvgRespTime,Txn_LOGIN_SlowPercentage,Txn_LOGIN_AvgRespTime,Txn_HUPM_SlowPercentage,Txn_HUPM_AvgRespTime,Txn_HPORDM_SlowPercentage,Txn_TM_SlowPercentage,Txn_HICHB_Total,Txn_HPBP_SlowPercentage,Txn_HPORDM_AvgRespTime,Txn_PISP_AvgRespTime,Txn_PISP_SlowPercentage,Txn_TM_AvgRespTime,Txn_HDDMI_SlowPercentage,Txn_HDTPRPT_AvgRespTime,Txn_HDTPRPT_SlowPercentage,Txn_HPBP_AvgRespTime,Txn_HACCBAL_AvgRespTime,Txn_HACCBAL_SlowPercentage,Txn_HDDC_SlowPercentage,Txn_HICTM_SlowPercentage,Txn_HPORDM_Total,Txn_TM_Total,Txn_HDDC_AvgRespTime","1.000,1.000,0.655,0.655,0.655,0.143,0.143,0.143,0.143,-0.143,-0.143,-0.143,-0.143,-0.756,-0.756","1.000,1.000,1.000,1.000,1.000,1.000,1.000,0.655,0.655,0.655,0.655,0.655,0.655,0.655,0.143,0.143,0.143,0.143,-0.756,-0.756,-0.756,-0.756,-0.756,-0.756,-0.908"
OPEN_CONNECTIONS_BETWEEN_IHS53_TO_WAS53,"LINUX2_JVM_CPUUSAGE,OPEN_CONNECTIONS_BETWEEN_IHS54_TO_WAS54,OPEN_CONNECTIONS_FROM_WAS_TO_LOADBALANCER,LINUX3_BUSY_WORKERS,LINUX2_THREADPOOL_ACTIVECOUNT,OPEN_CONNECTIONS_BETWEEN_IHS52_TO_WAS52,LINUX3_TOTAL_KBYTES_SERVED,LINUX2_THREADPOOL_POOLSIZE,LINUX3_TOTAL_ACCESSES,LINUX2_JVM_HEAPSIZE,OPEN_CONNECTIONS_FROM_WAS_TO_DB,LINUX14_CACHE_HITRATIO,LINUX3_TOTAL_REQUESTS,LINUX3_CPU_LOAD,LINUX2_EJB_METHODRESPONSE_TIME","Txn_HDDMI_SlowPercentage,Txn_HDTPRPT_AvgRespTime,Txn_HDTPRPT_SlowPercentage,Txn_HPBP_AvgRespTime,Txn_LOGIN_AvgRespTime,Txn_LOGOUT_AvgRespTime,Txn_HUPM_SlowPercentage,Txn_LOGOUT_SlowPercentage,Txn_HPORDM_SlowPercentage,Txn_LOGIN_SlowPercentage,Txn_HUPM_AvgRespTime,Txn_HDDC_AvgRespTime,Txn_HPBP_SlowPercentage,Txn_HICHB_Total,Txn_HPORDM_AvgRespTime,Txn_TM_SlowPercentage,Txn_PISP_AvgRespTime,Txn_PISP_SlowPercentage,Txn_TM_AvgRespTime,Txn_TM_Total,Txn_HACCBAL_AvgRespTime,Txn_HACCBAL_SlowPercentage,Txn_HDDC_SlowPercentage,Txn_HICTM_SlowPercentage,Txn_HPORDM_Total","1.000,1.000,1.000,0.143,0.143,0.143,-0.655,-0.655,-0.655,-0.756,-0.756,-1.000,-1.000,-1.000,-1.000","1.000,1.000,1.000,1.000,0.143,0.143,0.143,0.143,0.143,0.143,0.143,-0.545,-0.655,-0.655,-0.655,-0.655,-0.655,-0.655,-0.655,-0.756,-0.756,-0.756,-0.756,-0.756,-0.756"
OPEN_CONNECTIONS_BETWEEN_IHS54_TO_WAS54,"LINUX2_JVM_CPUUSAGE,OPEN_CONNECTIONS_BETWEEN_IHS53_TO_WAS53,OPEN_CONNECTIONS_FROM_WAS_TO_LOADBALANCER,LINUX3_BUSY_WORKERS,LINUX2_THREADPOOL_ACTIVECOUNT,OPEN_CONNECTIONS_BETWEEN_IHS52_TO_WAS52,LINUX3_TOTAL_KBYTES_SERVED,LINUX2_THREADPOOL_POOLSIZE,LINUX3_TOTAL_ACCESSES,LINUX2_JVM_HEAPSIZE,OPEN_CONNECTIONS_FROM_WAS_TO_DB,LINUX14_CACHE_HITRATIO,LINUX3_TOTAL_REQUESTS,LINUX3_CPU_LOAD,LINUX2_EJB_METHODRESPONSE_TIME","Txn_HDDMI_SlowPercentage,Txn_HDTPRPT_AvgRespTime,Txn_HDTPRPT_SlowPercentage,Txn_HPBP_AvgRespTime,Txn_LOGIN_AvgRespTime,Txn_LOGOUT_AvgRespTime,Txn_HUPM_SlowPercentage,Txn_LOGOUT_SlowPercentage,Txn_HPORDM_SlowPercentage,Txn_LOGIN_SlowPercentage,Txn_HUPM_AvgRespTime,Txn_HDDC_AvgRespTime,Txn_HPBP_SlowPercentage,Txn_HICHB_Total,Txn_HPORDM_AvgRespTime,Txn_TM_SlowPercentage,Txn_PISP_AvgRespTime,Txn_PISP_SlowPercentage,Txn_TM_AvgRespTime,Txn_TM_Total,Txn_HACCBAL_AvgRespTime,Txn_HACCBAL_SlowPercentage,Txn_HDDC_SlowPercentage,Txn_HICTM_SlowPercentage,Txn_HPORDM_Total","1.000,1.000,1.000,0.143,0.143,0.143,-0.655,-0.655,-0.655,-0.756,-0.756,-1.000,-1.000,-1.000,-1.000","1.000,1.000,1.000,1.000,0.143,0.143,0.143,0.143,0.143,0.143,0.143,-0.545,-0.655,-0.655,-0.655,-0.655,-0.655,-0.655,-0.655,-0.756,-0.756,-0.756,-0.756,-0.756,-0.756"
OPEN_CONNECTIONS_FROM_WAS_TO_DB,"LINUX2_JVM_HEAPSIZE,LINUX2_EJB_METHODRESPONSE_TIME,LINUX3_CPU_LOAD,LINUX3_TOTAL_REQUESTS,LINUX14_CACHE_HITRATIO,LINUX2_THREADPOOL_POOLSIZE,LINUX3_TOTAL_ACCESSES,LINUX3_TOTAL_KBYTES_SERVED,OPEN_CONNECTIONS_BETWEEN_IHS52_TO_WAS52,LINUX2_JVM_CPUUSAGE,LINUX2_THREADPOOL_ACTIVECOUNT,LINUX3_BUSY_WORKERS,OPEN_CONNECTIONS_BETWEEN_IHS54_TO_WAS54,OPEN_CONNECTIONS_BETWEEN_IHS53_TO_WAS53,OPEN_CONNECTIONS_FROM_WAS_TO_LOADBALANCER","Txn_TM_Total,Txn_HICTM_SlowPercentage,Txn_HACCBAL_AvgRespTime,Txn_HACCBAL_SlowPercentage,Txn_HDDC_SlowPercentage,Txn_HPORDM_Total,Txn_HDDC_AvgRespTime,Txn_HPORDM_AvgRespTime,Txn_TM_AvgRespTime,Txn_HICHB_Total,Txn_PISP_SlowPercentage,Txn_TM_SlowPercentage,Txn_PISP_AvgRespTime,Txn_HPBP_SlowPercentage,Txn_LOGOUT_SlowPercentage,Txn_LOGOUT_AvgRespTime,Txn_LOGIN_SlowPercentage,Txn_LOGIN_AvgRespTime,Txn_HUPM_SlowPercentage,Txn_HUPM_AvgRespTime,Txn_HDTPRPT_AvgRespTime,Txn_HDTPRPT_SlowPercentage,Txn_HPORDM_SlowPercentage,Txn_HPBP_AvgRespTime,Txn_HDDMI_SlowPercentage","1.000,0.756,0.756,0.756,0.756,0.000,0.000,0.000,-0.756,-0.756,-0.756,-0.756,-0.756,-0.756,-0.756","1.000,1.000,1.000,1.000,1.000,1.000,0.961,0.000,0.000,0.000,0.000,0.000,0.000,0.000,-0.756,-0.756,-0.756,-0.756,-0.756,-0.756,-0.756,-0.756,-0.756,-0.756,-0.756"
OPEN_CONNECTIONS_FROM_WAS_TO_LOADBALANCER,"LINUX2_JVM_CPUUSAGE,OPEN_CONNECTIONS_BETWEEN_IHS53_TO_WAS53,OPEN_CONNECTIONS_BETWEEN_IHS54_TO_WAS54,LINUX3_BUSY_WORKERS,LINUX2_THREADPOOL_ACTIVECOUNT,OPEN_CONNECTIONS_BETWEEN_IHS52_TO_WAS52,LINUX3_TOTAL_KBYTES_SERVED,LINUX2_THREADPOOL_POOLSIZE,LINUX3_TOTAL_ACCESSES,LINUX2_JVM_HEAPSIZE,OPEN_CONNECTIONS_FROM_WAS_TO_DB,LINUX14_CACHE_HITRATIO,LINUX3_TOTAL_REQUESTS,LINUX3_CPU_LOAD,LINUX2_EJB_METHODRESPONSE_TIME","Txn_HDDMI_SlowPercentage,Txn_HDTPRPT_AvgRespTime,Txn_HDTPRPT_SlowPercentage,Txn_HPBP_AvgRespTime,Txn_LOGIN_AvgRespTime,Txn_LOGOUT_AvgRespTime,Txn_HUPM_SlowPercentage,Txn_LOGOUT_SlowPercentage,Txn_HPORDM_SlowPercentage,Txn_LOGIN_SlowPercentage,Txn_HUPM_AvgRespTime,Txn_HDDC_AvgRespTime,Txn_HPBP_SlowPercentage,Txn_HICHB_Total,Txn_HPORDM_AvgRespTime,Txn_TM_SlowPercentage,Txn_PISP_AvgRespTime,Txn_PISP_SlowPercentage,Txn_TM_AvgRespTime,Txn_TM_Total,Txn_HACCBAL_AvgRespTime,Txn_HACCBAL_SlowPercentage,Txn_HDDC_SlowPercentage,Txn_HICTM_SlowPercentage,Txn_HPORDM_Total","1.000,1.000,1.000,0.143,0.143,0.143,-0.655,-0.655,-0.655,-0.756,-0.756,-1.000,-1.000,-1.000,-1.000","1.000,1.000,1.000,1.000,0.143,0.143,0.143,0.143,0.143,0.143,0.143,-0.545,-0.655,-0.655,-0.655,-0.655,-0.655,-0.655,-0.655,-0.756,-0.756,-0.756,-0.756,-0.756,-0.756"
Txn_HACCBAL_AvgRespTime,"LINUX2_JVM_HEAPSIZE,OPEN_CONNECTIONS_FROM_WAS_TO_DB,LINUX2_EJB_METHODRESPONSE_TIME,LINUX3_CPU_LOAD,LINUX3_TOTAL_REQUESTS,LINUX14_CACHE_HITRATIO,LINUX2_THREADPOOL_POOLSIZE,LINUX3_TOTAL_ACCESSES,LINUX3_TOTAL_KBYTES_SERVED,OPEN_CONNECTIONS_BETWEEN_IHS52_TO_WAS52,LINUX2_JVM_CPUUSAGE,LINUX2_THREADPOOL_ACTIVECOUNT,LINUX3_BUSY_WORKERS,OPEN_CONNECTIONS_BETWEEN_IHS54_TO_WAS54,OPEN_CONNECTIONS_BETWEEN_IHS53_TO_WAS53,OPEN_CONNECTIONS_FROM_WAS_TO_LOADBALANCER","Txn_TM_Total,Txn_HICTM_SlowPercentage,Txn_HACCBAL_SlowPercentage,Txn_HDDC_SlowPercentage,Txn_HPORDM_Total,Txn_HDDC_AvgRespTime,Txn_HPORDM_AvgRespTime,Txn_TM_AvgRespTime,Txn_HICHB_Total,Txn_PISP_SlowPercentage,Txn_TM_SlowPercentage,Txn_PISP_AvgRespTime,Txn_HPBP_SlowPercentage,Txn_LOGOUT_SlowPercentage,Txn_LOGOUT_AvgRespTime,Txn_LOGIN_SlowPercentage,Txn_LOGIN_AvgRespTime,Txn_HUPM_SlowPercentage,Txn_HUPM_AvgRespTime,Txn_HDTPRPT_AvgRespTime,Txn_HDTPRPT_SlowPercentage,Txn_HPORDM_SlowPercentage,Txn_HPBP_AvgRespTime,Txn_HDDMI_SlowPercentage","1.000,1.000,0.756,0.756,0.756,0.756,0.000,0.000,0.000,-0.756,-0.756,-0.756,-0.756,-0.756,-0.756,-0.756","1.000,1.000,1.000,1.000,1.000,0.961,0.000,0.000,0.000,0.000,0.000,0.000,0.000,-0.756,-0.756,-0.756,-0.756,-0.756,-0.756,-0.756,-0.756,-0.756,-0.756,-0.756"
Txn_HACCBAL_SlowPercentage,"LINUX2_JVM_HEAPSIZE,OPEN_CONNECTIONS_FROM_WAS_TO_DB,LINUX2_EJB_METHODRESPONSE_TIME,LINUX3_CPU_LOAD,LINUX3_TOTAL_REQUESTS,LINUX14_CACHE_HITRATIO,LINUX2_THREADPOOL_POOLSIZE,LINUX3_TOTAL_ACCESSES,LINUX3_TOTAL_KBYTES_SERVED,OPEN_CONNECTIONS_BETWEEN_IHS52_TO_WAS52,LINUX2_JVM_CPUUSAGE,LINUX2_THREADPOOL_ACTIVECOUNT,LINUX3_BUSY_WORKERS,OPEN_CONNECTIONS_BETWEEN_IHS54_TO_WAS54,OPEN_CONNECTIONS_BETWEEN_IHS53_TO_WAS53,OPEN_CONNECTIONS_FROM_WAS_TO_LOADBALANCER","Txn_TM_Total,Txn_HICTM_SlowPercentage,Txn_HACCBAL_AvgRespTime,Txn_HDDC_SlowPercentage,Txn_HPORDM_Total,Txn_HDDC_AvgRespTime,Txn_HPORDM_AvgRespTime,Txn_TM_AvgRespTime,Txn_HICHB_Total,Txn_PISP_SlowPercentage,Txn_TM_SlowPercentage,Txn_PISP_AvgRespTime,Txn_HPBP_SlowPercentage,Txn_LOGOUT_SlowPercentage,Txn_LOGOUT_AvgRespTime,Txn_LOGIN_SlowPercentage,Txn_LOGIN_AvgRespTime,Txn_HUPM_SlowPercentage,Txn_HUPM_AvgRespTime,Txn_HDTPRPT_AvgRespTime,Txn_HDTPRPT_SlowPercentage,Txn_HPORDM_SlowPercentage,Txn_HPBP_AvgRespTime,Txn_HDDMI_SlowPercentage","1.000,1.000,0.756,0.756,0.756,0.756,0.000,0.000,0.000,-0.756,-0.756,-0.756,-0.756,-0.756,-0.756,-0.756","1.000,1.000,1.000,1.000,1.000,0.961,0.000,0.000,0.000,0.000,0.000,0.000,0.000,-0.756,-0.756,-0.756,-0.756,-0.756,-0.756,-0.756,-0.756,-0.756,-0.756,-0.756"
Txn_HDDC_AvgRespTime,"LINUX2_JVM_HEAPSIZE,OPEN_CONNECTIONS_FROM_WAS_TO_DB,LINUX2_EJB_METHODRESPONSE_TIME,LINUX3_CPU_LOAD,LINUX3_TOTAL_REQUESTS,LINUX14_CACHE_HITRATIO,LINUX2_THREADPOOL_POOLSIZE,LINUX3_TOTAL_ACCESSES,LINUX3_TOTAL_KBYTES_SERVED,LINUX2_JVM_CPUUSAGE,OPEN_CONNECTIONS_BETWEEN_IHS53_TO_WAS53,OPEN_CONNECTIONS_BETWEEN_IHS54_TO_WAS54,OPEN_CONNECTIONS_FROM_WAS_TO_LOADBALANCER,OPEN_CONNECTIONS_BETWEEN_IHS52_TO_WAS52,LINUX3_BUSY_WORKERS,LINUX2_THREADPOOL_ACTIVECOUNT","Txn_TM_Total,Txn_HICTM_SlowPercentage,Txn_HACCBAL_AvgRespTime,Txn_HACCBAL_SlowPercentage,Txn_HDDC_SlowPercentage,Txn_HPORDM_Total,Txn_HPORDM_AvgRespTime,Txn_HPBP_SlowPercentage,Txn_TM_AvgRespTime,Txn_HICHB_Total,Txn_PISP_SlowPercentage,Txn_TM_SlowPercentage,Txn_PISP_AvgRespTime,Txn_HDTPRPT_AvgRespTime,Txn_HDTPRPT_SlowPercentage,Txn_HPBP_AvgRespTime,Txn_HDDMI_SlowPercentage,Txn_LOGOUT_AvgRespTime,Txn_LOGIN_SlowPercentage,Txn_LOGOUT_SlowPercentage,Txn_LOGIN_AvgRespTime,Txn_HUPM_SlowPercentage,Txn_HUPM_AvgRespTime,Txn_HPORDM_SlowPercentage","0.961,0.961,0.545,0.545,0.545,0.545,-0.277,-0.277,-0.277,-0.545,-0.545,-0.545,-0.545,-0.908,-0.908,-0.908","0.961,0.961,0.961,0.961,0.961,0.961,-0.277,-0.277,-0.277,-0.277,-0.277,-0.277,-0.277,-0.545,-0.545,-0.545,-0.545,-0.908,-0.908,-0.908,-0.908,-0.908,-0.908,-0.908"
Txn_HDDC_SlowPercentage,"LINUX2_JVM_HEAPSIZE,OPEN_CONNECTIONS_FROM_WAS_TO_DB,LINUX2_EJB_METHODRESPONSE_TIME,LINUX3_CPU_LOAD,LINUX3_TOTAL_REQUESTS,LINUX14_CACHE_HITRATIO,LINUX2_THREADPOOL_POOLSIZE,LINUX3_TOTAL_ACCESSES,LINUX3_TOTAL_KBYTES_SERVED,OPEN_CONNECTIONS_BETWEEN_IHS52_TO_WAS52,LINUX2_JVM_CPUUSAGE,LINUX2_THREADPOOL_ACTIVECOUNT,LINUX3_BUSY_WORKERS,OPEN_CONNECTIONS_BETWEEN_IHS54_TO_WAS54,OPEN_CONNECTIONS_BETWEEN_IHS53_TO_WAS53,OPEN_CONNECTIONS_FROM_WAS_TO_LOADBALANCER","Txn_TM_Total,Txn_HICTM_SlowPercentage,Txn_HACCBAL_AvgRespTime,Txn_HACCBAL_SlowPercentage,Txn_HPORDM_Total,Txn_HDDC_AvgRespTime,Txn_HPORDM_AvgRespTime,Txn_TM_AvgRespTime,Txn_HICHB_Total,Txn_PISP_SlowPercentage,Txn_TM_SlowPercentage,Txn_PISP_AvgRespTime,Txn_HPBP_SlowPercentage,Txn_LOGOUT_SlowPercentage,Txn_LOGOUT_AvgRespTime,Txn_LOGIN_SlowPercentage,Txn_LOGIN_AvgRespTime,Txn_HUPM_SlowPercentage,Txn_HUPM_AvgRespTime,Txn_HDTPRPT_AvgRespTime,Txn_HDTPRPT_SlowPercentage,Txn_HPORDM_SlowPercentage,Txn_HPBP_AvgRespTime,Txn_HDDMI_SlowPercentage","1.000,1.000,0.756,0.756,0.756,0.756,0.000,0.000,0.000,-0.756,-0.756,-0.756,-0.756,-0.756,-0.756,-0.756","1.000,1.000,1.000,1.000,1.000,0.961,0.000,0.000,0.000,0.000,0.000,0.000,0.000,-0.756,-0.756,-0.756,-0.756,-0.756,-0.756,-0.756,-0.756,-0.756,-0.756,-0.756"
Txn_HDDMI_SlowPercentage,"LINUX2_JVM_CPUUSAGE,OPEN_CONNECTIONS_BETWEEN_IHS53_TO_WAS53,OPEN_CONNECTIONS_BETWEEN_IHS54_TO_WAS54,OPEN_CONNECTIONS_FROM_WAS_TO_LOADBALANCER,LINUX3_BUSY_WORKERS,LINUX2_THREADPOOL_ACTIVECOUNT,OPEN_CONNECTIONS_BETWEEN_IHS52_TO_WAS52,LINUX3_TOTAL_KBYTES_SERVED,LINUX2_THREADPOOL_POOLSIZE,LINUX3_TOTAL_ACCESSES,LINUX2_JVM_HEAPSIZE,OPEN_CONNECTIONS_FROM_WAS_TO_DB,LINUX14_CACHE_HITRATIO,LINUX3_TOTAL_REQUESTS,LINUX3_CPU_LOAD,LINUX2_EJB_METHODRESPONSE_TIME","Txn_HDTPRPT_AvgRespTime,Txn_HDTPRPT_SlowPercentage,Txn_HPBP_AvgRespTime,Txn_LOGIN_AvgRespTime,Txn_LOGOUT_AvgRespTime,Txn_HUPM_SlowPercentage,Txn_LOGOUT_SlowPercentage,Txn_HPORDM_SlowPercentage,Txn_LOGIN_SlowPercentage,Txn_HUPM_AvgRespTime,Txn_HDDC_AvgRespTime,Txn_HPBP_SlowPercentage,Txn_HICHB_Total,Txn_HPORDM_AvgRespTime,Txn_TM_SlowPercentage,Txn_PISP_AvgRespTime,Txn_PISP_SlowPercentage,Txn_TM_AvgRespTime,Txn_TM_Total,Txn_HACCBAL_AvgRespTime,Txn_HACCBAL_SlowPercentage,Txn_HDDC_SlowPercentage,Txn_HICTM_SlowPercentage,Txn_HPORDM_Total","1.000,1.000,1.000,1.000,0.143,0.143,0.143,-0.655,-0.655,-0.655,-0.756,-0.756,-1.000,-1.000,-1.000,-1.000","1.000,1.000,1.000,0.143,0.143,0.143,0.143,0.143,0.143,0.143,-0.545,-0.655,-0.655,-0.655,-0.655,-0.655,-0.655,-0.655,-0.756,-0.756,-0.756,-0.756,-0.756,-0.756"
Txn_HDTPRPT_AvgRespTime,"LINUX2_JVM_CPUUSAGE,OPEN_CONNECTIONS_BETWEEN_IHS53_TO_WAS53,OPEN_CONNECTIONS_BETWEEN_IHS54_TO_WAS54,OPEN_CONNECTIONS_FROM_WAS_TO_LOADBALANCER,LINUX3_BUSY_WORKERS,LINUX2_THREADPOOL_ACTIVECOUNT,OPEN_CONNECTIONS_BETWEEN_IHS52_TO_WAS52,LINUX3_TOTAL_KBYTES_SERVED,LINUX2_THREADPOOL_POOLSIZE,LINUX3_TOTAL_ACCESSES,LINUX2_JVM_HEAPSIZE,OPEN_CONNECTIONS_FROM_WAS_TO_DB,LINUX14_CACHE_HITRATIO,LINUX3_TOTAL_REQUESTS,LINUX3_CPU_LOAD,LINUX2_EJB_METHODRESPONSE_TIME","Txn_HDDMI_SlowPercentage,Txn_HDTPRPT_SlowPercentage,Txn_HPBP_AvgRespTime,Txn_LOGIN_AvgRespTime,Txn_LOGOUT_AvgRespTime,Txn_HUPM_SlowPercentage,Txn_LOGOUT_SlowPercentage,Txn_HPORDM_SlowPercentage,Txn_LOGIN_SlowPercentage,Txn_HUPM_AvgRespTime,Txn_HDDC_AvgRespTime,Txn_HPBP_SlowPercentage,Txn_HICHB_Total,Txn_HPORDM_AvgRespTime,Txn_TM_SlowPercentage,Txn_PISP_AvgRespTime,Txn_PISP_SlowPercentage,Txn_TM_AvgRespTime,Txn_TM_Total,Txn_HACCBAL_AvgRespTime,Txn_HACCBAL_SlowPercentage,Txn_HDDC_SlowPercentage,Txn_HICTM_SlowPercentage,Txn_HPORDM_Total","1.000,1.000,1.000,1.000,0.143,0.143,0.143,-0.655,-0.655,-0.655,-0.756,-0.756,-1.000,-1.000,-1.000,-1.000","1.000,1.000,1.000,0.143,0.143,0.143,0.143,0.143,0.143,0.143,-0.545,-0.655,-0.655,-0.655,-0.655,-0.655,-0.655,-0.655,-0.756,-0.756,-0.756,-0.756,-0.756,-0.756"
Txn_HDTPRPT_SlowPercentage,"LINUX2_JVM_CPUUSAGE,OPEN_CONNECTIONS_BETWEEN_IHS53_TO_WAS53,OPEN_CONNECTIONS_BETWEEN_IHS54_TO_WAS54,OPEN_CONNECTIONS_FROM_WAS_TO_LOADBALANCER,LINUX3_BUSY_WORKERS,LINUX2_THREADPOOL_ACTIVECOUNT,OPEN_CONNECTIONS_BETWEEN_IHS52_TO_WAS52,LINUX3_TOTAL_KBYTES_SERVED,LINUX2_THREADPOOL_POOLSIZE,LINUX3_TOTAL_ACCESSES,LINUX2_JVM_HEAPSIZE,OPEN_CONNECTIONS_FROM_WAS_TO_DB,LINUX14_CACHE_HITRATIO,LINUX3_TOTAL_REQUESTS,LINUX3_CPU_LOAD,LINUX2_EJB_METHODRESPONSE_TIME","Txn_HDDMI_SlowPercentage,Txn_HDTPRPT_AvgRespTime,Txn_HPBP_AvgRespTime,Txn_LOGIN_AvgRespTime,Txn_LOGOUT_AvgRespTime,Txn_HUPM_SlowPercentage,Txn_LOGOUT_SlowPercentage,Txn_HPORDM_SlowPercentage,Txn_LOGIN_SlowPercentage,Txn_HUPM_AvgRespTime,Txn_HDDC_AvgRespTime,Txn_HPBP_SlowPercentage,Txn_HICHB_Total,Txn_HPORDM_AvgRespTime,Txn_TM_SlowPercentage,Txn_PISP_AvgRespTime,Txn_PISP_SlowPercentage,Txn_TM_AvgRespTime,Txn_TM_Total,Txn_HACCBAL_AvgRespTime,Txn_HACCBAL_SlowPercentage,Txn_HDDC_SlowPercentage,Txn_HICTM_SlowPercentage,Txn_HPORDM_Total","1.000,1.000,1.000,1.000,0.143,0.143,0.143,-0.655,-0.655,-0.655,-0.756,-0.756,-1.000,-1.000,-1.000,-1.000","1.000,1.000,1.000,0.143,0.143,0.143,0.143,0.143,0.143,0.143,-0.545,-0.655,-0.655,-0.655,-0.655,-0.655,-0.655,-0.655,-0.756,-0.756,-0.756,-0.756,-0.756,-0.756"
Txn_HICHB_Total,"LINUX3_TOTAL_KBYTES_SERVED,LINUX3_TOTAL_ACCESSES,LINUX2_THREADPOOL_POOLSIZE,LINUX3_BUSY_WORKERS,LINUX2_THREADPOOL_ACTIVECOUNT,OPEN_CONNECTIONS_BETWEEN_IHS52_TO_WAS52,LINUX2_EJB_METHODRESPONSE_TIME,LINUX3_CPU_LOAD,LINUX3_TOTAL_REQUESTS,LINUX14_CACHE_HITRATIO,OPEN_CONNECTIONS_FROM_WAS_TO_DB,LINUX2_JVM_HEAPSIZE,OPEN_CONNECTIONS_BETWEEN_IHS54_TO_WAS54,OPEN_CONNECTIONS_BETWEEN_IHS53_TO_WAS53,OPEN_CONNECTIONS_FROM_WAS_TO_LOADBALANCER,LINUX2_JVM_CPUUSAGE","Txn_HPORDM_AvgRespTime,Txn_HPBP_SlowPercentage,Txn_TM_AvgRespTime,Txn_PISP_SlowPercentage,Txn_PISP_AvgRespTime,Txn_TM_SlowPercentage,Txn_HPORDM_SlowPercentage,Txn_HUPM_AvgRespTime,Txn_HUPM_SlowPercentage,Txn_LOGIN_AvgRespTime,Txn_LOGIN_SlowPercentage,Txn_LOGOUT_AvgRespTime,Txn_LOGOUT_SlowPercentage,Txn_TM_Total,Txn_HACCBAL_AvgRespTime,Txn_HACCBAL_SlowPercentage,Txn_HDDC_SlowPercentage,Txn_HICTM_SlowPercentage,Txn_HPORDM_Total,Txn_HDDC_AvgRespTime,Txn_HDTPRPT_AvgRespTime,Txn_HDTPRPT_SlowPercentage,Txn_HPBP_AvgRespTime,Txn_HDDMI_SlowPercentage","1.000,1.000,1.000,0.655,0.655,0.655,0.655,0.655,0.655,0.655,0.000,0.000,-0.655,-0.655,-0.655,-0.655","1.000,1.000,1.000,1.000,1.000,1.000,0.655,0.655,0.655,0.655,0.655,0.655,0.655,0.000,0.000,0.000,0.000,0.000,0.000,-0.277,-0.655,-0.655,-0.655,-0.655"
Txn_HICTM_SlowPercentage,"LINUX2_JVM_HEAPSIZE,OPEN_CONNECTIONS_FROM_WAS_TO_DB,LINUX2_EJB_METHODRESPONSE_TIME,LINUX3_CPU_LOAD,LINUX3_TOTAL_REQUESTS,LINUX14_CACHE_HITRATIO,LINUX2_THREADPOOL_POOLSIZE,LINUX3_TOTAL_ACCESSES,LINUX3_TOTAL_KBYTES_SERVED,OPEN_CONNECTIONS_BETWEEN_IHS52_TO_WAS52,LINUX2_JVM_CPUUSAGE,LINUX2_THREADPOOL_ACTIVECOUNT,LINUX3_BUSY_WORKERS,OPEN_CONNECTIONS_BETWEEN_IHS54_TO_WAS54,OPEN_CONNECTIONS_BETWEEN_IHS53_TO_WAS53,OPEN_CONNECTIONS_FROM_WAS_TO_LOADBALANCER","Txn_TM_Total,Txn_HACCBAL_AvgRespTime,Txn_HACCBAL_SlowPercentage,Txn_HDDC_SlowPercentage,Txn_HPORDM_Total,Txn_HDDC_AvgRespTime,Txn_HPORDM_AvgRespTime,Txn_TM_AvgRespTime,Txn_HICHB_Total,Txn_PISP_SlowPercentage,Txn_TM_SlowPercentage,Txn_PISP_AvgRespTime,Txn_HPBP_SlowPercentage,Txn_LOGOUT_SlowPercentage,Txn_LOGOUT_AvgRespTime,Txn_LOGIN_SlowPercentage,Txn_LOGIN_AvgRespTime,Txn_HUPM_SlowPercentage,Txn_HUPM_AvgRespTime,Txn_HDTPRPT_AvgRespTime,Txn_HDTPRPT_SlowPercentage,Txn_HPORDM_SlowPercentage,Txn_HPBP_AvgRespTime,Txn_HDDMI_SlowPercentage","1.000,1.000,0.756,0.756,0.756,0.756,0.000,0.000,0.000,-0.756,-0.756,-0.756,-0.756,-0.756,-0.756,-0.756","1.000,1.000,1.000,1.000,1.000,0.961,0.000,0.000,0.000,0.000,0.000,0.000,0.000,-0.756,-0.756,-0.756,-0.756,-0.756,-0.756,-0.756,-0.756,-0.756,-0.756,-0.756"
Txn_HPBP_AvgRespTime,"LINUX2_JVM_CPUUSAGE,OPEN_CONNECTIONS_BETWEEN_IHS53_TO_WAS53,OPEN_CONNECTIONS_BETWEEN_IHS54_TO_WAS54,OPEN_CONNECTIONS_FROM_WAS_TO_LOADBALANCER,LINUX3_BUSY_WORKERS,LINUX2_THREADPOOL_ACTIVECOUNT,OPEN_CONNECTIONS_BETWEEN_IHS52_TO_WAS52,LINUX3_TOTAL_KBYTES_SERVED,LINUX2_THREADPOOL_POOLSIZE,LINUX3_TOTAL_ACCESSES,LINUX2_JVM_HEAPSIZE,OPEN_CONNECTIONS_FROM_WAS_TO_DB,LINUX14_CACHE_HITRATIO,LINUX3_TOTAL_REQUESTS,LINUX3_CPU_LOAD,LINUX2_EJB_METHODRESPONSE_TIME","Txn_HDDMI_SlowPercentage,Txn_HDTPRPT_AvgRespTime,Txn_HDTPRPT_SlowPercentage,Txn_LOGIN_AvgRespTime,Txn_LOGOUT_AvgRespTime,Txn_HUPM_SlowPercentage,Txn_LOGOUT_SlowPercentage,Txn_HPORDM_SlowPercentage,Txn_LOGIN_SlowPercentage,Txn_HUPM_AvgRespTime,Txn_HDDC_AvgRespTime,Txn_HPBP_SlowPercentage,Txn_HICHB_Total,Txn_HPORDM_AvgRespTime,Txn_TM_SlowPercentage,Txn_PISP_AvgRespTime,Txn_PISP_SlowPercentage,Txn_TM_AvgRespTime,Txn_TM_Total,Txn_HACCBAL_AvgRespTime,Txn_HACCBAL_SlowPercentage,Txn_HDDC_SlowPercentage,Txn_HICTM_SlowPercentage,Txn_HPORDM_Total","1.000,1.000,1.000,1.000,0.143,0.143,0.143,-0.655,-0.655,-0.655,-0.756,-0.756,-1.000,-1.000,-1.000,-1.000","1.000,1.000,1.000,0.143,0.143,0.143,0.143,0.143,0.143,0.143,-0.545,-0.655,-0.655,-0.655,-0.655,-0.655,-0.655,-0.655,-0.756,-0.756,-0.756,-0.756,-0.756,-0.756"
Txn_HPBP_SlowPercentage,"LINUX3_TOTAL_KBYTES_SERVED,LINUX3_TOTAL_ACCESSES,LINUX2_THREADPOOL_POOLSIZE,LINUX3_BUSY_WORKERS,LINUX2_THREADPOOL_ACTIVECOUNT,OPEN_CONNECTIONS_BETWEEN_IHS52_TO_WAS52,LINUX2_EJB_METHODRESPONSE_TIME,LINUX3_CPU_LOAD,LINUX3_TOTAL_REQUESTS,LINUX14_CACHE_HITRATIO,OPEN_CONNECTIONS_FROM_WAS_TO_DB,LINUX2_JVM_HEAPSIZE,OPEN_CONNECTIONS_BETWEEN_IHS54_TO_WAS54,OPEN_CONNECTIONS_BETWEEN_IHS53_TO_WAS53,OPEN_CONNECTIONS_FROM_WAS_TO_LOADBALANCER,LINUX2_JVM_CPUUSAGE","Txn_HPORDM_AvgRespTime,Txn_TM_AvgRespTime,Txn_PISP_SlowPercentage,Txn_PISP_AvgRespTime,Txn_TM_SlowPercentage,Txn_HICHB_Total,Txn_HPORDM_SlowPercentage,Txn_HUPM_AvgRespTime,Txn_HUPM_SlowPercentage,Txn_LOGIN_AvgRespTime,Txn_LOGIN_SlowPercentage,Txn_LOGOUT_AvgRespTime,Txn_LOGOUT_SlowPercentage,Txn_TM_Total,Txn_HACCBAL_AvgRespTime,Txn_HACCBAL_SlowPercentage,Txn_HDDC_SlowPercentage,Txn_HICTM_SlowPercentage,Txn_HPORDM_Total,Txn_HDDC_AvgRespTime,Txn_HDTPRPT_AvgRespTime,Txn_HDTPRPT_SlowPercentage,Txn_HPBP_AvgRespTime,Txn_HDDMI_SlowPercentage","1.000,1.000,1.000,0.655,0.655,0.655,0.655,0.655,0.655,0.655,0.000,0.000,-0.655,-0.655,-0.655,-0.655","1.000,1.000,1.000,1.000,1.000,1.000,0.655,0.655,0.655,0.655,0.655,0.655,0.655,0.000,0.000,0.000,0.000,0.000,0.000,-0.277,-0.655,-0.655,-0.655,-0.655"
Txn_HPORDM_AvgRespTime,"LINUX3_TOTAL_KBYTES_SERVED,LINUX3_TOTAL_ACCESSES,LINUX2_THREADPOOL_POOLSIZE,LINUX3_BUSY_WORKERS,LINUX2_THREADPOOL_ACTIVECOUNT,OPEN_CONNECTIONS_BETWEEN_IHS52_TO_WAS52,LINUX2_EJB_METHODRESPONSE_TIME,LINUX3_CPU_LOAD,LINUX3_TOTAL_REQUESTS,LINUX14_CACHE_HITRATIO,OPEN_CONNECTIONS_FROM_WAS_TO_DB,LINUX2_JVM_HEAPSIZE,OPEN_CONNECTIONS_BETWEEN_IHS54_TO_WAS54,OPEN_CONNECTIONS_BETWEEN_IHS53_TO_WAS53,OPEN_CONNECTIONS_FROM_WAS_TO_LOADBALANCER,LINUX2_JVM_CPUUSAGE","Txn_HPBP_SlowPercentage,Txn_TM_AvgRespTime,Txn_PISP_SlowPercentage,Txn_PISP_AvgRespTime,Txn_TM_SlowPercentage,Txn_HICHB_Total,Txn_HPORDM_SlowPercentage,Txn_HUPM_AvgRespTime,Txn_HUPM_SlowPercentage,Txn_LOGIN_AvgRespTime,Txn_LOGIN_SlowPercentage,Txn_LOGOUT_AvgRespTime,Txn_LOGOUT_SlowPercentage,Txn_TM_Total,Txn_HACCBAL_AvgRespTime,Txn_HACCBAL_SlowPercentage,Txn_HDDC_SlowPercentage,Txn_HICTM_SlowPercentage,Txn_HPORDM_Total,Txn_HDDC_AvgRespTime,Txn_HDTPRPT_AvgRespTime,Txn_HDTPRPT_SlowPercentage,Txn_HPBP_AvgRespTime,Txn_HDDMI_SlowPercentage","1.000,1.000,1.000,0.655,0.655,0.655,0.655,0.655,0.655,0.655,0.000,0.000,-0.655,-0.655,-0.655,-0.655","1.000,1.000,1.000,1.000,1.000,1.000,0.655,0.655,0.655,0.655,0.655,0.655,0.655,0.000,0.000,0.000,0.000,0.000,0.000,-0.277,-0.655,-0.655,-0.655,-0.655"
Txn_HPORDM_SlowPercentage,"OPEN_CONNECTIONS_BETWEEN_IHS52_TO_WAS52,LINUX2_THREADPOOL_ACTIVECOUNT,LINUX3_BUSY_WORKERS,LINUX3_TOTAL_KBYTES_SERVED,LINUX3_TOTAL_ACCESSES,LINUX2_THREADPOOL_POOLSIZE,OPEN_CONNECTIONS_BETWEEN_IHS54_TO_WAS54,OPEN_CONNECTIONS_FROM_WAS_TO_LOADBALANCER,OPEN_CONNECTIONS_BETWEEN_IHS53_TO_WAS53,LINUX2_JVM_CPUUSAGE,LINUX3_CPU_LOAD,LINUX2_EJB_METHODRESPONSE_TIME,LINUX14_CACHE_HITRATIO,LINUX3_TOTAL_REQUESTS,OPEN_CONNECTIONS_FROM_WAS_TO_DB,LINUX2_JVM_HEAPSIZE","Txn_LOGOUT_SlowPercentage,Txn_LOGOUT_AvgRespTime,Txn_LOGIN_SlowPercentage,Txn_LOGIN_AvgRespTime,Txn_HUPM_SlowPercentage,Txn_HUPM_AvgRespTime,Txn_TM_SlowPercentage,Txn_HICHB_Total,Txn_HPBP_SlowPercentage,Txn_HPORDM_AvgRespTime,Txn_PISP_AvgRespTime,Txn_PISP_SlowPercentage,Txn_TM_AvgRespTime,Txn_HDDMI_SlowPercentage,Txn_HDTPRPT_AvgRespTime,Txn_HDTPRPT_SlowPercentage,Txn_HPBP_AvgRespTime,Txn_HACCBAL_AvgRespTime,Txn_HACCBAL_SlowPercentage,Txn_HDDC_SlowPercentage,Txn_HICTM_SlowPercentage,Txn_HPORDM_Total,Txn_TM_Total,Txn_HDDC_AvgRespTime","1.000,1.000,1.000,0.655,0.655,0.655,0.143,0.143,0.143,0.143,-0.143,-0.143,-0.143,-0.143,-0.756,-0.756","1.000,1.000,1.000,1.000,1.000,1.000,0.655,0.655,0.655,0.655,0.655,0.655,0.655,0.143,0.143,0.143,0.143,-0.756,-0.756,-0.756,-0.756,-0.756,-0.756,-0.908"
Txn_HPORDM_Total,"LINUX2_JVM_HEAPSIZE,OPEN_CONNECTIONS_FROM_WAS_TO_DB,LINUX2_EJB_METHODRESPONSE_TIME,LINUX3_CPU_LOAD,LINUX3_TOTAL_REQUESTS,LINUX14_CACHE_HITRATIO,LINUX2_THREADPOOL_POOLSIZE,LINUX3_TOTAL_ACCESSES,LINUX3_TOTAL_KBYTES_SERVED,OPEN_CONNECTIONS_BETWEEN_IHS52_TO_WAS52,LINUX2_JVM_CPUUSAGE,LINUX2_THREADPOOL_ACTIVECOUNT,LINUX3_BUSY_WORKERS,OPEN_CONNECTIONS_BETWEEN_IHS54_TO_WAS54,OPEN_CONNECTIONS_BETWEEN_IHS53_TO_WAS53,OPEN_CONNECTIONS_FROM_WAS_TO_LOADBALANCER","Txn_TM_Total,Txn_HICTM_SlowPercentage,Txn_HACCBAL_AvgRespTime,Txn_HACCBAL_SlowPercentage,Txn_HDDC_SlowPercentage,Txn_HDDC_AvgRespTime,Txn_HPORDM_AvgRespTime,Txn_TM_AvgRespTime,Txn_HICHB_Total,Txn_PISP_SlowPercentage,Txn_TM_SlowPercentage,Txn_PISP_AvgRespTime,Txn_HPBP_SlowPercentage,Txn_LOGOUT_SlowPercentage,Txn_LOGOUT_AvgRespTime,Txn_LOGIN_SlowPercentage,Txn_LOGIN_AvgRespTime,Txn_HUPM_SlowPercentage,Txn_HUPM_AvgRespTime,Txn_HDTPRPT_AvgRespTime,Txn_HDTPRPT_SlowPercentage,Txn_HPORDM_SlowPercentage,Txn_HPBP_AvgRespTime,Txn_HDDMI_SlowPercentage","1.000,1.000,0.756,0.756,0.756,0.756,0.000,0.000,0.000,-0.756,-0.756,-0.756,-0.756,-0.756,-0.756,-0.756","1.000,1.000,1.000,1.000,1.000,0.961,0.000,0.000,0.000,0.000,0.000,0.000,0.000,-0.756,-0.756,-0.756,-0.756,-0.756,-0.756,-0.756,-0.756,-0.756,-0.756,-0.756"
Txn_HUPM_AvgRespTime,"OPEN_CONNECTIONS_BETWEEN_IHS52_TO_WAS52,LINUX2_THREADPOOL_ACTIVECOUNT,LINUX3_BUSY_WORKERS,LINUX3_TOTAL_KBYTES_SERVED,LINUX3_TOTAL_ACCESSES,LINUX2_THREADPOOL_POOLSIZE,OPEN_CONNECTIONS_BETWEEN_IHS54_TO_WAS54,OPEN_CONNECTIONS_FROM_WAS_TO_LOADBALANCER,OPEN_CONNECTIONS_BETWEEN_IHS53_TO_WAS53,LINUX2_JVM_CPUUSAGE,LINUX3_CPU_LOAD,LINUX2_EJB_METHODRESPONSE_TIME,LINUX14_CACHE_HITRATIO,LINUX3_TOTAL_REQUESTS,OPEN_CONNECTIONS_FROM_WAS_TO_DB,LINUX2_JVM_HEAPSIZE","Txn_LOGOUT_SlowPercentage,Txn_LOGOUT_AvgRespTime,Txn_LOGIN_SlowPercentage,Txn_LOGIN_AvgRespTime,Txn_HUPM_SlowPercentage,Txn_HPORDM_SlowPercentage,Txn_TM_SlowPercentage,Txn_HICHB_Total,Txn_HPBP_SlowPercentage,Txn_HPORDM_AvgRespTime,Txn_PISP_AvgRespTime,Txn_PISP_SlowPercentage,Txn_TM_AvgRespTime,Txn_HDDMI_SlowPercentage,Txn_HDTPRPT_AvgRespTime,Txn_HDTPRPT_SlowPercentage,Txn_HPBP_AvgRespTime,Txn_HACCBAL_AvgRespTime,Txn_HACCBAL_SlowPercentage,Txn_HDDC_SlowPercentage,Txn_HICTM_SlowPercentage,Txn_HPORDM_Total,Txn_TM_Total,Txn_HDDC_AvgRespTime","1.000,1.000,1.000,0.655,0.655,0.655,0.143,0.143,0.143,0.143,-0.143,-0.143,-0.143,-0.143,-0.756,-0.756","1.000,1.000,1.000,1.000,1.000,1.000,0.655,0.655,0.655,0.655,0.655,0.655,0.655,0.143,0.143,0.143,0.143,-0.756,-0.756,-0.756,-0.756,-0.756,-0.756,-0.908"
Txn_HUPM_SlowPercentage,"OPEN_CONNECTIONS_BETWEEN_IHS52_TO_WAS52,LINUX2_THREADPOOL_ACTIVECOUNT,LINUX3_BUSY_WORKERS,LINUX3_TOTAL_KBYTES_SERVED,LINUX3_TOTAL_ACCESSES,LINUX2_THREADPOOL_POOLSIZE,OPEN_CONNECTIONS_BETWEEN_IHS54_TO_WAS54,OPEN_CONNECTIONS_FROM_WAS_TO_LOADBALANCER,OPEN_CONNECTIONS_BETWEEN_IHS53_TO_WAS53,LINUX2_JVM_CPUUSAGE,LINUX3_CPU_LOAD,LINUX2_EJB_METHODRESPONSE_TIME,LINUX14_CACHE_HITRATIO,LINUX3_TOTAL_REQUESTS,OPEN_CONNECTIONS_FROM_WAS_TO_DB,LINUX2_JVM_HEAPSIZE","Txn_LOGOUT_SlowPercentage,Txn_LOGOUT_AvgRespTime,Txn_LOGIN_SlowPercentage,Txn_LOGIN_AvgRespTime,Txn_HUPM_AvgRespTime,Txn_HPORDM_SlowPercentage,Txn_TM_SlowPercentage,Txn_HICHB_Total,Txn_HPBP_SlowPercentage,Txn_HPORDM_AvgRespTime,Txn_PISP_AvgRespTime,Txn_PISP_SlowPercentage,Txn_TM_AvgRespTime,Txn_HDDMI_SlowPercentage,Txn_HDTPRPT_AvgRespTime,Txn_HDTPRPT_SlowPercentage,Txn_HPBP_AvgRespTime,Txn_HACCBAL_AvgRespTime,Txn_HACCBAL_SlowPercentage,Txn_HDDC_SlowPercentage,Txn_HICTM_SlowPercentage,Txn_HPORDM_Total,Txn_TM_Total,Txn_HDDC_AvgRespTime","1.000,1.000,1.000,0.655,0.655,0.655,0.143,0.143,0.143,0.143,-0.143,-0.143,-0.143,-0.143,-0.756,-0.756","1.000,1.000,1.000,1.000,1.000,1.000,0.655,0.655,0.655,0.655,0.655,0.655,0.655,0.143,0.143,0.143,0.143,-0.756,-0.756,-0.756,-0.756,-0.756,-0.756,-0.908"
Txn_LOGIN_AvgRespTime,"OPEN_CONNECTIONS_BETWEEN_IHS52_TO_WAS52,LINUX2_THREADPOOL_ACTIVECOUNT,LINUX3_BUSY_WORKERS,LINUX3_TOTAL_KBYTES_SERVED,LINUX3_TOTAL_ACCESSES,LINUX2_THREADPOOL_POOLSIZE,OPEN_CONNECTIONS_BETWEEN_IHS54_TO_WAS54,OPEN_CONNECTIONS_FROM_WAS_TO_LOADBALANCER,OPEN_CONNECTIONS_BETWEEN_IHS53_TO_WAS53,LINUX2_JVM_CPUUSAGE,LINUX3_CPU_LOAD,LINUX2_EJB_METHODRESPONSE_TIME,LINUX14_CACHE_HITRATIO,LINUX3_TOTAL_REQUESTS,OPEN_CONNECTIONS_FROM_WAS_TO_DB,LINUX2_JVM_HEAPSIZE","Txn_LOGOUT_SlowPercentage,Txn_LOGOUT_AvgRespTime,Txn_LOGIN_SlowPercentage,Txn_HUPM_SlowPercentage,Txn_HUPM_AvgRespTime,Txn_HPORDM_SlowPercentage,Txn_TM_SlowPercentage,Txn_HICHB_Total,Txn_HPBP_SlowPercentage,Txn_HPORDM_AvgRespTime,Txn_PISP_AvgRespTime,Txn_PISP_SlowPercentage,Txn_TM_AvgRespTime,Txn_HDDMI_SlowPercentage,Txn_HDTPRPT_AvgRespTime,Txn_HDTPRPT_SlowPercentage,Txn_HPBP_AvgRespTime,Txn_HACCBAL_AvgRespTime,Txn_HACCBAL_SlowPercentage,Txn_HDDC_SlowPercentage,Txn_HICTM_SlowPercentage,Txn_HPORDM_Total,Txn_TM_Total,Txn_HDDC_AvgRespTime","1.000,1.000,1.000,0.655,0.655,0.655,0.143,0.143,0.143,0.143,-0.143,-0.143,-0.143,-0.143,-0.756,-0.756","1.000,1.000,1.000,1.000,1.000,1.000,0.655,0.655,0.655,0.655,0.655,0.655,0.655,0.143,0.143,0.143,0.143,-0.756,-0.756,-0.756,-0.756,-0.756,-0.756,-0.908"
Txn_LOGIN_SlowPercentage,"OPEN_CONNECTIONS_BETWEEN_IHS52_TO_WAS52,LINUX2_THREADPOOL_ACTIVECOUNT,LINUX3_BUSY_WORKERS,LINUX3_TOTAL_KBYTES_SERVED,LINUX3_TOTAL_ACCESSES,LINUX2_THREADPOOL_POOLSIZE,OPEN_CONNECTIONS_BETWEEN_IHS54_TO_WAS54,OPEN_CONNECTIONS_FROM_WAS_TO_LOADBALANCER,OPEN_CONNECTIONS_BETWEEN_IHS53_TO_WAS53,LINUX2_JVM_CPUUSAGE,LINUX3_CPU_LOAD,LINUX2_EJB_METHODRESPONSE_TIME,LINUX14_CACHE_HITRATIO,LINUX3_TOTAL_REQUESTS,OPEN_CONNECTIONS_FROM_WAS_TO_DB,LINUX2_JVM_HEAPSIZE","Txn_LOGOUT_SlowPercentage,Txn_LOGOUT_AvgRespTime,Txn_LOGIN_AvgRespTime,Txn_HUPM_SlowPercentage,Txn_HUPM_AvgRespTime,Txn_HPORDM_SlowPercentage,Txn_TM_SlowPercentage,Txn_HICHB_Total,Txn_HPBP_SlowPercentage,Txn_HPORDM_AvgRespTime,Txn_PISP_AvgRespTime,Txn_PISP_SlowPercentage,Txn_TM_AvgRespTime,Txn_HDDMI_SlowPercentage,Txn_HDTPRPT_AvgRespTime,Txn_HDTPRPT_SlowPercentage,Txn_HPBP_AvgRespTime,Txn_HACCBAL_AvgRespTime,Txn_HACCBAL_SlowPercentage,Txn_HDDC_SlowPercentage,Txn_HICTM_SlowPercentage,Txn_HPORDM_Total,Txn_TM_Total,Txn_HDDC_AvgRespTime","1.000,1.000,1.000,0.655,0.655,0.655,0.143,0.143,0.143,0.143,-0.143,-0.143,-0.143,-0.143,-0.756,-0.756","1.000,1.000,1.000,1.000,1.000,1.000,0.655,0.655,0.655,0.655,0.655,0.655,0.655,0.143,0.143,0.143,0.143,-0.756,-0.756,-0.756,-0.756,-0.756,-0.756,-0.908"
Txn_LOGOUT_AvgRespTime,"OPEN_CONNECTIONS_BETWEEN_IHS52_TO_WAS52,LINUX2_THREADPOOL_ACTIVECOUNT,LINUX3_BUSY_WORKERS,LINUX3_TOTAL_KBYTES_SERVED,LINUX3_TOTAL_ACCESSES,LINUX2_THREADPOOL_POOLSIZE,OPEN_CONNECTIONS_BETWEEN_IHS54_TO_WAS54,OPEN_CONNECTIONS_FROM_WAS_TO_LOADBALANCER,OPEN_CONNECTIONS_BETWEEN_IHS53_TO_WAS53,LINUX2_JVM_CPUUSAGE,LINUX3_CPU_LOAD,LINUX2_EJB_METHODRESPONSE_TIME,LINUX14_CACHE_HITRATIO,LINUX3_TOTAL_REQUESTS,OPEN_CONNECTIONS_FROM_WAS_TO_DB,LINUX2_JVM_HEAPSIZE","Txn_LOGOUT_SlowPercentage,Txn_LOGIN_SlowPercentage,Txn_LOGIN_AvgRespTime,Txn_HUPM_SlowPercentage,Txn_HUPM_AvgRespTime,Txn_HPORDM_SlowPercentage,Txn_TM_SlowPercentage,Txn_HICHB_Total,Txn_HPBP_SlowPercentage,Txn_HPORDM_AvgRespTime,Txn_PISP_AvgRespTime,Txn_PISP_SlowPercentage,Txn_TM_AvgRespTime,Txn_HDDMI_SlowPercentage,Txn_HDTPRPT_AvgRespTime,Txn_HDTPRPT_SlowPercentage,Txn_HPBP_AvgRespTime,Txn_HACCBAL_AvgRespTime,Txn_HACCBAL_SlowPercentage,Txn_HDDC_SlowPercentage,Txn_HICTM_SlowPercentage,Txn_HPORDM_Total,Txn_TM_Total,Txn_HDDC_AvgRespTime","1.000,1.000,1.000,0.655,0.655,0.655,0.143,0.143,0.143,0.143,-0.143,-0.143,-0.143,-0.143,-0.756,-0.756","1.000,1.000,1.000,1.000,1.000,1.000,0.655,0.655,0.655,0.655,0.655,0.655,0.655,0.143,0.143,0.143,0.143,-0.756,-0.756,-0.756,-0.756,-0.756,-0.756,-0.908"
Txn_LOGOUT_SlowPercentage,"OPEN_CONNECTIONS_BETWEEN_IHS52_TO_WAS52,LINUX2_THREADPOOL_ACTIVECOUNT,LINUX3_BUSY_WORKERS,LINUX3_TOTAL_KBYTES_SERVED,LINUX3_TOTAL_ACCESSES,LINUX2_THREADPOOL_POOLSIZE,OPEN_CONNECTIONS_BETWEEN_IHS54_TO_WAS54,OPEN_CONNECTIONS_FROM_WAS_TO_LOADBALANCER,OPEN_CONNECTIONS_BETWEEN_IHS53_TO_WAS53,LINUX2_JVM_CPUUSAGE,LINUX3_CPU_LOAD,LINUX2_EJB_METHODRESPONSE_TIME,LINUX14_CACHE_HITRATIO,LINUX3_TOTAL_REQUESTS,OPEN_CONNECTIONS_FROM_WAS_TO_DB,LINUX2_JVM_HEAPSIZE","Txn_LOGOUT_AvgRespTime,Txn_LOGIN_SlowPercentage,Txn_LOGIN_AvgRespTime,Txn_HUPM_SlowPercentage,Txn_HUPM_AvgRespTime,Txn_HPORDM_SlowPercentage,Txn_TM_SlowPercentage,Txn_HICHB_Total,Txn_HPBP_SlowPercentage,Txn_HPORDM_AvgRespTime,Txn_PISP_AvgRespTime,Txn_PISP_SlowPercentage,Txn_TM_AvgRespTime,Txn_HDDMI_SlowPercentage,Txn_HDTPRPT_AvgRespTime,Txn_HDTPRPT_SlowPercentage,Txn_HPBP_AvgRespTime,Txn_HACCBAL_AvgRespTime,Txn_HACCBAL_SlowPercentage,Txn_HDDC_SlowPercentage,Txn_HICTM_SlowPercentage,Txn_HPORDM_Total,Txn_TM_Total,Txn_HDDC_AvgRespTime","1.000,1.000,1.000,0.655,0.655,0.655,0.143,0.143,0.143,0.143,-0.143,-0.143,-0.143,-0.143,-0.756,-0.756","1.000,1.000,1.000,1.000,1.000,1.000,0.655,0.655,0.655,0.655,0.655,0.655,0.655,0.143,0.143,0.143,0.143,-0.756,-0.756,-0.756,-0.756,-0.756,-0.756,-0.908"
Txn_PISP_AvgRespTime,"LINUX3_TOTAL_KBYTES_SERVED,LINUX3_TOTAL_ACCESSES,LINUX2_THREADPOOL_POOLSIZE,LINUX3_BUSY_WORKERS,LINUX2_THREADPOOL_ACTIVECOUNT,OPEN_CONNECTIONS_BETWEEN_IHS52_TO_WAS52,LINUX2_EJB_METHODRESPONSE_TIME,LINUX3_CPU_LOAD,LINUX3_TOTAL_REQUESTS,LINUX14_CACHE_HITRATIO,OPEN_CONNECTIONS_FROM_WAS_TO_DB,LINUX2_JVM_HEAPSIZE,OPEN_CONNECTIONS_BETWEEN_IHS54_TO_WAS54,OPEN_CONNECTIONS_BETWEEN_IHS53_TO_WAS53,OPEN_CONNECTIONS_FROM_WAS_TO_LOADBALANCER,LINUX2_JVM_CPUUSAGE","Txn_HPORDM_AvgRespTime,Txn_HPBP_SlowPercentage,Txn_TM_AvgRespTime,Txn_PISP_SlowPercentage,Txn_TM_SlowPercentage,Txn_HICHB_Total,Txn_HPORDM_SlowPercentage,Txn_HUPM_AvgRespTime,Txn_HUPM_SlowPercentage,Txn_LOGIN_AvgRespTime,Txn_LOGIN_SlowPercentage,Txn_LOGOUT_AvgRespTime,Txn_LOGOUT_SlowPercentage,Txn_TM_Total,Txn_HACCBAL_AvgRespTime,Txn_HACCBAL_SlowPercentage,Txn_HDDC_SlowPercentage,Txn_HICTM_SlowPercentage,Txn_HPORDM_Total,Txn_HDDC_AvgRespTime,Txn_HDTPRPT_AvgRespTime,Txn_HDTPRPT_SlowPercentage,Txn_HPBP_AvgRespTime,Txn_HDDMI_SlowPercentage","1.000,1.000,1.000,0.655,0.655,0.655,0.655,0.655,0.655,0.655,0.000,0.000,-0.655,-0.655,-0.655,-0.655","1.000,1.000,1.000,1.000,1.000,1.000,0.655,0.655,0.655,0.655,0.655,0.655,0.655,0.000,0.000,0.000,0.000,0.000,0.000,-0.277,-0.655,-0.655,-0.655,-0.655"
Txn_PISP_SlowPercentage,"LINUX3_TOTAL_KBYTES_SERVED,LINUX3_TOTAL_ACCESSES,LINUX2_THREADPOOL_POOLSIZE,LINUX3_BUSY_WORKERS,LINUX2_THREADPOOL_ACTIVECOUNT,OPEN_CONNECTIONS_BETWEEN_IHS52_TO_WAS52,LINUX2_EJB_METHODRESPONSE_TIME,LINUX3_CPU_LOAD,LINUX3_TOTAL_REQUESTS,LINUX14_CACHE_HITRATIO,OPEN_CONNECTIONS_FROM_WAS_TO_DB,LINUX2_JVM_HEAPSIZE,OPEN_CONNECTIONS_BETWEEN_IHS54_TO_WAS54,OPEN_CONNECTIONS_BETWEEN_IHS53_TO_WAS53,OPEN_CONNECTIONS_FROM_WAS_TO_LOADBALANCER,LINUX2_JVM_CPUUSAGE","Txn_HPORDM_AvgRespTime,Txn_HPBP_SlowPercentage,Txn_TM_AvgRespTime,Txn_PISP_AvgRespTime,Txn_TM_SlowPercentage,Txn_HICHB_Total,Txn_HPORDM_SlowPercentage,Txn_HUPM_AvgRespTime,Txn_HUPM_SlowPercentage,Txn_LOGIN_AvgRespTime,Txn_LOGIN_SlowPercentage,Txn_LOGOUT_AvgRespTime,Txn_LOGOUT_SlowPercentage,Txn_TM_Total,Txn_HACCBAL_AvgRespTime,Txn_HACCBAL_SlowPercentage,Txn_HDDC_SlowPercentage,Txn_HICTM_SlowPercentage,Txn_HPORDM_Total,Txn_HDDC_AvgRespTime,Txn_HDTPRPT_AvgRespTime,Txn_HDTPRPT_SlowPercentage,Txn_HPBP_AvgRespTime,Txn_HDDMI_SlowPercentage","1.000,1.000,1.000,0.655,0.655,0.655,0.655,0.655,0.655,0.655,0.000,0.000,-0.655,-0.655,-0.655,-0.655","1.000,1.000,1.000,1.000,1.000,1.000,0.655,0.655,0.655,0.655,0.655,0.655,0.655,0.000,0.000,0.000,0.000,0.000,0.000,-0.277,-0.655,-0.655,-0.655,-0.655"
Txn_TM_AvgRespTime,"LINUX3_TOTAL_KBYTES_SERVED,LINUX3_TOTAL_ACCESSES,LINUX2_THREADPOOL_POOLSIZE,LINUX3_BUSY_WORKERS,LINUX2_THREADPOOL_ACTIVECOUNT,OPEN_CONNECTIONS_BETWEEN_IHS52_TO_WAS52,LINUX2_EJB_METHODRESPONSE_TIME,LINUX3_CPU_LOAD,LINUX3_TOTAL_REQUESTS,LINUX14_CACHE_HITRATIO,OPEN_CONNECTIONS_FROM_WAS_TO_DB,LINUX2_JVM_HEAPSIZE,OPEN_CONNECTIONS_BETWEEN_IHS54_TO_WAS54,OPEN_CONNECTIONS_BETWEEN_IHS53_TO_WAS53,OPEN_CONNECTIONS_FROM_WAS_TO_LOADBALANCER,LINUX2_JVM_CPUUSAGE","Txn_HPORDM_AvgRespTime,Txn_HPBP_SlowPercentage,Txn_PISP_SlowPercentage,Txn_PISP_AvgRespTime,Txn_TM_SlowPercentage,Txn_HICHB_Total,Txn_HPORDM_SlowPercentage,Txn_HUPM_AvgRespTime,Txn_HUPM_SlowPercentage,Txn_LOGIN_AvgRespTime,Txn_LOGIN_SlowPercentage,Txn_LOGOUT_AvgRespTime,Txn_LOGOUT_SlowPercentage,Txn_TM_Total,Txn_HACCBAL_AvgRespTime,Txn_HACCBAL_SlowPercentage,Txn_HDDC_SlowPercentage,Txn_HICTM_SlowPercentage,Txn_HPORDM_Total,Txn_HDDC_AvgRespTime,Txn_HDTPRPT_AvgRespTime,Txn_HDTPRPT_SlowPercentage,Txn_HPBP_AvgRespTime,Txn_HDDMI_SlowPercentage","1.000,1.000,1.000,0.655,0.655,0.655,0.655,0.655,0.655,0.655,0.000,0.000,-0.655,-0.655,-0.655,-0.655","1.000,1.000,1.000,1.000,1.000,1.000,0.655,0.655,0.655,0.655,0.655,0.655,0.655,0.000,0.000,0.000,0.000,0.000,0.000,-0.277,-0.655,-0.655,-0.655,-0.655"
Txn_TM_SlowPercentage,"LINUX3_TOTAL_KBYTES_SERVED,LINUX3_TOTAL_ACCESSES,LINUX2_THREADPOOL_POOLSIZE,LINUX3_BUSY_WORKERS,LINUX2_THREADPOOL_ACTIVECOUNT,OPEN_CONNECTIONS_BETWEEN_IHS52_TO_WAS52,LINUX2_EJB_METHODRESPONSE_TIME,LINUX3_CPU_LOAD,LINUX3_TOTAL_REQUESTS,LINUX14_CACHE_HITRATIO,OPEN_CONNECTIONS_FROM_WAS_TO_DB,LINUX2_JVM_HEAPSIZE,OPEN_CONNECTIONS_BETWEEN_IHS54_TO_WAS54,OPEN_CONNECTIONS_BETWEEN_IHS53_TO_WAS53,OPEN_CONNECTIONS_FROM_WAS_TO_LOADBALANCER,LINUX2_JVM_CPUUSAGE","Txn_HPORDM_AvgRespTime,Txn_HPBP_SlowPercentage,Txn_TM_AvgRespTime,Txn_PISP_SlowPercentage,Txn_PISP_AvgRespTime,Txn_HICHB_Total,Txn_HPORDM_SlowPercentage,Txn_HUPM_AvgRespTime,Txn_HUPM_SlowPercentage,Txn_LOGIN_AvgRespTime,Txn_LOGIN_SlowPercentage,Txn_LOGOUT_AvgRespTime,Txn_LOGOUT_SlowPercentage,Txn_TM_Total,Txn_HACCBAL_AvgRespTime,Txn_HACCBAL_SlowPercentage,Txn_HDDC_SlowPercentage,Txn_HICTM_SlowPercentage,Txn_HPORDM_Total,Txn_HDDC_AvgRespTime,Txn_HDTPRPT_AvgRespTime,Txn_HDTPRPT_SlowPercentage,Txn_HPBP_AvgRespTime,Txn_HDDMI_SlowPercentage","1.000,1.000,1.000,0.655,0.655,0.655,0.655,0.655,0.655,0.655,0.000,0.000,-0.655,-0.655,-0.655,-0.655","1.000,1.000,1.000,1.000,1.000,1.000,0.655,0.655,0.655,0.655,0.655,0.655,0.655,0.000,0.000,0.000,0.000,0.000,0.000,-0.277,-0.655,-0.655,-0.655,-0.655"
Txn_TM_Total,"LINUX2_JVM_HEAPSIZE,OPEN_CONNECTIONS_FROM_WAS_TO_DB,LINUX2_EJB_METHODRESPONSE_TIME,LINUX3_CPU_LOAD,LINUX3_TOTAL_REQUESTS,LINUX14_CACHE_HITRATIO,LINUX2_THREADPOOL_POOLSIZE,LINUX3_TOTAL_ACCESSES,LINUX3_TOTAL_KBYTES_SERVED,OPEN_CONNECTIONS_BETWEEN_IHS52_TO_WAS52,LINUX2_JVM_CPUUSAGE,LINUX2_THREADPOOL_ACTIVECOUNT,LINUX3_BUSY_WORKERS,OPEN_CONNECTIONS_BETWEEN_IHS54_TO_WAS54,OPEN_CONNECTIONS_BETWEEN_IHS53_TO_WAS53,OPEN_CONNECTIONS_FROM_WAS_TO_LOADBALANCER","Txn_HICTM_SlowPercentage,Txn_HACCBAL_AvgRespTime,Txn_HACCBAL_SlowPercentage,Txn_HDDC_SlowPercentage,Txn_HPORDM_Total,Txn_HDDC_AvgRespTime,Txn_HPORDM_AvgRespTime,Txn_TM_AvgRespTime,Txn_HICHB_Total,Txn_PISP_SlowPercentage,Txn_TM_SlowPercentage,Txn_PISP_AvgRespTime,Txn_HPBP_SlowPercentage,Txn_LOGOUT_SlowPercentage,Txn_LOGOUT_AvgRespTime,Txn_LOGIN_SlowPercentage,Txn_LOGIN_AvgRespTime,Txn_HUPM_SlowPercentage,Txn_HUPM_AvgRespTime,Txn_HDTPRPT_AvgRespTime,Txn_HDTPRPT_SlowPercentage,Txn_HPORDM_SlowPercentage,Txn_HPBP_AvgRespTime,Txn_HDDMI_SlowPercentage","1.000,1.000,0.756,0.756,0.756,0.756,0.000,0.000,0.000,-0.756,-0.756,-0.756,-0.756,-0.756,-0.756,-0.756","1.000,1.000,1.000,1.000,1.000,0.961,0.000,0.000,0.000,0.000,0.000,0.000,0.000,-0.756,-0.756,-0.756,-0.756,-0.756,-0.756,-0.756,-0.756,-0.756,-0.756,-0.756"
